logMh | fpID | subhaloID | main leaf ID | z
9.08578 60000021600000107 60000021600000106 60000021600000109 11.4973879548
9.1573 60000021600000106 60000021600000105 60000021600000109 10.9190331982
9.18802 60000021600000105 60000021600000104 60000021600000109 10.3674435724
9.2026 60000021600000104 60000021600000103 60000021600000109 9.99659046619
9.45145 60000021600000103 60000021600000101 60000021600000109 9.38877127194
9.52462 60000021600000101 60000021600000098 60000021600000109 8.44947629437
10.1718 60000021600000098 60000021600000096 60000021600000109 7.59510714987
10.1773 60000021600000096 60000021600000094 60000021600000109 7.00541704554
10.2683 60000021600000094 60000021600000093 60000021600000109 6.85511726265
10.3954 60000021600000093 60000021600000092 60000021600000109 6.49159774567
10.4328 60000021600000092 60000021600000091 60000021600000109 6.14490120342
10.4509 60000021600000091 60000021600000090 60000021600000109 6.01075739884
10.4707 60000021600000090 60000021600000089 60000021600000109 5.84661374788
10.5487 60000021600000089 60000021600000088 60000021600000109 5.52976580795
10.6027 60000021600000088 60000021600000087 60000021600000109 5.22758097313
10.6272 60000021600000087 60000021600000086 60000021600000109 4.99593346816
10.6522 60000021600000086 60000021600000085 60000021600000109 4.93938066349
10.7202 60000021600000085 60000021600000084 60000021600000109 4.66451770247
10.7681 60000021600000084 60000021600000083 60000021600000109 4.42803373661
10.8029 60000021600000083 60000021600000082 60000021600000109 4.17683491473
10.8662 60000021600000082 60000021600000081 60000021600000109 4.00794511147
10.8841 60000021600000081 60000021600000080 60000021600000109 3.93726108473
10.9358 60000021600000080 60000021600000079 60000021600000109 3.70877426464
11.0431 60000021600000079 60000021600000078 60000021600000109 3.49086136926
11.1266 60000021600000078 60000021600000077 60000021600000109 3.28303305796
11.3598 60000021600000077 60000021600000076 60000021600000109 3.08482263583
11.4078 60000021600000076 60000021600000075 60000021600000109 3.00813107163
11.4391 60000021600000075 60000021600000074 60000021600000109 2.89578500573
11.4971 60000021600000074 60000021600000073 60000021600000109 2.73314261732
11.5926 60000021600000073 60000021600000072 60000021600000109 2.5772902716
11.6229 60000021600000072 60000021600000071 60000021600000109 2.44422570455
11.6559 60000021600000071 60000021600000070 60000021600000109 2.31611074396
11.6562 60000021600000070 60000021600000069 60000021600000109 2.20792547238
11.6938 60000021600000069 60000021600000068 60000021600000109 2.1032696526
11.7133 60000021600000068 60000021600000067 60000021600000109 2.00202813925
11.7416 60000021600000067 60000021600000066 60000021600000109 1.90408954353
11.7613 60000021600000066 60000021600000065 60000021600000109 1.82268925262
11.7711 60000021600000065 60000021600000064 60000021600000109 1.74357057433
11.7906 60000021600000064 60000021600000063 60000021600000109 1.66666955611
11.8239 60000021600000063 60000021600000062 60000021600000109 1.60423452207
11.8507 60000021600000062 60000021600000061 60000021600000109 1.53123902916
11.8706 60000021600000061 60000021600000060 60000021600000109 1.47197484527
11.8939 60000021600000060 60000021600000059 60000021600000109 1.41409822037
11.9157 60000021600000059 60000021600000058 60000021600000109 1.3575766674
11.9342 60000021600000058 60000021600000057 60000021600000109 1.30237845991
11.9587 60000021600000057 60000021600000056 60000021600000109 1.24847261425
11.969 60000021600000056 60000021600000055 60000021600000109 1.20625808078
11.9882 60000021600000055 60000021600000054 60000021600000109 1.15460271236
12.0061 60000021600000054 60000021600000053 60000021600000109 1.11415056377
12.0125 60000021600000053 60000021600000052 60000021600000109 1.07445789455
12.0143 60000021600000052 60000021600000051 60000021600000109 1.03551044566
12.0308 60000021600000051 60000021600000050 60000021600000109 0.997294225782
12.033 60000021600000050 60000021600000049 60000021600000109 0.987852810816
12.0469 60000021600000049 60000021600000048 60000021600000109 0.950531351585
12.0491 60000021600000048 60000021600000047 60000021600000109 0.923000816178
12.051 60000021600000047 60000021600000046 60000021600000109 0.886896937575
12.0514 60000021600000046 60000021600000045 60000021600000109 0.851470900625
12.0541 60000021600000045 60000021600000044 60000021600000109 0.816709979012
12.0572 60000021600000044 60000021600000039 60000021600000109 0.676110411213
12.0632 60000021600000039 60000021600000038 60000021600000109 0.644641840685
12.0724 60000021600000038 60000021600000037 60000021600000109 0.621428745243
12.0799 60000021600000037 60000021600000036 60000021600000109 0.598543288188
12.0863 60000021600000036 60000021600000034 60000021600000109 0.546392183141
12.095 60000021600000034 60000021600000033 60000021600000109 0.524565820434
12.1047 60000021600000033 60000021600000032 60000021600000109 0.503047523245
12.1159 60000021600000032 60000021600000031 60000021600000109 0.481832943421
12.1221 60000021600000031 60000021600000030 60000021600000109 0.460917794181
12.1317 60000021600000030 60000021600000029 60000021600000109 0.440297849248
12.1415 60000021600000029 60000021600000028 60000021600000109 0.419968941997
12.1475 60000021600000028 60000021600000027 60000021600000109 0.399926964614
12.1513 60000021600000027 60000021600000026 60000021600000109 0.38016786726
12.177 60000021600000026 60000021600000025 60000021600000109 0.360687657262
12.1805 60000021600000025 60000021600000024 60000021600000109 0.347853841858
12.195 60000021600000024 60000021600000023 60000021600000109 0.328829724206
12.1988 60000021600000023 60000021600000022 60000021600000109 0.310074120128
12.2061 60000021600000022 60000021600000021 60000021600000109 0.291583239722
12.2227 60000021600000021 60000021600000020 60000021600000109 0.273353346578
12.2277 60000021600000020 60000021600000018 60000021600000109 0.243540181555
12.2406 60000021600000018 60000021600000014 60000021600000109 0.180385261706
12.2511 60000021600000014 60000021600000013 60000021600000109 0.169252033244
12.261 60000021600000013 60000021600000012 60000021600000109 0.152748768902
12.2662 60000021600000012 60000021600000011 60000021600000109 0.14187620397
12.2762 60000021600000011 60000021600000010 60000021600000109 0.125759332411
12.2848 60000021600000010 60000021600000009 60000021600000109 0.109869940459
12.3011 60000021600000009 60000021600000008 60000021600000109 0.0994018026302
12.3116 60000021600000008 60000021600000007 60000021600000109 0.0838844307975
12.3176 60000021600000007 60000021600000006 60000021600000109 0.0736613846564
12.3244 60000021600000006 60000021600000005 60000021600000109 0.0585073227945
12.3335 60000021600000005 60000021600000004 60000021600000109 0.0485236299818
12.3534 60000021600000004 60000021600000003 60000021600000109 0.0337243718735
12.3677 60000021600000003 60000021600000002 60000021600000109 0.0239744283828
12.3786 60000021600000002 60000021600000001 60000021600000109 0.00952166696794
12.3911 60000021600000001 60000021600000000 60000021600000109 2.22044604925e-16
9.07216 60000021600000142 60000021600000141 60000021600000144 11.4973879548
9.15502 60000021600000141 60000021600000140 60000021600000144 10.9190331982
9.21472 60000021600000140 60000021600000138 60000021600000144 9.99659046619
9.40001 60000021600000138 60000021600000137 60000021600000144 9.84138043947
9.07216 60000021600000157 60000021600000156 60000021600000161 10.3674435724
9.2672 60000021600000156 60000021600000155 60000021600000161 9.99659046619
9.30923 60000021600000155 60000021600000154 60000021600000161 9.84138043947
10.0322 60000021600000154 60000021600000152 60000021600000161 9.00233985416
10.1663 60000021600000152 60000021600000149 60000021600000161 8.01217294887
9.35338 60000021600000220 60000021600000219 60000021600000223 10.9190331982
9.43856 60000021600000219 60000021600000218 60000021600000223 10.3674435724
9.48692 60000021600000218 60000021600000217 60000021600000223 9.99659046619
9.14108 60000021600000241 60000021600000240 60000021600000250 7.00541704554
9.15273 60000021600000278 60000021600000277 60000021600000283 9.38877127194
9.44681 60000021600000277 60000021600000273 60000021600000283 8.01217294887
9.51575 60000021600000273 60000021600000271 60000021600000283 7.23627606617
9.60946 60000021600000271 60000021600000268 60000021600000283 6.49159774567
9.61106 60000021600000268 60000021600000267 60000021600000283 6.14490120342
9.6329 60000021600000267 60000021600000266 60000021600000283 6.01075739884
9.04653 60000021600000368 60000021600000367 60000021600000373 7.23627606617
9.06939 60000021600000445 60000021600000444 60000021600000450 9.38877127194
9.1663 60000021600000444 60000021600000443 60000021600000450 9.00233985416
9.24548 60000021600000443 60000021600000440 60000021600000450 8.01217294887
9.40774 60000021600000440 60000021600000438 60000021600000450 7.23627606617
9.49116 60000021600000438 60000021600000436 60000021600000450 6.85511726265
9.63518 60000021600000436 60000021600000435 60000021600000450 6.49159774567
9.97973 60000021600000435 60000021600000434 60000021600000450 6.14490120342
10.0663 60000021600000434 60000021600000433 60000021600000450 6.01075739884
10.0697 60000021600000433 60000021600000432 60000021600000450 5.84661374788
10.0844 60000021600000432 60000021600000430 60000021600000450 5.22758097313
10.0964 60000021600000430 60000021600000429 60000021600000450 4.99593346816
9.02548 60000021600000495 60000021600000494 60000021600000499 9.99659046619
9.11431 60000021600000494 60000021600000493 60000021600000499 9.84138043947
9.13394 60000021600000493 60000021600000489 60000021600000499 8.44947629437
9.24362 60000021600000489 60000021600000488 60000021600000499 8.01217294887
9.2845 60000021600000488 60000021600000487 60000021600000499 7.59510714987
9.32187 60000021600000487 60000021600000486 60000021600000499 7.23627606617
9.39346 60000021600000486 60000021600000485 60000021600000499 7.00541704554
9.42157 60000021600000485 60000021600000484 60000021600000499 6.85511726265
9.01298 60000021600000508 60000021600000507 60000021600000517 8.01217294887
9.06096 60000021600000507 60000021600000506 60000021600000517 7.59510714987
9.12912 60000021600000506 60000021600000505 60000021600000517 7.23627606617
9.19223 60000021600000505 60000021600000504 60000021600000517 7.00541704554
9.01928 60000021600000528 60000021600000527 60000021600000537 4.00794511147
9.00012 60000021600000573 60000021600000572 60000021600000581 4.99593346816
9.00012 60000021600000572 60000021600000571 60000021600000581 4.93938066349
9.10415 60000021600000571 60000021600000570 60000021600000581 4.66451770247
9.1663 60000021600000570 60000021600000569 60000021600000581 4.42803373661
9.22845 60000021600000569 60000021600000567 60000021600000581 4.00794511147
9.22845 60000021600000567 60000021600000566 60000021600000581 3.93726108473
9.26187 60000021600000566 60000021600000565 60000021600000581 3.70877426464
9.19013 60000021600000798 60000021600000797 60000021600000808 7.00541704554
9.2361 60000021600000797 60000021600000787 60000021600000808 4.66451770247
9.30278 60000021600000787 60000021600000786 60000021600000808 4.42803373661
9.36622 60000021600000786 60000021600000782 60000021600000808 3.70877426464
9.06096 60000021600000925 60000021600000924 60000021600000932 8.01217294887
9.19848 60000021600000924 60000021600000923 60000021600000932 7.59510714987
9.46397 60000021600000923 60000021600000922 60000021600000932 7.23627606617
9.58383 60000021600000922 60000021600000918 60000021600000932 6.14490120342
9.64119 60000021600000918 60000021600000917 60000021600000932 6.01075739884
9.66725 60000021600000917 60000021600000916 60000021600000932 5.84661374788
9.80106 60000021600000916 60000021600000915 60000021600000932 5.52976580795
9.91369 60000021600000915 60000021600000914 60000021600000932 5.22758097313
9.99021 60000021600000914 60000021600000913 60000021600000932 4.99593346816
10.0218 60000021600000913 60000021600000911 60000021600000932 4.66451770247
10.0486 60000021600000911 60000021600000910 60000021600000932 4.42803373661
10.0555 60000021600000910 60000021600000909 60000021600000932 4.17683491473
10.0782 60000021600000909 60000021600000908 60000021600000932 4.00794511147
10.1059 60000021600000908 60000021600000907 60000021600000932 3.93726108473
10.1674 60000021600000907 60000021600000905 60000021600000932 3.49086136926
9.05811 60000021600000966 60000021600000965 60000021600000967 7.59510714987
9.0666 60000021600000965 60000021600000964 60000021600000967 7.23627606617
9.09375 60000021600000964 60000021600000963 60000021600000967 7.00541704554
9.12668 60000021600000963 60000021600000961 60000021600000967 6.49159774567
9.19848 60000021600000961 60000021600000960 60000021600000967 6.14490120342
9.21272 60000021600000960 60000021600000958 60000021600000967 5.84661374788
9.04062 60000021600001002 60000021600001001 60000021600001007 7.23627606617
9.13394 60000021600001001 60000021600001000 60000021600001007 7.00541704554
9.19848 60000021600001000 60000021600000998 60000021600001007 6.49159774567
9.33866 60000021600000998 60000021600000997 60000021600001007 6.14490120342
9.36902 60000021600000997 60000021600000996 60000021600001007 6.01075739884
9.41029 60000021600000996 60000021600000995 60000021600001007 5.84661374788
9.44564 60000021600000995 60000021600000994 60000021600001007 5.52976580795
9.45946 60000021600000994 60000021600000993 60000021600001007 5.22758097313
9.46397 60000021600000993 60000021600000992 60000021600001007 4.99593346816
9.49536 60000021600000992 60000021600000991 60000021600001007 4.93938066349
9.64638 60000021600000991 60000021600000990 60000021600001007 4.66451770247
9.66866 60000021600000990 60000021600000989 60000021600001007 4.17683491473
9.01928 60000021600001077 60000021600001076 60000021600001084 7.23627606617
9.02548 60000021600001076 60000021600001074 60000021600001084 6.85511726265
9.08845 60000021600001074 60000021600001073 60000021600001084 6.49159774567
9.13154 60000021600001073 60000021600001072 60000021600001084 6.14490120342
9.14811 60000021600001072 60000021600001070 60000021600001084 5.84661374788
9.37869 60000021600001070 60000021600001068 60000021600001084 5.22758097313
9.5256 60000021600001068 60000021600001067 60000021600001084 4.99593346816
9.58213 60000021600001067 60000021600001066 60000021600001084 4.93938066349
9.62985 60000021600001066 60000021600001064 60000021600001084 4.42803373661
9.08578 60000021600001087 60000021600001086 60000021600001096 5.52976580795
9.25466 60000021600001124 60000021600001123 60000021600001133 5.22758097313
9.33566 60000021600001123 60000021600001120 60000021600001133 4.66451770247
9.38815 60000021600001120 60000021600001119 60000021600001133 4.42803373661
9.02548 60000021600001158 60000021600001157 60000021600001167 6.49159774567
9.0666 60000021600001157 60000021600001155 60000021600001167 6.01075739884
9.08309 60000021600001155 60000021600001154 60000021600001167 5.84661374788
9.13154 60000021600001154 60000021600001153 60000021600001167 5.52976580795
9.04062 60000021600001360 60000021600001359 60000021600001367 6.14490120342
9.07492 60000021600001359 60000021600001358 60000021600001367 6.01075739884
9.19223 60000021600001358 60000021600001357 60000021600001367 5.84661374788
9.20464 60000021600001357 60000021600001356 60000021600001367 5.52976580795
9.26543 60000021600001356 60000021600001355 60000021600001367 5.22758097313
9.2672 60000021600001355 60000021600001354 60000021600001367 4.99593346816
9.37319 60000021600001354 60000021600001352 60000021600001367 4.66451770247
9.39346 60000021600001352 60000021600001351 60000021600001367 4.42803373661
9.44447 60000021600001351 60000021600001350 60000021600001367 4.17683491473
9.0316 60000021600001381 60000021600001380 60000021600001393 4.17683491473
9.08309 60000021600001380 60000021600001375 60000021600001393 3.28303305796
9.10671 60000021600001375 60000021600001374 60000021600001393 3.08482263583
9.18376 60000021600001481 60000021600001480 60000021600001487 6.85511726265
9.24548 60000021600001480 60000021600001479 60000021600001487 6.49159774567
9.27072 60000021600001479 60000021600001478 60000021600001487 6.14490120342
9.36622 60000021600001478 60000021600001477 60000021600001487 6.01075739884
9.39081 60000021600001477 60000021600001476 60000021600001487 5.84661374788
9.43257 60000021600001476 60000021600001475 60000021600001487 5.52976580795
9.4549 60000021600001475 60000021600001472 60000021600001487 4.93938066349
9.56823 60000021600001472 60000021600001469 60000021600001487 4.17683491473
9.09637 60000021600001490 60000021600001489 60000021600001490 7.23627606617
9.05524 60000021600001574 60000021600001573 60000021600001578 13.3382482898
9.20055 60000021600001573 60000021600001572 60000021600001578 12.6747021048
9.27246 60000021600001572 60000021600001571 60000021600001578 12.0418635439
9.3634 60000021600001571 60000021600001570 60000021600001578 11.4973879548
9.4651 60000021600001570 60000021600001569 60000021600001578 10.9190331982
9.49116 60000021600001569 60000021600001568 60000021600001578 10.3674435724
9.53996 60000021600001568 60000021600001567 60000021600001578 9.99659046619
9.56557 60000021600001567 60000021600001566 60000021600001578 9.84138043947
9.59143 60000021600001566 60000021600001565 60000021600001578 9.38877127194
9.71825 60000021600001565 60000021600001564 60000021600001578 9.00233985416
9.77224 60000021600001564 60000021600001563 60000021600001578 8.9079991856
9.91766 60000021600001563 60000021600001562 60000021600001578 8.44947629437
10.0409 60000021600001562 60000021600001561 60000021600001578 8.01217294887
10.1788 60000021600001561 60000021600001560 60000021600001578 7.23627606617
10.2294 60000021600001560 60000021600001559 60000021600001578 7.00541704554
10.2691 60000021600001559 60000021600001558 60000021600001578 6.85511726265
10.3765 60000021600001558 60000021600001557 60000021600001578 6.49159774567
10.4077 60000021600001557 60000021600001556 60000021600001578 6.14490120342
10.4131 60000021600001556 60000021600001555 60000021600001578 6.01075739884
10.4773 60000021600001555 60000021600001554 60000021600001578 5.84661374788
10.5096 60000021600001554 60000021600001553 60000021600001578 5.52976580795
10.5832 60000021600001553 60000021600001552 60000021600001578 5.22758097313
10.6614 60000021600001552 60000021600001551 60000021600001578 4.99593346816
10.6617 60000021600001551 60000021600001550 60000021600001578 4.93938066349
10.7267 60000021600001550 60000021600001549 60000021600001578 4.66451770247
10.7326 60000021600001549 60000021600001548 60000021600001578 4.42803373661
10.7452 60000021600001548 60000021600001547 60000021600001578 4.17683491473
10.7759 60000021600001547 60000021600001546 60000021600001578 4.00794511147
10.8318 60000021600001546 60000021600001545 60000021600001578 3.93726108473
10.8565 60000021600001545 60000021600001543 60000021600001578 3.49086136926
10.8819 60000021600001543 60000021600001542 60000021600001578 3.28303305796
9.15956 60000021600001584 60000021600001583 60000021600001586 9.00233985416
9.27594 60000021600001614 60000021600001613 60000021600001616 9.99659046619
9.30763 60000021600001613 60000021600001612 60000021600001616 9.84138043947
9.35914 60000021600001612 60000021600001611 60000021600001616 9.38877127194
9.09898 60000021600001629 60000021600001628 60000021600001632 8.44947629437
9.17512 60000021600001628 60000021600001623 60000021600001632 6.85511726265
9.0666 60000021600001666 60000021600001665 60000021600001673 7.59510714987
9.09375 60000021600001665 60000021600001664 60000021600001673 7.23627606617
9.12424 60000021600001664 60000021600001663 60000021600001673 7.00541704554
9.0066 60000021600001730 60000021600001729 60000021600001737 6.85511726265
9.01928 60000021600001729 60000021600001728 60000021600001737 6.49159774567
9.01928 60000021600001728 60000021600001725 60000021600001737 5.84661374788
9.01928 60000021600001725 60000021600001724 60000021600001737 5.52976580795
9.07492 60000021600001724 60000021600001723 60000021600001737 5.22758097313
9.02855 60000021600001862 60000021600001861 60000021600001869 5.84661374788
9.03763 60000021600001861 60000021600001860 60000021600001869 5.52976580795
9.19013 60000021600001860 60000021600001859 60000021600001869 5.22758097313
9.29951 60000021600002093 60000021600002092 60000021600002099 8.01217294887
9.47396 60000021600002092 60000021600002090 60000021600002099 7.23627606617
9.57956 60000021600002090 60000021600002089 60000021600002099 7.00541704554
9.60705 60000021600002089 60000021600002088 60000021600002099 6.85511726265
9.70363 60000021600002088 60000021600002087 60000021600002099 6.49159774567
9.74137 60000021600002087 60000021600002086 60000021600002099 6.14490120342
9.80721 60000021600002086 60000021600002085 60000021600002099 6.01075739884
9.92509 60000021600002085 60000021600002083 60000021600002099 5.52976580795
9.95905 60000021600002083 60000021600002082 60000021600002099 5.22758097313
10.1198 60000021600002082 60000021600002081 60000021600002099 4.99593346816
10.1354 60000021600002081 60000021600002080 60000021600002099 4.93938066349
10.2284 60000021600002080 60000021600002079 60000021600002099 4.66451770247
10.2603 60000021600002079 60000021600002078 60000021600002099 4.42803373661
10.3452 60000021600002078 60000021600002077 60000021600002099 4.17683491473
10.3587 60000021600002077 60000021600002075 60000021600002099 3.93726108473
9.00012 60000021600002174 60000021600002173 60000021600002176 6.85511726265
9.05811 60000021600002173 60000021600002172 60000021600002176 6.49159774567
9.07766 60000021600002172 60000021600002170 60000021600002176 6.01075739884
9.1573 60000021600002170 60000021600002169 60000021600002176 5.84661374788
9.13154 60000021600002226 60000021600002225 60000021600002229 9.00233985416
9.17512 60000021600002225 60000021600002224 60000021600002229 8.9079991856
9.35338 60000021600002224 60000021600002223 60000021600002229 8.44947629437
9.38141 60000021600002223 60000021600002222 60000021600002229 8.01217294887
9.5566 60000021600002222 60000021600002221 60000021600002229 7.59510714987
9.59143 60000021600002221 60000021600002220 60000021600002229 7.23627606617
9.66017 60000021600002220 60000021600002219 60000021600002229 7.00541704554
9.67214 60000021600002219 60000021600002218 60000021600002229 6.85511726265
9.84334 60000021600002218 60000021600002217 60000021600002229 6.49159774567
9.93126 60000021600002217 60000021600002216 60000021600002229 6.14490120342
9.9975 60000021600002216 60000021600002215 60000021600002229 6.01075739884
10.0155 60000021600002215 60000021600002214 60000021600002229 5.84661374788
10.0584 60000021600002214 60000021600002213 60000021600002229 5.52976580795
10.0686 60000021600002213 60000021600002212 60000021600002229 5.22758097313
10.1018 60000021600002212 60000021600002211 60000021600002229 4.99593346816
10.1218 60000021600002211 60000021600002210 60000021600002229 4.93938066349
10.1311 60000021600002210 60000021600002208 60000021600002229 4.42803373661
10.2818 60000021600002208 60000021600002203 60000021600002229 3.49086136926
9.01928 60000021600002252 60000021600002251 60000021600002260 7.59510714987
9.03463 60000021600002251 60000021600002250 60000021600002260 7.23627606617
9.05811 60000021600002250 60000021600002249 60000021600002260 7.00541704554
9.00012 60000021600002497 60000021600002496 60000021600002501 6.49159774567
9.00012 60000021600002496 60000021600002495 60000021600002501 6.14490120342
9.07766 60000021600002495 60000021600002494 60000021600002501 6.01075739884
9.11681 60000021600002494 60000021600002492 60000021600002501 5.52976580795
9.18589 60000021600002492 60000021600002491 60000021600002501 5.22758097313
9.20668 60000021600002491 60000021600002490 60000021600002501 4.99593346816
9.20668 60000021600002490 60000021600002489 60000021600002501 4.93938066349
9.3044 60000021600002489 60000021600002488 60000021600002501 4.66451770247
9.38005 60000021600002488 60000021600002487 60000021600002501 4.42803373661
9.06096 60000021600002530 60000021600002529 60000021600002539 5.52976580795
9.11431 60000021600002529 60000021600002527 60000021600002539 4.99593346816
9.15956 60000021600002527 60000021600002526 60000021600002539 4.93938066349
9.15956 60000021600002526 60000021600002525 60000021600002539 4.66451770247
9.18376 60000021600002525 60000021600002524 60000021600002539 4.42803373661
9.18589 60000021600002524 60000021600002521 60000021600002539 3.93726108473
9.00337 60000021600002563 60000021600002562 60000021600002570 4.42803373661
9.02548 60000021600002562 60000021600002561 60000021600002570 4.17683491473
9.06096 60000021600002561 60000021600002560 60000021600002570 4.00794511147
9.08309 60000021600002560 60000021600002559 60000021600002570 3.93726108473
9.02239 60000021600002750 60000021600002749 60000021600002765 2.89578500573
9.06939 60000021600002749 60000021600002748 60000021600002765 2.73314261732
9.19013 60000021600002748 60000021600002747 60000021600002765 2.5772902716
9.04358 60000021600002869 60000021600002868 60000021600002883 5.52976580795
9.04945 60000021600002868 60000021600002866 60000021600002883 4.99593346816
9.07216 60000021600002866 60000021600002865 60000021600002883 4.93938066349
9.09111 60000021600002865 60000021600002864 60000021600002883 4.66451770247
9.19848 60000021600002864 60000021600002862 60000021600002883 4.17683491473
9.29787 60000021600002862 60000021600002861 60000021600002883 4.00794511147
9.01614 60000021600002960 60000021600002959 60000021600002986 2.89578500573
9.04358 60000021600003011 60000021600003010 60000021600003016 4.00794511147
9.05811 60000021600003010 60000021600003008 60000021600003016 3.70877426464
9.21072 60000021600003186 60000021600003185 60000021600003192 8.9079991856
9.37042 60000021600003185 60000021600003181 60000021600003192 7.23627606617
9.38681 60000021600003181 60000021600003180 60000021600003192 7.00541704554
9.41029 60000021600003180 60000021600003179 60000021600003192 6.85511726265
9.47066 60000021600003179 60000021600003178 60000021600003192 6.49159774567
9.48586 60000021600003178 60000021600003177 60000021600003192 6.14490120342
9.49326 60000021600003177 60000021600003176 60000021600003192 6.01075739884
9.56735 60000021600003176 60000021600003175 60000021600003192 5.84661374788
9.61266 60000021600003175 60000021600003170 60000021600003192 4.66451770247
9.65078 60000021600003170 60000021600003169 60000021600003192 4.42803373661
9.68176 60000021600003169 60000021600003168 60000021600003192 4.17683491473
9.68784 60000021600003168 60000021600003166 60000021600003192 3.93726108473
9.72874 60000021600003166 60000021600003164 60000021600003192 3.49086136926
9.0316 60000021600003195 60000021600003194 60000021600003201 8.01217294887
9.26365 60000021600003194 60000021600003193 60000021600003201 7.59510714987
9.03463 60000021600003339 60000021600003338 60000021600003356 3.93726108473
9.0666 60000021600003338 60000021600003337 60000021600003356 3.70877426464
9.0666 60000021600003337 60000021600003335 60000021600003356 3.28303305796
9.12424 60000021600003335 60000021600003334 60000021600003356 3.08482263583
9.01614 60000021600003379 60000021600003378 60000021600003394 3.08482263583
9.03463 60000021600003575 60000021600003574 60000021600003602 1.41409822037
9.00337 60000021600003798 60000021600003797 60000021600003807 4.17683491473
9.01614 60000021600003797 60000021600003795 60000021600003807 3.93726108473
9.08309 60000021600003795 60000021600003793 60000021600003807 3.49086136926
9.02548 60000021600003854 60000021600003853 60000021600003864 6.14490120342
9.08578 60000021600003853 60000021600003852 60000021600003864 6.01075739884
9.15502 60000021600003852 60000021600003851 60000021600003864 5.84661374788
9.29951 60000021600003851 60000021600003849 60000021600003864 5.22758097313
9.32031 60000021600003849 60000021600003840 60000021600003864 3.49086136926
9.34016 60000021600003840 60000021600003838 60000021600003864 3.08482263583
9.34165 60000021600003838 60000021600003837 60000021600003864 3.00813107163
9.35771 60000021600003837 60000021600003836 60000021600003864 2.89578500573
9.36056 60000021600003836 60000021600003835 60000021600003864 2.73314261732
9.19433 60000021600003992 60000021600003991 60000021600003998 6.14490120342
9.2087 60000021600003991 60000021600003990 60000021600003998 6.01075739884
9.3156 60000021600003990 60000021600003989 60000021600003998 5.84661374788
9.34313 60000021600003989 60000021600003988 60000021600003998 5.52976580795
9.37042 60000021600003988 60000021600003987 60000021600003998 5.22758097313
9.41909 60000021600003987 60000021600003986 60000021600003998 4.99593346816
9.48049 60000021600003986 60000021600003985 60000021600003998 4.93938066349
9.53236 60000021600003985 60000021600003984 60000021600003998 4.66451770247
9.58041 60000021600003984 60000021600003983 60000021600003998 4.42803373661
9.64564 60000021600003983 60000021600003982 60000021600003998 4.17683491473
9.64932 60000021600003982 60000021600003981 60000021600003998 4.00794511147
9.67005 60000021600003981 60000021600003980 60000021600003998 3.93726108473
9.68176 60000021600003980 60000021600003979 60000021600003998 3.70877426464
9.72445 60000021600003979 60000021600003978 60000021600003998 3.49086136926
9.01298 60000021600004214 60000021600004213 60000021600004220 7.23627606617
9.41408 60000021600004213 60000021600004210 60000021600004220 6.49159774567
9.45376 60000021600004210 60000021600004209 60000021600004220 6.14490120342
9.49221 60000021600004209 60000021600004208 60000021600004220 6.01075739884
9.54744 60000021600004208 60000021600004206 60000021600004220 5.52976580795
9.62212 60000021600004206 60000021600004205 60000021600004220 5.22758097313
9.65586 60000021600004205 60000021600004202 60000021600004220 4.66451770247
9.749 60000021600004202 60000021600004201 60000021600004220 4.42803373661
9.80415 60000021600004201 60000021600004200 60000021600004220 4.17683491473
9.85307 60000021600004200 60000021600004199 60000021600004220 4.00794511147
9.89036 60000021600004199 60000021600004197 60000021600004220 3.70877426464
9.89371 60000021600004197 60000021600004196 60000021600004220 3.49086136926
9.91209 60000021600004196 60000021600004195 60000021600004220 3.28303305796
9.93088 60000021600004195 60000021600004194 60000021600004220 3.08482263583
9.93507 60000021600004194 60000021600004193 60000021600004220 3.00813107163
9.06096 60000021600004228 60000021600004227 60000021600004237 7.00541704554
9.08578 60000021600004227 60000021600004226 60000021600004237 6.85511726265
9.07216 60000021600004262 60000021600004261 60000021600004268 6.14490120342
9.07216 60000021600004261 60000021600004260 60000021600004268 6.01075739884
9.08309 60000021600004260 60000021600004259 60000021600004268 5.84661374788
9.09898 60000021600004259 60000021600004258 60000021600004268 5.52976580795
9.02855 60000021600004402 60000021600004401 60000021600004414 3.70877426464
9.05235 60000021600004401 60000021600004400 60000021600004414 3.49086136926
9.13154 60000021600004400 60000021600004399 60000021600004414 3.28303305796
9.14578 60000021600004399 60000021600004398 60000021600004414 3.08482263583
9.14578 60000021600004398 60000021600004397 60000021600004414 3.00813107163
9.15956 60000021600004397 60000021600004396 60000021600004414 2.89578500573
9.16407 60000021600004396 60000021600004395 60000021600004414 2.73314261732
9.17512 60000021600004395 60000021600004393 60000021600004414 2.44422570455
9.02239 60000021600004459 60000021600004458 60000021600004476 3.49086136926
9.00012 60000021600004651 60000021600004650 60000021600004656 9.38877127194
9.08038 60000021600004650 60000021600004647 60000021600004656 8.44947629437
9.17512 60000021600004647 60000021600004646 60000021600004656 8.01217294887
9.26187 60000021600004646 60000021600004645 60000021600004656 7.59510714987
9.33566 60000021600004645 60000021600004644 60000021600004656 7.23627606617
9.44329 60000021600004644 60000021600004643 60000021600004656 7.00541704554
9.68312 60000021600004643 60000021600004641 60000021600004656 6.49159774567
9.91726 60000021600004641 60000021600004640 60000021600004656 6.14490120342
9.99088 60000021600004640 60000021600004639 60000021600004656 6.01075739884
10.0346 60000021600004639 60000021600004638 60000021600004656 5.84661374788
10.1867 60000021600004638 60000021600004637 60000021600004656 5.52976580795
10.2677 60000021600004637 60000021600004636 60000021600004656 5.22758097313
10.3134 60000021600004636 60000021600004635 60000021600004656 4.99593346816
10.3281 60000021600004635 60000021600004634 60000021600004656 4.93938066349
10.343 60000021600004634 60000021600004633 60000021600004656 4.66451770247
10.3729 60000021600004633 60000021600004631 60000021600004656 4.17683491473
10.402 60000021600004631 60000021600004630 60000021600004656 4.00794511147
10.4591 60000021600004630 60000021600004628 60000021600004656 3.70877426464
10.5115 60000021600004628 60000021600004627 60000021600004656 3.49086136926
10.5853 60000021600004627 60000021600004626 60000021600004656 3.28303305796
10.6413 60000021600004626 60000021600004625 60000021600004656 3.08482263583
10.6545 60000021600004625 60000021600004624 60000021600004656 3.00813107163
10.6699 60000021600004624 60000021600004623 60000021600004656 2.89578500573
10.7207 60000021600004623 60000021600004622 60000021600004656 2.73314261732
10.7459 60000021600004622 60000021600004620 60000021600004656 2.44422570455
9.03463 60000021600004660 60000021600004659 60000021600004664 7.23627606617
9.14108 60000021600004681 60000021600004680 60000021600004687 8.44947629437
9.21272 60000021600004680 60000021600004679 60000021600004687 8.01217294887
9.33415 60000021600004679 60000021600004678 60000021600004687 7.59510714987
9.36902 60000021600004678 60000021600004677 60000021600004687 7.23627606617
9.42527 60000021600004677 60000021600004676 60000021600004687 7.00541704554
9.43617 60000021600004676 60000021600004675 60000021600004687 6.85511726265
9.1193 60000021600004724 60000021600004723 60000021600004728 7.23627606617
9.01614 60000021600004754 60000021600004753 60000021600004760 6.85511726265
9.22262 60000021600004753 60000021600004752 60000021600004760 6.49159774567
9.24918 60000021600004752 60000021600004748 60000021600004760 5.52976580795
9.2862 60000021600004748 60000021600004746 60000021600004760 4.99593346816
9.2929 60000021600004746 60000021600004745 60000021600004760 4.93938066349
9.04062 60000021600004774 60000021600004773 60000021600004781 7.23627606617
9.1573 60000021600004773 60000021600004772 60000021600004781 7.00541704554
9.19641 60000021600004772 60000021600004771 60000021600004781 6.85511726265
9.25466 60000021600004771 60000021600004770 60000021600004781 6.49159774567
9.0066 60000021600004870 60000021600004869 60000021600004876 6.49159774567
9.0316 60000021600004869 60000021600004868 60000021600004876 6.14490120342
9.03763 60000021600004868 60000021600004866 60000021600004876 5.84661374788
9.12912 60000021600004866 60000021600004865 60000021600004876 5.52976580795
9.25101 60000021600004865 60000021600004864 60000021600004876 5.22758097313
9.28956 60000021600004864 60000021600004863 60000021600004876 4.99593346816
9.29951 60000021600004863 60000021600004862 60000021600004876 4.93938066349
9.47176 60000021600004862 60000021600004861 60000021600004876 4.66451770247
9.49011 60000021600004861 60000021600004860 60000021600004876 4.42803373661
9.04653 60000021600005019 60000021600005018 60000021600005023 9.99659046619
9.05524 60000021600005018 60000021600005017 60000021600005023 9.84138043947
9.12424 60000021600005017 60000021600005016 60000021600005023 9.38877127194
9.21671 60000021600005016 60000021600005015 60000021600005023 9.00233985416
9.28956 60000021600005015 60000021600005013 60000021600005023 8.44947629437
9.40389 60000021600005013 60000021600005012 60000021600005023 8.01217294887
9.49536 60000021600005012 60000021600005011 60000021600005023 7.59510714987
9.57349 60000021600005011 60000021600005010 60000021600005023 7.23627606617
9.63593 60000021600005010 60000021600005009 60000021600005023 7.00541704554
9.67698 60000021600005009 60000021600005007 60000021600005023 6.49159774567
9.73899 60000021600005007 60000021600005006 60000021600005023 6.14490120342
9.79324 60000021600005006 60000021600005005 60000021600005023 6.01075739884
9.80517 60000021600005005 60000021600005004 60000021600005023 5.84661374788
9.86214 60000021600005004 60000021600005003 60000021600005023 5.52976580795
10.0043 60000021600005003 60000021600005002 60000021600005023 5.22758097313
10.0852 60000021600005002 60000021600005001 60000021600005023 4.99593346816
10.1026 60000021600005001 60000021600005000 60000021600005023 4.93938066349
10.2882 60000021600005000 60000021600004998 60000021600005023 4.42803373661
10.3459 60000021600004998 60000021600004997 60000021600005023 4.00794511147
10.3548 60000021600004997 60000021600004996 60000021600005023 3.93726108473
10.3772 60000021600004996 60000021600004995 60000021600005023 3.70877426464
10.3875 60000021600004995 60000021600004994 60000021600005023 3.49086136926
10.4584 60000021600004994 60000021600004987 60000021600005023 2.44422570455
10.5126 60000021600004987 60000021600004986 60000021600005023 2.31611074396
9.0066 60000021600005033 60000021600005032 60000021600005042 5.52976580795
9.13394 60000021600005064 60000021600005063 60000021600005068 10.3674435724
9.18589 60000021600005063 60000021600005062 60000021600005068 9.99659046619
9.21272 60000021600005062 60000021600005061 60000021600005068 9.84138043947
9.24362 60000021600005061 60000021600005060 60000021600005068 9.38877127194
9.2929 60000021600005060 60000021600005059 60000021600005068 9.00233985416
9.30278 60000021600005059 60000021600005058 60000021600005068 8.9079991856
9.36056 60000021600005058 60000021600005057 60000021600005068 8.44947629437
9.43377 60000021600005057 60000021600005056 60000021600005068 8.01217294887
9.52169 60000021600005056 60000021600005054 60000021600005068 7.23627606617
9.52657 60000021600005054 60000021600005053 60000021600005068 7.00541704554
9.5566 60000021600005053 60000021600005052 60000021600005068 6.85511726265
9.56111 60000021600005052 60000021600005051 60000021600005068 6.49159774567
9.59972 60000021600005051 60000021600005050 60000021600005068 6.14490120342
9.65078 60000021600005050 60000021600005049 60000021600005068 6.01075739884
10.2028 60000021600005049 60000021600005043 60000021600005068 4.66451770247
9.0316 60000021600005379 60000021600005378 60000021600005393 2.20792547238
9.04062 60000021600005378 60000021600005377 60000021600005393 2.1032696526
9.01298 60000021600005507 60000021600005506 60000021600005515 6.85511726265
9.02548 60000021600005506 60000021600005505 60000021600005515 6.49159774567
9.09898 60000021600005505 60000021600005504 60000021600005515 6.14490120342
9.13154 60000021600005504 60000021600005503 60000021600005515 6.01075739884
9.15956 60000021600005503 60000021600005502 60000021600005515 5.84661374788
9.17729 60000021600005502 60000021600005501 60000021600005515 5.52976580795
9.18162 60000021600005501 60000021600005500 60000021600005515 5.22758097313
9.26543 60000021600005500 60000021600005499 60000021600005515 4.99593346816
9.2742 60000021600005499 60000021600005498 60000021600005515 4.93938066349
9.58298 60000021600005498 60000021600005497 60000021600005515 4.66451770247
9.61186 60000021600005497 60000021600005496 60000021600005515 4.42803373661
9.65586 60000021600005496 60000021600005495 60000021600005515 4.17683491473
9.68312 60000021600005495 60000021600005494 60000021600005515 4.00794511147
9.69647 60000021600005494 60000021600005493 60000021600005515 3.93726108473
9.15273 60000021600005650 60000021600005649 60000021600005656 8.9079991856
9.27072 60000021600005649 60000021600005648 60000021600005656 8.44947629437
9.27594 60000021600005648 60000021600005647 60000021600005656 8.01217294887
9.43257 60000021600005647 60000021600005645 60000021600005656 7.23627606617
9.48692 60000021600005645 60000021600005644 60000021600005656 7.00541704554
9.49848 60000021600005644 60000021600005643 60000021600005656 6.85511726265
9.54185 60000021600005643 60000021600005642 60000021600005656 6.49159774567
9.57869 60000021600005642 60000021600005641 60000021600005656 6.14490120342
9.58383 60000021600005641 60000021600005640 60000021600005656 6.01075739884
9.60624 60000021600005640 60000021600005639 60000021600005656 5.84661374788
9.61742 60000021600005639 60000021600005638 60000021600005656 5.52976580795
10.2857 60000021600005638 60000021600005631 60000021600005656 4.00794511147
10.2936 60000021600005631 60000021600005630 60000021600005656 3.93726108473
10.3394 60000021600005630 60000021600005629 60000021600005656 3.70877426464
10.406 60000021600005629 60000021600005628 60000021600005656 3.49086136926
10.4361 60000021600005628 60000021600005627 60000021600005656 3.28303305796
10.489 60000021600005627 60000021600005626 60000021600005656 3.08482263583
10.5013 60000021600005626 60000021600005622 60000021600005656 2.5772902716
10.5125 60000021600005622 60000021600005621 60000021600005656 2.44422570455
10.5166 60000021600005621 60000021600005620 60000021600005656 2.31611074396
10.5288 60000021600005620 60000021600005617 60000021600005656 2.00202813925
10.5532 60000021600005617 60000021600005615 60000021600005656 1.82268925262
9.09898 60000021600005672 60000021600005671 60000021600005675 6.01075739884
9.12912 60000021600005671 60000021600005670 60000021600005675 5.84661374788
9.55021 60000021600005670 60000021600005667 60000021600005675 4.99593346816
9.76836 60000021600005667 60000021600005666 60000021600005675 4.93938066349
9.94371 60000021600005666 60000021600005665 60000021600005675 4.66451770247
10.1098 60000021600005665 60000021600005664 60000021600005675 4.42803373661
9.12178 60000021600005683 60000021600005682 60000021600005687 6.14490120342
9.2742 60000021600005691 60000021600005690 60000021600005697 5.52976580795
9.29787 60000021600005690 60000021600005689 60000021600005697 5.22758097313
9.02239 60000021600005713 60000021600005712 60000021600005717 6.85511726265
9.10926 60000021600005712 60000021600005711 60000021600005717 6.49159774567
9.15502 60000021600005711 60000021600005708 60000021600005717 5.84661374788
9.32342 60000021600005708 60000021600005707 60000021600005717 5.52976580795
9.48265 60000021600005707 60000021600005706 60000021600005717 5.22758097313
10.1687 60000021600005706 60000021600005702 60000021600005717 4.17683491473
9.4606 60000021600005727 60000021600005726 60000021600005737 4.99593346816
9.01614 60000021600005985 60000021600005984 60000021600006002 2.1032696526
9.03763 60000021600005984 60000021600005983 60000021600006002 2.00202813925
9.07766 60000021600005983 60000021600005981 60000021600006002 1.82268925262
9.11431 60000021600005981 60000021600005980 60000021600006002 1.74357057433
9.14811 60000021600005980 60000021600005979 60000021600006002 1.66666955611
9.13394 60000021600006042 60000021600006041 60000021600006063 2.20792547238
9.01614 60000021600006254 60000021600006253 60000021600006266 4.99593346816
9.02855 60000021600006253 60000021600006250 60000021600006266 4.42803373661
9.05235 60000021600006250 60000021600006248 60000021600006266 4.00794511147
9.12178 60000021600006248 60000021600006246 60000021600006266 3.70877426464
9.15502 60000021600006246 60000021600006245 60000021600006266 3.49086136926
9.16407 60000021600006245 60000021600006244 60000021600006266 3.28303305796
9.16407 60000021600006244 60000021600006243 60000021600006266 3.08482263583
9.17512 60000021600006243 60000021600006242 60000021600006266 3.00813107163
9.00337 60000021600006309 60000021600006308 60000021600006313 2.20792547238
9.08038 60000021600006308 60000021600006307 60000021600006313 2.1032696526
9.1663 60000021600006307 60000021600006306 60000021600006313 2.00202813925
9.29787 60000021600006306 60000021600006305 60000021600006313 1.90408954353
9.31401 60000021600006305 60000021600006304 60000021600006313 1.82268925262
9.31717 60000021600006304 60000021600006303 60000021600006313 1.74357057433
9.32187 60000021600006303 60000021600006302 60000021600006313 1.66666955611
9.33111 60000021600006302 60000021600006300 60000021600006313 1.53123902916
9.33415 60000021600006300 60000021600006299 60000021600006313 1.47197484527
9.09898 60000021600006391 60000021600006390 60000021600006401 5.22758097313
9.1193 60000021600006390 60000021600006388 60000021600006401 4.93938066349
9.1573 60000021600006388 60000021600006386 60000021600006401 4.42803373661
9.15956 60000021600006386 60000021600006385 60000021600006401 4.17683491473
9.17512 60000021600006385 60000021600006384 60000021600006401 4.00794511147
9.3044 60000021600006384 60000021600006383 60000021600006401 3.93726108473
9.32031 60000021600006383 60000021600006382 60000021600006401 3.70877426464
9.41534 60000021600006382 60000021600006380 60000021600006401 3.28303305796
9.44681 60000021600006380 60000021600006379 60000021600006401 3.08482263583
9.52851 60000021600006379 60000021600006377 60000021600006401 2.89578500573
9.05811 60000021600006490 60000021600006489 60000021600006502 2.73314261732
9.05811 60000021600006489 60000021600006488 60000021600006502 2.5772902716
9.07766 60000021600006488 60000021600006487 60000021600006502 2.44422570455
9.08309 60000021600006487 60000021600006484 60000021600006502 2.1032696526
9.10926 60000021600006484 60000021600006483 60000021600006502 2.00202813925
9.10926 60000021600006483 60000021600006480 60000021600006502 1.74357057433
9.09111 60000021600006625 60000021600006624 60000021600006635 4.66451770247
9.15273 60000021600006624 60000021600006623 60000021600006635 4.42803373661
9.18376 60000021600006623 60000021600006622 60000021600006635 4.17683491473
9.2026 60000021600006622 60000021600006621 60000021600006635 4.00794511147
9.26187 60000021600006621 60000021600006619 60000021600006635 3.70877426464
9.2672 60000021600006619 60000021600006618 60000021600006635 3.49086136926
9.27246 60000021600006618 60000021600006617 60000021600006635 3.28303305796
9.36199 60000021600006617 60000021600006616 60000021600006635 3.08482263583
9.37181 60000021600006616 60000021600006614 60000021600006635 2.89578500573
9.38412 60000021600006614 60000021600006613 60000021600006635 2.73314261732
9.31717 60000021600006754 60000021600006753 60000021600006773 3.08482263583
9.40389 60000021600006753 60000021600006752 60000021600006773 3.00813107163
9.02239 60000021600006839 60000021600006838 60000021600006859 3.08482263583
9.02239 60000021600006838 60000021600006837 60000021600006859 3.00813107163
9.05235 60000021600006837 60000021600006836 60000021600006859 2.89578500573
9.24175 60000021600007040 60000021600007039 60000021600007046 8.01217294887
9.33716 60000021600007039 60000021600007038 60000021600007046 7.59510714987
9.3634 60000021600007038 60000021600007037 60000021600007046 7.23627606617
9.40774 60000021600007037 60000021600007036 60000021600007046 7.00541704554
9.46844 60000021600007036 60000021600007035 60000021600007046 6.85511726265
9.4964 60000021600007035 60000021600007034 60000021600007046 6.49159774567
9.5629 60000021600007034 60000021600007033 60000021600007046 6.14490120342
9.56557 60000021600007033 60000021600007032 60000021600007046 6.01075739884
9.58469 60000021600007032 60000021600007031 60000021600007046 5.84661374788
9.62523 60000021600007031 60000021600007027 60000021600007046 4.93938066349
9.62985 60000021600007027 60000021600007025 60000021600007046 4.42803373661
9.63744 60000021600007025 60000021600007024 60000021600007046 4.17683491473
9.6573 60000021600007024 60000021600007023 60000021600007046 4.00794511147
9.66088 60000021600007023 60000021600007022 60000021600007046 3.93726108473
9.13154 60000021600007333 60000021600007332 60000021600007345 4.42803373661
9.13154 60000021600007332 60000021600007331 60000021600007345 4.17683491473
9.25466 60000021600007331 60000021600007330 60000021600007345 4.00794511147
9.26896 60000021600007330 60000021600007329 60000021600007345 3.93726108473
9.33263 60000021600007329 60000021600007328 60000021600007345 3.70877426464
9.35194 60000021600007328 60000021600007327 60000021600007345 3.49086136926
9.09375 60000021600007568 60000021600007567 60000021600007581 1.74357057433
9.10926 60000021600007567 60000021600007566 60000021600007581 1.66666955611
9.13634 60000021600007566 60000021600007564 60000021600007581 1.53123902916
9.14344 60000021600007564 60000021600007563 60000021600007581 1.47197484527
9.17729 60000021600007563 60000021600007562 60000021600007581 1.41409822037
9.06096 60000021600007751 60000021600007750 60000021600007758 3.70877426464
9.17073 60000021600007750 60000021600007749 60000021600007758 3.49086136926
9.2026 60000021600007749 60000021600007748 60000021600007758 3.28303305796
9.24362 60000021600007748 60000021600007747 60000021600007758 3.08482263583
9.24362 60000021600007747 60000021600007743 60000021600007758 2.5772902716
9.24362 60000021600007743 60000021600007742 60000021600007758 2.44422570455
9.29124 60000021600007742 60000021600007741 60000021600007758 2.31611074396
9.32342 60000021600007741 60000021600007739 60000021600007758 2.1032696526
9.36199 60000021600007739 60000021600007738 60000021600007758 2.00202813925
9.37181 60000021600007738 60000021600007737 60000021600007758 1.90408954353
9.37595 60000021600007737 60000021600007736 60000021600007758 1.82268925262
9.42157 60000021600007736 60000021600007734 60000021600007758 1.66666955611
9.43015 60000021600007734 60000021600007733 60000021600007758 1.60423452207
9.12912 60000021600007902 60000021600007901 60000021600007917 2.31611074396
9.15273 60000021600007901 60000021600007900 60000021600007917 2.20792547238
9.15502 60000021600007900 60000021600007898 60000021600007917 2.00202813925
9.15502 60000021600007898 60000021600007897 60000021600007917 1.90408954353
9.17729 60000021600007897 60000021600007896 60000021600007917 1.82268925262
9.00012 60000021600008325 60000021600008324 60000021600008339 4.42803373661
9.0066 60000021600008324 60000021600008323 60000021600008339 4.17683491473
9.02855 60000021600008323 60000021600008322 60000021600008339 4.00794511147
9.03763 60000021600008322 60000021600008321 60000021600008339 3.93726108473
9.0666 60000021600008321 60000021600008320 60000021600008339 3.70877426464
9.18802 60000021600008320 60000021600008319 60000021600008339 3.49086136926
9.2087 60000021600008319 60000021600008318 60000021600008339 3.28303305796
9.25101 60000021600008318 60000021600008317 60000021600008339 3.08482263583
9.32805 60000021600008317 60000021600008316 60000021600008339 3.00813107163
9.51575 60000021600008316 60000021600008314 60000021600008339 2.73314261732
9.54836 60000021600008314 60000021600008311 60000021600008339 2.31611074396
9.04358 60000021600008353 60000021600008352 60000021600008363 4.66451770247
9.05524 60000021600008352 60000021600008351 60000021600008363 4.42803373661
9.06378 60000021600008351 60000021600008349 60000021600008363 4.00794511147
9.08038 60000021600008349 60000021600008348 60000021600008363 3.93726108473
9.12424 60000021600008348 60000021600008347 60000021600008363 3.70877426464
9.41659 60000021600008347 60000021600008342 60000021600008363 2.89578500573
9.1193 60000021600009025 60000021600009024 60000021600009037 3.70877426464
9.22262 60000021600009024 60000021600009023 60000021600009037 3.49086136926
9.26365 60000021600009023 60000021600009022 60000021600009037 3.28303305796
9.3156 60000021600009022 60000021600009021 60000021600009037 3.08482263583
9.33415 60000021600009021 60000021600009020 60000021600009037 3.00813107163
9.37042 60000021600009020 60000021600009017 60000021600009037 2.5772902716
9.01928 60000021600009278 60000021600009277 60000021600009289 3.08482263583
9.0316 60000021600009277 60000021600009276 60000021600009289 3.00813107163
9.03763 60000021600009276 60000021600009274 60000021600009289 2.73314261732
9.16182 60000021600009274 60000021600009273 60000021600009289 2.5772902716
9.22262 60000021600009273 60000021600009268 60000021600009289 2.00202813925
9.42157 60000021600009268 60000021600009267 60000021600009289 1.90408954353
9.48586 60000021600009267 60000021600009266 60000021600009289 1.82268925262
9.01298 60000021600009355 60000021600009354 60000021600009390 1.20625808078
9.04653 60000021600009354 60000021600009353 60000021600009390 1.15460271236
9.04653 60000021600009353 60000021600009352 60000021600009390 1.11415056377
9.06378 60000021600009352 60000021600009350 60000021600009390 1.03551044566
9.07216 60000021600009350 60000021600009345 60000021600009390 0.886896937575
9.08845 60000021600009345 60000021600009344 60000021600009390 0.851470900625
