logMh | fpID | subhaloID | main leaf ID | z
9.08038 40000000101869195 40000000101869194 40000000101869197 9.38877127194
9.14811 40000000101869194 40000000101869193 40000000101869197 9.00233985416
9.15502 40000000101869193 40000000101869192 40000000101869197 8.9079991856
9.45719 40000000101869192 40000000101869191 40000000101869197 8.44947629437
9.53332 40000000101869191 40000000101869190 40000000101869197 8.01217294887
9.65297 40000000101869190 40000000101869189 40000000101869197 7.59510714987
9.75248 40000000101869189 40000000101869188 40000000101869197 7.23627606617
9.78314 40000000101869188 40000000101869187 40000000101869197 7.00541704554
9.79219 40000000101869187 40000000101869186 40000000101869197 6.85511726265
9.9278 40000000101869186 40000000101869184 40000000101869197 6.14490120342
10.0027 40000000101869184 40000000101869183 40000000101869197 6.01075739884
10.0322 40000000101869183 40000000101869182 40000000101869197 5.84661374788
10.133 40000000101869182 40000000101869181 40000000101869197 5.52976580795
10.201 40000000101869181 40000000101869180 40000000101869197 5.22758097313
10.267 40000000101869180 40000000101869179 40000000101869197 4.99593346816
10.2902 40000000101869179 40000000101869178 40000000101869197 4.93938066349
10.3631 40000000101869178 40000000101869177 40000000101869197 4.66451770247
10.4588 40000000101869177 40000000101869176 40000000101869197 4.42803373661
10.5217 40000000101869176 40000000101869175 40000000101869197 4.17683491473
10.5619 40000000101869175 40000000101869174 40000000101869197 4.00794511147
10.6038 40000000101869174 40000000101869173 40000000101869197 3.93726108473
10.6154 40000000101869173 40000000101869172 40000000101869197 3.70877426464
10.6595 40000000101869172 40000000101869171 40000000101869197 3.49086136926
10.7281 40000000101869171 40000000101869170 40000000101869197 3.28303305796
10.8056 40000000101869170 40000000101869169 40000000101869197 3.08482263583
10.828 40000000101869169 40000000101869168 40000000101869197 3.00813107163
10.8853 40000000101869168 40000000101869167 40000000101869197 2.89578500573
10.9451 40000000101869167 40000000101869166 40000000101869197 2.73314261732
11.0365 40000000101869166 40000000101869165 40000000101869197 2.5772902716
11.1003 40000000101869165 40000000101869164 40000000101869197 2.44422570455
11.3863 40000000101869164 40000000101869161 40000000101869197 2.1032696526
11.4001 40000000101869161 40000000101869158 40000000101869197 1.82268925262
11.4414 40000000101869158 40000000101869157 40000000101869197 1.74357057433
11.5715 40000000101869157 40000000101869153 40000000101869197 1.47197484527
11.6084 40000000101869153 40000000101869151 40000000101869197 1.3575766674
11.6821 40000000101869151 40000000101869150 40000000101869197 1.30237845991
11.7568 40000000101869150 40000000101869149 40000000101869197 1.24847261425
11.7686 40000000101869149 40000000101869148 40000000101869197 1.20625808078
11.8507 40000000101869148 40000000101869143 40000000101869197 0.997294225782
11.8689 40000000101869143 40000000101869139 40000000101869197 0.886896937575
11.874 40000000101869139 40000000101869137 40000000101869197 0.816709979012
11.8784 40000000101869137 40000000101869136 40000000101869197 0.791068248946
11.8978 40000000101869136 40000000101869135 40000000101869197 0.757441372616
11.9161 40000000101869135 40000000101869134 40000000101869197 0.732636182022
11.9317 40000000101869134 40000000101869131 40000000101869197 0.644641840685
11.9396 40000000101869131 40000000101869130 40000000101869197 0.621428745243
11.9531 40000000101869130 40000000101869129 40000000101869197 0.598543288188
11.9565 40000000101869129 40000000101869128 40000000101869197 0.575980845108
11.9618 40000000101869128 40000000101869127 40000000101869197 0.546392183141
11.968 40000000101869127 40000000101869125 40000000101869197 0.503047523245
11.9697 40000000101869125 40000000101869124 40000000101869197 0.481832943421
11.9723 40000000101869124 40000000101869123 40000000101869197 0.460917794181
9.10157 40000000101869270 40000000101869269 40000000101869272 9.38877127194
9.13871 40000000101869269 40000000101869268 40000000101869272 9.00233985416
9.19433 40000000101869268 40000000101869267 40000000101869272 8.9079991856
9.27766 40000000101869267 40000000101869266 40000000101869272 8.44947629437
9.39478 40000000101869266 40000000101869265 40000000101869272 8.01217294887
9.57262 40000000101869265 40000000101869264 40000000101869272 7.59510714987
9.59477 40000000101869264 40000000101869262 40000000101869272 7.00541704554
9.62212 40000000101869262 40000000101869259 40000000101869272 6.14490120342
9.64638 40000000101869259 40000000101869258 40000000101869272 6.01075739884
9.04945 40000000101869520 40000000101869519 40000000101869526 6.85511726265
9.38948 40000000101869519 40000000101869517 40000000101869526 6.14490120342
9.42771 40000000101869517 40000000101869513 40000000101869526 5.22758097313
9.46285 40000000101869513 40000000101869512 40000000101869526 4.99593346816
9.46955 40000000101869512 40000000101869510 40000000101869526 4.66451770247
9.60218 40000000101869510 40000000101869509 40000000101869526 4.42803373661
9.21869 40000000101869528 40000000101869527 40000000101869531 6.49159774567
9.09898 40000000101869612 40000000101869611 40000000101869619 6.01075739884
9.17073 40000000101869611 40000000101869610 40000000101869619 5.84661374788
9.23037 40000000101869610 40000000101869609 40000000101869619 5.52976580795
9.29622 40000000101869609 40000000101869608 40000000101869619 5.22758097313
9.3044 40000000101869608 40000000101869607 40000000101869619 4.99593346816
9.0066 40000000101869621 40000000101869620 40000000101869622 6.14490120342
9.00337 40000000101869640 40000000101869639 40000000101869651 4.93938066349
9.06939 40000000101869639 40000000101869637 40000000101869651 4.42803373661
9.12178 40000000101869637 40000000101869635 40000000101869651 4.00794511147
9.12668 40000000101869635 40000000101869634 40000000101869651 3.93726108473
9.14811 40000000101869634 40000000101869633 40000000101869651 3.70877426464
9.01928 40000000101869687 40000000101869686 40000000101869695 7.23627606617
9.07216 40000000101869686 40000000101869685 40000000101869695 7.00541704554
9.08845 40000000101869685 40000000101869684 40000000101869695 6.85511726265
9.15042 40000000101869684 40000000101869683 40000000101869695 6.49159774567
9.33566 40000000101869683 40000000101869682 40000000101869695 6.14490120342
9.33566 40000000101869682 40000000101869681 40000000101869695 6.01075739884
9.51873 40000000101869681 40000000101869679 40000000101869695 5.52976580795
9.626 40000000101869679 40000000101869678 40000000101869695 5.22758097313
9.65945 40000000101869678 40000000101869674 40000000101869695 4.42803373661
9.67904 40000000101869674 40000000101869672 40000000101869695 4.00794511147
9.76669 40000000101869672 40000000101869670 40000000101869695 3.70877426464
9.78849 40000000101869670 40000000101869669 40000000101869695 3.49086136926
9.17512 40000000101869855 40000000101869854 40000000101869865 5.84661374788
9.36056 40000000101869854 40000000101869853 40000000101869865 5.52976580795
9.3634 40000000101869853 40000000101869850 40000000101869865 4.93938066349
9.40131 40000000101869850 40000000101869844 40000000101869865 3.70877426464
9.0066 40000000101870020 40000000101870019 40000000101870029 4.99593346816
9.07492 40000000101870019 40000000101870018 40000000101870029 4.93938066349
9.09898 40000000101870018 40000000101870017 40000000101870029 4.66451770247
9.10415 40000000101870017 40000000101870016 40000000101870029 4.42803373661
9.1193 40000000101870016 40000000101870015 40000000101870029 4.17683491473
9.17946 40000000101870015 40000000101870014 40000000101870029 4.00794511147
9.20464 40000000101870014 40000000101870013 40000000101870029 3.93726108473
9.27766 40000000101870013 40000000101870012 40000000101870029 3.70877426464
9.31401 40000000101870012 40000000101870010 40000000101870029 3.28303305796
9.08309 40000000101870151 40000000101870150 40000000101870160 6.49159774567
9.25828 40000000101870150 40000000101870149 40000000101870160 6.14490120342
9.26543 40000000101870149 40000000101870148 40000000101870160 6.01075739884
9.27246 40000000101870148 40000000101870147 40000000101870160 5.84661374788
9.27246 40000000101870147 40000000101870141 40000000101870160 4.42803373661
9.23799 40000000101870269 40000000101870268 40000000101870275 4.99593346816
9.27766 40000000101870268 40000000101870266 40000000101870275 4.66451770247
9.44681 40000000101870266 40000000101870262 40000000101870275 3.70877426464
9.47832 40000000101870262 40000000101870260 40000000101870275 3.28303305796
9.54185 40000000101870260 40000000101870259 40000000101870275 3.08482263583
9.57349 40000000101870259 40000000101870258 40000000101870275 3.00813107163
9.62831 40000000101870258 40000000101870256 40000000101870275 2.73314261732
9.2811 40000000101870300 40000000101870299 40000000101870311 4.42803373661
9.39214 40000000101870299 40000000101870298 40000000101870311 4.17683491473
9.06096 40000000101870409 40000000101870408 40000000101870413 6.01075739884
9.12424 40000000101870408 40000000101870404 40000000101870413 4.99593346816
9.43497 40000000101870404 40000000101870401 40000000101870413 4.42803373661
9.55204 40000000101870401 40000000101870400 40000000101870413 4.17683491473
9.72935 40000000101870400 40000000101870399 40000000101870413 4.00794511147
9.78795 40000000101870399 40000000101870398 40000000101870413 3.93726108473
9.88656 40000000101870398 40000000101870397 40000000101870413 3.70877426464
9.89993 40000000101870397 40000000101870395 40000000101870413 3.28303305796
9.93355 40000000101870395 40000000101870394 40000000101870413 3.08482263583
9.94815 40000000101870394 40000000101870393 40000000101870413 3.00813107163
9.98347 40000000101870393 40000000101870392 40000000101870413 2.89578500573
10.0183 40000000101870392 40000000101870391 40000000101870413 2.73314261732
10.1255 40000000101870391 40000000101870385 40000000101870413 2.00202813925
9.01298 40000000101870427 40000000101870426 40000000101870433 5.52976580795
9.05524 40000000101870426 40000000101870423 40000000101870433 4.93938066349
9.12912 40000000101870423 40000000101870422 40000000101870433 4.66451770247
9.02548 40000000101870551 40000000101870550 40000000101870559 7.59510714987
9.03763 40000000101870550 40000000101870549 40000000101870559 7.23627606617
9.17073 40000000101870549 40000000101870548 40000000101870559 7.00541704554
9.26543 40000000101870548 40000000101870547 40000000101870559 6.85511726265
9.33866 40000000101870547 40000000101870546 40000000101870559 6.49159774567
9.41909 40000000101870546 40000000101870545 40000000101870559 6.14490120342
9.44093 40000000101870545 40000000101870544 40000000101870559 6.01075739884
9.47724 40000000101870544 40000000101870543 40000000101870559 5.84661374788
9.5566 40000000101870543 40000000101870542 40000000101870559 5.52976580795
9.57956 40000000101870542 40000000101870541 40000000101870559 5.22758097313
9.60866 40000000101870541 40000000101870540 40000000101870559 4.99593346816
9.60866 40000000101870540 40000000101870539 40000000101870559 4.93938066349
9.66725 40000000101870539 40000000101870538 40000000101870559 4.66451770247
9.69118 40000000101870538 40000000101870537 40000000101870559 4.42803373661
9.77279 40000000101870537 40000000101870535 40000000101870559 4.00794511147
9.78475 40000000101870535 40000000101870533 40000000101870559 3.70877426464
9.79008 40000000101870533 40000000101870530 40000000101870559 3.08482263583
9.81976 40000000101870530 40000000101870529 40000000101870559 3.00813107163
9.86705 40000000101870529 40000000101870528 40000000101870559 2.89578500573
9.9942 40000000101870528 40000000101870525 40000000101870559 2.44422570455
9.01614 40000000101870604 40000000101870603 40000000101870613 7.00541704554
9.02855 40000000101870603 40000000101870601 40000000101870613 6.49159774567
9.10671 40000000101870601 40000000101870600 40000000101870613 6.14490120342
9.13634 40000000101870600 40000000101870599 40000000101870613 6.01075739884
9.17293 40000000101870599 40000000101870597 40000000101870613 5.52976580795
9.19013 40000000101870597 40000000101870587 40000000101870613 3.49086136926
9.23988 40000000101870587 40000000101870586 40000000101870613 3.28303305796
9.0066 40000000101870619 40000000101870618 40000000101870630 4.42803373661
9.0098 40000000101870618 40000000101870617 40000000101870630 4.17683491473
9.00012 40000000101870700 40000000101870699 40000000101870705 3.49086136926
9.0098 40000000101870699 40000000101870698 40000000101870705 3.28303305796
9.01614 40000000101870698 40000000101870692 40000000101870705 2.44422570455
9.01614 40000000101870738 40000000101870737 40000000101870748 4.00794511147
9.04945 40000000101870737 40000000101870736 40000000101870748 3.93726108473
9.15502 40000000101870736 40000000101870735 40000000101870748 3.70877426464
9.2811 40000000101870735 40000000101870734 40000000101870748 3.49086136926
9.37181 40000000101870734 40000000101870733 40000000101870748 3.28303305796
9.43015 40000000101870733 40000000101870732 40000000101870748 3.08482263583
9.52169 40000000101870732 40000000101870731 40000000101870748 3.00813107163
9.63744 40000000101870731 40000000101870730 40000000101870748 2.89578500573
11.7728 40000000101870730 40000000101870708 40000000101870748 1.03551044566
9.07766 40000000101870896 40000000101870895 40000000101870901 7.23627606617
9.17729 40000000101870895 40000000101870894 40000000101870901 7.00541704554
9.2811 40000000101870894 40000000101870892 40000000101870901 6.49159774567
9.34016 40000000101870892 40000000101870891 40000000101870901 6.14490120342
9.37457 40000000101870891 40000000101870890 40000000101870901 6.01075739884
9.40646 40000000101870890 40000000101870889 40000000101870901 5.84661374788
9.47066 40000000101870889 40000000101870888 40000000101870901 5.52976580795
9.56911 40000000101870888 40000000101870887 40000000101870901 5.22758097313
9.66088 40000000101870887 40000000101870886 40000000101870901 4.99593346816
9.66443 40000000101870886 40000000101870885 40000000101870901 4.93938066349
9.71068 40000000101870885 40000000101870884 40000000101870901 4.66451770247
9.78206 40000000101870884 40000000101870883 40000000101870901 4.42803373661
9.78314 40000000101870883 40000000101870882 40000000101870901 4.17683491473
9.80568 40000000101870882 40000000101870881 40000000101870901 4.00794511147
9.83626 40000000101870881 40000000101870880 40000000101870901 3.93726108473
10.1306 40000000101870880 40000000101870876 40000000101870901 3.08482263583
10.1842 40000000101870876 40000000101870875 40000000101870901 3.00813107163
10.2894 40000000101870875 40000000101870874 40000000101870901 2.89578500573
10.3753 40000000101870874 40000000101870873 40000000101870901 2.73314261732
10.4389 40000000101870873 40000000101870872 40000000101870901 2.5772902716
10.4732 40000000101870872 40000000101870871 40000000101870901 2.44422570455
9.04358 40000000101870968 40000000101870967 40000000101870978 5.22758097313
9.13871 40000000101870967 40000000101870966 40000000101870978 4.99593346816
9.13871 40000000101870966 40000000101870965 40000000101870978 4.93938066349
9.2361 40000000101870965 40000000101870964 40000000101870978 4.66451770247
9.39478 40000000101870964 40000000101870963 40000000101870978 4.42803373661
9.67904 40000000101870963 40000000101870962 40000000101870978 4.17683491473
9.71259 40000000101870962 40000000101870961 40000000101870978 4.00794511147
9.72322 40000000101870961 40000000101870958 40000000101870978 3.49086136926
10.1313 40000000101870958 40000000101870957 40000000101870978 3.28303305796
9.25648 40000000101870992 40000000101870991 40000000101870999 4.99593346816
9.15042 40000000101871007 40000000101871006 40000000101871013 5.52976580795
9.00012 40000000101871015 40000000101871014 40000000101871023 4.93938066349
9.01928 40000000101871047 40000000101871046 40000000101871054 5.52976580795
9.00337 40000000101871100 40000000101871099 40000000101871109 7.00541704554
9.0098 40000000101871099 40000000101871098 40000000101871109 6.85511726265
9.06939 40000000101871098 40000000101871097 40000000101871109 6.49159774567
9.12178 40000000101871097 40000000101871096 40000000101871109 6.14490120342
9.14811 40000000101871096 40000000101871095 40000000101871109 6.01075739884
9.32651 40000000101871095 40000000101871093 40000000101871109 5.52976580795
9.42893 40000000101871093 40000000101871090 40000000101871109 4.93938066349
9.44447 40000000101871090 40000000101871089 40000000101871109 4.66451770247
9.49951 40000000101871089 40000000101871087 40000000101871109 4.17683491473
9.00337 40000000101871305 40000000101871304 40000000101871324 3.28303305796
9.17293 40000000101871304 40000000101871302 40000000101871324 3.00813107163
9.18376 40000000101871302 40000000101871301 40000000101871324 2.89578500573
9.22651 40000000101871301 40000000101871300 40000000101871324 2.73314261732
9.2811 40000000101871300 40000000101871294 40000000101871324 2.00202813925
9.10926 40000000101871326 40000000101871325 40000000101871338 3.08482263583
9.0098 40000000101871381 40000000101871380 40000000101871390 3.49086136926
9.03463 40000000101871536 40000000101871535 40000000101871541 12.0418635439
9.25828 40000000101871535 40000000101871534 40000000101871541 11.4973879548
9.3974 40000000101871534 40000000101871533 40000000101871541 10.9190331982
9.42527 40000000101871533 40000000101871532 40000000101871541 10.3674435724
9.51873 40000000101871532 40000000101871531 40000000101871541 9.99659046619
9.66088 40000000101871531 40000000101871530 40000000101871541 9.84138043947
9.66866 40000000101871530 40000000101871529 40000000101871541 9.38877127194
9.74314 40000000101871529 40000000101871528 40000000101871541 9.00233985416
9.75364 40000000101871528 40000000101871527 40000000101871541 8.9079991856
9.80772 40000000101871527 40000000101871526 40000000101871541 8.44947629437
9.85808 40000000101871526 40000000101871525 40000000101871541 8.01217294887
9.91528 40000000101871525 40000000101871524 40000000101871541 7.59510714987
9.99585 40000000101871524 40000000101871523 40000000101871541 7.23627606617
10.0215 40000000101871523 40000000101871522 40000000101871541 7.00541704554
10.0343 40000000101871522 40000000101871521 40000000101871541 6.85511726265
10.0796 40000000101871521 40000000101871520 40000000101871541 6.49159774567
10.1607 40000000101871520 40000000101871519 40000000101871541 6.14490120342
10.1641 40000000101871519 40000000101871518 40000000101871541 6.01075739884
10.176 40000000101871518 40000000101871517 40000000101871541 5.84661374788
10.2344 40000000101871517 40000000101871516 40000000101871541 5.52976580795
10.3033 40000000101871516 40000000101871515 40000000101871541 5.22758097313
10.3439 40000000101871515 40000000101871512 40000000101871541 4.66451770247
10.3492 40000000101871512 40000000101871509 40000000101871541 4.00794511147
10.3564 40000000101871509 40000000101871508 40000000101871541 3.93726108473
10.3843 40000000101871508 40000000101871507 40000000101871541 3.70877426464
10.6123 40000000101871507 40000000101871505 40000000101871541 3.28303305796
10.8268 40000000101871505 40000000101871504 40000000101871541 3.08482263583
10.8398 40000000101871504 40000000101871503 40000000101871541 3.00813107163
10.8646 40000000101871503 40000000101871502 40000000101871541 2.89578500573
10.9023 40000000101871502 40000000101871501 40000000101871541 2.73314261732
10.9224 40000000101871501 40000000101871500 40000000101871541 2.5772902716
11.0151 40000000101871500 40000000101871494 40000000101871541 1.90408954353
9.15956 40000000101871637 40000000101871636 40000000101871640 9.38877127194
9.17073 40000000101871636 40000000101871635 40000000101871640 9.00233985416
9.22066 40000000101871635 40000000101871634 40000000101871640 8.9079991856
9.32031 40000000101871634 40000000101871633 40000000101871640 8.44947629437
9.42893 40000000101871633 40000000101871632 40000000101871640 8.01217294887
9.48799 40000000101871632 40000000101871628 40000000101871640 6.85511726265
9.60543 40000000101871628 40000000101871626 40000000101871640 6.14490120342
9.80568 40000000101871626 40000000101871623 40000000101871640 5.52976580795
10.0922 40000000101871623 40000000101871622 40000000101871640 5.22758097313
10.0945 40000000101871622 40000000101871621 40000000101871640 4.99593346816
10.111 40000000101871621 40000000101871620 40000000101871640 4.93938066349
10.1712 40000000101871620 40000000101871619 40000000101871640 4.66451770247
10.1867 40000000101871619 40000000101871618 40000000101871640 4.42803373661
10.2319 40000000101871618 40000000101871617 40000000101871640 4.17683491473
10.3397 40000000101871617 40000000101871613 40000000101871640 3.49086136926
9.02239 40000000101871694 40000000101871693 40000000101871697 9.84138043947
9.00337 40000000101871710 40000000101871709 40000000101871722 7.00541704554
9.03463 40000000101871709 40000000101871708 40000000101871722 6.85511726265
9.15502 40000000101871708 40000000101871707 40000000101871722 6.49159774567
9.19013 40000000101871707 40000000101871706 40000000101871722 6.14490120342
9.21272 40000000101871706 40000000101871705 40000000101871722 6.01075739884
9.29622 40000000101871705 40000000101871704 40000000101871722 5.84661374788
9.00337 40000000101871739 40000000101871738 40000000101871752 4.00794511147
9.01614 40000000101871794 40000000101871793 40000000101871800 7.23627606617
9.04062 40000000101871793 40000000101871792 40000000101871800 7.00541704554
9.04945 40000000101871792 40000000101871791 40000000101871800 6.85511726265
9.08309 40000000101871791 40000000101871790 40000000101871800 6.49159774567
9.12424 40000000101871790 40000000101871788 40000000101871800 6.01075739884
9.15956 40000000101871788 40000000101871787 40000000101871800 5.84661374788
9.02239 40000000101871878 40000000101871877 40000000101871882 8.9079991856
9.22845 40000000101871877 40000000101871876 40000000101871882 8.44947629437
9.26896 40000000101871876 40000000101871875 40000000101871882 8.01217294887
9.42157 40000000101871875 40000000101871874 40000000101871882 7.59510714987
9.42893 40000000101871874 40000000101871867 40000000101871882 5.84661374788
9.45833 40000000101871867 40000000101871866 40000000101871882 5.52976580795
9.47176 40000000101871866 40000000101871865 40000000101871882 5.22758097313
9.49431 40000000101871865 40000000101871864 40000000101871882 4.99593346816
9.50055 40000000101871864 40000000101871863 40000000101871882 4.93938066349
9.41282 40000000101871886 40000000101871885 40000000101871888 2.89578500573
9.1193 40000000101871949 40000000101871948 40000000101871955 8.01217294887
9.14108 40000000101871948 40000000101871947 40000000101871955 7.59510714987
9.37319 40000000101871947 40000000101871946 40000000101871955 7.23627606617
9.41534 40000000101871946 40000000101871944 40000000101871955 6.85511726265
9.51873 40000000101871944 40000000101871943 40000000101871955 6.49159774567
9.60462 40000000101871943 40000000101871942 40000000101871955 6.14490120342
9.65945 40000000101871942 40000000101871941 40000000101871955 6.01075739884
9.71762 40000000101871941 40000000101871940 40000000101871955 5.84661374788
9.78742 40000000101871940 40000000101871939 40000000101871955 5.52976580795
9.82954 40000000101871939 40000000101871938 40000000101871955 5.22758097313
9.89455 40000000101871938 40000000101871935 40000000101871955 4.66451770247
9.90484 40000000101871935 40000000101871931 40000000101871955 3.93726108473
9.9411 40000000101871931 40000000101871930 40000000101871955 3.70877426464
9.13154 40000000101872082 40000000101872081 40000000101872088 8.44947629437
9.13394 40000000101872081 40000000101872080 40000000101872088 8.01217294887
9.1663 40000000101872080 40000000101872079 40000000101872088 7.59510714987
9.19433 40000000101872079 40000000101872077 40000000101872088 7.00541704554
9.2026 40000000101872077 40000000101872076 40000000101872088 6.85511726265
9.25828 40000000101872076 40000000101872075 40000000101872088 6.49159774567
9.27594 40000000101872075 40000000101872074 40000000101872088 6.14490120342
9.2811 40000000101872074 40000000101872067 40000000101872088 4.66451770247
9.7519 40000000101872067 40000000101872065 40000000101872088 4.17683491473
9.83816 40000000101872065 40000000101872064 40000000101872088 4.00794511147
9.87929 40000000101872064 40000000101872063 40000000101872088 3.93726108473
11.8227 40000000101872063 40000000101872033 40000000101872088 0.923000816178
9.01298 40000000101872124 40000000101872123 40000000101872127 8.01217294887
9.08309 40000000101872123 40000000101872121 40000000101872127 7.23627606617
9.14344 40000000101872121 40000000101872120 40000000101872127 7.00541704554
9.26365 40000000101872120 40000000101872118 40000000101872127 6.49159774567
9.38948 40000000101872118 40000000101872116 40000000101872127 6.01075739884
9.39214 40000000101872116 40000000101872113 40000000101872127 5.22758097313
9.44564 40000000101872113 40000000101872111 40000000101872127 4.93938066349
9.62056 40000000101872111 40000000101872110 40000000101872127 4.66451770247
9.66017 40000000101872110 40000000101872109 40000000101872127 4.42803373661
9.76836 40000000101872109 40000000101872105 40000000101872127 3.70877426464
9.01298 40000000101872458 40000000101872457 40000000101872462 9.99659046619
9.12424 40000000101872457 40000000101872456 40000000101872462 9.84138043947
9.30763 40000000101872456 40000000101872455 40000000101872462 9.38877127194
9.33866 40000000101872455 40000000101872454 40000000101872462 9.00233985416
9.34165 40000000101872454 40000000101872453 40000000101872462 8.9079991856
9.53713 40000000101872453 40000000101872452 40000000101872462 8.44947629437
9.56557 40000000101872452 40000000101872451 40000000101872462 8.01217294887
9.62985 40000000101872451 40000000101872450 40000000101872462 7.59510714987
9.76892 40000000101872450 40000000101872449 40000000101872462 7.23627606617
9.81578 40000000101872449 40000000101872448 40000000101872462 7.00541704554
9.85853 40000000101872448 40000000101872447 40000000101872462 6.85511726265
9.92315 40000000101872447 40000000101872446 40000000101872462 6.49159774567
10.0155 40000000101872446 40000000101872445 40000000101872462 6.14490120342
10.0629 40000000101872445 40000000101872444 40000000101872462 6.01075739884
10.0801 40000000101872444 40000000101872443 40000000101872462 5.84661374788
10.1511 40000000101872443 40000000101872442 40000000101872462 5.52976580795
10.2952 40000000101872442 40000000101872441 40000000101872462 5.22758097313
10.3436 40000000101872441 40000000101872438 40000000101872462 4.66451770247
10.4535 40000000101872438 40000000101872437 40000000101872462 4.42803373661
10.5134 40000000101872437 40000000101872436 40000000101872462 4.17683491473
10.574 40000000101872436 40000000101872435 40000000101872462 4.00794511147
10.5842 40000000101872435 40000000101872434 40000000101872462 3.93726108473
10.6485 40000000101872434 40000000101872433 40000000101872462 3.70877426464
10.7397 40000000101872433 40000000101872432 40000000101872462 3.49086136926
10.802 40000000101872432 40000000101872431 40000000101872462 3.28303305796
10.8334 40000000101872431 40000000101872430 40000000101872462 3.08482263583
10.8515 40000000101872430 40000000101872429 40000000101872462 3.00813107163
10.8595 40000000101872429 40000000101872428 40000000101872462 2.89578500573
10.9141 40000000101872428 40000000101872427 40000000101872462 2.73314261732
10.9527 40000000101872427 40000000101872426 40000000101872462 2.5772902716
10.9594 40000000101872426 40000000101872422 40000000101872462 2.1032696526
10.9687 40000000101872422 40000000101872421 40000000101872462 2.00202813925
11.083 40000000101872421 40000000101872420 40000000101872462 1.90408954353
11.147 40000000101872420 40000000101872419 40000000101872462 1.82268925262
11.1698 40000000101872419 40000000101872418 40000000101872462 1.74357057433
11.1894 40000000101872418 40000000101872413 40000000101872462 1.41409822037
9.10415 40000000101872633 40000000101872632 40000000101872637 8.01217294887
9.36481 40000000101872632 40000000101872631 40000000101872637 7.59510714987
9.51275 40000000101872631 40000000101872630 40000000101872637 7.23627606617
9.56201 40000000101872630 40000000101872629 40000000101872637 7.00541704554
9.63138 40000000101872629 40000000101872628 40000000101872637 6.85511726265
9.70749 40000000101872628 40000000101872627 40000000101872637 6.49159774567
9.80466 40000000101872627 40000000101872626 40000000101872637 6.14490120342
9.84099 40000000101872626 40000000101872625 40000000101872637 6.01075739884
9.87452 40000000101872625 40000000101872624 40000000101872637 5.84661374788
9.93997 40000000101872624 40000000101872623 40000000101872637 5.52976580795
9.09111 40000000101872686 40000000101872685 40000000101872694 4.99593346816
9.19013 40000000101872685 40000000101872683 40000000101872694 4.66451770247
9.06378 40000000101872711 40000000101872710 40000000101872725 4.00794511147
9.08309 40000000101872710 40000000101872707 40000000101872725 3.49086136926
9.12912 40000000101872819 40000000101872818 40000000101872825 6.14490120342
9.16852 40000000101872818 40000000101872816 40000000101872825 5.84661374788
9.19641 40000000101872816 40000000101872815 40000000101872825 5.52976580795
9.26008 40000000101872815 40000000101872814 40000000101872825 5.22758097313
9.33716 40000000101872814 40000000101872813 40000000101872825 4.99593346816
9.3634 40000000101872813 40000000101872812 40000000101872825 4.93938066349
9.37042 40000000101872812 40000000101872811 40000000101872825 4.66451770247
9.38141 40000000101872811 40000000101872810 40000000101872825 4.42803373661
9.01298 40000000101872883 40000000101872882 40000000101872895 3.28303305796
9.03463 40000000101872882 40000000101872881 40000000101872895 3.08482263583
9.07492 40000000101872881 40000000101872880 40000000101872895 3.00813107163
9.01928 40000000101872933 40000000101872932 40000000101872937 5.52976580795
9.08578 40000000101872932 40000000101872931 40000000101872937 5.22758097313
9.11431 40000000101872931 40000000101872923 40000000101872937 3.70877426464
9.13634 40000000101872923 40000000101872922 40000000101872937 3.49086136926
9.15273 40000000101872922 40000000101872920 40000000101872937 3.08482263583
9.18802 40000000101872920 40000000101872918 40000000101872937 2.89578500573
9.07766 40000000101873000 40000000101872999 40000000101873008 7.00541704554
9.10926 40000000101872999 40000000101872998 40000000101873008 6.85511726265
9.15502 40000000101872998 40000000101872997 40000000101873008 6.49159774567
9.19641 40000000101872997 40000000101872996 40000000101873008 6.14490120342
9.80312 40000000101872996 40000000101872994 40000000101873008 5.84661374788
9.8767 40000000101872994 40000000101872993 40000000101873008 5.52976580795
9.96934 40000000101872993 40000000101872992 40000000101873008 5.22758097313
10.0236 40000000101872992 40000000101872991 40000000101873008 4.99593346816
10.0691 40000000101872991 40000000101872990 40000000101873008 4.93938066349
10.0953 40000000101872990 40000000101872989 40000000101873008 4.66451770247
10.1113 40000000101872989 40000000101872988 40000000101873008 4.42803373661
10.1525 40000000101872988 40000000101872983 40000000101873008 3.49086136926
10.1559 40000000101872983 40000000101872981 40000000101873008 3.08482263583
10.1865 40000000101872981 40000000101872980 40000000101873008 3.00813107163
10.2034 40000000101872980 40000000101872979 40000000101873008 2.89578500573
10.2369 40000000101872979 40000000101872978 40000000101873008 2.73314261732
9.01928 40000000101873060 40000000101873059 40000000101873069 8.44947629437
9.22066 40000000101873059 40000000101873057 40000000101873069 7.59510714987
9.30278 40000000101873057 40000000101873052 40000000101873069 6.14490120342
9.40646 40000000101873052 40000000101873051 40000000101873069 6.01075739884
9.02855 40000000101873095 40000000101873094 40000000101873106 6.49159774567
9.07216 40000000101873094 40000000101873093 40000000101873106 6.14490120342
9.08038 40000000101873093 40000000101873092 40000000101873106 6.01075739884
9.10671 40000000101873092 40000000101873091 40000000101873106 5.84661374788
9.10671 40000000101873091 40000000101873089 40000000101873106 5.22758097313
9.12668 40000000101873089 40000000101873088 40000000101873106 4.99593346816
9.15502 40000000101873088 40000000101873085 40000000101873106 4.42803373661
9.17946 40000000101873085 40000000101873083 40000000101873106 4.00794511147
9.4651 40000000101873143 40000000101873142 40000000101873143 0.700106353719
9.53523 40000000101873142 40000000101873141 40000000101873143 0.676110411213
9.0098 40000000101873259 40000000101873258 40000000101873270 3.28303305796
9.05524 40000000101873258 40000000101873257 40000000101873270 3.08482263583
9.08309 40000000101873257 40000000101873256 40000000101873270 3.00813107163
9.10671 40000000101873256 40000000101873254 40000000101873270 2.73314261732
9.14811 40000000101873254 40000000101873253 40000000101873270 2.5772902716
9.09898 40000000101873343 40000000101873342 40000000101873360 1.90408954353
9.12912 40000000101873342 40000000101873341 40000000101873360 1.82268925262
9.14344 40000000101873341 40000000101873340 40000000101873360 1.74357057433
9.16182 40000000101873340 40000000101873339 40000000101873360 1.66666955611
9.19641 40000000101873339 40000000101873338 40000000101873360 1.60423452207
9.0098 40000000101873452 40000000101873451 40000000101873459 7.00541704554
9.06378 40000000101873451 40000000101873448 40000000101873459 6.14490120342
9.13394 40000000101873448 40000000101873447 40000000101873459 6.01075739884
9.22651 40000000101873447 40000000101873444 40000000101873459 5.22758097313
9.23229 40000000101873444 40000000101873443 40000000101873459 4.99593346816
9.24733 40000000101873443 40000000101873441 40000000101873459 4.66451770247
9.28788 40000000101873441 40000000101873439 40000000101873459 4.17683491473
9.31874 40000000101873439 40000000101873438 40000000101873459 4.00794511147
9.31874 40000000101873438 40000000101873437 40000000101873459 3.93726108473
9.32342 40000000101873437 40000000101873436 40000000101873459 3.70877426464
9.36902 40000000101873436 40000000101873435 40000000101873459 3.49086136926
9.45946 40000000101873435 40000000101873434 40000000101873459 3.28303305796
9.54836 40000000101873434 40000000101873429 40000000101873459 2.5772902716
9.0666 40000000101873665 40000000101873664 40000000101873670 6.14490120342
9.09637 40000000101873664 40000000101873663 40000000101873670 6.01075739884
9.11431 40000000101873663 40000000101873662 40000000101873670 5.84661374788
9.2342 40000000101873662 40000000101873661 40000000101873670 5.52976580795
9.2845 40000000101873661 40000000101873660 40000000101873670 5.22758097313
9.32497 40000000101873660 40000000101873659 40000000101873670 4.99593346816
9.34756 40000000101873659 40000000101873657 40000000101873670 4.66451770247
9.43257 40000000101873657 40000000101873656 40000000101873670 4.42803373661
9.56999 40000000101873656 40000000101873654 40000000101873670 4.00794511147
9.69118 40000000101873654 40000000101873652 40000000101873670 3.70877426464
9.74314 40000000101873652 40000000101873650 40000000101873670 3.28303305796
9.75364 40000000101873650 40000000101873649 40000000101873670 3.08482263583
9.77608 40000000101873649 40000000101873648 40000000101873670 3.00813107163
9.77881 40000000101873648 40000000101873647 40000000101873670 2.89578500573
9.48372 40000000101873673 40000000101873672 40000000101873690 3.93726108473
9.0066 40000000101873780 40000000101873779 40000000101873785 5.84661374788
9.06096 40000000101873779 40000000101873778 40000000101873785 5.52976580795
9.10415 40000000101873778 40000000101873777 40000000101873785 5.22758097313
9.15502 40000000101873777 40000000101873776 40000000101873785 4.99593346816
9.17073 40000000101873776 40000000101873775 40000000101873785 4.93938066349
9.30602 40000000101873775 40000000101873774 40000000101873785 4.66451770247
9.38141 40000000101873774 40000000101873773 40000000101873785 4.42803373661
9.41029 40000000101873773 40000000101873772 40000000101873785 4.17683491473
9.44564 40000000101873772 40000000101873771 40000000101873785 4.00794511147
9.49951 40000000101873771 40000000101873769 40000000101873785 3.70877426464
9.84052 40000000101873769 40000000101873765 40000000101873785 3.00813107163
9.84428 40000000101873765 40000000101873764 40000000101873785 2.89578500573
9.85307 40000000101873764 40000000101873763 40000000101873785 2.73314261732
9.96688 40000000101873763 40000000101873762 40000000101873785 2.5772902716
10.16 40000000101873762 40000000101873759 40000000101873785 2.20792547238
9.04945 40000000101873800 40000000101873799 40000000101873815 4.00794511147
9.2026 40000000101873799 40000000101873797 40000000101873815 3.70877426464
9.45261 40000000101873797 40000000101873796 40000000101873815 3.49086136926
9.76106 40000000101873796 40000000101873795 40000000101873815 3.28303305796
9.84985 40000000101873795 40000000101873794 40000000101873815 3.08482263583
9.00012 40000000101874069 40000000101874068 40000000101874070 9.00233985416
9.02855 40000000101874068 40000000101874066 40000000101874070 8.44947629437
9.46844 40000000101874066 40000000101874065 40000000101874070 8.01217294887
9.55751 40000000101874065 40000000101874064 40000000101874070 7.59510714987
9.62908 40000000101874064 40000000101874063 40000000101874070 7.23627606617
9.67491 40000000101874063 40000000101874062 40000000101874070 7.00541704554
9.76444 40000000101874062 40000000101874061 40000000101874070 6.85511726265
9.84052 40000000101874061 40000000101874060 40000000101874070 6.49159774567
10.0292 40000000101874060 40000000101874059 40000000101874070 6.14490120342
10.1467 40000000101874059 40000000101874058 40000000101874070 6.01075739884
10.3486 40000000101874058 40000000101874056 40000000101874070 5.52976580795
10.4305 40000000101874056 40000000101874055 40000000101874070 5.22758097313
10.5058 40000000101874055 40000000101874054 40000000101874070 4.99593346816
10.5507 40000000101874054 40000000101874053 40000000101874070 4.93938066349
10.5796 40000000101874053 40000000101874052 40000000101874070 4.66451770247
10.5968 40000000101874052 40000000101874051 40000000101874070 4.42803373661
10.6388 40000000101874051 40000000101874050 40000000101874070 4.17683491473
10.6569 40000000101874050 40000000101874048 40000000101874070 3.93726108473
10.6696 40000000101874048 40000000101874040 40000000101874070 2.5772902716
11.0014 40000000101874040 40000000101874038 40000000101874070 2.31611074396
11.228 40000000101874038 40000000101874031 40000000101874070 1.66666955611
11.3855 40000000101874031 40000000101874030 40000000101874070 1.60423452207
10.2014 40000000101874117 40000000101874116 40000000101874119 5.84661374788
9.01928 40000000101874145 40000000101874144 40000000101874149 9.00233985416
9.02239 40000000101874144 40000000101874143 40000000101874149 8.9079991856
9.08038 40000000101874143 40000000101874142 40000000101874149 8.44947629437
9.09898 40000000101874142 40000000101874141 40000000101874149 8.01217294887
9.33263 40000000101874141 40000000101874140 40000000101874149 7.59510714987
9.47066 40000000101874140 40000000101874139 40000000101874149 7.23627606617
9.47286 40000000101874139 40000000101874138 40000000101874149 7.00541704554
9.49744 40000000101874138 40000000101874137 40000000101874149 6.85511726265
9.00012 40000000101874186 40000000101874185 40000000101874196 7.23627606617
9.03463 40000000101874185 40000000101874184 40000000101874196 7.00541704554
9.02855 40000000101874215 40000000101874214 40000000101874227 5.22758097313
9.0316 40000000101874258 40000000101874257 40000000101874262 9.99659046619
9.10415 40000000101874257 40000000101874255 40000000101874262 9.38877127194
9.15042 40000000101874255 40000000101874254 40000000101874262 9.00233985416
9.15956 40000000101874254 40000000101874253 40000000101874262 8.9079991856
9.20055 40000000101874253 40000000101874252 40000000101874262 8.44947629437
9.3156 40000000101874252 40000000101874251 40000000101874262 8.01217294887
9.37181 40000000101874251 40000000101874250 40000000101874262 7.59510714987
9.45376 40000000101874250 40000000101874249 40000000101874262 7.23627606617
9.50465 40000000101874249 40000000101874248 40000000101874262 7.00541704554
9.53902 40000000101874248 40000000101874247 40000000101874262 6.85511726265
9.61186 40000000101874247 40000000101874246 40000000101874262 6.49159774567
9.7336 40000000101874246 40000000101874245 40000000101874262 6.14490120342
9.77113 40000000101874245 40000000101874243 40000000101874262 5.84661374788
9.01298 40000000101874499 40000000101874498 40000000101874503 6.49159774567
9.13634 40000000101874498 40000000101874497 40000000101874503 6.14490120342
9.15502 40000000101874497 40000000101874495 40000000101874503 5.84661374788
9.29787 40000000101874495 40000000101874493 40000000101874503 5.22758097313
9.35194 40000000101874493 40000000101874491 40000000101874503 4.93938066349
9.43856 40000000101874491 40000000101874490 40000000101874503 4.66451770247
9.55387 40000000101874490 40000000101874489 40000000101874503 4.42803373661
9.66936 40000000101874489 40000000101874488 40000000101874503 4.17683491473
9.79219 40000000101874488 40000000101874487 40000000101874503 4.00794511147
9.87972 40000000101874487 40000000101874486 40000000101874503 3.93726108473
9.96334 40000000101874486 40000000101874485 40000000101874503 3.70877426464
9.9932 40000000101874485 40000000101874484 40000000101874503 3.49086136926
10.0361 40000000101874484 40000000101874483 40000000101874503 3.28303305796
10.0486 40000000101874483 40000000101874482 40000000101874503 3.08482263583
10.0621 40000000101874482 40000000101874481 40000000101874503 3.00813107163
10.0782 40000000101874481 40000000101874480 40000000101874503 2.89578500573
10.1176 40000000101874480 40000000101874479 40000000101874503 2.73314261732
10.1842 40000000101874479 40000000101874478 40000000101874503 2.5772902716
10.2959 40000000101874478 40000000101874477 40000000101874503 2.44422570455
10.4323 40000000101874477 40000000101874476 40000000101874503 2.31611074396
10.4899 40000000101874476 40000000101874475 40000000101874503 2.20792547238
10.5202 40000000101874475 40000000101874474 40000000101874503 2.1032696526
10.555 40000000101874474 40000000101874473 40000000101874503 2.00202813925
10.5837 40000000101874473 40000000101874471 40000000101874503 1.82268925262
9.05235 40000000101874566 40000000101874565 40000000101874576 4.66451770247
9.01298 40000000101874609 40000000101874608 40000000101874619 4.00794511147
9.06939 40000000101874608 40000000101874604 40000000101874619 3.28303305796
9.09375 40000000101874604 40000000101874603 40000000101874619 3.08482263583
9.14344 40000000101874603 40000000101874601 40000000101874619 2.89578500573
9.0066 40000000101874637 40000000101874636 40000000101874645 4.42803373661
9.0066 40000000101874636 40000000101874634 40000000101874645 4.00794511147
9.04062 40000000101874634 40000000101874633 40000000101874645 3.93726108473
9.10926 40000000101874633 40000000101874632 40000000101874645 3.70877426464
9.17073 40000000101874632 40000000101874630 40000000101874645 3.28303305796
9.17293 40000000101874630 40000000101874629 40000000101874645 3.08482263583
9.18802 40000000101874629 40000000101874628 40000000101874645 3.00813107163
9.04062 40000000101874681 40000000101874680 40000000101874693 6.14490120342
9.04945 40000000101874680 40000000101874679 40000000101874693 6.01075739884
9.07216 40000000101874679 40000000101874678 40000000101874693 5.84661374788
9.08038 40000000101874678 40000000101874677 40000000101874693 5.52976580795
9.15273 40000000101874677 40000000101874676 40000000101874693 5.22758097313
9.21072 40000000101874676 40000000101874675 40000000101874693 4.99593346816
9.21671 40000000101874675 40000000101874674 40000000101874693 4.93938066349
9.25648 40000000101874674 40000000101874673 40000000101874693 4.66451770247
9.32031 40000000101874673 40000000101874672 40000000101874693 4.42803373661
9.32805 40000000101874672 40000000101874671 40000000101874693 4.17683491473
9.36199 40000000101874671 40000000101874670 40000000101874693 4.00794511147
9.44211 40000000101874670 40000000101874668 40000000101874693 3.70877426464
9.49221 40000000101874668 40000000101874667 40000000101874693 3.49086136926
9.50055 40000000101874667 40000000101874666 40000000101874693 3.28303305796
9.56201 40000000101874666 40000000101874665 40000000101874693 3.08482263583
9.63061 40000000101874665 40000000101874664 40000000101874693 3.00813107163
9.65802 40000000101874664 40000000101874661 40000000101874693 2.5772902716
9.01298 40000000101874722 40000000101874721 40000000101874731 3.28303305796
9.07766 40000000101874780 40000000101874779 40000000101874788 5.52976580795
9.15273 40000000101874779 40000000101874778 40000000101874788 5.22758097313
9.19013 40000000101874778 40000000101874777 40000000101874788 4.99593346816
9.24175 40000000101874777 40000000101874776 40000000101874788 4.93938066349
9.53332 40000000101874776 40000000101874775 40000000101874788 4.66451770247
9.60866 40000000101874775 40000000101874774 40000000101874788 4.42803373661
9.65442 40000000101874774 40000000101874773 40000000101874788 4.17683491473
9.72074 40000000101874773 40000000101874772 40000000101874788 4.00794511147
9.72691 40000000101874772 40000000101874771 40000000101874788 3.93726108473
9.77444 40000000101874771 40000000101874770 40000000101874788 3.70877426464
9.81378 40000000101874770 40000000101874769 40000000101874788 3.49086136926
9.8237 40000000101874769 40000000101874768 40000000101874788 3.28303305796
9.85989 40000000101874768 40000000101874767 40000000101874788 3.08482263583
9.88994 40000000101874767 40000000101874766 40000000101874788 3.00813107163
9.07492 40000000101874793 40000000101874792 40000000101874799 5.52976580795
9.07492 40000000101874792 40000000101874790 40000000101874799 4.99593346816
9.00012 40000000101874892 40000000101874891 40000000101874901 4.17683491473
9.0316 40000000101874891 40000000101874890 40000000101874901 4.00794511147
9.04358 40000000101874890 40000000101874889 40000000101874901 3.93726108473
9.07766 40000000101874889 40000000101874888 40000000101874901 3.70877426464
9.13394 40000000101874888 40000000101874887 40000000101874901 3.49086136926
9.19641 40000000101874887 40000000101874886 40000000101874901 3.28303305796
9.29951 40000000101874886 40000000101874885 40000000101874901 3.08482263583
9.4964 40000000101874885 40000000101874883 40000000101874901 2.89578500573
9.53044 40000000101874883 40000000101874882 40000000101874901 2.73314261732
9.66936 40000000101874882 40000000101874881 40000000101874901 2.5772902716
9.68515 40000000101874881 40000000101874880 40000000101874901 2.44422570455
9.08578 40000000101874907 40000000101874906 40000000101874929 3.28303305796
9.02855 40000000101875129 40000000101875128 40000000101875144 4.66451770247
9.07216 40000000101875128 40000000101875127 40000000101875144 4.42803373661
9.18802 40000000101875127 40000000101875126 40000000101875144 4.17683491473
9.25101 40000000101875126 40000000101875125 40000000101875144 4.00794511147
9.36763 40000000101875125 40000000101875123 40000000101875144 3.70877426464
9.44681 40000000101875123 40000000101875122 40000000101875144 3.49086136926
9.46172 40000000101875122 40000000101875115 40000000101875144 2.44422570455
9.48049 40000000101875115 40000000101875085 40000000101875144 0.732636182022
9.01614 40000000101875241 40000000101875240 40000000101875254 3.49086136926
9.02239 40000000101875240 40000000101875239 40000000101875254 3.28303305796
9.06096 40000000101875239 40000000101875238 40000000101875254 3.08482263583
9.07492 40000000101875238 40000000101875237 40000000101875254 3.00813107163
9.09637 40000000101875237 40000000101875234 40000000101875254 2.5772902716
9.15042 40000000101875234 40000000101875233 40000000101875254 2.44422570455
