logMh | fpID | subhaloID | main leaf ID | z
9.22457 60000019800000106 60000019800000105 60000019800000107 10.9190331982
9.51575 60000019800000105 60000019800000104 60000019800000107 10.3674435724
9.5629 60000019800000104 60000019800000103 60000019800000107 9.99659046619
9.6329 60000019800000103 60000019800000102 60000019800000107 9.84138043947
9.84847 60000019800000102 60000019800000101 60000019800000107 9.38877127194
10.0165 60000019800000101 60000019800000100 60000019800000107 9.00233985416
10.2271 60000019800000100 60000019800000099 60000019800000107 8.9079991856
10.2864 60000019800000099 60000019800000097 60000019800000107 8.01217294887
10.4349 60000019800000097 60000019800000096 60000019800000107 7.59510714987
10.5583 60000019800000096 60000019800000095 60000019800000107 7.23627606617
10.6757 60000019800000095 60000019800000094 60000019800000107 7.00541704554
10.7039 60000019800000094 60000019800000093 60000019800000107 6.85511726265
10.7674 60000019800000093 60000019800000092 60000019800000107 6.49159774567
10.8168 60000019800000092 60000019800000091 60000019800000107 6.14490120342
10.8199 60000019800000091 60000019800000090 60000019800000107 6.01075739884
10.8247 60000019800000090 60000019800000089 60000019800000107 5.84661374788
10.8768 60000019800000089 60000019800000088 60000019800000107 5.52976580795
10.942 60000019800000088 60000019800000087 60000019800000107 5.22758097313
11.0098 60000019800000087 60000019800000086 60000019800000107 4.99593346816
11.0328 60000019800000086 60000019800000085 60000019800000107 4.93938066349
11.0921 60000019800000085 60000019800000084 60000019800000107 4.66451770247
11.1596 60000019800000084 60000019800000083 60000019800000107 4.42803373661
11.2116 60000019800000083 60000019800000082 60000019800000107 4.17683491473
11.2475 60000019800000082 60000019800000081 60000019800000107 4.00794511147
11.2641 60000019800000081 60000019800000080 60000019800000107 3.93726108473
11.3288 60000019800000080 60000019800000079 60000019800000107 3.70877426464
11.3664 60000019800000079 60000019800000078 60000019800000107 3.49086136926
11.4052 60000019800000078 60000019800000077 60000019800000107 3.28303305796
11.508 60000019800000077 60000019800000076 60000019800000107 3.08482263583
11.535 60000019800000076 60000019800000075 60000019800000107 3.00813107163
11.5808 60000019800000075 60000019800000074 60000019800000107 2.89578500573
11.6595 60000019800000074 60000019800000073 60000019800000107 2.73314261732
11.6994 60000019800000073 60000019800000072 60000019800000107 2.5772902716
11.7352 60000019800000072 60000019800000071 60000019800000107 2.44422570455
11.7388 60000019800000071 60000019800000070 60000019800000107 2.31611074396
11.7493 60000019800000070 60000019800000064 60000019800000107 1.74357057433
11.7783 60000019800000064 60000019800000063 60000019800000107 1.66666955611
11.8247 60000019800000063 60000019800000062 60000019800000107 1.60423452207
11.8816 60000019800000062 60000019800000061 60000019800000107 1.53123902916
11.933 60000019800000061 60000019800000060 60000019800000107 1.47197484527
11.9703 60000019800000060 60000019800000059 60000019800000107 1.41409822037
11.9876 60000019800000059 60000019800000058 60000019800000107 1.3575766674
12.0175 60000019800000058 60000019800000057 60000019800000107 1.30237845991
12.0408 60000019800000057 60000019800000056 60000019800000107 1.24847261425
12.0561 60000019800000056 60000019800000055 60000019800000107 1.20625808078
12.0738 60000019800000055 60000019800000054 60000019800000107 1.15460271236
12.0893 60000019800000054 60000019800000053 60000019800000107 1.11415056377
12.1042 60000019800000053 60000019800000052 60000019800000107 1.07445789455
12.1147 60000019800000052 60000019800000051 60000019800000107 1.03551044566
12.1171 60000019800000051 60000019800000050 60000019800000107 0.997294225782
12.1176 60000019800000050 60000019800000049 60000019800000107 0.987852810816
12.1214 60000019800000049 60000019800000048 60000019800000107 0.950531351585
12.1526 60000019800000048 60000019800000047 60000019800000107 0.923000816178
12.1609 60000019800000047 60000019800000046 60000019800000107 0.886896937575
12.1693 60000019800000046 60000019800000045 60000019800000107 0.851470900625
12.1789 60000019800000045 60000019800000044 60000019800000107 0.816709979012
12.186 60000019800000044 60000019800000042 60000019800000107 0.757441372616
12.1969 60000019800000042 60000019800000041 60000019800000107 0.732636182022
12.2018 60000019800000041 60000019800000040 60000019800000107 0.700106353719
12.2115 60000019800000040 60000019800000039 60000019800000107 0.676110411213
12.2232 60000019800000039 60000019800000038 60000019800000107 0.644641840685
12.2234 60000019800000038 60000019800000037 60000019800000107 0.621428745243
12.2307 60000019800000037 60000019800000036 60000019800000107 0.598543288188
12.2367 60000019800000036 60000019800000035 60000019800000107 0.575980845108
12.255 60000019800000035 60000019800000034 60000019800000107 0.546392183141
12.2737 60000019800000034 60000019800000033 60000019800000107 0.524565820434
12.2843 60000019800000033 60000019800000032 60000019800000107 0.503047523245
12.2933 60000019800000032 60000019800000031 60000019800000107 0.481832943421
12.2968 60000019800000031 60000019800000030 60000019800000107 0.460917794181
12.3061 60000019800000030 60000019800000029 60000019800000107 0.440297849248
12.313 60000019800000029 60000019800000028 60000019800000107 0.419968941997
12.3209 60000019800000028 60000019800000027 60000019800000107 0.399926964614
12.3305 60000019800000027 60000019800000026 60000019800000107 0.38016786726
12.3368 60000019800000026 60000019800000025 60000019800000107 0.360687657262
12.3447 60000019800000025 60000019800000024 60000019800000107 0.347853841858
12.3514 60000019800000024 60000019800000023 60000019800000107 0.328829724206
12.3526 60000019800000023 60000019800000022 60000019800000107 0.310074120128
12.3569 60000019800000022 60000019800000021 60000019800000107 0.291583239722
12.3597 60000019800000021 60000019800000020 60000019800000107 0.273353346578
12.3635 60000019800000020 60000019800000019 60000019800000107 0.261343256161
12.3658 60000019800000019 60000019800000018 60000019800000107 0.243540181555
12.3738 60000019800000018 60000019800000017 60000019800000107 0.22598838626
12.376 60000019800000017 60000019800000016 60000019800000107 0.214425035514
12.3774 60000019800000016 60000019800000014 60000019800000107 0.180385261706
12.3792 60000019800000014 60000019800000013 60000019800000107 0.169252033244
12.3869 60000019800000013 60000019800000012 60000019800000107 0.152748768902
12.3922 60000019800000012 60000019800000011 60000019800000107 0.14187620397
12.3962 60000019800000011 60000019800000010 60000019800000107 0.125759332411
12.4057 60000019800000010 60000019800000009 60000019800000107 0.109869940459
12.4122 60000019800000009 60000019800000008 60000019800000107 0.0994018026302
12.4135 60000019800000008 60000019800000007 60000019800000107 0.0838844307975
12.4202 60000019800000007 60000019800000005 60000019800000107 0.0585073227945
12.4217 60000019800000005 60000019800000004 60000019800000107 0.0485236299818
12.422 60000019800000004 60000019800000003 60000019800000107 0.0337243718735
12.423 60000019800000003 60000019800000002 60000019800000107 0.0239744283828
12.4245 60000019800000002 60000019800000001 60000019800000107 0.00952166696794
9.00012 60000019800000120 60000019800000119 60000019800000121 10.3674435724
9.10415 60000019800000119 60000019800000118 60000019800000121 9.99659046619
9.15273 60000019800000118 60000019800000117 60000019800000121 9.84138043947
9.00337 60000019800000153 60000019800000152 60000019800000156 12.0418635439
9.08578 60000019800000152 60000019800000151 60000019800000156 11.4973879548
9.2811 60000019800000151 60000019800000150 60000019800000156 10.9190331982
9.40131 60000019800000150 60000019800000149 60000019800000156 10.3674435724
9.47396 60000019800000149 60000019800000148 60000019800000156 9.99659046619
9.48265 60000019800000148 60000019800000147 60000019800000156 9.84138043947
9.59642 60000019800000147 60000019800000146 60000019800000156 9.38877127194
9.59807 60000019800000146 60000019800000144 60000019800000156 8.44947629437
9.05811 60000019800000171 60000019800000170 60000019800000179 8.44947629437
9.03463 60000019800000199 60000019800000198 60000019800000203 10.3674435724
9.10157 60000019800000198 60000019800000197 60000019800000203 9.99659046619
9.17073 60000019800000197 60000019800000196 60000019800000203 9.84138043947
9.3974 60000019800000276 60000019800000275 60000019800000281 9.99659046619
9.83578 60000019800000275 60000019800000272 60000019800000281 9.00233985416
9.92276 60000019800000272 60000019800000269 60000019800000281 8.01217294887
9.1573 60000019800000285 60000019800000284 60000019800000289 10.3674435724
9.18162 60000019800000284 60000019800000283 60000019800000289 9.84138043947
9.47066 60000019800000296 60000019800000295 60000019800000299 9.38877127194
9.10671 60000019800000311 60000019800000310 60000019800000318 8.9079991856
9.17512 60000019800000310 60000019800000309 60000019800000318 8.44947629437
9.03463 60000019800000352 60000019800000351 60000019800000355 6.49159774567
9.06096 60000019800000351 60000019800000350 60000019800000355 6.14490120342
9.11431 60000019800000350 60000019800000349 60000019800000355 6.01075739884
9.03463 60000019800000387 60000019800000386 60000019800000390 7.23627606617
9.04358 60000019800000386 60000019800000385 60000019800000390 7.00541704554
9.0666 60000019800000385 60000019800000384 60000019800000390 6.85511726265
9.13154 60000019800000384 60000019800000383 60000019800000390 6.49159774567
9.20055 60000019800000383 60000019800000381 60000019800000390 6.01075739884
9.24362 60000019800000381 60000019800000380 60000019800000390 5.84661374788
9.01928 60000019800000472 60000019800000471 60000019800000476 8.44947629437
9.08309 60000019800000471 60000019800000470 60000019800000476 8.01217294887
9.13634 60000019800000470 60000019800000469 60000019800000476 7.59510714987
9.1663 60000019800000469 60000019800000467 60000019800000476 7.00541704554
9.19433 60000019800000467 60000019800000466 60000019800000476 6.85511726265
9.00337 60000019800000508 60000019800000507 60000019800000513 9.84138043947
9.04062 60000019800000507 60000019800000506 60000019800000513 9.38877127194
9.20464 60000019800000506 60000019800000505 60000019800000513 9.00233985416
9.44093 60000019800000505 60000019800000503 60000019800000513 8.44947629437
9.48372 60000019800000503 60000019800000502 60000019800000513 8.01217294887
9.53044 60000019800000502 60000019800000501 60000019800000513 7.59510714987
9.65078 60000019800000501 60000019800000500 60000019800000513 7.23627606617
9.6756 60000019800000500 60000019800000499 60000019800000513 7.00541704554
9.76947 60000019800000499 60000019800000498 60000019800000513 6.85511726265
9.85899 60000019800000498 60000019800000497 60000019800000513 6.49159774567
9.98517 60000019800000497 60000019800000496 60000019800000513 6.14490120342
10.0258 60000019800000496 60000019800000495 60000019800000513 6.01075739884
10.0601 60000019800000495 60000019800000494 60000019800000513 5.84661374788
9.09637 60000019800000556 60000019800000555 60000019800000564 7.23627606617
9.1193 60000019800000555 60000019800000554 60000019800000564 7.00541704554
9.14811 60000019800000554 60000019800000552 60000019800000564 6.49159774567
9.2862 60000019800000552 60000019800000547 60000019800000564 5.22758097313
9.04358 60000019800000629 60000019800000628 60000019800000637 7.59510714987
9.04945 60000019800000628 60000019800000627 60000019800000637 7.23627606617
9.08309 60000019800000627 60000019800000625 60000019800000637 6.85511726265
9.0098 60000019800000761 60000019800000760 60000019800000771 4.42803373661
9.02548 60000019800000760 60000019800000759 60000019800000771 4.17683491473
9.00012 60000019800000904 60000019800000903 60000019800000913 5.84661374788
9.0066 60000019800000903 60000019800000902 60000019800000913 5.52976580795
9.04358 60000019800000992 60000019800000991 60000019800001003 6.14490120342
9.04945 60000019800000991 60000019800000990 60000019800001003 6.01075739884
9.0666 60000019800000990 60000019800000989 60000019800001003 5.84661374788
9.09375 60000019800000989 60000019800000987 60000019800001003 5.22758097313
9.10926 60000019800000987 60000019800000986 60000019800001003 4.99593346816
9.17946 60000019800000986 60000019800000984 60000019800001003 4.66451770247
9.04945 60000019800001041 60000019800001040 60000019800001052 4.66451770247
9.09898 60000019800001040 60000019800001039 60000019800001052 4.42803373661
9.07216 60000019800001125 60000019800001124 60000019800001128 9.99659046619
9.13871 60000019800001124 60000019800001123 60000019800001128 9.84138043947
9.37732 60000019800001123 60000019800001119 60000019800001128 8.44947629437
9.42281 60000019800001119 60000019800001118 60000019800001128 8.01217294887
9.59477 60000019800001118 60000019800001117 60000019800001128 7.59510714987
9.64564 60000019800001117 60000019800001116 60000019800001128 7.23627606617
9.66655 60000019800001116 60000019800001115 60000019800001128 7.00541704554
9.69581 60000019800001115 60000019800001114 60000019800001128 6.85511726265
9.7348 60000019800001114 60000019800001113 60000019800001128 6.49159774567
9.78902 60000019800001113 60000019800001112 60000019800001128 6.14490120342
9.80466 60000019800001112 60000019800001111 60000019800001128 6.01075739884
9.84847 60000019800001111 60000019800001110 60000019800001128 5.84661374788
9.89952 60000019800001110 60000019800001109 60000019800001128 5.52976580795
9.94147 60000019800001109 60000019800001108 60000019800001128 5.22758097313
9.97698 60000019800001108 60000019800001107 60000019800001128 4.99593346816
9.98887 60000019800001107 60000019800001106 60000019800001128 4.93938066349
10.0104 60000019800001106 60000019800001105 60000019800001128 4.66451770247
9.16852 60000019800001133 60000019800001132 60000019800001133 9.00233985416
9.26008 60000019800001132 60000019800001131 60000019800001133 8.9079991856
9.04358 60000019800001151 60000019800001150 60000019800001159 6.14490120342
9.05524 60000019800001150 60000019800001148 60000019800001159 5.84661374788
9.01928 60000019800001185 60000019800001184 60000019800001194 7.59510714987
9.01928 60000019800001184 60000019800001183 60000019800001194 7.23627606617
9.0666 60000019800001183 60000019800001182 60000019800001194 7.00541704554
9.0666 60000019800001182 60000019800001181 60000019800001194 6.85511726265
9.24733 60000019800001181 60000019800001180 60000019800001194 6.49159774567
9.25466 60000019800001180 60000019800001176 60000019800001194 5.52976580795
9.28788 60000019800001176 60000019800001172 60000019800001194 4.66451770247
9.39478 60000019800001172 60000019800001171 60000019800001194 4.17683491473
9.41659 60000019800001171 60000019800001170 60000019800001194 4.00794511147
9.01614 60000019800001220 60000019800001219 60000019800001227 8.01217294887
9.0666 60000019800001219 60000019800001218 60000019800001227 7.59510714987
9.22066 60000019800001218 60000019800001217 60000019800001227 7.23627606617
9.22066 60000019800001217 60000019800001215 60000019800001227 6.85511726265
9.22066 60000019800001215 60000019800001213 60000019800001227 6.14490120342
9.25466 60000019800001213 60000019800001212 60000019800001227 6.01075739884
9.25466 60000019800001212 60000019800001211 60000019800001227 5.84661374788
9.31243 60000019800001211 60000019800001210 60000019800001227 5.52976580795
9.35194 60000019800001210 60000019800001209 60000019800001227 5.22758097313
9.37595 60000019800001209 60000019800001208 60000019800001227 4.99593346816
9.0098 60000019800001247 60000019800001246 60000019800001253 6.14490120342
9.08845 60000019800001246 60000019800001243 60000019800001253 5.52976580795
9.15273 60000019800001243 60000019800001242 60000019800001253 5.22758097313
9.23037 60000019800001242 60000019800001238 60000019800001253 4.42803373661
9.29457 60000019800001238 60000019800001237 60000019800001253 4.17683491473
9.32805 60000019800001237 60000019800001236 60000019800001253 4.00794511147
9.03463 60000019800001302 60000019800001301 60000019800001310 6.14490120342
9.04653 60000019800001301 60000019800001300 60000019800001310 6.01075739884
9.13634 60000019800001386 60000019800001385 60000019800001390 6.01075739884
9.26365 60000019800001385 60000019800001383 60000019800001390 5.52976580795
9.32805 60000019800001383 60000019800001382 60000019800001390 5.22758097313
9.34461 60000019800001382 60000019800001381 60000019800001390 4.99593346816
9.38948 60000019800001381 60000019800001380 60000019800001390 4.93938066349
9.41909 60000019800001380 60000019800001379 60000019800001390 4.66451770247
9.47396 60000019800001379 60000019800001378 60000019800001390 4.42803373661
9.02548 60000019800001394 60000019800001393 60000019800001394 6.14490120342
9.13634 60000019800001482 60000019800001481 60000019800001488 7.23627606617
9.17512 60000019800001481 60000019800001480 60000019800001488 7.00541704554
9.19848 60000019800001480 60000019800001479 60000019800001488 6.85511726265
9.26896 60000019800001479 60000019800001478 60000019800001488 6.49159774567
9.38412 60000019800001478 60000019800001477 60000019800001488 6.14490120342
9.40646 60000019800001477 60000019800001476 60000019800001488 6.01075739884
9.61026 60000019800001476 60000019800001475 60000019800001488 5.84661374788
9.78098 60000019800001475 60000019800001474 60000019800001488 5.52976580795
9.8697 60000019800001474 60000019800001473 60000019800001488 5.22758097313
9.90929 60000019800001473 60000019800001472 60000019800001488 4.99593346816
9.96298 60000019800001472 60000019800001471 60000019800001488 4.93938066349
9.08845 60000019800001508 60000019800001507 60000019800001511 7.59510714987
9.0316 60000019800001547 60000019800001546 60000019800001550 6.14490120342
9.08038 60000019800001546 60000019800001545 60000019800001550 6.01075739884
9.11179 60000019800001545 60000019800001537 60000019800001550 4.17683491473
9.02855 60000019800001628 60000019800001627 60000019800001633 6.14490120342
9.03463 60000019800001627 60000019800001626 60000019800001633 6.01075739884
9.36056 60000019800001626 60000019800001624 60000019800001633 5.22758097313
9.51074 60000019800001624 60000019800001623 60000019800001633 4.99593346816
9.51873 60000019800001623 60000019800001621 60000019800001633 4.66451770247
9.53996 60000019800001621 60000019800001620 60000019800001633 4.42803373661
9.54836 60000019800001620 60000019800001619 60000019800001633 4.17683491473
9.03763 60000019800001670 60000019800001669 60000019800001681 5.52976580795
9.05235 60000019800001669 60000019800001668 60000019800001681 5.22758097313
9.05524 60000019800001668 60000019800001667 60000019800001681 4.99593346816
9.06096 60000019800001667 60000019800001666 60000019800001681 4.93938066349
9.10157 60000019800001666 60000019800001665 60000019800001681 4.66451770247
9.16852 60000019800001665 60000019800001664 60000019800001681 4.42803373661
9.18802 60000019800001664 60000019800001660 60000019800001681 3.70877426464
9.25466 60000019800001660 60000019800001659 60000019800001681 3.49086136926
9.0098 60000019800001697 60000019800001696 60000019800001710 4.66451770247
9.02855 60000019800001696 60000019800001695 60000019800001710 4.42803373661
9.03763 60000019800001695 60000019800001694 60000019800001710 4.17683491473
9.04653 60000019800001694 60000019800001692 60000019800001710 3.93726108473
9.0666 60000019800001692 60000019800001690 60000019800001710 3.49086136926
9.1663 60000019800001781 60000019800001780 60000019800001785 9.00233985416
9.19433 60000019800001780 60000019800001779 60000019800001785 8.9079991856
9.37181 60000019800001779 60000019800001778 60000019800001785 8.44947629437
9.43136 60000019800001778 60000019800001777 60000019800001785 8.01217294887
9.54928 60000019800001777 60000019800001776 60000019800001785 7.59510714987
9.6573 60000019800001776 60000019800001775 60000019800001785 7.23627606617
9.91129 60000019800001775 60000019800001774 60000019800001785 7.00541704554
9.93241 60000019800001774 60000019800001773 60000019800001785 6.85511726265
9.98211 60000019800001773 60000019800001772 60000019800001785 6.49159774567
10.0573 60000019800001772 60000019800001771 60000019800001785 6.14490120342
10.1479 60000019800001771 60000019800001770 60000019800001785 6.01075739884
10.1703 60000019800001770 60000019800001769 60000019800001785 5.84661374788
10.1895 60000019800001769 60000019800001768 60000019800001785 5.52976580795
10.4894 60000019800001768 60000019800001766 60000019800001785 4.99593346816
10.5084 60000019800001766 60000019800001765 60000019800001785 4.93938066349
10.5829 60000019800001765 60000019800001764 60000019800001785 4.66451770247
10.6262 60000019800001764 60000019800001763 60000019800001785 4.42803373661
10.6967 60000019800001763 60000019800001762 60000019800001785 4.17683491473
10.6969 60000019800001762 60000019800001761 60000019800001785 4.00794511147
10.7087 60000019800001761 60000019800001760 60000019800001785 3.93726108473
9.10157 60000019800001905 60000019800001904 60000019800001910 8.44947629437
9.1193 60000019800001904 60000019800001903 60000019800001910 8.01217294887
9.15502 60000019800001903 60000019800001902 60000019800001910 7.59510714987
9.28788 60000019800001902 60000019800001901 60000019800001910 7.23627606617
9.35338 60000019800001901 60000019800001897 60000019800001910 6.14490120342
9.37181 60000019800001897 60000019800001895 60000019800001910 5.84661374788
9.08038 60000019800001956 60000019800001955 60000019800001959 9.00233985416
9.13394 60000019800001955 60000019800001954 60000019800001959 8.9079991856
9.18589 60000019800001954 60000019800001953 60000019800001959 8.44947629437
9.38681 60000019800001953 60000019800001952 60000019800001959 8.01217294887
9.43136 60000019800001952 60000019800001951 60000019800001959 7.59510714987
9.54928 60000019800001951 60000019800001950 60000019800001959 7.23627606617
9.56379 60000019800001950 60000019800001949 60000019800001959 7.00541704554
9.66795 60000019800001949 60000019800001948 60000019800001959 6.85511726265
9.78152 60000019800001948 60000019800001947 60000019800001959 6.49159774567
9.82565 60000019800001947 60000019800001946 60000019800001959 6.14490120342
9.84521 60000019800001946 60000019800001944 60000019800001959 5.84661374788
10.0436 60000019800001944 60000019800001943 60000019800001959 5.52976580795
10.2167 60000019800001943 60000019800001942 60000019800001959 5.22758097313
9.07492 60000019800002000 60000019800001999 60000019800002006 8.44947629437
9.09898 60000019800001999 60000019800001997 60000019800002006 7.59510714987
9.1193 60000019800001997 60000019800001996 60000019800002006 7.23627606617
9.14344 60000019800001996 60000019800001995 60000019800002006 7.00541704554
9.02548 60000019800002353 60000019800002352 60000019800002359 6.14490120342
9.05235 60000019800002352 60000019800002351 60000019800002359 6.01075739884
9.10415 60000019800002351 60000019800002350 60000019800002359 5.84661374788
9.17512 60000019800002350 60000019800002349 60000019800002359 5.52976580795
9.26187 60000019800002349 60000019800002348 60000019800002359 5.22758097313
9.30278 60000019800002348 60000019800002347 60000019800002359 4.99593346816
9.33263 60000019800002347 60000019800002345 60000019800002359 4.66451770247
9.40774 60000019800002345 60000019800002344 60000019800002359 4.42803373661
9.50771 60000019800002344 60000019800002343 60000019800002359 4.17683491473
9.03463 60000019800002387 60000019800002386 60000019800002397 4.66451770247
9.06939 60000019800002386 60000019800002385 60000019800002397 4.42803373661
9.08038 60000019800002385 60000019800002382 60000019800002397 3.93726108473
9.08845 60000019800002382 60000019800002380 60000019800002397 3.49086136926
9.09375 60000019800002380 60000019800002379 60000019800002397 3.28303305796
9.02239 60000019800002491 60000019800002490 60000019800002499 3.28303305796
9.03463 60000019800002490 60000019800002489 60000019800002499 3.08482263583
9.08309 60000019800002489 60000019800002488 60000019800002499 3.00813107163
9.09637 60000019800002488 60000019800002487 60000019800002499 2.89578500573
9.11431 60000019800002487 60000019800002486 60000019800002499 2.73314261732
9.12424 60000019800002486 60000019800002483 60000019800002499 2.31611074396
9.15956 60000019800002483 60000019800002482 60000019800002499 2.20792547238
9.17293 60000019800002482 60000019800002481 60000019800002499 2.1032696526
9.2087 60000019800002481 60000019800002480 60000019800002499 2.00202813925
9.13154 60000019800002585 60000019800002584 60000019800002603 2.20792547238
9.19223 60000019800002584 60000019800002583 60000019800002603 2.1032696526
9.09898 60000019800002777 60000019800002776 60000019800002782 9.99659046619
9.2026 60000019800002776 60000019800002775 60000019800002782 9.84138043947
9.2342 60000019800002775 60000019800002774 60000019800002782 9.38877127194
9.41282 60000019800002774 60000019800002773 60000019800002782 9.00233985416
9.43974 60000019800002773 60000019800002772 60000019800002782 8.9079991856
9.69712 60000019800002772 60000019800002771 60000019800002782 8.44947629437
9.79324 60000019800002771 60000019800002770 60000019800002782 8.01217294887
9.86926 60000019800002770 60000019800002769 60000019800002782 7.59510714987
9.90686 60000019800002769 60000019800002768 60000019800002782 7.23627606617
9.96191 60000019800002768 60000019800002767 60000019800002782 7.00541704554
10.0627 60000019800002767 60000019800002766 60000019800002782 6.85511726265
10.1373 60000019800002766 60000019800002765 60000019800002782 6.49159774567
10.1891 60000019800002765 60000019800002764 60000019800002782 6.14490120342
10.2169 60000019800002764 60000019800002763 60000019800002782 6.01075739884
10.2421 60000019800002763 60000019800002762 60000019800002782 5.84661374788
10.2845 60000019800002762 60000019800002761 60000019800002782 5.52976580795
10.3547 60000019800002761 60000019800002760 60000019800002782 5.22758097313
10.4234 60000019800002760 60000019800002759 60000019800002782 4.99593346816
10.4427 60000019800002759 60000019800002758 60000019800002782 4.93938066349
10.5363 60000019800002758 60000019800002757 60000019800002782 4.66451770247
10.6543 60000019800002757 60000019800002755 60000019800002782 4.17683491473
10.6671 60000019800002755 60000019800002754 60000019800002782 4.00794511147
10.6793 60000019800002754 60000019800002751 60000019800002782 3.49086136926
9.09898 60000019800002800 60000019800002799 60000019800002803 10.9190331982
10.5606 60000019800002852 60000019800002851 60000019800002870 4.42803373661
9.01298 60000019800002946 60000019800002945 60000019800002946 9.99659046619
9.24362 60000019800002945 60000019800002940 60000019800002946 8.44947629437
9.35483 60000019800002940 60000019800002939 60000019800002946 8.01217294887
9.5026 60000019800002939 60000019800002938 60000019800002946 7.59510714987
9.54278 60000019800002938 60000019800002937 60000019800002946 7.23627606617
9.59059 60000019800002937 60000019800002936 60000019800002946 7.00541704554
9.65224 60000019800002936 60000019800002935 60000019800002946 6.85511726265
9.7342 60000019800002935 60000019800002934 60000019800002946 6.49159774567
9.79587 60000019800002934 60000019800002933 60000019800002946 6.14490120342
9.83483 60000019800002933 60000019800002932 60000019800002946 6.01075739884
9.85032 60000019800002932 60000019800002931 60000019800002946 5.84661374788
9.93202 60000019800002931 60000019800002930 60000019800002946 5.52976580795
9.17946 60000019800002999 60000019800002998 60000019800003006 5.52976580795
9.21472 60000019800002998 60000019800002997 60000019800003006 5.22758097313
9.22651 60000019800002997 60000019800002996 60000019800003006 4.99593346816
9.27072 60000019800002996 60000019800002994 60000019800003006 4.66451770247
9.30278 60000019800002994 60000019800002993 60000019800003006 4.42803373661
9.33866 60000019800002993 60000019800002992 60000019800003006 4.17683491473
9.37042 60000019800002992 60000019800002991 60000019800003006 4.00794511147
9.39346 60000019800002991 60000019800002990 60000019800003006 3.93726108473
9.00012 60000019800003090 60000019800003089 60000019800003096 7.23627606617
9.08578 60000019800003089 60000019800003088 60000019800003096 7.00541704554
9.09375 60000019800003088 60000019800003087 60000019800003096 6.85511726265
9.18589 60000019800003087 60000019800003086 60000019800003096 6.49159774567
9.29124 60000019800003086 60000019800003085 60000019800003096 6.14490120342
9.34165 60000019800003085 60000019800003083 60000019800003096 5.52976580795
9.40389 60000019800003083 60000019800003082 60000019800003096 5.22758097313
9.48799 60000019800003082 60000019800003076 60000019800003096 4.00794511147
9.03463 60000019800003143 60000019800003142 60000019800003147 6.49159774567
9.08578 60000019800003142 60000019800003141 60000019800003147 6.14490120342
9.13394 60000019800003141 60000019800003140 60000019800003147 6.01075739884
9.13871 60000019800003140 60000019800003139 60000019800003147 5.84661374788
9.17073 60000019800003139 60000019800003138 60000019800003147 5.52976580795
9.21272 60000019800003138 60000019800003137 60000019800003147 5.22758097313
9.21472 60000019800003137 60000019800003133 60000019800003147 4.42803373661
9.23988 60000019800003133 60000019800003132 60000019800003147 4.17683491473
9.10157 60000019800003180 60000019800003179 60000019800003189 5.22758097313
9.13394 60000019800003179 60000019800003173 60000019800003189 4.00794511147
9.18162 60000019800003173 60000019800003172 60000019800003189 3.93726108473
9.21671 60000019800003172 60000019800003171 60000019800003189 3.70877426464
9.22262 60000019800003171 60000019800003169 60000019800003189 3.28303305796
9.06378 60000019800003468 60000019800003467 60000019800003472 9.84138043947
9.09637 60000019800003467 60000019800003466 60000019800003472 9.38877127194
9.11681 60000019800003466 60000019800003464 60000019800003472 8.9079991856
9.17729 60000019800003464 60000019800003463 60000019800003472 8.44947629437
9.19848 60000019800003463 60000019800003462 60000019800003472 8.01217294887
9.21472 60000019800003462 60000019800003461 60000019800003472 7.59510714987
9.30923 60000019800003461 60000019800003460 60000019800003472 7.23627606617
9.31717 60000019800003460 60000019800003459 60000019800003472 7.00541704554
9.33566 60000019800003459 60000019800003458 60000019800003472 6.85511726265
9.33716 60000019800003458 60000019800003457 60000019800003472 6.49159774567
9.51074 60000019800003457 60000019800003456 60000019800003472 6.14490120342
9.5207 60000019800003456 60000019800003455 60000019800003472 6.01075739884
9.55841 60000019800003455 60000019800003454 60000019800003472 5.84661374788
9.71887 60000019800003454 60000019800003453 60000019800003472 5.52976580795
9.74608 60000019800003453 60000019800003452 60000019800003472 5.22758097313
9.76557 60000019800003452 60000019800003451 60000019800003472 4.99593346816
9.87626 60000019800003451 60000019800003449 60000019800003472 4.66451770247
9.00012 60000019800003484 60000019800003483 60000019800003494 6.85511726265
9.18589 60000019800003483 60000019800003482 60000019800003494 6.49159774567
9.00012 60000019800003524 60000019800003523 60000019800003527 4.66451770247
9.05235 60000019800003523 60000019800003522 60000019800003527 4.42803373661
9.12424 60000019800003522 60000019800003521 60000019800003527 4.17683491473
9.15042 60000019800003521 60000019800003519 60000019800003527 3.93726108473
9.19013 60000019800003519 60000019800003517 60000019800003527 3.49086136926
9.24733 60000019800003517 60000019800003516 60000019800003527 3.28303305796
9.39214 60000019800003516 60000019800003515 60000019800003527 3.08482263583
9.0666 60000019800003691 60000019800003690 60000019800003696 7.00541704554
9.10926 60000019800003690 60000019800003688 60000019800003696 6.49159774567
9.12668 60000019800003688 60000019800003686 60000019800003696 6.01075739884
9.19433 60000019800003686 60000019800003685 60000019800003696 5.84661374788
9.3044 60000019800003685 60000019800003684 60000019800003696 5.52976580795
9.5761 60000019800003684 60000019800003683 60000019800003696 4.99593346816
9.60381 60000019800003683 60000019800003682 60000019800003696 4.93938066349
9.6804 60000019800003682 60000019800003681 60000019800003696 4.66451770247
9.70363 60000019800003681 60000019800003680 60000019800003696 4.42803373661
9.71511 60000019800003680 60000019800003679 60000019800003696 4.17683491473
9.74078 60000019800003679 60000019800003678 60000019800003696 4.00794511147
9.75133 60000019800003678 60000019800003676 60000019800003696 3.70877426464
9.7519 60000019800003676 60000019800003670 60000019800003696 2.73314261732
9.83291 60000019800003670 60000019800003669 60000019800003696 2.5772902716
9.43617 60000019800003700 60000019800003699 60000019800003710 5.22758097313
9.07766 60000019800003770 60000019800003769 60000019800003783 5.22758097313
9.1193 60000019800003769 60000019800003768 60000019800003783 4.99593346816
9.12424 60000019800003768 60000019800003767 60000019800003783 4.93938066349
9.17946 60000019800003767 60000019800003766 60000019800003783 4.66451770247
9.19223 60000019800003766 60000019800003765 60000019800003783 4.42803373661
9.21072 60000019800003765 60000019800003759 60000019800003783 3.28303305796
9.16182 60000019800004304 60000019800004303 60000019800004313 3.49086136926
9.20055 60000019800004303 60000019800004302 60000019800004313 3.28303305796
9.22845 60000019800004302 60000019800004301 60000019800004313 3.08482263583
9.23988 60000019800004301 60000019800004300 60000019800004313 3.00813107163
9.29787 60000019800004300 60000019800004299 60000019800004313 2.89578500573
9.34016 60000019800004299 60000019800004298 60000019800004313 2.73314261732
9.45145 60000019800004298 60000019800004292 60000019800004313 2.00202813925
9.05235 60000019800004360 60000019800004359 60000019800004372 4.42803373661
9.07216 60000019800004359 60000019800004354 60000019800004372 3.49086136926
9.12424 60000019800004354 60000019800004352 60000019800004372 3.08482263583
9.04945 60000019800004462 60000019800004461 60000019800004473 2.31611074396
9.09111 60000019800004861 60000019800004860 60000019800004865 9.99659046619
9.12668 60000019800004860 60000019800004859 60000019800004865 9.84138043947
9.21272 60000019800004859 60000019800004858 60000019800004865 9.38877127194
9.26365 60000019800004858 60000019800004857 60000019800004865 9.00233985416
9.28956 60000019800004857 60000019800004856 60000019800004865 8.9079991856
9.31717 60000019800004856 60000019800004855 60000019800004865 8.44947629437
9.43497 60000019800004855 60000019800004854 60000019800004865 8.01217294887
9.68176 60000019800004854 60000019800004853 60000019800004865 7.59510714987
9.78421 60000019800004853 60000019800004852 60000019800004865 7.23627606617
9.81328 60000019800004852 60000019800004851 60000019800004865 7.00541704554
9.86034 60000019800004851 60000019800004850 60000019800004865 6.85511726265
9.96723 60000019800004850 60000019800004849 60000019800004865 6.49159774567
10.005 60000019800004849 60000019800004848 60000019800004865 6.14490120342
10.0777 60000019800004848 60000019800004847 60000019800004865 6.01075739884
10.125 60000019800004847 60000019800004846 60000019800004865 5.84661374788
10.4807 60000019800004846 60000019800004844 60000019800004865 5.22758097313
10.5623 60000019800004844 60000019800004843 60000019800004865 4.99593346816
10.5696 60000019800004843 60000019800004842 60000019800004865 4.93938066349
10.6735 60000019800004842 60000019800004841 60000019800004865 4.66451770247
10.7457 60000019800004841 60000019800004840 60000019800004865 4.42803373661
10.8118 60000019800004840 60000019800004839 60000019800004865 4.17683491473
10.8228 60000019800004839 60000019800004838 60000019800004865 4.00794511147
10.8576 60000019800004838 60000019800004837 60000019800004865 3.93726108473
10.9065 60000019800004837 60000019800004836 60000019800004865 3.70877426464
10.9536 60000019800004836 60000019800004835 60000019800004865 3.49086136926
10.9835 60000019800004835 60000019800004833 60000019800004865 3.08482263583
10.9869 60000019800004833 60000019800004832 60000019800004865 3.00813107163
11.0215 60000019800004832 60000019800004831 60000019800004865 2.89578500573
11.0328 60000019800004831 60000019800004830 60000019800004865 2.73314261732
11.0947 60000019800004830 60000019800004829 60000019800004865 2.5772902716
11.1389 60000019800004829 60000019800004828 60000019800004865 2.44422570455
11.1565 60000019800004828 60000019800004827 60000019800004865 2.31611074396
11.1715 60000019800004827 60000019800004826 60000019800004865 2.20792547238
11.1802 60000019800004826 60000019800004825 60000019800004865 2.1032696526
11.2167 60000019800004825 60000019800004824 60000019800004865 2.00202813925
11.2477 60000019800004824 60000019800004823 60000019800004865 1.90408954353
11.2667 60000019800004823 60000019800004822 60000019800004865 1.82268925262
11.273 60000019800004822 60000019800004821 60000019800004865 1.74357057433
9.01928 60000019800004930 60000019800004929 60000019800004941 6.85511726265
9.02548 60000019800004929 60000019800004926 60000019800004941 6.01075739884
9.10415 60000019800004926 60000019800004924 60000019800004941 5.52976580795
9.05235 60000019800005013 60000019800005012 60000019800005021 8.44947629437
9.3044 60000019800005012 60000019800005011 60000019800005021 8.01217294887
9.41534 60000019800005011 60000019800005010 60000019800005021 7.59510714987
9.43974 60000019800005010 60000019800005009 60000019800005021 7.23627606617
9.45719 60000019800005009 60000019800005008 60000019800005021 7.00541704554
9.56557 60000019800005008 60000019800005007 60000019800005021 6.85511726265
9.64119 60000019800005007 60000019800005006 60000019800005021 6.49159774567
9.87234 60000019800005006 60000019800005005 60000019800005021 6.14490120342
10.3335 60000019800005005 60000019800005002 60000019800005021 5.52976580795
9.04062 60000019800005047 60000019800005046 60000019800005050 9.00233985416
9.04653 60000019800005046 60000019800005045 60000019800005050 8.9079991856
9.10671 60000019800005045 60000019800005044 60000019800005050 8.44947629437
9.2026 60000019800005044 60000019800005043 60000019800005050 8.01217294887
9.33866 60000019800005043 60000019800005042 60000019800005050 7.59510714987
9.35627 60000019800005042 60000019800005041 60000019800005050 7.23627606617
9.38412 60000019800005041 60000019800005040 60000019800005050 7.00541704554
9.01298 60000019800005252 60000019800005251 60000019800005265 5.84661374788
9.05524 60000019800005251 60000019800005249 60000019800005265 5.22758097313
9.09898 60000019800005249 60000019800005248 60000019800005265 4.99593346816
9.13154 60000019800005248 60000019800005244 60000019800005265 4.17683491473
9.18376 60000019800005244 60000019800005243 60000019800005265 4.00794511147
9.22262 60000019800005243 60000019800005241 60000019800005265 3.70877426464
9.07216 60000019800005314 60000019800005313 60000019800005319 7.59510714987
9.14108 60000019800005313 60000019800005312 60000019800005319 7.23627606617
9.30763 60000019800005312 60000019800005310 60000019800005319 6.85511726265
9.37595 60000019800005310 60000019800005309 60000019800005319 6.49159774567
9.42771 60000019800005309 60000019800005308 60000019800005319 6.14490120342
9.43257 60000019800005308 60000019800005307 60000019800005319 6.01075739884
9.45946 60000019800005307 60000019800005306 60000019800005319 5.84661374788
9.50465 60000019800005306 60000019800005305 60000019800005319 5.52976580795
9.50771 60000019800005305 60000019800005304 60000019800005319 5.22758097313
9.12178 60000019800005321 60000019800005320 60000019800005330 7.00541704554
9.01298 60000019800005352 60000019800005351 60000019800005362 6.85511726265
9.05811 60000019800005351 60000019800005350 60000019800005362 6.49159774567
9.19433 60000019800005350 60000019800005349 60000019800005362 6.14490120342
9.20055 60000019800005349 60000019800005347 60000019800005362 5.84661374788
9.29124 60000019800005347 60000019800005346 60000019800005362 5.52976580795
9.4026 60000019800005346 60000019800005345 60000019800005362 5.22758097313
9.44211 60000019800005345 60000019800005344 60000019800005362 4.99593346816
9.50055 60000019800005344 60000019800005343 60000019800005362 4.93938066349
9.07766 60000019800005435 60000019800005434 60000019800005448 4.42803373661
9.08038 60000019800005434 60000019800005431 60000019800005448 3.93726108473
9.09898 60000019800005431 60000019800005430 60000019800005448 3.70877426464
9.17946 60000019800005468 60000019800005467 60000019800005478 5.22758097313
9.22457 60000019800005467 60000019800005466 60000019800005478 4.99593346816
9.2845 60000019800005466 60000019800005462 60000019800005478 4.17683491473
9.39081 60000019800005462 60000019800005461 60000019800005478 4.00794511147
9.44681 60000019800005461 60000019800005460 60000019800005478 3.93726108473
9.48157 60000019800005460 60000019800005457 60000019800005478 3.28303305796
9.10671 60000019800005519 60000019800005518 60000019800005527 5.52976580795
9.1573 60000019800005518 60000019800005517 60000019800005527 5.22758097313
9.19433 60000019800005517 60000019800005516 60000019800005527 4.99593346816
9.20055 60000019800005516 60000019800005515 60000019800005527 4.93938066349
9.26187 60000019800005515 60000019800005514 60000019800005527 4.66451770247
9.29951 60000019800005514 60000019800005511 60000019800005527 4.00794511147
9.0098 60000019800005586 60000019800005585 60000019800005602 3.93726108473
9.06096 60000019800005702 60000019800005701 60000019800005713 6.85511726265
9.22651 60000019800005701 60000019800005700 60000019800005713 6.49159774567
9.27072 60000019800005700 60000019800005699 60000019800005713 6.14490120342
9.33566 60000019800005699 60000019800005696 60000019800005713 5.52976580795
9.39609 60000019800005696 60000019800005695 60000019800005713 5.22758097313
9.40001 60000019800005695 60000019800005694 60000019800005713 4.99593346816
9.41029 60000019800005694 60000019800005693 60000019800005713 4.93938066349
9.42033 60000019800005693 60000019800005691 60000019800005713 4.42803373661
9.46844 60000019800005691 60000019800005690 60000019800005713 4.17683491473
9.48372 60000019800005690 60000019800005689 60000019800005713 4.00794511147
9.01614 60000019800005792 60000019800005791 60000019800005798 8.01217294887
9.21072 60000019800005791 60000019800005790 60000019800005798 7.59510714987
9.33111 60000019800005790 60000019800005789 60000019800005798 7.23627606617
9.45833 60000019800005789 60000019800005788 60000019800005798 7.00541704554
9.55478 60000019800005788 60000019800005786 60000019800005798 6.49159774567
9.65802 60000019800005786 60000019800005785 60000019800005798 6.14490120342
9.68176 60000019800005785 60000019800005782 60000019800005798 5.52976580795
9.70363 60000019800005782 60000019800005781 60000019800005798 5.22758097313
9.71637 60000019800005781 60000019800005780 60000019800005798 4.99593346816
9.79272 60000019800005780 60000019800005778 60000019800005798 4.66451770247
9.88273 60000019800005778 60000019800005777 60000019800005798 4.42803373661
9.88273 60000019800005777 60000019800005776 60000019800005798 4.17683491473
9.93431 60000019800005776 60000019800005775 60000019800005798 4.00794511147
9.96475 60000019800005775 60000019800005773 60000019800005798 3.70877426464
10.0421 60000019800005773 60000019800005772 60000019800005798 3.49086136926
10.1274 60000019800005772 60000019800005771 60000019800005798 3.28303305796
10.1418 60000019800005771 60000019800005770 60000019800005798 3.08482263583
10.1611 60000019800005770 60000019800005769 60000019800005798 3.00813107163
10.2085 60000019800005769 60000019800005768 60000019800005798 2.89578500573
10.2765 60000019800005768 60000019800005767 60000019800005798 2.73314261732
9.10926 60000019800005848 60000019800005847 60000019800005853 8.44947629437
9.12668 60000019800005847 60000019800005846 60000019800005853 8.01217294887
9.19223 60000019800005846 60000019800005845 60000019800005853 7.59510714987
9.19848 60000019800005845 60000019800005844 60000019800005853 7.23627606617
9.26896 60000019800005844 60000019800005843 60000019800005853 7.00541704554
9.2828 60000019800005843 60000019800005842 60000019800005853 6.85511726265
9.32958 60000019800005842 60000019800005841 60000019800005853 6.49159774567
9.35483 60000019800005841 60000019800005835 60000019800005853 4.99593346816
9.36763 60000019800005835 60000019800005834 60000019800005853 4.93938066349
9.08309 60000019800005873 60000019800005872 60000019800005884 6.14490120342
9.08578 60000019800005872 60000019800005871 60000019800005884 6.01075739884
9.08845 60000019800005871 60000019800005870 60000019800005884 5.84661374788
9.11179 60000019800005870 60000019800005869 60000019800005884 5.52976580795
9.16407 60000019800005869 60000019800005868 60000019800005884 5.22758097313
9.00337 60000019800005939 60000019800005938 60000019800005948 6.14490120342
9.08845 60000019800005938 60000019800005934 60000019800005948 5.22758097313
9.11179 60000019800005934 60000019800005933 60000019800005948 4.99593346816
9.14108 60000019800005933 60000019800005932 60000019800005948 4.93938066349
9.17512 60000019800005932 60000019800005931 60000019800005948 4.66451770247
9.33566 60000019800005931 60000019800005930 60000019800005948 4.42803373661
9.38141 60000019800005930 60000019800005929 60000019800005948 4.17683491473
9.39346 60000019800005929 60000019800005928 60000019800005948 4.00794511147
9.4503 60000019800005928 60000019800005927 60000019800005948 3.93726108473
9.4606 60000019800005927 60000019800005920 60000019800005948 2.73314261732
9.10926 60000019800006103 60000019800006102 60000019800006110 8.44947629437
9.21472 60000019800006102 60000019800006101 60000019800006110 8.01217294887
9.29124 60000019800006101 60000019800006100 60000019800006110 7.59510714987
9.33415 60000019800006100 60000019800006098 60000019800006110 7.00541704554
9.33716 60000019800006098 60000019800006097 60000019800006110 6.85511726265
9.35483 60000019800006097 60000019800006096 60000019800006110 6.49159774567
9.38948 60000019800006096 60000019800006095 60000019800006110 6.14490120342
9.43737 60000019800006095 60000019800006094 60000019800006110 6.01075739884
9.46844 60000019800006094 60000019800006093 60000019800006110 5.84661374788
9.50973 60000019800006093 60000019800006092 60000019800006110 5.52976580795
9.52462 60000019800006092 60000019800006091 60000019800006110 5.22758097313
9.56823 60000019800006091 60000019800006090 60000019800006110 4.99593346816
9.5931 60000019800006090 60000019800006089 60000019800006110 4.93938066349
9.5989 60000019800006089 60000019800006088 60000019800006110 4.66451770247
9.60543 60000019800006088 60000019800006087 60000019800006110 4.42803373661
9.66159 60000019800006087 60000019800006086 60000019800006110 4.17683491473
9.0098 60000019800006144 60000019800006143 60000019800006160 1.90408954353
9.01928 60000019800006143 60000019800006142 60000019800006160 1.82268925262
9.08845 60000019800006142 60000019800006141 60000019800006160 1.74357057433
9.08845 60000019800006141 60000019800006140 60000019800006160 1.66666955611
9.09637 60000019800006140 60000019800006138 60000019800006160 1.53123902916
9.11179 60000019800006138 60000019800006133 60000019800006160 1.24847261425
9.11431 60000019800006133 60000019800006130 60000019800006160 1.11415056377
9.01614 60000019800006397 60000019800006396 60000019800006411 4.17683491473
9.04062 60000019800006396 60000019800006393 60000019800006411 3.70877426464
9.08038 60000019800006393 60000019800006392 60000019800006411 3.49086136926
9.17512 60000019800006392 60000019800006391 60000019800006411 3.28303305796
9.23988 60000019800006391 60000019800006388 60000019800006411 2.89578500573
9.27246 60000019800006388 60000019800006387 60000019800006411 2.73314261732
9.29457 60000019800006387 60000019800006386 60000019800006411 2.5772902716
9.36763 60000019800006386 60000019800006385 60000019800006411 2.44422570455
9.0066 60000019800006892 60000019800006891 60000019800006896 5.22758097313
9.1193 60000019800006891 60000019800006890 60000019800006896 4.99593346816
9.17073 60000019800006890 60000019800006888 60000019800006896 4.66451770247
9.2845 60000019800006888 60000019800006887 60000019800006896 4.42803373661
9.34609 60000019800006887 60000019800006886 60000019800006896 4.17683491473
9.39214 60000019800006886 60000019800006883 60000019800006896 3.70877426464
9.41029 60000019800006883 60000019800006882 60000019800006896 3.49086136926
9.44797 60000019800006882 60000019800006881 60000019800006896 3.28303305796
9.49431 60000019800006881 60000019800006880 60000019800006896 3.08482263583
9.53902 60000019800006880 60000019800006879 60000019800006896 3.00813107163
9.56468 60000019800006879 60000019800006878 60000019800006896 2.89578500573
9.60946 60000019800006878 60000019800006877 60000019800006896 2.73314261732
9.69449 60000019800006877 60000019800006876 60000019800006896 2.5772902716
9.69778 60000019800006876 60000019800006875 60000019800006896 2.44422570455
9.77003 60000019800006875 60000019800006872 60000019800006896 2.1032696526
9.78152 60000019800006872 60000019800006870 60000019800006896 1.90408954353
9.78421 60000019800006870 60000019800006869 60000019800006896 1.82268925262
9.0098 60000019800006912 60000019800006911 60000019800006931 4.00794511147
9.0098 60000019800006911 60000019800006910 60000019800006931 3.93726108473
9.02548 60000019800006974 60000019800006973 60000019800006989 2.5772902716
9.09898 60000019800006973 60000019800006972 60000019800006989 2.44422570455
9.12912 60000019800006972 60000019800006971 60000019800006989 2.31611074396
9.16407 60000019800006971 60000019800006970 60000019800006989 2.20792547238
9.19013 60000019800006970 60000019800006969 60000019800006989 2.1032696526
9.2026 60000019800006969 60000019800006968 60000019800006989 2.00202813925
9.22651 60000019800006968 60000019800006965 60000019800006989 1.74357057433
9.07216 60000019800007131 60000019800007130 60000019800007143 2.31611074396
9.17073 60000019800007373 60000019800007372 60000019800007389 1.41409822037
9.01614 60000019800007717 60000019800007716 60000019800007725 5.84661374788
9.13394 60000019800007716 60000019800007715 60000019800007725 5.52976580795
9.19223 60000019800007715 60000019800007714 60000019800007725 5.22758097313
9.26896 60000019800007714 60000019800007713 60000019800007725 4.99593346816
9.28788 60000019800007713 60000019800007712 60000019800007725 4.93938066349
9.33111 60000019800007712 60000019800007711 60000019800007725 4.66451770247
9.50158 60000019800007711 60000019800007710 60000019800007725 4.42803373661
9.54185 60000019800007710 60000019800007708 60000019800007725 4.00794511147
9.58975 60000019800007708 60000019800007707 60000019800007725 3.93726108473
9.0316 60000019800007787 60000019800007786 60000019800007806 3.00813107163
9.04062 60000019800007786 60000019800007784 60000019800007806 2.73314261732
9.10671 60000019800007784 60000019800007779 60000019800007806 2.1032696526
9.01928 60000019800008354 60000019800008353 60000019800008367 3.93726108473
9.04062 60000019800008353 60000019800008342 60000019800008367 2.20792547238
9.04945 60000019800008342 60000019800008341 60000019800008367 2.1032696526
9.04945 60000019800008341 60000019800008340 60000019800008367 2.00202813925
9.08845 60000019800008340 60000019800008339 60000019800008367 1.90408954353
9.11431 60000019800008339 60000019800008337 60000019800008367 1.74357057433
9.41029 60000019800008337 60000019800008335 60000019800008367 1.60423452207
9.00012 60000019800008416 60000019800008415 60000019800008423 2.44422570455
9.02855 60000019800008415 60000019800008412 60000019800008423 2.1032696526
9.02855 60000019800008412 60000019800008409 60000019800008423 1.82268925262
9.05811 60000019800008479 60000019800008478 60000019800008491 3.49086136926
9.08309 60000019800008478 60000019800008477 60000019800008491 3.28303305796
9.10157 60000019800008477 60000019800008474 60000019800008491 2.89578500573
9.1193 60000019800008474 60000019800008472 60000019800008491 2.5772902716
9.01928 60000019800008621 60000019800008620 60000019800008630 3.49086136926
9.06096 60000019800008620 60000019800008619 60000019800008630 3.28303305796
9.17073 60000019800008619 60000019800008618 60000019800008630 3.08482263583
9.19848 60000019800008618 60000019800008617 60000019800008630 3.00813107163
9.24918 60000019800008617 60000019800008616 60000019800008630 2.89578500573
9.33111 60000019800008616 60000019800008615 60000019800008630 2.73314261732
9.42281 60000019800008615 60000019800008614 60000019800008630 2.5772902716
9.0098 60000019800008728 60000019800008727 60000019800008737 4.93938066349
9.04358 60000019800008727 60000019800008725 60000019800008737 4.42803373661
9.07766 60000019800008725 60000019800008723 60000019800008737 4.00794511147
9.15273 60000019800008723 60000019800008721 60000019800008737 3.70877426464
9.18802 60000019800008721 60000019800008720 60000019800008737 3.49086136926
9.01614 60000019800009250 60000019800009249 60000019800009265 3.28303305796
9.10415 60000019800009249 60000019800009248 60000019800009265 3.08482263583
9.10415 60000019800009248 60000019800009244 60000019800009265 2.5772902716
9.10671 60000019800009244 60000019800009241 60000019800009265 2.20792547238
9.12424 60000019800009241 60000019800009238 60000019800009265 1.90408954353
9.11179 60000019800009356 60000019800009355 60000019800009361 4.17683491473
9.18802 60000019800009355 60000019800009352 60000019800009361 3.70877426464
9.19641 60000019800009352 60000019800009350 60000019800009361 3.28303305796
9.00337 60000019800009517 60000019800009516 60000019800009522 6.14490120342
9.13634 60000019800009516 60000019800009515 60000019800009522 6.01075739884
9.15042 60000019800009515 60000019800009514 60000019800009522 5.84661374788
9.20055 60000019800009514 60000019800009513 60000019800009522 5.52976580795
9.23037 60000019800009513 60000019800009512 60000019800009522 5.22758097313
9.26187 60000019800009512 60000019800009511 60000019800009522 4.99593346816
9.35338 60000019800009511 60000019800009509 60000019800009522 4.66451770247
9.42771 60000019800009509 60000019800009508 60000019800009522 4.42803373661
9.42893 60000019800009508 60000019800009507 60000019800009522 4.17683491473
9.44681 60000019800009507 60000019800009505 60000019800009522 3.93726108473
9.4964 60000019800009505 60000019800009504 60000019800009522 3.70877426464
9.49951 60000019800009504 60000019800009502 60000019800009522 3.28303305796
9.50055 60000019800009502 60000019800009501 60000019800009522 3.08482263583
9.50973 60000019800009501 60000019800009498 60000019800009522 2.73314261732
9.56021 60000019800009498 60000019800009497 60000019800009522 2.5772902716
9.57697 60000019800009497 60000019800009495 60000019800009522 2.31611074396
9.02548 60000019800009576 60000019800009575 60000019800009597 2.1032696526
9.00337 60000019800009712 60000019800009711 60000019800009716 2.73314261732
9.0066 60000019800009711 60000019800009710 60000019800009716 2.5772902716
9.05524 60000019800009710 60000019800009709 60000019800009716 2.44422570455
9.07766 60000019800009709 60000019800009707 60000019800009716 2.20792547238
9.08578 60000019800009707 60000019800009706 60000019800009716 2.1032696526
9.17293 60000019800009706 60000019800009705 60000019800009716 2.00202813925
9.22651 60000019800009705 60000019800009704 60000019800009716 1.90408954353
9.23229 60000019800009704 60000019800009698 60000019800009716 1.47197484527
9.03463 60000019800009873 60000019800009872 60000019800009889 2.20792547238
9.09637 60000019800009872 60000019800009871 60000019800009889 2.1032696526
9.1193 60000019800009871 60000019800009870 60000019800009889 2.00202813925
9.01614 60000019800009940 60000019800009939 60000019800009968 1.60423452207
9.06096 60000019800010183 60000019800010182 60000019800010194 2.20792547238
9.06096 60000019800010182 60000019800010179 60000019800010194 1.90408954353
9.06096 60000019800010179 60000019800010175 60000019800010194 1.60423452207
9.01614 60000019800010807 60000019800010806 60000019800010817 6.01075739884
9.02239 60000019800010806 60000019800010804 60000019800010817 5.52976580795
9.06096 60000019800010804 60000019800010803 60000019800010817 5.22758097313
9.06939 60000019800010803 60000019800010802 60000019800010817 4.99593346816
9.08845 60000019800010802 60000019800010800 60000019800010817 4.66451770247
9.1193 60000019800010800 60000019800010799 60000019800010817 4.42803373661
9.12668 60000019800010799 60000019800010798 60000019800010817 4.17683491473
9.13634 60000019800010798 60000019800010794 60000019800010817 3.49086136926
9.38277 60000019800010794 60000019800010792 60000019800010817 3.08482263583
9.40774 60000019800010792 60000019800010788 60000019800010817 2.5772902716
9.4503 60000019800010788 60000019800010787 60000019800010817 2.44422570455
9.49116 60000019800010787 60000019800010786 60000019800010817 2.31611074396
9.51175 60000019800010786 60000019800010785 60000019800010817 2.20792547238
9.02855 60000019800010910 60000019800010909 60000019800010930 2.44422570455
9.0066 60000019800011139 60000019800011138 60000019800011150 2.00202813925
9.33415 60000019800011415 60000019800011414 60000019800011427 4.66451770247
9.35771 60000019800011414 60000019800011413 60000019800011427 4.42803373661
9.42281 60000019800011413 60000019800011411 60000019800011427 4.00794511147
9.44797 60000019800011411 60000019800011410 60000019800011427 3.93726108473
9.4606 60000019800011410 60000019800011409 60000019800011427 3.70877426464
9.48265 60000019800011409 60000019800011407 60000019800011427 3.28303305796
9.49951 60000019800011407 60000019800011405 60000019800011427 3.00813107163
9.50158 60000019800011405 60000019800011404 60000019800011427 2.89578500573
9.51675 60000019800011404 60000019800011403 60000019800011427 2.73314261732
9.54091 60000019800011403 60000019800011402 60000019800011427 2.5772902716
9.55387 60000019800011402 60000019800011401 60000019800011427 2.44422570455
9.55387 60000019800011401 60000019800011399 60000019800011427 2.20792547238
9.5629 60000019800011399 60000019800011394 60000019800011427 1.74357057433
9.01614 60000019800011430 60000019800011429 60000019800011432 4.99593346816
9.06378 60000019800011429 60000019800011428 60000019800011432 4.93938066349
9.0066 60000019800011813 60000019800011812 60000019800011843 1.24847261425
9.00337 60000019800011916 60000019800011915 60000019800011921 2.20792547238
9.05524 60000019800011915 60000019800011913 60000019800011921 2.00202813925
9.10415 60000019800011913 60000019800011912 60000019800011921 1.90408954353
9.13871 60000019800011912 60000019800011911 60000019800011921 1.82268925262
9.14578 60000019800011911 60000019800011910 60000019800011921 1.74357057433
