logMh | fpID | subhaloID | main leaf ID | z
9.14344 70000021600000105 70000021600000104 70000021600000109 10.3674435724
9.2026 70000021600000104 70000021600000103 70000021600000109 9.99659046619
9.29622 70000021600000103 70000021600000102 70000021600000109 9.84138043947
9.5931 70000021600000102 70000021600000100 70000021600000109 9.00233985416
9.84847 70000021600000100 70000021600000098 70000021600000109 8.44947629437
9.99121 70000021600000098 70000021600000097 70000021600000109 8.01217294887
10.0526 70000021600000097 70000021600000096 70000021600000109 7.59510714987
10.1782 70000021600000096 70000021600000095 70000021600000109 7.23627606617
10.2111 70000021600000095 70000021600000094 70000021600000109 7.00541704554
10.2559 70000021600000094 70000021600000093 70000021600000109 6.85511726265
10.3754 70000021600000093 70000021600000092 70000021600000109 6.49159774567
10.4524 70000021600000092 70000021600000091 70000021600000109 6.14490120342
10.4756 70000021600000091 70000021600000090 70000021600000109 6.01075739884
10.5428 70000021600000090 70000021600000089 70000021600000109 5.84661374788
10.6971 70000021600000089 70000021600000088 70000021600000109 5.52976580795
10.7784 70000021600000088 70000021600000087 70000021600000109 5.22758097313
10.8495 70000021600000087 70000021600000086 70000021600000109 4.99593346816
10.8635 70000021600000086 70000021600000085 70000021600000109 4.93938066349
10.9365 70000021600000085 70000021600000084 70000021600000109 4.66451770247
11.0105 70000021600000084 70000021600000083 70000021600000109 4.42803373661
11.0867 70000021600000083 70000021600000082 70000021600000109 4.17683491473
11.1279 70000021600000082 70000021600000081 70000021600000109 4.00794511147
11.1392 70000021600000081 70000021600000080 70000021600000109 3.93726108473
11.1737 70000021600000080 70000021600000079 70000021600000109 3.70877426464
11.1935 70000021600000079 70000021600000078 70000021600000109 3.49086136926
11.2388 70000021600000078 70000021600000077 70000021600000109 3.28303305796
11.2754 70000021600000077 70000021600000076 70000021600000109 3.08482263583
11.3096 70000021600000076 70000021600000075 70000021600000109 3.00813107163
11.3588 70000021600000075 70000021600000074 70000021600000109 2.89578500573
11.4076 70000021600000074 70000021600000073 70000021600000109 2.73314261732
11.4769 70000021600000073 70000021600000072 70000021600000109 2.5772902716
11.5348 70000021600000072 70000021600000071 70000021600000109 2.44422570455
11.5761 70000021600000071 70000021600000070 70000021600000109 2.31611074396
11.603 70000021600000070 70000021600000069 70000021600000109 2.20792547238
11.6133 70000021600000069 70000021600000068 70000021600000109 2.1032696526
11.6372 70000021600000068 70000021600000067 70000021600000109 2.00202813925
11.6791 70000021600000067 70000021600000066 70000021600000109 1.90408954353
11.7101 70000021600000066 70000021600000065 70000021600000109 1.82268925262
11.7326 70000021600000065 70000021600000064 70000021600000109 1.74357057433
11.7637 70000021600000064 70000021600000063 70000021600000109 1.66666955611
11.8193 70000021600000063 70000021600000062 70000021600000109 1.60423452207
11.8552 70000021600000062 70000021600000061 70000021600000109 1.53123902916
11.8852 70000021600000061 70000021600000060 70000021600000109 1.47197484527
11.9153 70000021600000060 70000021600000059 70000021600000109 1.41409822037
11.9491 70000021600000059 70000021600000058 70000021600000109 1.3575766674
11.9833 70000021600000058 70000021600000057 70000021600000109 1.30237845991
12.004 70000021600000057 70000021600000056 70000021600000109 1.24847261425
12.0175 70000021600000056 70000021600000055 70000021600000109 1.20625808078
12.0257 70000021600000055 70000021600000054 70000021600000109 1.15460271236
12.0405 70000021600000054 70000021600000053 70000021600000109 1.11415056377
12.0544 70000021600000053 70000021600000052 70000021600000109 1.07445789455
12.0647 70000021600000052 70000021600000051 70000021600000109 1.03551044566
12.0663 70000021600000051 70000021600000040 70000021600000109 0.700106353719
12.0667 70000021600000040 70000021600000039 70000021600000109 0.676110411213
12.0698 70000021600000039 70000021600000038 70000021600000109 0.644641840685
12.0719 70000021600000038 70000021600000036 70000021600000109 0.598543288188
12.0786 70000021600000036 70000021600000035 70000021600000109 0.575980845108
12.0828 70000021600000035 70000021600000034 70000021600000109 0.546392183141
12.0855 70000021600000034 70000021600000033 70000021600000109 0.524565820434
12.0899 70000021600000033 70000021600000032 70000021600000109 0.503047523245
12.093 70000021600000032 70000021600000031 70000021600000109 0.481832943421
12.0949 70000021600000031 70000021600000029 70000021600000109 0.440297849248
12.0987 70000021600000029 70000021600000028 70000021600000109 0.419968941997
12.0991 70000021600000028 70000021600000026 70000021600000109 0.38016786726
12.1035 70000021600000026 70000021600000025 70000021600000109 0.360687657262
12.1037 70000021600000025 70000021600000024 70000021600000109 0.347853841858
12.1074 70000021600000024 70000021600000023 70000021600000109 0.328829724206
12.1104 70000021600000023 70000021600000022 70000021600000109 0.310074120128
12.1134 70000021600000022 70000021600000021 70000021600000109 0.291583239722
12.1182 70000021600000021 70000021600000020 70000021600000109 0.273353346578
12.1201 70000021600000020 70000021600000019 70000021600000109 0.261343256161
12.1326 70000021600000019 70000021600000018 70000021600000109 0.243540181555
12.1381 70000021600000018 70000021600000016 70000021600000109 0.214425035514
12.1438 70000021600000016 70000021600000015 70000021600000109 0.197284182376
12.1511 70000021600000015 70000021600000014 70000021600000109 0.180385261706
12.1585 70000021600000014 70000021600000013 70000021600000109 0.169252033244
12.1647 70000021600000013 70000021600000012 70000021600000109 0.152748768902
12.1728 70000021600000012 70000021600000011 70000021600000109 0.14187620397
12.1741 70000021600000011 70000021600000010 70000021600000109 0.125759332411
12.1768 70000021600000010 70000021600000009 70000021600000109 0.109869940459
12.1857 70000021600000009 70000021600000008 70000021600000109 0.0994018026302
12.1902 70000021600000008 70000021600000007 70000021600000109 0.0838844307975
12.1934 70000021600000007 70000021600000006 70000021600000109 0.0736613846564
12.2106 70000021600000006 70000021600000005 70000021600000109 0.0585073227945
12.2282 70000021600000005 70000021600000004 70000021600000109 0.0485236299818
12.2639 70000021600000004 70000021600000003 70000021600000109 0.0337243718735
12.2884 70000021600000003 70000021600000002 70000021600000109 0.0239744283828
12.293 70000021600000002 70000021600000001 70000021600000109 0.00952166696794
12.2986 70000021600000001 70000021600000000 70000021600000109 2.22044604925e-16
9.17293 70000021600000113 70000021600000112 70000021600000118 9.38877127194
9.70104 70000021600000112 70000021600000110 70000021600000118 8.9079991856
9.19013 70000021600000137 70000021600000136 70000021600000141 10.9190331982
9.22262 70000021600000136 70000021600000135 70000021600000141 10.3674435724
9.29124 70000021600000135 70000021600000134 70000021600000141 9.99659046619
9.32031 70000021600000134 70000021600000133 70000021600000141 9.84138043947
9.41534 70000021600000133 70000021600000132 70000021600000141 9.38877127194
9.02548 70000021600000172 70000021600000171 70000021600000178 7.59510714987
9.05811 70000021600000171 70000021600000170 70000021600000178 7.23627606617
9.0066 70000021600000192 70000021600000191 70000021600000198 9.38877127194
9.09898 70000021600000191 70000021600000190 70000021600000198 9.00233985416
9.12178 70000021600000190 70000021600000189 70000021600000198 8.9079991856
9.14578 70000021600000189 70000021600000188 70000021600000198 8.44947629437
9.26008 70000021600000188 70000021600000187 70000021600000198 8.01217294887
9.33263 70000021600000187 70000021600000186 70000021600000198 7.59510714987
9.43015 70000021600000186 70000021600000185 70000021600000198 7.23627606617
9.53044 70000021600000185 70000021600000184 70000021600000198 7.00541704554
9.02855 70000021600000272 70000021600000271 70000021600000277 7.23627606617
9.05235 70000021600000271 70000021600000270 70000021600000277 7.00541704554
9.09111 70000021600000270 70000021600000269 70000021600000277 6.85511726265
9.13634 70000021600000269 70000021600000268 70000021600000277 6.49159774567
9.22262 70000021600000298 70000021600000297 70000021600000304 7.59510714987
9.34165 70000021600000297 70000021600000293 70000021600000304 6.49159774567
9.07216 70000021600000347 70000021600000346 70000021600000349 9.99659046619
9.3634 70000021600000346 70000021600000343 70000021600000349 9.00233985416
9.38005 70000021600000343 70000021600000342 70000021600000349 8.9079991856
9.40902 70000021600000342 70000021600000341 70000021600000349 8.44947629437
9.53902 70000021600000341 70000021600000340 70000021600000349 8.01217294887
9.62212 70000021600000340 70000021600000339 70000021600000349 7.59510714987
9.65224 70000021600000339 70000021600000338 70000021600000349 7.23627606617
9.70813 70000021600000338 70000021600000337 70000021600000349 7.00541704554
9.72752 70000021600000337 70000021600000336 70000021600000349 6.85511726265
9.78206 70000021600000336 70000021600000335 70000021600000349 6.49159774567
9.848 70000021600000335 70000021600000334 70000021600000349 6.14490120342
9.00012 70000021600000395 70000021600000394 70000021600000402 8.44947629437
9.02548 70000021600000394 70000021600000391 70000021600000402 7.23627606617
9.19433 70000021600000391 70000021600000390 70000021600000402 7.00541704554
9.2342 70000021600000390 70000021600000388 70000021600000402 6.49159774567
9.35194 70000021600000388 70000021600000387 70000021600000402 6.14490120342
9.43737 70000021600000387 70000021600000386 70000021600000402 6.01075739884
9.06939 70000021600000445 70000021600000444 70000021600000448 6.14490120342
9.10415 70000021600000444 70000021600000442 70000021600000448 5.84661374788
9.10926 70000021600000442 70000021600000439 70000021600000448 4.99593346816
9.01298 70000021600000471 70000021600000470 70000021600000479 5.84661374788
9.06096 70000021600000470 70000021600000469 70000021600000479 5.52976580795
9.61742 70000021600000502 70000021600000501 70000021600000510 7.23627606617
9.7366 70000021600000501 70000021600000497 70000021600000510 6.14490120342
9.79482 70000021600000497 70000021600000496 70000021600000510 6.01075739884
9.81026 70000021600000496 70000021600000495 70000021600000510 5.84661374788
9.83578 70000021600000495 70000021600000494 70000021600000510 5.52976580795
9.94296 70000021600000494 70000021600000493 70000021600000510 5.22758097313
9.95472 70000021600000493 70000021600000492 70000021600000510 4.99593346816
9.26365 70000021600000512 70000021600000511 70000021600000515 8.01217294887
9.5256 70000021600000521 70000021600000520 70000021600000525 7.59510714987
9.06939 70000021600000555 70000021600000554 70000021600000563 7.23627606617
9.12668 70000021600000554 70000021600000553 70000021600000563 7.00541704554
9.32805 70000021600000553 70000021600000552 70000021600000563 6.85511726265
9.41156 70000021600000552 70000021600000551 70000021600000563 6.49159774567
9.4964 70000021600000551 70000021600000550 70000021600000563 6.14490120342
9.8958 70000021600000550 70000021600000544 70000021600000563 4.93938066349
9.00337 70000021600000644 70000021600000643 70000021600000656 4.17683491473
9.04062 70000021600000714 70000021600000713 70000021600000718 10.3674435724
9.10157 70000021600000713 70000021600000712 70000021600000718 9.99659046619
9.21472 70000021600000712 70000021600000711 70000021600000718 9.84138043947
9.2828 70000021600000711 70000021600000710 70000021600000718 9.38877127194
9.33866 70000021600000710 70000021600000709 70000021600000718 9.00233985416
9.37457 70000021600000709 70000021600000708 70000021600000718 8.9079991856
9.41408 70000021600000708 70000021600000707 70000021600000718 8.44947629437
9.4964 70000021600000707 70000021600000706 70000021600000718 8.01217294887
9.57087 70000021600000706 70000021600000705 70000021600000718 7.59510714987
9.58807 70000021600000705 70000021600000704 70000021600000718 7.23627606617
9.63518 70000021600000704 70000021600000702 70000021600000718 6.85511726265
9.76724 70000021600000702 70000021600000701 70000021600000718 6.49159774567
9.81728 70000021600000701 70000021600000700 70000021600000718 6.14490120342
9.84099 70000021600000700 70000021600000699 70000021600000718 6.01075739884
9.91488 70000021600000699 70000021600000698 70000021600000718 5.84661374788
10.0836 70000021600000698 70000021600000697 70000021600000718 5.52976580795
10.1168 70000021600000697 70000021600000696 70000021600000718 5.22758097313
10.1451 70000021600000696 70000021600000693 70000021600000718 4.66451770247
9.00012 70000021600000756 70000021600000755 70000021600000759 9.38877127194
9.10671 70000021600000755 70000021600000754 70000021600000759 9.00233985416
9.13154 70000021600000754 70000021600000753 70000021600000759 8.9079991856
9.2087 70000021600000753 70000021600000752 70000021600000759 8.44947629437
9.2862 70000021600000752 70000021600000751 70000021600000759 8.01217294887
9.34902 70000021600000751 70000021600000748 70000021600000759 7.00541704554
9.09637 70000021600000772 70000021600000771 70000021600000782 4.66451770247
9.2929 70000021600000771 70000021600000769 70000021600000782 4.17683491473
9.31717 70000021600000769 70000021600000768 70000021600000782 4.00794511147
9.32958 70000021600000768 70000021600000767 70000021600000782 3.93726108473
9.41156 70000021600000767 70000021600000766 70000021600000782 3.70877426464
9.54744 70000021600000766 70000021600000765 70000021600000782 3.49086136926
9.59059 70000021600000765 70000021600000764 70000021600000782 3.28303305796
9.04062 70000021600000856 70000021600000855 70000021600000862 5.52976580795
9.26365 70000021600000855 70000021600000854 70000021600000862 5.22758097313
9.27246 70000021600000854 70000021600000853 70000021600000862 4.99593346816
9.29622 70000021600000853 70000021600000852 70000021600000862 4.93938066349
9.34902 70000021600000852 70000021600000851 70000021600000862 4.66451770247
9.43257 70000021600000851 70000021600000850 70000021600000862 4.42803373661
9.52754 70000021600000850 70000021600000849 70000021600000862 4.17683491473
9.32342 70000021600000943 70000021600000942 70000021600000955 6.14490120342
9.33716 70000021600000942 70000021600000935 70000021600000955 4.66451770247
9.33716 70000021600000935 70000021600000934 70000021600000955 4.42803373661
9.08309 70000021600000957 70000021600000956 70000021600000962 6.49159774567
9.01928 70000021600000977 70000021600000976 70000021600000991 4.99593346816
9.00337 70000021600001068 70000021600001067 70000021600001075 5.84661374788
9.02239 70000021600001067 70000021600001066 70000021600001075 5.52976580795
9.04945 70000021600001066 70000021600001065 70000021600001075 5.22758097313
9.05524 70000021600001065 70000021600001062 70000021600001075 4.66451770247
9.00337 70000021600001135 70000021600001134 70000021600001151 4.99593346816
9.0098 70000021600001134 70000021600001133 70000021600001151 4.93938066349
9.06939 70000021600001133 70000021600001132 70000021600001151 4.66451770247
9.09111 70000021600001132 70000021600001130 70000021600001151 4.17683491473
9.11681 70000021600001130 70000021600001129 70000021600001151 4.00794511147
9.05524 70000021600001211 70000021600001210 70000021600001213 2.5772902716
9.19641 70000021600001236 70000021600001235 70000021600001255 2.89578500573
9.08309 70000021600001381 70000021600001380 70000021600001385 7.59510714987
9.14811 70000021600001380 70000021600001379 70000021600001385 7.23627606617
9.18376 70000021600001379 70000021600001378 70000021600001385 7.00541704554
9.32651 70000021600001378 70000021600001376 70000021600001385 6.49159774567
9.51873 70000021600001376 70000021600001375 70000021600001385 6.14490120342
9.54465 70000021600001375 70000021600001373 70000021600001385 5.84661374788
9.68515 70000021600001373 70000021600001372 70000021600001385 5.52976580795
9.74958 70000021600001372 70000021600001371 70000021600001385 5.22758097313
9.75822 70000021600001371 70000021600001370 70000021600001385 4.99593346816
9.84147 70000021600001370 70000021600001369 70000021600001385 4.93938066349
9.88741 70000021600001369 70000021600001368 70000021600001385 4.66451770247
9.91409 70000021600001368 70000021600001367 70000021600001385 4.42803373661
9.91409 70000021600001367 70000021600001366 70000021600001385 4.17683491473
9.92857 70000021600001366 70000021600001363 70000021600001385 3.70877426464
9.96793 70000021600001363 70000021600001362 70000021600001385 3.49086136926
9.98075 70000021600001362 70000021600001361 70000021600001385 3.28303305796
9.09375 70000021600001410 70000021600001409 70000021600001416 6.14490120342
9.27594 70000021600001409 70000021600001408 70000021600001416 6.01075739884
9.2929 70000021600001408 70000021600001407 70000021600001416 5.84661374788
9.03463 70000021600001466 70000021600001465 70000021600001480 4.99593346816
9.06939 70000021600001465 70000021600001464 70000021600001480 4.93938066349
9.1193 70000021600001464 70000021600001462 70000021600001480 4.42803373661
9.24548 70000021600001462 70000021600001461 70000021600001480 4.17683491473
9.25828 70000021600001461 70000021600001459 70000021600001480 3.93726108473
9.29457 70000021600001459 70000021600001458 70000021600001480 3.70877426464
9.07492 70000021600001587 70000021600001586 70000021600001599 5.52976580795
9.2361 70000021600001586 70000021600001585 70000021600001599 5.22758097313
9.17512 70000021600001652 70000021600001651 70000021600001659 5.22758097313
9.20055 70000021600001651 70000021600001650 70000021600001659 4.99593346816
9.44681 70000021600001650 70000021600001649 70000021600001659 4.93938066349
9.55478 70000021600001649 70000021600001647 70000021600001659 4.42803373661
9.62212 70000021600001647 70000021600001645 70000021600001659 4.00794511147
9.6573 70000021600001645 70000021600001644 70000021600001659 3.93726108473
9.76501 70000021600001644 70000021600001643 70000021600001659 3.70877426464
9.84428 70000021600001643 70000021600001642 70000021600001659 3.49086136926
9.0098 70000021600001670 70000021600001669 70000021600001678 5.52976580795
9.02239 70000021600001669 70000021600001668 70000021600001678 5.22758097313
9.03763 70000021600001668 70000021600001667 70000021600001678 4.99593346816
9.00337 70000021600001707 70000021600001706 70000021600001720 3.70877426464
9.08038 70000021600001706 70000021600001705 70000021600001720 3.49086136926
9.15042 70000021600001705 70000021600001704 70000021600001720 3.28303305796
9.15273 70000021600001704 70000021600001703 70000021600001720 3.08482263583
9.21072 70000021600001703 70000021600001702 70000021600001720 3.00813107163
9.00337 70000021600001733 70000021600001732 70000021600001739 3.28303305796
9.10157 70000021600001732 70000021600001727 70000021600001739 2.5772902716
9.12424 70000021600001727 70000021600001726 70000021600001739 2.44422570455
9.01298 70000021600001849 70000021600001848 70000021600001857 7.00541704554
9.0316 70000021600001848 70000021600001847 70000021600001857 6.85511726265
9.12912 70000021600001847 70000021600001846 70000021600001857 6.49159774567
9.24362 70000021600001846 70000021600001845 70000021600001857 6.14490120342
9.2929 70000021600001845 70000021600001844 70000021600001857 6.01075739884
9.33566 70000021600001844 70000021600001843 70000021600001857 5.84661374788
9.41408 70000021600001843 70000021600001842 70000021600001857 5.52976580795
9.58383 70000021600001842 70000021600001841 70000021600001857 5.22758097313
9.58383 70000021600001841 70000021600001840 70000021600001857 4.99593346816
9.66159 70000021600001840 70000021600001838 70000021600001857 4.66451770247
9.717 70000021600001838 70000021600001837 70000021600001857 4.42803373661
9.74137 70000021600001837 70000021600001836 70000021600001857 4.17683491473
9.76613 70000021600001836 70000021600001835 70000021600001857 4.00794511147
9.80517 70000021600001835 70000021600001834 70000021600001857 3.93726108473
9.86571 70000021600001834 70000021600001833 70000021600001857 3.70877426464
9.92626 70000021600001833 70000021600001832 70000021600001857 3.49086136926
9.02239 70000021600001905 70000021600001904 70000021600001914 5.22758097313
9.15042 70000021600001904 70000021600001902 70000021600001914 4.93938066349
9.21072 70000021600001902 70000021600001901 70000021600001914 4.66451770247
9.2828 70000021600001901 70000021600001898 70000021600001914 4.00794511147
9.0066 70000021600002020 70000021600002019 70000021600002029 3.28303305796
9.00012 70000021600002149 70000021600002148 70000021600002152 8.01217294887
9.18162 70000021600002148 70000021600002147 70000021600002152 7.59510714987
9.19433 70000021600002147 70000021600002146 70000021600002152 7.23627606617
9.2811 70000021600002146 70000021600002145 70000021600002152 7.00541704554
9.29622 70000021600002145 70000021600002144 70000021600002152 6.85511726265
9.35914 70000021600002144 70000021600002143 70000021600002152 6.49159774567
9.45719 70000021600002143 70000021600002142 70000021600002152 6.14490120342
9.47176 70000021600002142 70000021600002141 70000021600002152 6.01075739884
9.51675 70000021600002141 70000021600002140 70000021600002152 5.84661374788
9.74842 70000021600002140 70000021600002139 70000021600002152 5.52976580795
9.88059 70000021600002139 70000021600002138 70000021600002152 5.22758097313
10.0615 70000021600002138 70000021600002137 70000021600002152 4.99593346816
10.1093 70000021600002137 70000021600002135 70000021600002152 4.66451770247
10.1582 70000021600002135 70000021600002134 70000021600002152 4.42803373661
10.1903 70000021600002134 70000021600002133 70000021600002152 4.17683491473
9.0066 70000021600002209 70000021600002208 70000021600002217 7.59510714987
9.19641 70000021600002208 70000021600002207 70000021600002217 7.23627606617
9.2026 70000021600002207 70000021600002206 70000021600002217 7.00541704554
9.23229 70000021600002206 70000021600002205 70000021600002217 6.85511726265
9.33111 70000021600002205 70000021600002204 70000021600002217 6.49159774567
9.03463 70000021600002288 70000021600002287 70000021600002295 8.01217294887
9.06096 70000021600002287 70000021600002286 70000021600002295 7.59510714987
9.12912 70000021600002286 70000021600002285 70000021600002295 7.23627606617
9.14578 70000021600002285 70000021600002284 70000021600002295 7.00541704554
9.24362 70000021600002284 70000021600002283 70000021600002295 6.85511726265
9.32958 70000021600002283 70000021600002282 70000021600002295 6.49159774567
9.41282 70000021600002282 70000021600002281 70000021600002295 6.14490120342
9.42649 70000021600002281 70000021600002280 70000021600002295 6.01075739884
9.42771 70000021600002280 70000021600002279 70000021600002295 5.84661374788
9.43377 70000021600002279 70000021600002278 70000021600002295 5.52976580795
9.48479 70000021600002278 70000021600002277 70000021600002295 5.22758097313
9.52657 70000021600002277 70000021600002276 70000021600002295 4.99593346816
9.52754 70000021600002276 70000021600002275 70000021600002295 4.93938066349
9.63669 70000021600002275 70000021600002274 70000021600002295 4.66451770247
9.64044 70000021600002274 70000021600002273 70000021600002295 4.42803373661
9.68515 70000021600002273 70000021600002272 70000021600002295 4.17683491473
9.71322 70000021600002272 70000021600002271 70000021600002295 4.00794511147
9.72136 70000021600002271 70000021600002270 70000021600002295 3.93726108473
9.75075 70000021600002270 70000021600002269 70000021600002295 3.70877426464
9.01298 70000021600002403 70000021600002402 70000021600002416 3.28303305796
9.12178 70000021600002465 70000021600002464 70000021600002475 6.49159774567
9.21272 70000021600002464 70000021600002463 70000021600002475 6.14490120342
9.2342 70000021600002463 70000021600002462 70000021600002475 6.01075739884
9.41282 70000021600002462 70000021600002460 70000021600002475 5.52976580795
9.51475 70000021600002460 70000021600002455 70000021600002475 4.42803373661
9.53332 70000021600002455 70000021600002454 70000021600002475 4.17683491473
9.63894 70000021600002454 70000021600002453 70000021600002475 4.00794511147
9.69581 70000021600002453 70000021600002452 70000021600002475 3.93726108473
9.86438 70000021600002452 70000021600002451 70000021600002475 3.70877426464
10.0459 70000021600002451 70000021600002450 70000021600002475 3.49086136926
10.0655 70000021600002450 70000021600002449 70000021600002475 3.28303305796
10.0961 70000021600002449 70000021600002448 70000021600002475 3.08482263583
10.1138 70000021600002448 70000021600002447 70000021600002475 3.00813107163
10.1679 70000021600002447 70000021600002446 70000021600002475 2.89578500573
10.2131 70000021600002446 70000021600002445 70000021600002475 2.73314261732
9.0066 70000021600002501 70000021600002500 70000021600002509 4.99593346816
9.02855 70000021600002519 70000021600002518 70000021600002529 3.93726108473
9.0066 70000021600002579 70000021600002578 70000021600002590 5.84661374788
9.08309 70000021600002578 70000021600002577 70000021600002590 5.52976580795
9.09111 70000021600002577 70000021600002576 70000021600002590 5.22758097313
9.13634 70000021600002576 70000021600002575 70000021600002590 4.99593346816
9.18376 70000021600002575 70000021600002573 70000021600002590 4.66451770247
9.19641 70000021600002573 70000021600002572 70000021600002590 4.42803373661
9.02855 70000021600002629 70000021600002628 70000021600002646 3.28303305796
9.05524 70000021600002628 70000021600002625 70000021600002646 2.89578500573
9.01928 70000021600002809 70000021600002808 70000021600002816 3.70877426464
9.1663 70000021600002808 70000021600002806 70000021600002816 3.28303305796
9.27766 70000021600002806 70000021600002805 70000021600002816 3.08482263583
9.32497 70000021600002805 70000021600002804 70000021600002816 3.00813107163
9.32651 70000021600002804 70000021600002803 70000021600002816 2.89578500573
9.35627 70000021600002803 70000021600002802 70000021600002816 2.73314261732
9.37181 70000021600002802 70000021600002801 70000021600002816 2.5772902716
9.39081 70000021600002801 70000021600002800 70000021600002816 2.44422570455
9.01614 70000021600002853 70000021600002852 70000021600002863 4.17683491473
9.04062 70000021600002852 70000021600002851 70000021600002863 4.00794511147
9.08309 70000021600002851 70000021600002850 70000021600002863 3.93726108473
9.16182 70000021600002850 70000021600002848 70000021600002863 3.49086136926
9.17293 70000021600002848 70000021600002847 70000021600002863 3.28303305796
9.22845 70000021600002847 70000021600002845 70000021600002863 3.00813107163
9.23229 70000021600002845 70000021600002841 70000021600002863 2.44422570455
9.2342 70000021600002841 70000021600002840 70000021600002863 2.31611074396
9.04358 70000021600002963 70000021600002962 70000021600002973 6.01075739884
9.25101 70000021600002962 70000021600002961 70000021600002973 5.84661374788
9.36481 70000021600002961 70000021600002953 70000021600002973 4.00794511147
9.36622 70000021600002953 70000021600002952 70000021600002973 3.93726108473
9.41282 70000021600002952 70000021600002951 70000021600002973 3.70877426464
9.58213 70000021600002951 70000021600002950 70000021600002973 3.49086136926
9.07492 70000021600002987 70000021600002986 70000021600002992 6.49159774567
9.2026 70000021600002986 70000021600002978 70000021600002992 4.66451770247
9.34902 70000021600002978 70000021600002977 70000021600002992 4.42803373661
9.01298 70000021600003048 70000021600003047 70000021600003053 3.93726108473
9.08845 70000021600003047 70000021600003046 70000021600003053 3.70877426464
9.14578 70000021600003046 70000021600003044 70000021600003053 3.28303305796
9.18162 70000021600003044 70000021600003042 70000021600003053 3.00813107163
9.20055 70000021600003042 70000021600003041 70000021600003053 2.89578500573
9.18376 70000021600003203 70000021600003202 70000021600003210 6.14490120342
9.22845 70000021600003202 70000021600003201 70000021600003210 6.01075739884
9.25466 70000021600003201 70000021600003200 70000021600003210 5.84661374788
9.33415 70000021600003200 70000021600003199 70000021600003210 5.52976580795
9.37457 70000021600003199 70000021600003198 70000021600003210 5.22758097313
9.44914 70000021600003198 70000021600003197 70000021600003210 4.99593346816
9.4651 70000021600003197 70000021600003196 70000021600003210 4.93938066349
9.5566 70000021600003196 70000021600003195 70000021600003210 4.66451770247
9.91009 70000021600003195 70000021600003194 70000021600003210 4.42803373661
10.238 70000021600003194 70000021600003191 70000021600003210 3.70877426464
10.2847 70000021600003191 70000021600003190 70000021600003210 3.49086136926
9.04358 70000021600003233 70000021600003232 70000021600003236 6.49159774567
9.23037 70000021600003232 70000021600003231 70000021600003236 6.14490120342
9.28788 70000021600003231 70000021600003228 70000021600003236 5.52976580795
9.32958 70000021600003228 70000021600003227 70000021600003236 5.22758097313
9.34461 70000021600003227 70000021600003226 70000021600003236 4.99593346816
9.37595 70000021600003226 70000021600003225 70000021600003236 4.93938066349
10.0669 70000021600003225 70000021600003222 70000021600003236 4.17683491473
9.04945 70000021600003247 70000021600003246 70000021600003256 5.52976580795
9.17293 70000021600003246 70000021600003245 70000021600003256 5.22758097313
9.25648 70000021600003245 70000021600003244 70000021600003256 4.99593346816
10.0524 70000021600003271 70000021600003270 70000021600003271 3.93726108473
9.04358 70000021600003277 70000021600003276 70000021600003287 4.42803373661
9.04358 70000021600003276 70000021600003275 70000021600003287 4.17683491473
9.02239 70000021600003292 70000021600003291 70000021600003302 4.42803373661
9.21272 70000021600003291 70000021600003288 70000021600003302 3.93726108473
9.03463 70000021600003344 70000021600003343 70000021600003363 1.90408954353
9.12668 70000021600003343 70000021600003342 70000021600003363 1.82268925262
9.07216 70000021600003420 70000021600003419 70000021600003427 8.44947629437
9.14344 70000021600003419 70000021600003418 70000021600003427 8.01217294887
9.21869 70000021600003418 70000021600003417 70000021600003427 7.59510714987
9.27766 70000021600003417 70000021600003416 70000021600003427 7.23627606617
9.32187 70000021600003416 70000021600003415 70000021600003427 7.00541704554
9.32958 70000021600003415 70000021600003414 70000021600003427 6.85511726265
9.47505 70000021600003414 70000021600003413 70000021600003427 6.49159774567
9.52948 70000021600003413 70000021600003409 70000021600003427 5.52976580795
9.58469 70000021600003409 70000021600003407 70000021600003427 4.99593346816
9.61899 70000021600003407 70000021600003405 70000021600003427 4.66451770247
9.62134 70000021600003405 70000021600003403 70000021600003427 4.17683491473
9.66302 70000021600003403 70000021600003402 70000021600003427 4.00794511147
9.67284 70000021600003402 70000021600003401 70000021600003427 3.93726108473
9.68447 70000021600003401 70000021600003399 70000021600003427 3.49086136926
9.0098 70000021600003552 70000021600003551 70000021600003565 2.1032696526
9.02239 70000021600003639 70000021600003638 70000021600003660 1.90408954353
9.04062 70000021600003786 70000021600003785 70000021600003794 2.89578500573
9.10671 70000021600003785 70000021600003784 70000021600003794 2.73314261732
9.11179 70000021600003784 70000021600003783 70000021600003794 2.5772902716
9.13394 70000021600003783 70000021600003782 70000021600003794 2.44422570455
9.17293 70000021600003782 70000021600003781 70000021600003794 2.31611074396
9.20055 70000021600003781 70000021600003780 70000021600003794 2.20792547238
9.10926 70000021600003954 70000021600003953 70000021600003957 3.49086136926
9.13634 70000021600003953 70000021600003952 70000021600003957 3.28303305796
9.30602 70000021600003952 70000021600003951 70000021600003957 3.08482263583
9.31243 70000021600003951 70000021600003950 70000021600003957 3.00813107163
9.43015 70000021600003950 70000021600003949 70000021600003957 2.89578500573
9.48799 70000021600003949 70000021600003948 70000021600003957 2.73314261732
9.00337 70000021600003981 70000021600003980 70000021600003998 2.89578500573
9.12178 70000021600004037 70000021600004036 70000021600004047 4.00794511147
9.14578 70000021600004036 70000021600004035 70000021600004047 3.93726108473
9.16852 70000021600004035 70000021600004030 70000021600004047 3.00813107163
9.03763 70000021600004188 70000021600004187 70000021600004194 8.44947629437
9.12424 70000021600004187 70000021600004186 70000021600004194 8.01217294887
9.18589 70000021600004186 70000021600004185 70000021600004194 7.59510714987
9.2929 70000021600004185 70000021600004184 70000021600004194 7.23627606617
9.33415 70000021600004184 70000021600004183 70000021600004194 7.00541704554
9.35483 70000021600004183 70000021600004182 70000021600004194 6.85511726265
9.41534 70000021600004182 70000021600004181 70000021600004194 6.49159774567
9.47286 70000021600004181 70000021600004180 70000021600004194 6.14490120342
9.47941 70000021600004180 70000021600004178 70000021600004194 5.84661374788
9.5314 70000021600004178 70000021600004177 70000021600004194 5.52976580795
9.60054 70000021600004177 70000021600004176 70000021600004194 5.22758097313
9.62831 70000021600004176 70000021600004174 70000021600004194 4.93938066349
9.70363 70000021600004174 70000021600004173 70000021600004194 4.66451770247
9.76219 70000021600004173 70000021600004172 70000021600004194 4.42803373661
9.83531 70000021600004172 70000021600004171 70000021600004194 4.17683491473
9.91449 70000021600004171 70000021600004170 70000021600004194 4.00794511147
9.94408 70000021600004170 70000021600004169 70000021600004194 3.93726108473
10.0757 70000021600004169 70000021600004168 70000021600004194 3.70877426464
10.1694 70000021600004168 70000021600004167 70000021600004194 3.49086136926
10.2145 70000021600004167 70000021600004166 70000021600004194 3.28303305796
10.3186 70000021600004166 70000021600004165 70000021600004194 3.08482263583
10.3699 70000021600004165 70000021600004164 70000021600004194 3.00813107163
10.3872 70000021600004164 70000021600004161 70000021600004194 2.5772902716
9.01614 70000021600004203 70000021600004202 70000021600004214 4.66451770247
9.0098 70000021600004227 70000021600004226 70000021600004233 5.84661374788
9.05811 70000021600004226 70000021600004225 70000021600004233 5.52976580795
9.10926 70000021600004225 70000021600004224 70000021600004233 5.22758097313
9.14578 70000021600004224 70000021600004223 70000021600004233 4.99593346816
9.24175 70000021600004223 70000021600004222 70000021600004233 4.93938066349
9.25466 70000021600004222 70000021600004221 70000021600004233 4.66451770247
9.2742 70000021600004221 70000021600004220 70000021600004233 4.42803373661
9.35771 70000021600004220 70000021600004216 70000021600004233 3.70877426464
9.05811 70000021600004265 70000021600004264 70000021600004274 7.00541704554
9.06378 70000021600004264 70000021600004263 70000021600004274 6.85511726265
9.15042 70000021600004263 70000021600004261 70000021600004274 6.14490120342
9.18589 70000021600004261 70000021600004260 70000021600004274 6.01075739884
9.21671 70000021600004260 70000021600004259 70000021600004274 5.84661374788
9.28956 70000021600004259 70000021600004258 70000021600004274 5.52976580795
9.38681 70000021600004258 70000021600004257 70000021600004274 5.22758097313
9.43497 70000021600004257 70000021600004256 70000021600004274 4.99593346816
9.45261 70000021600004256 70000021600004255 70000021600004274 4.93938066349
9.47176 70000021600004255 70000021600004254 70000021600004274 4.66451770247
9.49536 70000021600004254 70000021600004253 70000021600004274 4.42803373661
9.55387 70000021600004253 70000021600004252 70000021600004274 4.17683491473
9.09375 70000021600004309 70000021600004308 70000021600004312 2.73314261732
9.0066 70000021600004348 70000021600004347 70000021600004354 4.00794511147
9.0066 70000021600004347 70000021600004346 70000021600004354 3.93726108473
9.02239 70000021600004346 70000021600004345 70000021600004354 3.70877426464
9.03763 70000021600004345 70000021600004344 70000021600004354 3.49086136926
9.02239 70000021600004424 70000021600004423 70000021600004432 5.22758097313
9.04062 70000021600004423 70000021600004422 70000021600004432 4.99593346816
9.10415 70000021600004422 70000021600004421 70000021600004432 4.93938066349
9.18162 70000021600004421 70000021600004420 70000021600004432 4.66451770247
9.21472 70000021600004420 70000021600004419 70000021600004432 4.42803373661
9.27246 70000021600004419 70000021600004418 70000021600004432 4.17683491473
9.32497 70000021600004418 70000021600004417 70000021600004432 4.00794511147
9.32497 70000021600004417 70000021600004408 70000021600004432 2.5772902716
9.34165 70000021600004408 70000021600004407 70000021600004432 2.44422570455
9.07216 70000021600004598 70000021600004597 70000021600004609 3.70877426464
9.2087 70000021600004597 70000021600004596 70000021600004609 3.49086136926
9.25466 70000021600004596 70000021600004595 70000021600004609 3.28303305796
9.44564 70000021600004595 70000021600004594 70000021600004609 3.08482263583
9.52267 70000021600004594 70000021600004592 70000021600004609 2.89578500573
9.66795 70000021600004592 70000021600004591 70000021600004609 2.5772902716
9.71259 70000021600004591 70000021600004590 70000021600004609 2.44422570455
9.79534 70000021600004590 70000021600004587 70000021600004609 2.1032696526
9.04653 70000021600004629 70000021600004628 70000021600004637 3.49086136926
9.23229 70000021600004628 70000021600004627 70000021600004637 3.28303305796
9.64268 70000021600004627 70000021600004623 70000021600004637 2.73314261732
9.11431 70000021600004715 70000021600004714 70000021600004723 7.23627606617
9.19223 70000021600004714 70000021600004713 70000021600004723 7.00541704554
9.21272 70000021600004713 70000021600004711 70000021600004723 6.49159774567
9.26187 70000021600004711 70000021600004710 70000021600004723 6.14490120342
9.30763 70000021600004710 70000021600004709 70000021600004723 6.01075739884
9.31083 70000021600004709 70000021600004708 70000021600004723 5.84661374788
9.31401 70000021600004708 70000021600004707 70000021600004723 5.52976580795
9.37042 70000021600004707 70000021600004706 70000021600004723 5.22758097313
9.51575 70000021600004706 70000021600004705 70000021600004723 4.99593346816
9.55021 70000021600004705 70000021600004704 70000021600004723 4.93938066349
9.57262 70000021600004704 70000021600004703 70000021600004723 4.66451770247
9.6573 70000021600004703 70000021600004702 70000021600004723 4.42803373661
9.68717 70000021600004702 70000021600004701 70000021600004723 4.17683491473
9.7342 70000021600004701 70000021600004700 70000021600004723 4.00794511147
9.75593 70000021600004700 70000021600004699 70000021600004723 3.93726108473
9.78902 70000021600004699 70000021600004698 70000021600004723 3.70877426464
9.8697 70000021600004698 70000021600004697 70000021600004723 3.49086136926
9.96793 70000021600004697 70000021600004695 70000021600004723 3.08482263583
10.0043 70000021600004695 70000021600004694 70000021600004723 3.00813107163
10.0205 70000021600004694 70000021600004693 70000021600004723 2.89578500573
10.048 70000021600004693 70000021600004692 70000021600004723 2.73314261732
10.1082 70000021600004692 70000021600004691 70000021600004723 2.5772902716
10.1462 70000021600004691 70000021600004689 70000021600004723 2.31611074396
10.162 70000021600004689 70000021600004688 70000021600004723 2.20792547238
10.2075 70000021600004688 70000021600004686 70000021600004723 2.00202813925
9.0066 70000021600004733 70000021600004732 70000021600004739 6.01075739884
9.02548 70000021600004872 70000021600004871 70000021600004886 3.49086136926
9.03763 70000021600004871 70000021600004870 70000021600004886 3.28303305796
9.07492 70000021600004870 70000021600004869 70000021600004886 3.08482263583
9.08578 70000021600004869 70000021600004868 70000021600004886 3.00813107163
9.1573 70000021600004868 70000021600004866 70000021600004886 2.73314261732
9.19641 70000021600004866 70000021600004864 70000021600004886 2.44422570455
9.19848 70000021600004864 70000021600004863 70000021600004886 2.31611074396
9.20668 70000021600004863 70000021600004862 70000021600004886 2.20792547238
9.05811 70000021600004944 70000021600004943 70000021600004950 7.23627606617
9.07216 70000021600004943 70000021600004942 70000021600004950 7.00541704554
9.09637 70000021600004942 70000021600004940 70000021600004950 6.49159774567
9.18589 70000021600004940 70000021600004939 70000021600004950 6.14490120342
9.19848 70000021600004939 70000021600004938 70000021600004950 6.01075739884
9.26365 70000021600004938 70000021600004937 70000021600004950 5.84661374788
9.3156 70000021600004937 70000021600004936 70000021600004950 5.52976580795
9.35194 70000021600004936 70000021600004935 70000021600004950 5.22758097313
9.36199 70000021600004935 70000021600004934 70000021600004950 4.99593346816
9.38277 70000021600004934 70000021600004932 70000021600004950 4.66451770247
9.53618 70000021600004932 70000021600004931 70000021600004950 4.42803373661
9.60381 70000021600004931 70000021600004928 70000021600004950 3.93726108473
9.61106 70000021600004928 70000021600004922 70000021600004950 2.89578500573
9.6925 70000021600004922 70000021600004921 70000021600004950 2.73314261732
9.84052 70000021600004921 70000021600004920 70000021600004950 2.5772902716
9.92934 70000021600004920 70000021600004918 70000021600004950 2.31611074396
9.03763 70000021600004958 70000021600004957 70000021600004963 4.66451770247
9.02548 70000021600004985 70000021600004984 70000021600004988 4.66451770247
9.23037 70000021600004984 70000021600004983 70000021600004988 4.42803373661
9.35771 70000021600004983 70000021600004982 70000021600004988 4.17683491473
9.52948 70000021600004982 70000021600004981 70000021600004988 4.00794511147
9.56823 70000021600004981 70000021600004979 70000021600004988 3.70877426464
9.57175 70000021600004979 70000021600004977 70000021600004988 3.28303305796
9.11431 70000021600005190 70000021600005189 70000021600005202 4.00794511147
9.13394 70000021600005189 70000021600005188 70000021600005202 3.93726108473
9.2828 70000021600005188 70000021600005187 70000021600005202 3.70877426464
9.39609 70000021600005187 70000021600005185 70000021600005202 3.28303305796
9.45261 70000021600005185 70000021600005184 70000021600005202 3.08482263583
9.4549 70000021600005184 70000021600005183 70000021600005202 3.00813107163
9.4606 70000021600005183 70000021600005182 70000021600005202 2.89578500573
9.48799 70000021600005182 70000021600005180 70000021600005202 2.5772902716
9.54465 70000021600005180 70000021600005179 70000021600005202 2.44422570455
9.04062 70000021600005358 70000021600005357 70000021600005367 3.08482263583
9.15273 70000021600005357 70000021600005354 70000021600005367 2.73314261732
9.21072 70000021600005354 70000021600005353 70000021600005367 2.5772902716
9.23037 70000021600005353 70000021600005352 70000021600005367 2.44422570455
9.26896 70000021600005352 70000021600005351 70000021600005367 2.31611074396
9.27594 70000021600005351 70000021600005350 70000021600005367 2.20792547238
9.27594 70000021600005350 70000021600005343 70000021600005367 1.60423452207
9.12424 70000021600005485 70000021600005484 70000021600005493 4.00794511147
9.13394 70000021600005484 70000021600005483 70000021600005493 3.93726108473
9.14578 70000021600005483 70000021600005481 70000021600005493 3.49086136926
9.04358 70000021600005594 70000021600005593 70000021600005614 2.20792547238
9.04653 70000021600005593 70000021600005592 70000021600005614 2.1032696526
9.05811 70000021600005592 70000021600005590 70000021600005614 1.90408954353
9.08845 70000021600005590 70000021600005589 70000021600005614 1.82268925262
9.0066 70000021600005743 70000021600005742 70000021600005760 2.73314261732
9.01614 70000021600005742 70000021600005740 70000021600005760 2.44422570455
9.06096 70000021600005740 70000021600005737 70000021600005760 2.1032696526
9.09375 70000021600005737 70000021600005736 70000021600005760 2.00202813925
9.10157 70000021600005736 70000021600005733 70000021600005760 1.74357057433
9.1193 70000021600005733 70000021600005732 70000021600005760 1.66666955611
9.23037 70000021600005836 70000021600005835 70000021600005840 7.23627606617
9.25101 70000021600005835 70000021600005834 70000021600005840 7.00541704554
9.32805 70000021600005834 70000021600005832 70000021600005840 6.49159774567
9.39871 70000021600005832 70000021600005831 70000021600005840 6.14490120342
9.46172 70000021600005831 70000021600005829 70000021600005840 5.84661374788
9.50567 70000021600005829 70000021600005828 70000021600005840 5.52976580795
9.53428 70000021600005828 70000021600005827 70000021600005840 5.22758097313
9.59807 70000021600005827 70000021600005823 70000021600005840 4.42803373661
9.78636 70000021600005823 70000021600005822 70000021600005840 4.17683491473
9.83626 70000021600005822 70000021600005821 70000021600005840 4.00794511147
9.87102 70000021600005821 70000021600005820 70000021600005840 3.93726108473
10.0325 70000021600005820 70000021600005819 70000021600005840 3.70877426464
10.138 70000021600005819 70000021600005818 70000021600005840 3.49086136926
10.2835 70000021600005818 70000021600005817 70000021600005840 3.28303305796
10.3086 70000021600005817 70000021600005816 70000021600005840 3.08482263583
10.3476 70000021600005816 70000021600005815 70000021600005840 3.00813107163
10.3587 70000021600005815 70000021600005814 70000021600005840 2.89578500573
10.3773 70000021600005814 70000021600005813 70000021600005840 2.73314261732
10.4001 70000021600005813 70000021600005812 70000021600005840 2.5772902716
10.406 70000021600005812 70000021600005811 70000021600005840 2.44422570455
10.418 70000021600005811 70000021600005810 70000021600005840 2.31611074396
10.4696 70000021600005810 70000021600005809 70000021600005840 2.20792547238
10.4815 70000021600005809 70000021600005805 70000021600005840 1.82268925262
9.01614 70000021600005872 70000021600005871 70000021600005882 4.99593346816
9.40518 70000021600005871 70000021600005868 70000021600005882 4.42803373661
9.14344 70000021600005884 70000021600005883 70000021600005893 4.66451770247
9.29622 70000021600005936 70000021600005935 70000021600005950 6.14490120342
9.37869 70000021600005935 70000021600005933 70000021600005950 5.84661374788
9.45261 70000021600005933 70000021600005932 70000021600005950 5.52976580795
9.52851 70000021600005932 70000021600005931 70000021600005950 5.22758097313
9.53902 70000021600005931 70000021600005925 70000021600005950 4.00794511147
9.55751 70000021600005925 70000021600005924 70000021600005950 3.93726108473
9.56735 70000021600005924 70000021600005923 70000021600005950 3.70877426464
9.08038 70000021600006059 70000021600006058 70000021600006063 9.99659046619
9.16182 70000021600006058 70000021600006056 70000021600006063 9.38877127194
9.27072 70000021600006056 70000021600006055 70000021600006063 9.00233985416
9.27594 70000021600006055 70000021600006054 70000021600006063 8.9079991856
9.37869 70000021600006054 70000021600006053 70000021600006063 8.44947629437
9.4606 70000021600006053 70000021600006052 70000021600006063 8.01217294887
9.59477 70000021600006052 70000021600006051 70000021600006063 7.59510714987
9.72198 70000021600006051 70000021600006050 70000021600006063 7.23627606617
9.76613 70000021600006050 70000021600006049 70000021600006063 7.00541704554
9.78636 70000021600006049 70000021600006048 70000021600006063 6.85511726265
9.80054 70000021600006048 70000021600006047 70000021600006063 6.49159774567
9.90198 70000021600006047 70000021600006046 70000021600006063 6.14490120342
9.90239 70000021600006046 70000021600006045 70000021600006063 6.01075739884
10.107 70000021600006045 70000021600006043 70000021600006063 5.52976580795
10.3013 70000021600006043 70000021600006041 70000021600006063 4.99593346816
10.4099 70000021600006041 70000021600006039 70000021600006063 4.66451770247
10.5725 70000021600006039 70000021600006037 70000021600006063 4.17683491473
10.6009 70000021600006037 70000021600006036 70000021600006063 4.00794511147
10.6139 70000021600006036 70000021600006035 70000021600006063 3.93726108473
10.6809 70000021600006035 70000021600006034 70000021600006063 3.70877426464
10.71 70000021600006034 70000021600006033 70000021600006063 3.49086136926
10.7623 70000021600006033 70000021600006032 70000021600006063 3.28303305796
10.8271 70000021600006032 70000021600006031 70000021600006063 3.08482263583
10.8542 70000021600006031 70000021600006030 70000021600006063 3.00813107163
10.893 70000021600006030 70000021600006029 70000021600006063 2.89578500573
10.9233 70000021600006029 70000021600006028 70000021600006063 2.73314261732
10.9271 70000021600006028 70000021600006027 70000021600006063 2.5772902716
10.9669 70000021600006027 70000021600006026 70000021600006063 2.44422570455
10.9702 70000021600006026 70000021600006023 70000021600006063 2.1032696526
10.9895 70000021600006023 70000021600006022 70000021600006063 2.00202813925
11.008 70000021600006022 70000021600006021 70000021600006063 1.90408954353
11.0188 70000021600006021 70000021600006016 70000021600006063 1.53123902916
9.00337 70000021600006125 70000021600006124 70000021600006135 8.01217294887
9.1663 70000021600006124 70000021600006123 70000021600006135 7.59510714987
9.18802 70000021600006123 70000021600006122 70000021600006135 7.23627606617
9.24362 70000021600006122 70000021600006121 70000021600006135 7.00541704554
9.26896 70000021600006121 70000021600006120 70000021600006135 6.85511726265
9.35048 70000021600006120 70000021600006119 70000021600006135 6.49159774567
9.36481 70000021600006119 70000021600006118 70000021600006135 6.14490120342
9.3974 70000021600006118 70000021600006117 70000021600006135 6.01075739884
10.4841 70000021600006117 70000021600006110 70000021600006135 4.42803373661
9.08578 70000021600006159 70000021600006158 70000021600006173 5.52976580795
9.1193 70000021600006158 70000021600006156 70000021600006173 4.99593346816
9.19433 70000021600006231 70000021600006230 70000021600006235 9.38877127194
9.20464 70000021600006230 70000021600006228 70000021600006235 8.9079991856
9.21272 70000021600006228 70000021600006227 70000021600006235 8.44947629437
9.35338 70000021600006227 70000021600006226 70000021600006235 8.01217294887
9.37732 70000021600006226 70000021600006225 70000021600006235 7.59510714987
9.43974 70000021600006225 70000021600006224 70000021600006235 7.23627606617
9.49116 70000021600006224 70000021600006223 70000021600006235 7.00541704554
9.51475 70000021600006223 70000021600006222 70000021600006235 6.85511726265
9.56111 70000021600006222 70000021600006221 70000021600006235 6.49159774567
9.6449 70000021600006221 70000021600006220 70000021600006235 6.14490120342
9.65802 70000021600006220 70000021600006219 70000021600006235 6.01075739884
10.0826 70000021600006219 70000021600006216 70000021600006235 5.22758097313
9.04062 70000021600006266 70000021600006265 70000021600006268 8.44947629437
9.11179 70000021600006317 70000021600006316 70000021600006322 8.01217294887
9.16407 70000021600006316 70000021600006315 70000021600006322 7.59510714987
9.17729 70000021600006315 70000021600006313 70000021600006322 7.00541704554
9.21272 70000021600006313 70000021600006311 70000021600006322 6.49159774567
9.24362 70000021600006311 70000021600006310 70000021600006322 6.14490120342
9.24362 70000021600006310 70000021600006309 70000021600006322 6.01075739884
9.26896 70000021600006309 70000021600006308 70000021600006322 5.84661374788
9.30278 70000021600006308 70000021600006307 70000021600006322 5.52976580795
9.33866 70000021600006307 70000021600006304 70000021600006322 4.93938066349
9.34902 70000021600006304 70000021600006303 70000021600006322 4.66451770247
9.34756 70000021600006540 70000021600006539 70000021600006553 4.99593346816
9.40131 70000021600006539 70000021600006537 70000021600006553 4.66451770247
9.4549 70000021600006537 70000021600006534 70000021600006553 4.00794511147
9.46285 70000021600006534 70000021600006532 70000021600006553 3.70877426464
9.55113 70000021600006532 70000021600006531 70000021600006553 3.49086136926
9.60866 70000021600006531 70000021600006530 70000021600006553 3.28303305796
9.0098 70000021600006577 70000021600006576 70000021600006586 4.99593346816
9.01614 70000021600006576 70000021600006575 70000021600006586 4.93938066349
9.04358 70000021600006575 70000021600006574 70000021600006586 4.66451770247
9.04945 70000021600006574 70000021600006573 70000021600006586 4.42803373661
9.10415 70000021600006573 70000021600006572 70000021600006586 4.17683491473
9.13634 70000021600006572 70000021600006571 70000021600006586 4.00794511147
9.33566 70000021600006571 70000021600006570 70000021600006586 3.93726108473
9.48586 70000021600006570 70000021600006566 70000021600006586 3.08482263583
9.11179 70000021600006615 70000021600006614 70000021600006622 4.66451770247
9.13871 70000021600006614 70000021600006613 70000021600006622 4.42803373661
9.1573 70000021600006613 70000021600006612 70000021600006622 4.17683491473
9.04945 70000021600006721 70000021600006720 70000021600006729 7.23627606617
9.21472 70000021600006720 70000021600006719 70000021600006729 7.00541704554
9.2862 70000021600006719 70000021600006716 70000021600006729 6.01075739884
9.32187 70000021600006716 70000021600006715 70000021600006729 5.84661374788
9.38141 70000021600006715 70000021600006714 70000021600006729 5.52976580795
9.46172 70000021600006714 70000021600006713 70000021600006729 5.22758097313
9.5629 70000021600006713 70000021600006712 70000021600006729 4.99593346816
9.58723 70000021600006712 70000021600006711 70000021600006729 4.93938066349
9.6756 70000021600006711 70000021600006710 70000021600006729 4.66451770247
9.76275 70000021600006710 70000021600006709 70000021600006729 4.42803373661
9.81227 70000021600006709 70000021600006708 70000021600006729 4.17683491473
9.87757 70000021600006708 70000021600006707 70000021600006729 4.00794511147
9.88144 70000021600006707 70000021600006706 70000021600006729 3.93726108473
9.90361 70000021600006706 70000021600006705 70000021600006729 3.70877426464
9.94925 70000021600006705 70000021600006704 70000021600006729 3.49086136926
9.97352 70000021600006704 70000021600006703 70000021600006729 3.28303305796
10.1339 70000021600006703 70000021600006702 70000021600006729 3.08482263583
10.1453 70000021600006702 70000021600006700 70000021600006729 2.89578500573
10.1552 70000021600006700 70000021600006699 70000021600006729 2.73314261732
10.195 70000021600006699 70000021600006698 70000021600006729 2.5772902716
9.18802 70000021600006737 70000021600006736 70000021600006737 6.14490120342
9.06939 70000021600006744 70000021600006743 70000021600006747 6.01075739884
9.07492 70000021600006743 70000021600006741 70000021600006747 5.52976580795
9.07492 70000021600006810 70000021600006809 70000021600006822 6.14490120342
9.08038 70000021600006809 70000021600006807 70000021600006822 5.84661374788
9.10157 70000021600006807 70000021600006805 70000021600006822 5.22758097313
9.10926 70000021600006805 70000021600006804 70000021600006822 4.99593346816
9.1573 70000021600006804 70000021600006803 70000021600006822 4.93938066349
9.20055 70000021600006803 70000021600006802 70000021600006822 4.66451770247
9.32958 70000021600006802 70000021600006801 70000021600006822 4.42803373661
9.41784 70000021600006801 70000021600006800 70000021600006822 4.17683491473
9.4503 70000021600006800 70000021600006799 70000021600006822 4.00794511147
9.50872 70000021600006799 70000021600006798 70000021600006822 3.93726108473
9.57869 70000021600006798 70000021600006797 70000021600006822 3.70877426464
9.67698 70000021600006797 70000021600006796 70000021600006822 3.49086136926
9.02855 70000021600006964 70000021600006963 70000021600006981 4.42803373661
9.09898 70000021600006963 70000021600006962 70000021600006981 4.17683491473
9.12424 70000021600006962 70000021600006961 70000021600006981 4.00794511147
9.1663 70000021600006961 70000021600006960 70000021600006981 3.93726108473
9.17293 70000021600006960 70000021600006959 70000021600006981 3.70877426464
9.20668 70000021600006959 70000021600006958 70000021600006981 3.49086136926
9.21869 70000021600006958 70000021600006957 70000021600006981 3.28303305796
9.01614 70000021600007105 70000021600007104 70000021600007116 4.42803373661
9.16852 70000021600007104 70000021600007103 70000021600007116 4.17683491473
9.23799 70000021600007103 70000021600007102 70000021600007116 4.00794511147
9.30115 70000021600007102 70000021600007100 70000021600007116 3.70877426464
9.32342 70000021600007100 70000021600007099 70000021600007116 3.49086136926
9.39478 70000021600007099 70000021600007098 70000021600007116 3.28303305796
9.48157 70000021600007098 70000021600007096 70000021600007116 3.00813107163
9.48692 70000021600007096 70000021600007091 70000021600007116 2.31611074396
9.60705 70000021600007091 70000021600007088 70000021600007116 2.00202813925
9.12912 70000021600007411 70000021600007410 70000021600007421 4.66451770247
9.27766 70000021600007410 70000021600007409 70000021600007421 4.42803373661
9.38141 70000021600007409 70000021600007408 70000021600007421 4.17683491473
9.40131 70000021600007408 70000021600007407 70000021600007421 4.00794511147
9.42404 70000021600007407 70000021600007406 70000021600007421 3.93726108473
9.43136 70000021600007406 70000021600007399 70000021600007421 2.73314261732
9.44211 70000021600007399 70000021600007398 70000021600007421 2.5772902716
9.45833 70000021600007398 70000021600007397 70000021600007421 2.44422570455
9.47832 70000021600007397 70000021600007396 70000021600007421 2.31611074396
9.51774 70000021600007396 70000021600007395 70000021600007421 2.20792547238
9.53332 70000021600007395 70000021600007394 70000021600007421 2.1032696526
9.53808 70000021600007394 70000021600007392 70000021600007421 1.90408954353
9.01928 70000021600007796 70000021600007795 70000021600007815 3.28303305796
9.18376 70000021600007795 70000021600007793 70000021600007815 3.00813107163
9.2361 70000021600007793 70000021600007790 70000021600007815 2.5772902716
9.26896 70000021600007790 70000021600007789 70000021600007815 2.44422570455
9.26896 70000021600007789 70000021600007787 70000021600007815 2.20792547238
9.2929 70000021600007787 70000021600007786 70000021600007815 2.1032696526
9.29622 70000021600007786 70000021600007785 70000021600007815 2.00202813925
9.3044 70000021600007785 70000021600007781 70000021600007815 1.66666955611
9.03463 70000021600007940 70000021600007939 70000021600007945 6.14490120342
9.03763 70000021600007939 70000021600007938 70000021600007945 6.01075739884
9.07766 70000021600007938 70000021600007937 70000021600007945 5.84661374788
9.12668 70000021600007937 70000021600007936 70000021600007945 5.52976580795
9.15273 70000021600007936 70000021600007935 70000021600007945 5.22758097313
9.17293 70000021600007935 70000021600007934 70000021600007945 4.99593346816
9.19433 70000021600007934 70000021600007933 70000021600007945 4.93938066349
9.58469 70000021600007933 70000021600007930 70000021600007945 4.17683491473
9.60946 70000021600007930 70000021600007929 70000021600007945 3.93726108473
9.66088 70000021600007929 70000021600007928 70000021600007945 3.70877426464
9.69383 70000021600007928 70000021600007927 70000021600007945 3.49086136926
9.69449 70000021600007927 70000021600007922 70000021600007945 2.73314261732
9.7195 70000021600007922 70000021600007921 70000021600007945 2.5772902716
9.76444 70000021600007921 70000021600007920 70000021600007945 2.44422570455
9.01298 70000021600007953 70000021600007952 70000021600007961 5.52976580795
9.04653 70000021600007952 70000021600007951 70000021600007961 5.22758097313
9.09375 70000021600007951 70000021600007950 70000021600007961 4.99593346816
9.10415 70000021600007950 70000021600007949 70000021600007961 4.93938066349
9.21472 70000021600007949 70000021600007948 70000021600007961 4.66451770247
9.27938 70000021600007948 70000021600007947 70000021600007961 4.42803373661
9.02239 70000021600008060 70000021600008059 70000021600008065 6.85511726265
9.04358 70000021600008059 70000021600008058 70000021600008065 6.49159774567
9.04945 70000021600008058 70000021600008057 70000021600008065 6.14490120342
9.07492 70000021600008057 70000021600008056 70000021600008065 6.01075739884
9.09111 70000021600008056 70000021600008055 70000021600008065 5.84661374788
9.10926 70000021600008055 70000021600008054 70000021600008065 5.52976580795
9.24733 70000021600008054 70000021600008053 70000021600008065 5.22758097313
9.2742 70000021600008053 70000021600008052 70000021600008065 4.99593346816
9.28788 70000021600008052 70000021600008051 70000021600008065 4.93938066349
9.38277 70000021600008051 70000021600008049 70000021600008065 4.42803373661
9.39214 70000021600008049 70000021600008047 70000021600008065 4.00794511147
9.40131 70000021600008047 70000021600008046 70000021600008065 3.93726108473
9.41784 70000021600008046 70000021600008045 70000021600008065 3.70877426464
9.43617 70000021600008045 70000021600008044 70000021600008065 3.49086136926
9.0098 70000021600008135 70000021600008134 70000021600008159 3.08482263583
9.01298 70000021600008134 70000021600008130 70000021600008159 2.5772902716
9.06096 70000021600008337 70000021600008336 70000021600008343 5.52976580795
9.07492 70000021600008336 70000021600008331 70000021600008343 4.42803373661
9.08038 70000021600008331 70000021600008330 70000021600008343 4.17683491473
9.20055 70000021600008330 70000021600008329 70000021600008343 4.00794511147
9.38547 70000021600008329 70000021600008327 70000021600008343 3.70877426464
9.44447 70000021600008327 70000021600008326 70000021600008343 3.49086136926
9.46172 70000021600008326 70000021600008325 70000021600008343 3.28303305796
9.52754 70000021600008325 70000021600008324 70000021600008343 3.08482263583
9.54091 70000021600008324 70000021600008322 70000021600008343 2.89578500573
9.59807 70000021600008322 70000021600008321 70000021600008343 2.73314261732
9.61186 70000021600008321 70000021600008320 70000021600008343 2.5772902716
9.62212 70000021600008320 70000021600008319 70000021600008343 2.44422570455
9.65369 70000021600008319 70000021600008318 70000021600008343 2.31611074396
9.66159 70000021600008318 70000021600008317 70000021600008343 2.20792547238
9.66514 70000021600008317 70000021600008315 70000021600008343 2.00202813925
9.69843 70000021600008315 70000021600008314 70000021600008343 1.90408954353
9.18376 70000021600008348 70000021600008347 70000021600008362 3.93726108473
9.19848 70000021600008437 70000021600008436 70000021600008450 3.49086136926
9.2087 70000021600008436 70000021600008435 70000021600008450 3.28303305796
9.24733 70000021600008435 70000021600008433 70000021600008450 3.00813107163
9.30602 70000021600008433 70000021600008430 70000021600008450 2.5772902716
9.33415 70000021600008430 70000021600008427 70000021600008450 2.20792547238
9.34461 70000021600008427 70000021600008426 70000021600008450 2.1032696526
9.36902 70000021600008426 70000021600008425 70000021600008450 2.00202813925
9.38815 70000021600008425 70000021600008423 70000021600008450 1.82268925262
9.39871 70000021600008423 70000021600008422 70000021600008450 1.74357057433
9.40001 70000021600008422 70000021600008420 70000021600008450 1.60423452207
9.40001 70000021600008420 70000021600008419 70000021600008450 1.53123902916
9.02239 70000021600008696 70000021600008695 70000021600008705 3.70877426464
9.05235 70000021600008695 70000021600008694 70000021600008705 3.49086136926
9.06096 70000021600008694 70000021600008693 70000021600008705 3.28303305796
9.07766 70000021600008693 70000021600008692 70000021600008705 3.08482263583
9.08309 70000021600008692 70000021600008691 70000021600008705 3.00813107163
9.13871 70000021600008691 70000021600008690 70000021600008705 2.89578500573
9.14108 70000021600008690 70000021600008689 70000021600008705 2.73314261732
9.17073 70000021600008689 70000021600008688 70000021600008705 2.5772902716
9.2087 70000021600008688 70000021600008686 70000021600008705 2.31611074396
9.22066 70000021600008686 70000021600008685 70000021600008705 2.20792547238
9.22651 70000021600008685 70000021600008684 70000021600008705 2.1032696526
9.22651 70000021600008684 70000021600008678 70000021600008705 1.60423452207
9.25828 70000021600008678 70000021600008677 70000021600008705 1.53123902916
9.2742 70000021600008677 70000021600008676 70000021600008705 1.47197484527
9.00012 70000021600008833 70000021600008832 70000021600008860 0.997294225782
