logMh | fpID | subhaloID | main leaf ID | z
9.20055 70000014100000106 70000014100000105 70000014100000108 10.9190331982
9.59725 70000014100000105 70000014100000104 70000014100000108 10.3674435724
9.75248 70000014100000104 70000014100000103 70000014100000108 9.99659046619
9.79847 70000014100000103 70000014100000102 70000014100000108 9.84138043947
9.88699 70000014100000102 70000014100000101 70000014100000108 9.38877127194
9.97663 70000014100000101 70000014100000100 70000014100000108 9.00233985416
9.98786 70000014100000100 70000014100000099 70000014100000108 8.9079991856
10.0935 70000014100000099 70000014100000098 70000014100000108 8.44947629437
10.2376 70000014100000098 70000014100000097 70000014100000108 8.01217294887
10.2959 70000014100000097 70000014100000096 70000014100000108 7.59510714987
10.417 70000014100000096 70000014100000095 70000014100000108 7.23627606617
10.4881 70000014100000095 70000014100000094 70000014100000108 7.00541704554
10.5158 70000014100000094 70000014100000093 70000014100000108 6.85511726265
10.5473 70000014100000093 70000014100000092 70000014100000108 6.49159774567
10.6411 70000014100000092 70000014100000091 70000014100000108 6.14490120342
10.6614 70000014100000091 70000014100000090 70000014100000108 6.01075739884
10.6978 70000014100000090 70000014100000089 70000014100000108 5.84661374788
10.7375 70000014100000089 70000014100000088 70000014100000108 5.52976580795
10.7972 70000014100000088 70000014100000087 70000014100000108 5.22758097313
10.853 70000014100000087 70000014100000086 70000014100000108 4.99593346816
10.8989 70000014100000086 70000014100000085 70000014100000108 4.93938066349
11.001 70000014100000085 70000014100000084 70000014100000108 4.66451770247
11.0704 70000014100000084 70000014100000083 70000014100000108 4.42803373661
11.1945 70000014100000083 70000014100000082 70000014100000108 4.17683491473
11.2945 70000014100000082 70000014100000081 70000014100000108 4.00794511147
11.3417 70000014100000081 70000014100000080 70000014100000108 3.93726108473
11.4409 70000014100000080 70000014100000079 70000014100000108 3.70877426464
11.5189 70000014100000079 70000014100000078 70000014100000108 3.49086136926
11.7826 70000014100000078 70000014100000074 70000014100000108 2.89578500573
11.9072 70000014100000074 70000014100000073 70000014100000108 2.73314261732
11.9143 70000014100000073 70000014100000072 70000014100000108 2.5772902716
11.9457 70000014100000072 70000014100000070 70000014100000108 2.31611074396
12.0 70000014100000070 70000014100000069 70000014100000108 2.20792547238
12.0342 70000014100000069 70000014100000068 70000014100000108 2.1032696526
12.0364 70000014100000068 70000014100000067 70000014100000108 2.00202813925
12.0595 70000014100000067 70000014100000066 70000014100000108 1.90408954353
12.074 70000014100000066 70000014100000065 70000014100000108 1.82268925262
12.1065 70000014100000065 70000014100000064 70000014100000108 1.74357057433
12.1196 70000014100000064 70000014100000063 70000014100000108 1.66666955611
12.1238 70000014100000063 70000014100000062 70000014100000108 1.60423452207
12.1314 70000014100000062 70000014100000060 70000014100000108 1.47197484527
12.133 70000014100000060 70000014100000059 70000014100000108 1.41409822037
12.1407 70000014100000059 70000014100000058 70000014100000108 1.3575766674
12.1438 70000014100000058 70000014100000057 70000014100000108 1.30237845991
12.1501 70000014100000057 70000014100000056 70000014100000108 1.24847261425
12.168 70000014100000056 70000014100000055 70000014100000108 1.20625808078
12.1792 70000014100000055 70000014100000054 70000014100000108 1.15460271236
12.1892 70000014100000054 70000014100000053 70000014100000108 1.11415056377
12.2064 70000014100000053 70000014100000052 70000014100000108 1.07445789455
12.2195 70000014100000052 70000014100000051 70000014100000108 1.03551044566
12.2283 70000014100000051 70000014100000050 70000014100000108 0.997294225782
12.2304 70000014100000050 70000014100000049 70000014100000108 0.987852810816
12.2388 70000014100000049 70000014100000048 70000014100000108 0.950531351585
12.251 70000014100000048 70000014100000047 70000014100000108 0.923000816178
12.2674 70000014100000047 70000014100000046 70000014100000108 0.886896937575
12.276 70000014100000046 70000014100000045 70000014100000108 0.851470900625
12.2872 70000014100000045 70000014100000044 70000014100000108 0.816709979012
12.2958 70000014100000044 70000014100000043 70000014100000108 0.791068248946
12.302 70000014100000043 70000014100000042 70000014100000108 0.757441372616
12.3145 70000014100000042 70000014100000041 70000014100000108 0.732636182022
12.3153 70000014100000041 70000014100000039 70000014100000108 0.676110411213
12.3273 70000014100000039 70000014100000038 70000014100000108 0.644641840685
12.3387 70000014100000038 70000014100000037 70000014100000108 0.621428745243
12.3436 70000014100000037 70000014100000036 70000014100000108 0.598543288188
12.3459 70000014100000036 70000014100000035 70000014100000108 0.575980845108
12.3513 70000014100000035 70000014100000034 70000014100000108 0.546392183141
12.3522 70000014100000034 70000014100000033 70000014100000108 0.524565820434
12.3567 70000014100000033 70000014100000032 70000014100000108 0.503047523245
12.3573 70000014100000032 70000014100000029 70000014100000108 0.440297849248
12.359 70000014100000029 70000014100000028 70000014100000108 0.419968941997
12.3628 70000014100000028 70000014100000027 70000014100000108 0.399926964614
12.3677 70000014100000027 70000014100000026 70000014100000108 0.38016786726
12.3702 70000014100000026 70000014100000025 70000014100000108 0.360687657262
12.3714 70000014100000025 70000014100000024 70000014100000108 0.347853841858
12.3734 70000014100000024 70000014100000023 70000014100000108 0.328829724206
12.3786 70000014100000023 70000014100000022 70000014100000108 0.310074120128
12.3843 70000014100000022 70000014100000020 70000014100000108 0.273353346578
12.3887 70000014100000020 70000014100000019 70000014100000108 0.261343256161
12.3925 70000014100000019 70000014100000018 70000014100000108 0.243540181555
12.3957 70000014100000018 70000014100000017 70000014100000108 0.22598838626
12.3962 70000014100000017 70000014100000016 70000014100000108 0.214425035514
12.4003 70000014100000016 70000014100000015 70000014100000108 0.197284182376
12.4027 70000014100000015 70000014100000014 70000014100000108 0.180385261706
12.4035 70000014100000014 70000014100000013 70000014100000108 0.169252033244
12.4066 70000014100000013 70000014100000012 70000014100000108 0.152748768902
12.4081 70000014100000012 70000014100000011 70000014100000108 0.14187620397
12.4122 70000014100000011 70000014100000010 70000014100000108 0.125759332411
12.416 70000014100000010 70000014100000009 70000014100000108 0.109869940459
12.4183 70000014100000009 70000014100000008 70000014100000108 0.0994018026302
12.4216 70000014100000008 70000014100000007 70000014100000108 0.0838844307975
12.4239 70000014100000007 70000014100000006 70000014100000108 0.0736613846564
12.4272 70000014100000006 70000014100000005 70000014100000108 0.0585073227945
12.4289 70000014100000005 70000014100000004 70000014100000108 0.0485236299818
12.4325 70000014100000004 70000014100000003 70000014100000108 0.0337243718735
12.4348 70000014100000003 70000014100000002 70000014100000108 0.0239744283828
12.4404 70000014100000002 70000014100000001 70000014100000108 0.00952166696794
12.4426 70000014100000001 70000014100000000 70000014100000108 2.22044604925e-16
9.04062 70000014100000113 70000014100000112 70000014100000117 10.9190331982
9.16852 70000014100000229 70000014100000228 70000014100000232 10.3674435724
9.17946 70000014100000228 70000014100000227 70000014100000232 9.99659046619
9.21272 70000014100000227 70000014100000226 70000014100000232 9.84138043947
9.2845 70000014100000226 70000014100000225 70000014100000232 9.38877127194
9.3156 70000014100000225 70000014100000224 70000014100000232 9.00233985416
9.43617 70000014100000224 70000014100000223 70000014100000232 8.9079991856
9.49744 70000014100000223 70000014100000222 70000014100000232 8.44947629437
9.71448 70000014100000222 70000014100000221 70000014100000232 8.01217294887
9.71448 70000014100000221 70000014100000220 70000014100000232 7.59510714987
9.14344 70000014100000244 70000014100000243 70000014100000246 5.52976580795
9.0098 70000014100000309 70000014100000308 70000014100000320 8.01217294887
9.04653 70000014100000308 70000014100000307 70000014100000320 7.59510714987
9.1663 70000014100000307 70000014100000306 70000014100000320 7.23627606617
9.2742 70000014100000306 70000014100000304 70000014100000320 6.85511726265
9.37042 70000014100000304 70000014100000302 70000014100000320 6.14490120342
9.48479 70000014100000302 70000014100000301 70000014100000320 6.01075739884
9.02548 70000014100000337 70000014100000336 70000014100000343 8.01217294887
9.03763 70000014100000336 70000014100000335 70000014100000343 7.59510714987
9.09375 70000014100000335 70000014100000334 70000014100000343 7.23627606617
9.15042 70000014100000334 70000014100000333 70000014100000343 7.00541704554
9.16407 70000014100000333 70000014100000332 70000014100000343 6.85511726265
9.23229 70000014100000332 70000014100000331 70000014100000343 6.49159774567
9.06096 70000014100000427 70000014100000426 70000014100000431 6.14490120342
9.06939 70000014100000426 70000014100000425 70000014100000431 6.01075739884
9.10671 70000014100000425 70000014100000423 70000014100000431 5.52976580795
9.2026 70000014100000423 70000014100000421 70000014100000431 4.99593346816
9.27246 70000014100000421 70000014100000420 70000014100000431 4.93938066349
9.2672 70000014100000472 70000014100000471 70000014100000476 9.38877127194
9.2811 70000014100000471 70000014100000470 70000014100000476 9.00233985416
9.41029 70000014100000470 70000014100000468 70000014100000476 8.44947629437
9.49536 70000014100000468 70000014100000467 70000014100000476 8.01217294887
9.59972 70000014100000467 70000014100000466 70000014100000476 7.59510714987
9.64044 70000014100000466 70000014100000465 70000014100000476 7.23627606617
9.69383 70000014100000465 70000014100000464 70000014100000476 7.00541704554
9.72507 70000014100000464 70000014100000463 70000014100000476 6.85511726265
9.79482 70000014100000463 70000014100000462 70000014100000476 6.49159774567
9.91369 70000014100000462 70000014100000461 70000014100000476 6.14490120342
10.0236 70000014100000461 70000014100000460 70000014100000476 6.01075739884
10.061 70000014100000460 70000014100000459 70000014100000476 5.84661374788
10.1698 70000014100000459 70000014100000458 70000014100000476 5.52976580795
9.19013 70000014100000516 70000014100000515 70000014100000521 8.44947629437
9.28956 70000014100000515 70000014100000513 70000014100000521 7.59510714987
9.39214 70000014100000513 70000014100000512 70000014100000521 7.23627606617
9.59807 70000014100000512 70000014100000511 70000014100000521 7.00541704554
9.05235 70000014100000583 70000014100000582 70000014100000587 6.14490120342
9.13871 70000014100000582 70000014100000581 70000014100000587 6.01075739884
9.17073 70000014100000581 70000014100000580 70000014100000587 5.84661374788
9.42404 70000014100000580 70000014100000579 70000014100000587 5.52976580795
9.26187 70000014100000606 70000014100000605 70000014100000609 5.84661374788
9.41534 70000014100000605 70000014100000603 70000014100000609 5.22758097313
9.04945 70000014100000723 70000014100000722 70000014100000733 5.52976580795
9.15042 70000014100000763 70000014100000762 70000014100000771 5.22758097313
9.21671 70000014100000762 70000014100000761 70000014100000771 4.99593346816
9.23037 70000014100000761 70000014100000760 70000014100000771 4.93938066349
9.36763 70000014100000760 70000014100000759 70000014100000771 4.66451770247
9.46955 70000014100000759 70000014100000757 70000014100000771 4.17683491473
9.47286 70000014100000757 70000014100000756 70000014100000771 4.00794511147
9.49011 70000014100000756 70000014100000753 70000014100000771 3.49086136926
9.12424 70000014100000809 70000014100000808 70000014100000824 5.22758097313
9.24175 70000014100000808 70000014100000807 70000014100000824 4.99593346816
9.26543 70000014100000807 70000014100000806 70000014100000824 4.93938066349
9.26543 70000014100000806 70000014100000805 70000014100000824 4.66451770247
9.05811 70000014100000850 70000014100000849 70000014100000858 6.01075739884
9.13634 70000014100000849 70000014100000846 70000014100000858 5.22758097313
9.18376 70000014100000846 70000014100000845 70000014100000858 4.99593346816
9.18589 70000014100000845 70000014100000844 70000014100000858 4.93938066349
9.13394 70000014100000873 70000014100000872 70000014100000879 5.52976580795
9.20464 70000014100000872 70000014100000871 70000014100000879 5.22758097313
9.30923 70000014100000871 70000014100000870 70000014100000879 4.99593346816
9.32958 70000014100000870 70000014100000869 70000014100000879 4.93938066349
9.40389 70000014100000869 70000014100000868 70000014100000879 4.66451770247
9.41408 70000014100000868 70000014100000867 70000014100000879 4.42803373661
9.00012 70000014100001074 70000014100001073 70000014100001083 8.01217294887
9.18376 70000014100001073 70000014100001072 70000014100001083 7.59510714987
9.2742 70000014100001072 70000014100001071 70000014100001083 7.23627606617
9.41659 70000014100001071 70000014100001070 70000014100001083 7.00541704554
9.53332 70000014100001070 70000014100001069 70000014100001083 6.85511726265
9.56557 70000014100001069 70000014100001068 70000014100001083 6.49159774567
9.67422 70000014100001068 70000014100001067 70000014100001083 6.14490120342
9.76669 70000014100001067 70000014100001066 70000014100001083 6.01075739884
9.80003 70000014100001066 70000014100001065 70000014100001083 5.84661374788
9.81528 70000014100001065 70000014100001064 70000014100001083 5.52976580795
9.89204 70000014100001064 70000014100001063 70000014100001083 5.22758097313
9.94593 70000014100001063 70000014100001062 70000014100001083 4.99593346816
9.01928 70000014100001108 70000014100001107 70000014100001113 8.01217294887
9.05235 70000014100001107 70000014100001106 70000014100001113 7.59510714987
9.1193 70000014100001106 70000014100001105 70000014100001113 7.23627606617
9.13634 70000014100001105 70000014100001104 70000014100001113 7.00541704554
9.0316 70000014100001143 70000014100001142 70000014100001149 7.59510714987
9.07766 70000014100001142 70000014100001141 70000014100001149 7.23627606617
9.15273 70000014100001141 70000014100001140 70000014100001149 7.00541704554
9.1573 70000014100001140 70000014100001139 70000014100001149 6.85511726265
9.20055 70000014100001139 70000014100001138 70000014100001149 6.49159774567
9.28956 70000014100001138 70000014100001137 70000014100001149 6.14490120342
9.32651 70000014100001137 70000014100001136 70000014100001149 6.01075739884
9.33415 70000014100001136 70000014100001135 70000014100001149 5.84661374788
9.47066 70000014100001135 70000014100001134 70000014100001149 5.52976580795
9.53332 70000014100001134 70000014100001132 70000014100001149 4.99593346816
9.25101 70000014100001166 70000014100001165 70000014100001179 4.17683491473
9.00012 70000014100001287 70000014100001286 70000014100001290 14.0339921445
9.05524 70000014100001286 70000014100001285 70000014100001290 13.3382482898
9.18376 70000014100001285 70000014100001284 70000014100001290 12.6747021048
9.2672 70000014100001284 70000014100001283 70000014100001290 12.0418635439
9.41408 70000014100001283 70000014100001282 70000014100001290 11.4973879548
9.45833 70000014100001282 70000014100001281 70000014100001290 10.9190331982
9.54651 70000014100001281 70000014100001280 70000014100001290 10.3674435724
9.60218 70000014100001280 70000014100001279 70000014100001290 9.99659046619
9.74725 70000014100001279 70000014100001277 70000014100001290 9.38877127194
9.83911 70000014100001277 70000014100001276 70000014100001290 9.00233985416
9.85672 70000014100001276 70000014100001275 70000014100001290 8.9079991856
9.99881 70000014100001275 70000014100001274 70000014100001290 8.44947629437
10.0108 70000014100001274 70000014100001273 70000014100001290 8.01217294887
10.0686 70000014100001273 70000014100001272 70000014100001290 7.59510714987
10.1991 70000014100001272 70000014100001271 70000014100001290 7.23627606617
10.255 70000014100001271 70000014100001270 70000014100001290 7.00541704554
10.2782 70000014100001270 70000014100001269 70000014100001290 6.85511726265
10.3164 70000014100001269 70000014100001268 70000014100001290 6.49159774567
10.4662 70000014100001268 70000014100001267 70000014100001290 6.14490120342
10.4897 70000014100001267 70000014100001266 70000014100001290 6.01075739884
10.5887 70000014100001266 70000014100001265 70000014100001290 5.84661374788
10.6527 70000014100001265 70000014100001264 70000014100001290 5.52976580795
10.7219 70000014100001264 70000014100001263 70000014100001290 5.22758097313
10.7467 70000014100001263 70000014100001262 70000014100001290 4.99593346816
10.7704 70000014100001262 70000014100001261 70000014100001290 4.93938066349
10.8166 70000014100001261 70000014100001260 70000014100001290 4.66451770247
10.8986 70000014100001260 70000014100001259 70000014100001290 4.42803373661
10.9329 70000014100001259 70000014100001258 70000014100001290 4.17683491473
11.622 70000014100001258 70000014100001253 70000014100001290 3.28303305796
11.7046 70000014100001253 70000014100001252 70000014100001290 3.08482263583
11.7356 70000014100001252 70000014100001251 70000014100001290 3.00813107163
9.13871 70000014100001393 70000014100001392 70000014100001396 10.3674435724
9.2361 70000014100001392 70000014100001389 70000014100001396 9.38877127194
9.35627 70000014100001389 70000014100001388 70000014100001396 9.00233985416
9.42404 70000014100001388 70000014100001386 70000014100001396 8.44947629437
9.47286 70000014100001386 70000014100001385 70000014100001396 8.01217294887
9.55204 70000014100001385 70000014100001384 70000014100001396 7.59510714987
9.11681 70000014100001482 70000014100001481 70000014100001485 9.99659046619
9.11681 70000014100001481 70000014100001480 70000014100001485 9.84138043947
9.2087 70000014100001480 70000014100001479 70000014100001485 9.38877127194
9.2672 70000014100001479 70000014100001478 70000014100001485 9.00233985416
9.35048 70000014100001478 70000014100001476 70000014100001485 8.44947629437
9.36902 70000014100001476 70000014100001475 70000014100001485 8.01217294887
9.42893 70000014100001475 70000014100001474 70000014100001485 7.59510714987
9.49431 70000014100001474 70000014100001473 70000014100001485 7.23627606617
9.56468 70000014100001473 70000014100001472 70000014100001485 7.00541704554
9.08038 70000014100001531 70000014100001530 70000014100001534 11.4973879548
9.18376 70000014100001530 70000014100001529 70000014100001534 10.9190331982
9.32342 70000014100001529 70000014100001528 70000014100001534 10.3674435724
9.43377 70000014100001528 70000014100001527 70000014100001534 9.99659046619
9.5931 70000014100001527 70000014100001524 70000014100001534 9.00233985416
9.64416 70000014100001524 70000014100001520 70000014100001534 7.59510714987
9.7378 70000014100001520 70000014100001519 70000014100001534 7.23627606617
9.78098 70000014100001519 70000014100001518 70000014100001534 7.00541704554
9.81428 70000014100001518 70000014100001517 70000014100001534 6.85511726265
9.83863 70000014100001517 70000014100001516 70000014100001534 6.49159774567
9.04062 70000014100001596 70000014100001595 70000014100001599 8.01217294887
9.11681 70000014100001595 70000014100001592 70000014100001599 7.00541704554
9.11681 70000014100001592 70000014100001591 70000014100001599 6.85511726265
9.24548 70000014100001591 70000014100001590 70000014100001599 6.49159774567
9.26008 70000014100001590 70000014100001588 70000014100001599 6.01075739884
9.26008 70000014100001588 70000014100001587 70000014100001599 5.84661374788
9.31401 70000014100001587 70000014100001586 70000014100001599 5.52976580795
9.32497 70000014100001586 70000014100001585 70000014100001599 5.22758097313
9.10671 70000014100001797 70000014100001796 70000014100001803 9.38877127194
9.22845 70000014100001796 70000014100001795 70000014100001803 9.00233985416
9.31083 70000014100001795 70000014100001794 70000014100001803 8.9079991856
9.31243 70000014100001794 70000014100001792 70000014100001803 8.01217294887
9.40389 70000014100001792 70000014100001791 70000014100001803 7.59510714987
9.47941 70000014100001791 70000014100001789 70000014100001803 7.00541704554
9.54651 70000014100001789 70000014100001786 70000014100001803 6.14490120342
9.56111 70000014100001786 70000014100001785 70000014100001803 6.01075739884
9.61346 70000014100001785 70000014100001784 70000014100001803 5.84661374788
9.62754 70000014100001784 70000014100001783 70000014100001803 5.52976580795
9.72568 70000014100001783 70000014100001782 70000014100001803 5.22758097313
9.80106 70000014100001782 70000014100001781 70000014100001803 4.99593346816
9.00012 70000014100001840 70000014100001839 70000014100001845 9.38877127194
9.0316 70000014100001839 70000014100001836 70000014100001845 8.44947629437
9.14108 70000014100001836 70000014100001835 70000014100001845 8.01217294887
9.14578 70000014100001835 70000014100001834 70000014100001845 7.59510714987
9.1573 70000014100001834 70000014100001833 70000014100001845 7.23627606617
9.19848 70000014100001833 70000014100001832 70000014100001845 7.00541704554
9.06939 70000014100001864 70000014100001863 70000014100001875 6.49159774567
9.08845 70000014100001863 70000014100001862 70000014100001875 6.14490120342
9.10415 70000014100001862 70000014100001860 70000014100001875 5.84661374788
9.14344 70000014100001860 70000014100001859 70000014100001875 5.52976580795
9.1573 70000014100001859 70000014100001858 70000014100001875 5.22758097313
9.1663 70000014100001858 70000014100001857 70000014100001875 4.99593346816
9.18376 70000014100001857 70000014100001856 70000014100001875 4.93938066349
9.26543 70000014100001856 70000014100001855 70000014100001875 4.66451770247
9.48157 70000014100001855 70000014100001854 70000014100001875 4.42803373661
9.00012 70000014100001892 70000014100001891 70000014100001894 6.49159774567
9.03463 70000014100001891 70000014100001890 70000014100001894 6.14490120342
9.05524 70000014100001890 70000014100001889 70000014100001894 6.01075739884
9.11179 70000014100001889 70000014100001888 70000014100001894 5.84661374788
9.12178 70000014100001888 70000014100001887 70000014100001894 5.52976580795
9.19013 70000014100001887 70000014100001886 70000014100001894 5.22758097313
9.20668 70000014100001886 70000014100001884 70000014100001894 4.93938066349
9.09111 70000014100002010 70000014100002009 70000014100002015 9.38877127194
9.22845 70000014100002009 70000014100002008 70000014100002015 9.00233985416
9.24362 70000014100002008 70000014100002007 70000014100002015 8.9079991856
9.41784 70000014100002007 70000014100002006 70000014100002015 8.44947629437
9.52948 70000014100002006 70000014100002004 70000014100002015 7.59510714987
9.83195 70000014100002004 70000014100002003 70000014100002015 7.23627606617
9.9463 70000014100002003 70000014100002002 70000014100002015 7.00541704554
10.0601 70000014100002002 70000014100002001 70000014100002015 6.85511726265
10.1636 70000014100002001 70000014100002000 70000014100002015 6.49159774567
10.2425 70000014100002000 70000014100001999 70000014100002015 6.14490120342
10.2899 70000014100001999 70000014100001998 70000014100002015 6.01075739884
10.332 70000014100001998 70000014100001997 70000014100002015 5.84661374788
10.4135 70000014100001997 70000014100001996 70000014100002015 5.52976580795
10.4627 70000014100001996 70000014100001995 70000014100002015 5.22758097313
10.5192 70000014100001995 70000014100001994 70000014100002015 4.99593346816
10.537 70000014100001994 70000014100001993 70000014100002015 4.93938066349
10.5434 70000014100001993 70000014100001992 70000014100002015 4.66451770247
9.02548 70000014100002033 70000014100002032 70000014100002038 9.84138043947
9.28788 70000014100002032 70000014100002031 70000014100002038 9.38877127194
9.31083 70000014100002031 70000014100002029 70000014100002038 8.9079991856
9.40389 70000014100002029 70000014100002028 70000014100002038 8.44947629437
9.43737 70000014100002028 70000014100002027 70000014100002038 8.01217294887
9.43974 70000014100002027 70000014100002026 70000014100002038 7.59510714987
9.00012 70000014100002054 70000014100002053 70000014100002062 8.44947629437
9.2361 70000014100002053 70000014100002052 70000014100002062 8.01217294887
9.00012 70000014100002103 70000014100002102 70000014100002106 7.23627606617
9.01298 70000014100002102 70000014100002099 70000014100002106 6.49159774567
9.0098 70000014100002129 70000014100002128 70000014100002135 9.00233985416
9.03763 70000014100002128 70000014100002127 70000014100002135 8.9079991856
9.07492 70000014100002127 70000014100002126 70000014100002135 8.44947629437
9.1663 70000014100002126 70000014100002125 70000014100002135 8.01217294887
9.2087 70000014100002125 70000014100002124 70000014100002135 7.59510714987
9.32651 70000014100002124 70000014100002122 70000014100002135 7.00541704554
9.13871 70000014100002158 70000014100002157 70000014100002164 6.14490120342
9.04358 70000014100002254 70000014100002253 70000014100002267 5.22758097313
9.04945 70000014100002253 70000014100002252 70000014100002267 4.99593346816
9.09111 70000014100002252 70000014100002251 70000014100002267 4.93938066349
9.11681 70000014100002251 70000014100002250 70000014100002267 4.66451770247
9.14344 70000014100002250 70000014100002249 70000014100002267 4.42803373661
9.06378 70000014100002277 70000014100002276 70000014100002290 4.00794511147
9.07766 70000014100002276 70000014100002275 70000014100002290 3.93726108473
9.10157 70000014100002275 70000014100002274 70000014100002290 3.70877426464
9.15956 70000014100002403 70000014100002402 70000014100002403 2.31611074396
9.06939 70000014100002446 70000014100002445 70000014100002460 5.84661374788
9.25466 70000014100002445 70000014100002444 70000014100002460 5.52976580795
9.66088 70000014100002444 70000014100002442 70000014100002460 4.99593346816
9.67422 70000014100002442 70000014100002441 70000014100002460 4.93938066349
9.86793 70000014100002441 70000014100002440 70000014100002460 4.66451770247
10.0082 70000014100002440 70000014100002439 70000014100002460 4.42803373661
10.037 70000014100002439 70000014100002437 70000014100002460 4.00794511147
9.0098 70000014100002465 70000014100002464 70000014100002472 6.01075739884
9.01298 70000014100002464 70000014100002463 70000014100002472 5.84661374788
9.04653 70000014100002463 70000014100002462 70000014100002472 5.52976580795
9.48049 70000014100002462 70000014100002461 70000014100002472 5.22758097313
9.03463 70000014100002515 70000014100002514 70000014100002518 6.85511726265
9.14108 70000014100002514 70000014100002512 70000014100002518 6.14490120342
9.19848 70000014100002512 70000014100002511 70000014100002518 6.01075739884
9.23988 70000014100002511 70000014100002510 70000014100002518 5.84661374788
9.31874 70000014100002510 70000014100002509 70000014100002518 5.52976580795
9.39214 70000014100002509 70000014100002508 70000014100002518 5.22758097313
9.4606 70000014100002508 70000014100002507 70000014100002518 4.99593346816
9.47286 70000014100002507 70000014100002506 70000014100002518 4.93938066349
9.01614 70000014100002555 70000014100002554 70000014100002565 6.49159774567
9.0316 70000014100002554 70000014100002550 70000014100002565 5.52976580795
9.0316 70000014100002550 70000014100002549 70000014100002565 5.22758097313
9.06378 70000014100002549 70000014100002548 70000014100002565 4.99593346816
9.0666 70000014100002548 70000014100002547 70000014100002565 4.93938066349
9.09375 70000014100002547 70000014100002546 70000014100002565 4.66451770247
9.11431 70000014100002546 70000014100002545 70000014100002565 4.42803373661
9.22651 70000014100002545 70000014100002544 70000014100002565 4.17683491473
9.24362 70000014100002544 70000014100002543 70000014100002565 4.00794511147
9.27246 70000014100002543 70000014100002542 70000014100002565 3.93726108473
9.2929 70000014100002542 70000014100002541 70000014100002565 3.70877426464
9.14108 70000014100002578 70000014100002577 70000014100002587 4.00794511147
9.0066 70000014100002710 70000014100002709 70000014100002730 3.28303305796
9.02239 70000014100002709 70000014100002708 70000014100002730 3.08482263583
9.03463 70000014100002708 70000014100002707 70000014100002730 3.00813107163
9.14108 70000014100002891 70000014100002890 70000014100002895 9.84138043947
9.19433 70000014100002890 70000014100002889 70000014100002895 9.38877127194
9.35914 70000014100002889 70000014100002888 70000014100002895 9.00233985416
9.36622 70000014100002888 70000014100002887 70000014100002895 8.9079991856
9.51873 70000014100002887 70000014100002886 70000014100002895 8.44947629437
9.62985 70000014100002886 70000014100002885 70000014100002895 8.01217294887
9.84381 70000014100002885 70000014100002884 70000014100002895 7.59510714987
9.88016 70000014100002884 70000014100002883 70000014100002895 7.23627606617
10.0127 70000014100002883 70000014100002882 70000014100002895 7.00541704554
10.0587 70000014100002882 70000014100002880 70000014100002895 6.49159774567
10.1047 70000014100002880 70000014100002879 70000014100002895 6.14490120342
10.1281 70000014100002879 70000014100002878 70000014100002895 6.01075739884
10.1775 70000014100002878 70000014100002877 70000014100002895 5.84661374788
10.2026 70000014100002877 70000014100002876 70000014100002895 5.52976580795
10.3346 70000014100002876 70000014100002875 70000014100002895 5.22758097313
10.4676 70000014100002875 70000014100002874 70000014100002895 4.99593346816
10.4895 70000014100002874 70000014100002873 70000014100002895 4.93938066349
10.629 70000014100002873 70000014100002872 70000014100002895 4.66451770247
10.7225 70000014100002872 70000014100002871 70000014100002895 4.42803373661
10.7891 70000014100002871 70000014100002870 70000014100002895 4.17683491473
10.8374 70000014100002870 70000014100002869 70000014100002895 4.00794511147
10.843 70000014100002869 70000014100002868 70000014100002895 3.93726108473
10.9178 70000014100002868 70000014100002866 70000014100002895 3.49086136926
10.9936 70000014100002866 70000014100002863 70000014100002895 3.00813107163
11.008 70000014100002863 70000014100002862 70000014100002895 2.89578500573
9.0316 70000014100002942 70000014100002941 70000014100002945 9.84138043947
9.06096 70000014100002941 70000014100002940 70000014100002945 9.38877127194
9.16407 70000014100002940 70000014100002939 70000014100002945 9.00233985416
9.18802 70000014100002939 70000014100002937 70000014100002945 8.44947629437
9.03763 70000014100002975 70000014100002974 70000014100002981 7.00541704554
9.15273 70000014100002974 70000014100002973 70000014100002981 6.85511726265
9.34902 70000014100002973 70000014100002972 70000014100002981 6.49159774567
9.39478 70000014100002972 70000014100002971 70000014100002981 6.14490120342
9.42033 70000014100002971 70000014100002970 70000014100002981 6.01075739884
9.13634 70000014100003008 70000014100003007 70000014100003015 6.85511726265
9.21472 70000014100003007 70000014100003006 70000014100003015 6.49159774567
9.27766 70000014100003006 70000014100003005 70000014100003015 6.14490120342
9.29622 70000014100003005 70000014100003004 70000014100003015 6.01075739884
9.31083 70000014100003004 70000014100003003 70000014100003015 5.84661374788
9.48479 70000014100003003 70000014100003002 70000014100003015 5.52976580795
9.53428 70000014100003002 70000014100003000 70000014100003015 4.99593346816
10.89 70000014100003076 70000014100003075 70000014100003079 3.70877426464
9.0098 70000014100003144 70000014100003143 70000014100003147 9.38877127194
9.10415 70000014100003143 70000014100003142 70000014100003147 9.00233985416
9.10415 70000014100003142 70000014100003140 70000014100003147 8.44947629437
9.2361 70000014100003140 70000014100003139 70000014100003147 8.01217294887
9.31874 70000014100003139 70000014100003138 70000014100003147 7.59510714987
9.38277 70000014100003138 70000014100003137 70000014100003147 7.23627606617
9.41029 70000014100003137 70000014100003136 70000014100003147 7.00541704554
9.53236 70000014100003136 70000014100003135 70000014100003147 6.85511726265
9.54465 70000014100003135 70000014100003134 70000014100003147 6.49159774567
9.62523 70000014100003134 70000014100003133 70000014100003147 6.14490120342
9.63894 70000014100003133 70000014100003132 70000014100003147 6.01075739884
9.68985 70000014100003132 70000014100003131 70000014100003147 5.84661374788
9.70877 70000014100003131 70000014100003130 70000014100003147 5.52976580795
9.74842 70000014100003130 70000014100003129 70000014100003147 5.22758097313
9.08309 70000014100003215 70000014100003214 70000014100003219 10.3674435724
9.12178 70000014100003214 70000014100003212 70000014100003219 9.84138043947
9.12424 70000014100003212 70000014100003211 70000014100003219 9.38877127194
9.26187 70000014100003211 70000014100003210 70000014100003219 9.00233985416
9.30115 70000014100003210 70000014100003209 70000014100003219 8.9079991856
9.43617 70000014100003209 70000014100003208 70000014100003219 8.44947629437
9.61186 70000014100003208 70000014100003207 70000014100003219 8.01217294887
9.71511 70000014100003207 70000014100003206 70000014100003219 7.59510714987
9.74314 70000014100003206 70000014100003205 70000014100003219 7.23627606617
9.75248 70000014100003205 70000014100003204 70000014100003219 7.00541704554
9.76049 70000014100003204 70000014100003203 70000014100003219 6.85511726265
9.94851 70000014100003203 70000014100003202 70000014100003219 6.49159774567
9.95653 70000014100003202 70000014100003198 70000014100003219 5.52976580795
10.0076 70000014100003198 70000014100003197 70000014100003219 5.22758097313
10.0456 70000014100003197 70000014100003196 70000014100003219 4.99593346816
10.0755 70000014100003196 70000014100003195 70000014100003219 4.93938066349
9.04358 70000014100003243 70000014100003242 70000014100003247 8.44947629437
9.10671 70000014100003242 70000014100003241 70000014100003247 8.01217294887
9.14811 70000014100003241 70000014100003240 70000014100003247 7.59510714987
9.19848 70000014100003240 70000014100003239 70000014100003247 7.23627606617
9.08309 70000014100003291 70000014100003290 70000014100003293 3.70877426464
9.01298 70000014100003320 70000014100003319 70000014100003323 9.00233985416
9.23037 70000014100003319 70000014100003317 70000014100003323 8.44947629437
9.24918 70000014100003317 70000014100003313 70000014100003323 7.00541704554
9.41156 70000014100003313 70000014100003312 70000014100003323 6.85511726265
9.05235 70000014100003462 70000014100003461 70000014100003468 9.38877127194
9.08578 70000014100003461 70000014100003460 70000014100003468 9.00233985416
9.1573 70000014100003460 70000014100003459 70000014100003468 8.9079991856
9.26187 70000014100003459 70000014100003458 70000014100003468 8.44947629437
9.38547 70000014100003458 70000014100003457 70000014100003468 8.01217294887
9.4503 70000014100003457 70000014100003456 70000014100003468 7.59510714987
9.53428 70000014100003456 70000014100003455 70000014100003468 7.23627606617
9.56201 70000014100003455 70000014100003454 70000014100003468 7.00541704554
9.62677 70000014100003454 70000014100003453 70000014100003468 6.85511726265
9.79061 70000014100003453 70000014100003451 70000014100003468 6.01075739884
9.83435 70000014100003451 70000014100003450 70000014100003468 5.84661374788
9.87234 70000014100003450 70000014100003449 70000014100003468 5.52976580795
9.92664 70000014100003449 70000014100003448 70000014100003468 5.22758097313
9.95327 70000014100003448 70000014100003447 70000014100003468 4.99593346816
9.96334 70000014100003447 70000014100003446 70000014100003468 4.93938066349
9.98279 70000014100003446 70000014100003445 70000014100003468 4.66451770247
10.031 70000014100003445 70000014100003444 70000014100003468 4.42803373661
10.1118 70000014100003444 70000014100003443 70000014100003468 4.17683491473
10.279 70000014100003443 70000014100003441 70000014100003468 3.93726108473
9.80158 70000014100003470 70000014100003469 70000014100003470 6.14490120342
9.03463 70000014100003523 70000014100003522 70000014100003532 4.93938066349
9.09637 70000014100003522 70000014100003521 70000014100003532 4.66451770247
9.10671 70000014100003521 70000014100003520 70000014100003532 4.42803373661
9.18589 70000014100003520 70000014100003519 70000014100003532 4.17683491473
9.26187 70000014100003519 70000014100003518 70000014100003532 4.00794511147
9.28956 70000014100003518 70000014100003516 70000014100003532 3.70877426464
9.54465 70000014100003516 70000014100003510 70000014100003532 2.73314261732
9.58213 70000014100003510 70000014100003509 70000014100003532 2.5772902716
9.12912 70000014100003554 70000014100003553 70000014100003564 4.00794511147
9.17293 70000014100003553 70000014100003552 70000014100003564 3.93726108473
9.30602 70000014100003552 70000014100003551 70000014100003564 3.70877426464
9.37042 70000014100003551 70000014100003550 70000014100003564 3.49086136926
9.06378 70000014100003686 70000014100003685 70000014100003689 9.38877127194
9.16182 70000014100003685 70000014100003684 70000014100003689 9.00233985416
9.17729 70000014100003684 70000014100003683 70000014100003689 8.9079991856
9.18376 70000014100003683 70000014100003682 70000014100003689 8.44947629437
9.41282 70000014100003682 70000014100003681 70000014100003689 8.01217294887
9.65151 70000014100003681 70000014100003680 70000014100003689 7.59510714987
9.72507 70000014100003680 70000014100003679 70000014100003689 7.23627606617
9.79061 70000014100003679 70000014100003678 70000014100003689 7.00541704554
9.84568 70000014100003678 70000014100003677 70000014100003689 6.85511726265
9.91209 70000014100003677 70000014100003676 70000014100003689 6.49159774567
9.95905 70000014100003676 70000014100003675 70000014100003689 6.14490120342
9.97108 70000014100003675 70000014100003674 70000014100003689 6.01075739884
9.99651 70000014100003674 70000014100003673 70000014100003689 5.84661374788
10.0995 70000014100003673 70000014100003672 70000014100003689 5.52976580795
10.107 70000014100003672 70000014100003671 70000014100003689 5.22758097313
10.223 70000014100003671 70000014100003670 70000014100003689 4.99593346816
10.3293 70000014100003670 70000014100003668 70000014100003689 4.66451770247
10.4148 70000014100003668 70000014100003667 70000014100003689 4.42803373661
10.5067 70000014100003667 70000014100003666 70000014100003689 4.17683491473
10.5555 70000014100003666 70000014100003665 70000014100003689 4.00794511147
10.5693 70000014100003665 70000014100003664 70000014100003689 3.93726108473
10.6484 70000014100003664 70000014100003663 70000014100003689 3.70877426464
10.7758 70000014100003663 70000014100003662 70000014100003689 3.49086136926
10.9552 70000014100003662 70000014100003660 70000014100003689 3.08482263583
9.04358 70000014100003705 70000014100003704 70000014100003712 9.38877127194
9.06096 70000014100003704 70000014100003703 70000014100003712 9.00233985416
9.12178 70000014100003703 70000014100003701 70000014100003712 8.44947629437
9.03463 70000014100003724 70000014100003723 70000014100003731 5.84661374788
9.09898 70000014100003778 70000014100003777 70000014100003785 9.00233985416
9.2342 70000014100003777 70000014100003775 70000014100003785 8.44947629437
9.27766 70000014100003775 70000014100003774 70000014100003785 8.01217294887
9.29951 70000014100003774 70000014100003773 70000014100003785 7.59510714987
9.37869 70000014100003773 70000014100003772 70000014100003785 7.23627606617
9.51375 70000014100003772 70000014100003771 70000014100003785 7.00541704554
9.57087 70000014100003771 70000014100003770 70000014100003785 6.85511726265
9.63744 70000014100003770 70000014100003769 70000014100003785 6.49159774567
9.67145 70000014100003769 70000014100003768 70000014100003785 6.14490120342
9.69383 70000014100003768 70000014100003767 70000014100003785 6.01075739884
9.71825 70000014100003767 70000014100003766 70000014100003785 5.84661374788
9.73239 70000014100003766 70000014100003765 70000014100003785 5.52976580795
9.78368 70000014100003765 70000014100003764 70000014100003785 5.22758097313
9.12912 70000014100003846 70000014100003845 70000014100003856 4.93938066349
9.05524 70000014100003918 70000014100003917 70000014100003924 7.00541704554
9.07216 70000014100003917 70000014100003915 70000014100003924 6.49159774567
9.09898 70000014100003915 70000014100003914 70000014100003924 6.14490120342
9.10157 70000014100003914 70000014100003913 70000014100003924 6.01075739884
9.15273 70000014100003913 70000014100003911 70000014100003924 5.52976580795
9.24548 70000014100003911 70000014100003910 70000014100003924 5.22758097313
9.26008 70000014100003910 70000014100003909 70000014100003924 4.99593346816
9.26008 70000014100003909 70000014100003908 70000014100003924 4.93938066349
9.26543 70000014100003908 70000014100003907 70000014100003924 4.66451770247
9.01928 70000014100004015 70000014100004014 70000014100004025 5.22758097313
9.07216 70000014100004014 70000014100004011 70000014100004025 4.66451770247
9.14344 70000014100004011 70000014100004010 70000014100004025 4.42803373661
9.16407 70000014100004010 70000014100004009 70000014100004025 4.17683491473
9.25284 70000014100004009 70000014100004008 70000014100004025 4.00794511147
9.01928 70000014100004048 70000014100004047 70000014100004066 4.66451770247
9.03463 70000014100004173 70000014100004172 70000014100004178 7.59510714987
9.12912 70000014100004172 70000014100004171 70000014100004178 7.23627606617
9.12912 70000014100004171 70000014100004170 70000014100004178 7.00541704554
9.24362 70000014100004170 70000014100004169 70000014100004178 6.85511726265
9.24918 70000014100004169 70000014100004168 70000014100004178 6.49159774567
9.30923 70000014100004168 70000014100004167 70000014100004178 6.14490120342
9.31401 70000014100004167 70000014100004166 70000014100004178 6.01075739884
9.32651 70000014100004166 70000014100004164 70000014100004178 5.52976580795
9.33415 70000014100004164 70000014100004162 70000014100004178 4.99593346816
9.35627 70000014100004162 70000014100004161 70000014100004178 4.93938066349
9.37319 70000014100004161 70000014100004160 70000014100004178 4.66451770247
9.37319 70000014100004160 70000014100004159 70000014100004178 4.42803373661
9.37595 70000014100004159 70000014100004154 70000014100004178 3.49086136926
9.02548 70000014100004201 70000014100004200 70000014100004216 4.17683491473
9.03763 70000014100004200 70000014100004199 70000014100004216 4.00794511147
9.05524 70000014100004199 70000014100004198 70000014100004216 3.93726108473
9.10415 70000014100004198 70000014100004197 70000014100004216 3.70877426464
9.40131 70000014100004197 70000014100004196 70000014100004216 3.49086136926
9.01928 70000014100004437 70000014100004436 70000014100004444 7.00541704554
9.04062 70000014100004436 70000014100004435 70000014100004444 6.85511726265
9.05524 70000014100004435 70000014100004434 70000014100004444 6.49159774567
9.06939 70000014100004434 70000014100004433 70000014100004444 6.14490120342
9.08578 70000014100004433 70000014100004432 70000014100004444 6.01075739884
9.08845 70000014100004432 70000014100004431 70000014100004444 5.84661374788
9.10671 70000014100004431 70000014100004430 70000014100004444 5.52976580795
9.11431 70000014100004430 70000014100004429 70000014100004444 5.22758097313
9.03463 70000014100004467 70000014100004466 70000014100004475 4.17683491473
9.16852 70000014100004466 70000014100004462 70000014100004475 3.49086136926
9.19641 70000014100004462 70000014100004461 70000014100004475 3.28303305796
9.15042 70000014100004562 70000014100004561 70000014100004569 8.44947629437
9.16407 70000014100004561 70000014100004560 70000014100004569 8.01217294887
9.21671 70000014100004560 70000014100004559 70000014100004569 7.59510714987
9.38412 70000014100004559 70000014100004558 70000014100004569 7.23627606617
9.55751 70000014100004558 70000014100004557 70000014100004569 7.00541704554
9.6229 70000014100004557 70000014100004556 70000014100004569 6.85511726265
9.65514 70000014100004556 70000014100004555 70000014100004569 6.49159774567
10.0358 70000014100004555 70000014100004550 70000014100004569 5.22758097313
10.1476 70000014100004550 70000014100004547 70000014100004569 4.42803373661
10.1935 70000014100004547 70000014100004545 70000014100004569 4.00794511147
9.15042 70000014100004594 70000014100004593 70000014100004599 6.14490120342
9.78314 70000014100004593 70000014100004591 70000014100004599 5.84661374788
9.04945 70000014100004634 70000014100004633 70000014100004636 7.23627606617
9.07216 70000014100004633 70000014100004632 70000014100004636 7.00541704554
9.12424 70000014100004632 70000014100004631 70000014100004636 6.85511726265
9.30115 70000014100004631 70000014100004630 70000014100004636 6.49159774567
9.44797 70000014100004630 70000014100004629 70000014100004636 6.14490120342
9.56557 70000014100004629 70000014100004628 70000014100004636 6.01075739884
10.0361 70000014100004628 70000014100004623 70000014100004636 4.66451770247
9.07766 70000014100004665 70000014100004664 70000014100004666 4.66451770247
9.01928 70000014100004704 70000014100004703 70000014100004707 7.00541704554
9.01928 70000014100004703 70000014100004689 70000014100004707 3.93726108473
9.07216 70000014100004689 70000014100004688 70000014100004707 3.70877426464
9.08845 70000014100004688 70000014100004687 70000014100004707 3.49086136926
9.12424 70000014100004687 70000014100004686 70000014100004707 3.28303305796
9.13634 70000014100004731 70000014100004730 70000014100004732 1.60423452207
9.01928 70000014100005028 70000014100005027 70000014100005032 7.59510714987
9.05235 70000014100005027 70000014100005026 70000014100005032 7.23627606617
9.09637 70000014100005026 70000014100005025 70000014100005032 7.00541704554
9.10415 70000014100005025 70000014100005024 70000014100005032 6.85511726265
9.1573 70000014100005024 70000014100005023 70000014100005032 6.49159774567
9.17946 70000014100005023 70000014100005020 70000014100005032 5.84661374788
9.22845 70000014100005020 70000014100005019 70000014100005032 5.52976580795
9.24733 70000014100005019 70000014100005018 70000014100005032 5.22758097313
9.27938 70000014100005018 70000014100005017 70000014100005032 4.99593346816
9.30763 70000014100005017 70000014100005013 70000014100005032 4.17683491473
9.33415 70000014100005013 70000014100005012 70000014100005032 4.00794511147
9.46844 70000014100005012 70000014100005010 70000014100005032 3.70877426464
9.47066 70000014100005010 70000014100005009 70000014100005032 3.49086136926
9.47286 70000014100005009 70000014100005008 70000014100005032 3.28303305796
9.5026 70000014100005008 70000014100005007 70000014100005032 3.08482263583
9.00012 70000014100005089 70000014100005088 70000014100005092 7.00541704554
9.00337 70000014100005088 70000014100005087 70000014100005092 6.85511726265
9.04653 70000014100005087 70000014100005085 70000014100005092 6.14490120342
9.06378 70000014100005085 70000014100005083 70000014100005092 5.84661374788
9.09111 70000014100005083 70000014100005082 70000014100005092 5.52976580795
9.12912 70000014100005082 70000014100005077 70000014100005092 4.42803373661
9.14344 70000014100005077 70000014100005074 70000014100005092 3.93726108473
9.5931 70000014100005074 70000014100005073 70000014100005092 3.70877426464
9.63894 70000014100005073 70000014100005072 70000014100005092 3.49086136926
9.01928 70000014100005255 70000014100005254 70000014100005263 5.52976580795
9.05235 70000014100005254 70000014100005253 70000014100005263 5.22758097313
9.06939 70000014100005253 70000014100005252 70000014100005263 4.99593346816
9.09637 70000014100005252 70000014100005251 70000014100005263 4.93938066349
9.18162 70000014100005251 70000014100005250 70000014100005263 4.66451770247
9.21869 70000014100005250 70000014100005243 70000014100005263 3.28303305796
9.23799 70000014100005243 70000014100005242 70000014100005263 3.08482263583
9.0098 70000014100005286 70000014100005285 70000014100005302 3.00813107163
9.08845 70000014100005435 70000014100005434 70000014100005442 6.85511726265
9.14578 70000014100005434 70000014100005433 70000014100005442 6.49159774567
9.18589 70000014100005433 70000014100005432 70000014100005442 6.14490120342
9.24362 70000014100005432 70000014100005431 70000014100005442 6.01075739884
9.24918 70000014100005431 70000014100005430 70000014100005442 5.84661374788
9.26543 70000014100005430 70000014100005429 70000014100005442 5.52976580795
9.33263 70000014100005429 70000014100005428 70000014100005442 5.22758097313
9.40774 70000014100005428 70000014100005427 70000014100005442 4.99593346816
9.80619 70000014100005427 70000014100005425 70000014100005442 4.66451770247
9.84475 70000014100005425 70000014100005424 70000014100005442 4.42803373661
9.88101 70000014100005424 70000014100005423 70000014100005442 4.17683491473
9.96155 70000014100005423 70000014100005422 70000014100005442 4.00794511147
10.0085 70000014100005422 70000014100005421 70000014100005442 3.93726108473
10.0117 70000014100005421 70000014100005420 70000014100005442 3.70877426464
10.0292 70000014100005420 70000014100005419 70000014100005442 3.49086136926
9.01928 70000014100005470 70000014100005469 70000014100005478 6.49159774567
9.1573 70000014100005469 70000014100005468 70000014100005478 6.14490120342
9.1663 70000014100005468 70000014100005467 70000014100005478 6.01075739884
9.19848 70000014100005467 70000014100005466 70000014100005478 5.84661374788
9.24362 70000014100005466 70000014100005465 70000014100005478 5.52976580795
9.35914 70000014100005465 70000014100005464 70000014100005478 5.22758097313
9.41909 70000014100005464 70000014100005462 70000014100005478 4.93938066349
9.0098 70000014100005753 70000014100005752 70000014100005767 4.17683491473
9.04358 70000014100005752 70000014100005751 70000014100005767 4.00794511147
9.06939 70000014100005751 70000014100005750 70000014100005767 3.93726108473
9.10157 70000014100005750 70000014100005749 70000014100005767 3.70877426464
9.10157 70000014100005749 70000014100005748 70000014100005767 3.49086136926
9.23229 70000014100005748 70000014100005747 70000014100005767 3.28303305796
9.30278 70000014100005747 70000014100005746 70000014100005767 3.08482263583
9.34902 70000014100005746 70000014100005743 70000014100005767 2.73314261732
9.00337 70000014100005814 70000014100005813 70000014100005829 3.28303305796
9.0098 70000014100005813 70000014100005812 70000014100005829 3.08482263583
9.08578 70000014100005812 70000014100005811 70000014100005829 3.00813107163
9.09637 70000014100005811 70000014100005810 70000014100005829 2.89578500573
9.10415 70000014100005810 70000014100005809 70000014100005829 2.73314261732
9.01298 70000014100005893 70000014100005892 70000014100005903 3.08482263583
9.02239 70000014100005892 70000014100005891 70000014100005903 3.00813107163
9.00012 70000014100005943 70000014100005942 70000014100005957 3.70877426464
9.02855 70000014100005942 70000014100005941 70000014100005957 3.49086136926
9.04358 70000014100005941 70000014100005940 70000014100005957 3.28303305796
9.02855 70000014100005970 70000014100005969 70000014100005970 1.60423452207
9.12912 70000014100005969 70000014100005968 70000014100005970 1.53123902916
9.22457 70000014100005968 70000014100005967 70000014100005970 1.47197484527
9.03763 70000014100006106 70000014100006105 70000014100006113 6.85511726265
9.04358 70000014100006105 70000014100006104 70000014100006113 6.49159774567
9.2361 70000014100006104 70000014100006103 70000014100006113 6.14490120342
9.27938 70000014100006103 70000014100006102 70000014100006113 6.01075739884
9.33866 70000014100006102 70000014100006101 70000014100006113 5.84661374788
9.41784 70000014100006101 70000014100006100 70000014100006113 5.52976580795
9.45145 70000014100006100 70000014100006098 70000014100006113 4.99593346816
9.46621 70000014100006098 70000014100006097 70000014100006113 4.93938066349
9.54651 70000014100006097 70000014100006096 70000014100006113 4.66451770247
9.65802 70000014100006096 70000014100006095 70000014100006113 4.42803373661
9.68717 70000014100006095 70000014100006094 70000014100006113 4.17683491473
9.7263 70000014100006094 70000014100006093 70000014100006113 4.00794511147
9.7342 70000014100006093 70000014100006092 70000014100006113 3.93726108473
9.76106 70000014100006092 70000014100006091 70000014100006113 3.70877426464
9.76388 70000014100006091 70000014100006090 70000014100006113 3.49086136926
9.02239 70000014100006179 70000014100006178 70000014100006190 5.52976580795
9.06939 70000014100006178 70000014100006177 70000014100006190 5.22758097313
9.11681 70000014100006177 70000014100006176 70000014100006190 4.99593346816
9.12424 70000014100006176 70000014100006175 70000014100006190 4.93938066349
9.15273 70000014100006175 70000014100006174 70000014100006190 4.66451770247
9.21072 70000014100006174 70000014100006173 70000014100006190 4.42803373661
9.22262 70000014100006173 70000014100006167 70000014100006190 3.28303305796
9.2845 70000014100006167 70000014100006165 70000014100006190 3.00813107163
9.04062 70000014100006505 70000014100006504 70000014100006514 7.23627606617
9.04358 70000014100006504 70000014100006503 70000014100006514 7.00541704554
9.07766 70000014100006503 70000014100006502 70000014100006514 6.85511726265
9.12424 70000014100006502 70000014100006501 70000014100006514 6.49159774567
9.18802 70000014100006501 70000014100006500 70000014100006514 6.14490120342
9.20464 70000014100006500 70000014100006499 70000014100006514 6.01075739884
9.22457 70000014100006499 70000014100006498 70000014100006514 5.84661374788
9.23799 70000014100006498 70000014100006497 70000014100006514 5.52976580795
9.26008 70000014100006497 70000014100006496 70000014100006514 5.22758097313
9.26365 70000014100006496 70000014100006493 70000014100006514 4.66451770247
9.41156 70000014100006493 70000014100006490 70000014100006514 4.00794511147
9.61584 70000014100006490 70000014100006488 70000014100006514 3.70877426464
9.78368 70000014100006488 70000014100006487 70000014100006514 3.49086136926
9.84052 70000014100006487 70000014100006486 70000014100006514 3.28303305796
9.86749 70000014100006486 70000014100006485 70000014100006514 3.08482263583
9.89413 70000014100006485 70000014100006483 70000014100006514 2.89578500573
9.89911 70000014100006483 70000014100006473 70000014100006514 1.74357057433
9.92041 70000014100006473 70000014100006472 70000014100006514 1.66666955611
9.01614 70000014100006524 70000014100006523 70000014100006532 5.22758097313
9.08309 70000014100006523 70000014100006522 70000014100006532 4.99593346816
9.2087 70000014100006522 70000014100006521 70000014100006532 4.93938066349
9.31717 70000014100006521 70000014100006519 70000014100006532 4.42803373661
9.32805 70000014100006519 70000014100006518 70000014100006532 4.17683491473
9.47724 70000014100006518 70000014100006516 70000014100006532 3.93726108473
9.03763 70000014100006557 70000014100006556 70000014100006573 2.5772902716
9.05235 70000014100006767 70000014100006766 70000014100006771 9.99659046619
9.10671 70000014100006766 70000014100006765 70000014100006771 9.84138043947
9.14344 70000014100006765 70000014100006764 70000014100006771 9.38877127194
9.26896 70000014100006764 70000014100006763 70000014100006771 9.00233985416
9.2845 70000014100006763 70000014100006762 70000014100006771 8.9079991856
9.44797 70000014100006762 70000014100006761 70000014100006771 8.44947629437
9.61663 70000014100006761 70000014100006760 70000014100006771 8.01217294887
9.87972 70000014100006760 70000014100006759 70000014100006771 7.59510714987
10.0666 70000014100006759 70000014100006758 70000014100006771 7.23627606617
10.1005 70000014100006758 70000014100006757 70000014100006771 7.00541704554
10.1432 70000014100006757 70000014100006756 70000014100006771 6.85511726265
10.235 70000014100006756 70000014100006755 70000014100006771 6.49159774567
10.285 70000014100006755 70000014100006754 70000014100006771 6.14490120342
10.306 70000014100006754 70000014100006753 70000014100006771 6.01075739884
10.3541 70000014100006753 70000014100006752 70000014100006771 5.84661374788
10.3931 70000014100006752 70000014100006751 70000014100006771 5.52976580795
10.4245 70000014100006751 70000014100006750 70000014100006771 5.22758097313
10.4534 70000014100006750 70000014100006747 70000014100006771 4.66451770247
10.5206 70000014100006747 70000014100006746 70000014100006771 4.42803373661
10.5478 70000014100006746 70000014100006745 70000014100006771 4.17683491473
10.5546 70000014100006745 70000014100006744 70000014100006771 4.00794511147
10.5568 70000014100006744 70000014100006743 70000014100006771 3.93726108473
10.5684 70000014100006743 70000014100006742 70000014100006771 3.70877426464
10.6285 70000014100006742 70000014100006741 70000014100006771 3.49086136926
10.7442 70000014100006741 70000014100006740 70000014100006771 3.28303305796
10.8145 70000014100006740 70000014100006739 70000014100006771 3.08482263583
9.02239 70000014100006788 70000014100006787 70000014100006794 8.44947629437
9.04653 70000014100006787 70000014100006786 70000014100006794 8.01217294887
9.12178 70000014100006869 70000014100006868 70000014100006873 8.44947629437
9.16852 70000014100006868 70000014100006867 70000014100006873 8.01217294887
9.17946 70000014100006867 70000014100006863 70000014100006873 6.85511726265
9.21671 70000014100006863 70000014100006862 70000014100006873 6.49159774567
9.22262 70000014100006862 70000014100006861 70000014100006873 6.14490120342
9.17729 70000014100006923 70000014100006922 70000014100006932 4.99593346816
9.24733 70000014100006922 70000014100006920 70000014100006932 4.66451770247
9.01298 70000014100006998 70000014100006997 70000014100007002 9.38877127194
9.10415 70000014100006997 70000014100006996 70000014100007002 9.00233985416
9.12424 70000014100006996 70000014100006995 70000014100007002 8.9079991856
9.40646 70000014100006995 70000014100006994 70000014100007002 8.44947629437
9.48049 70000014100006994 70000014100006993 70000014100007002 8.01217294887
9.52657 70000014100006993 70000014100006992 70000014100007002 7.59510714987
9.58975 70000014100006992 70000014100006991 70000014100007002 7.23627606617
9.64712 70000014100006991 70000014100006990 70000014100007002 7.00541704554
9.65874 70000014100006990 70000014100006988 70000014100007002 6.49159774567
9.69712 70000014100006988 70000014100006987 70000014100007002 6.14490120342
9.76947 70000014100006987 70000014100006986 70000014100007002 6.01075739884
9.78636 70000014100006986 70000014100006985 70000014100007002 5.84661374788
9.86259 70000014100006985 70000014100006984 70000014100007002 5.52976580795
9.96652 70000014100006984 70000014100006983 70000014100007002 5.22758097313
10.0227 70000014100006983 70000014100006982 70000014100007002 4.99593346816
10.0826 70000014100006982 70000014100006980 70000014100007002 4.66451770247
10.1636 70000014100006980 70000014100006979 70000014100007002 4.42803373661
10.2091 70000014100006979 70000014100006978 70000014100007002 4.17683491473
10.241 70000014100006978 70000014100006977 70000014100007002 4.00794511147
10.2486 70000014100006977 70000014100006976 70000014100007002 3.93726108473
10.3028 70000014100006976 70000014100006975 70000014100007002 3.70877426464
9.07216 70000014100007050 70000014100007049 70000014100007057 7.23627606617
9.1193 70000014100007049 70000014100007047 70000014100007057 6.85511726265
9.31083 70000014100007047 70000014100007046 70000014100007057 6.49159774567
9.35771 70000014100007046 70000014100007045 70000014100007057 6.14490120342
9.02548 70000014100007079 70000014100007078 70000014100007086 6.85511726265
9.04062 70000014100007078 70000014100007077 70000014100007086 6.49159774567
9.12912 70000014100007077 70000014100007076 70000014100007086 6.14490120342
9.02239 70000014100007135 70000014100007134 70000014100007147 6.85511726265
9.07766 70000014100007134 70000014100007133 70000014100007147 6.49159774567
9.09898 70000014100007133 70000014100007132 70000014100007147 6.14490120342
9.16852 70000014100007132 70000014100007131 70000014100007147 6.01075739884
9.20464 70000014100007131 70000014100007130 70000014100007147 5.84661374788
9.23988 70000014100007130 70000014100007129 70000014100007147 5.52976580795
9.26896 70000014100007129 70000014100007128 70000014100007147 5.22758097313
9.2828 70000014100007128 70000014100007127 70000014100007147 4.99593346816
9.28956 70000014100007127 70000014100007126 70000014100007147 4.93938066349
9.32497 70000014100007126 70000014100007125 70000014100007147 4.66451770247
9.37732 70000014100007125 70000014100007124 70000014100007147 4.42803373661
9.41909 70000014100007124 70000014100007123 70000014100007147 4.17683491473
9.45946 70000014100007123 70000014100007122 70000014100007147 4.00794511147
9.45946 70000014100007122 70000014100007121 70000014100007147 3.93726108473
9.50158 70000014100007121 70000014100007120 70000014100007147 3.70877426464
9.53236 70000014100007120 70000014100007119 70000014100007147 3.49086136926
9.55751 70000014100007119 70000014100007118 70000014100007147 3.28303305796
9.5956 70000014100007118 70000014100007117 70000014100007147 3.08482263583
9.61186 70000014100007117 70000014100007116 70000014100007147 3.00813107163
9.64564 70000014100007116 70000014100007115 70000014100007147 2.89578500573
9.01298 70000014100007277 70000014100007276 70000014100007285 3.49086136926
9.06378 70000014100007276 70000014100007275 70000014100007285 3.28303305796
9.12668 70000014100007275 70000014100007273 70000014100007285 3.00813107163
9.16852 70000014100007273 70000014100007271 70000014100007285 2.73314261732
9.18376 70000014100007271 70000014100007269 70000014100007285 2.44422570455
9.2026 70000014100007269 70000014100007265 70000014100007285 2.00202813925
9.04358 70000014100007327 70000014100007326 70000014100007337 3.93726108473
9.04653 70000014100007326 70000014100007325 70000014100007337 3.70877426464
9.10157 70000014100007325 70000014100007323 70000014100007337 3.28303305796
9.08578 70000014100007486 70000014100007485 70000014100007500 3.28303305796
9.14344 70000014100007485 70000014100007484 70000014100007500 3.08482263583
9.34902 70000014100007484 70000014100007483 70000014100007500 3.00813107163
9.37181 70000014100007483 70000014100007481 70000014100007500 2.73314261732
9.47286 70000014100007481 70000014100007480 70000014100007500 2.5772902716
9.49221 70000014100007480 70000014100007479 70000014100007500 2.44422570455
9.5026 70000014100007479 70000014100007476 70000014100007500 2.1032696526
9.0666 70000014100007558 70000014100007557 70000014100007575 4.99593346816
9.0666 70000014100007557 70000014100007556 70000014100007575 4.93938066349
9.12668 70000014100007556 70000014100007555 70000014100007575 4.66451770247
9.23799 70000014100007555 70000014100007554 70000014100007575 4.42803373661
9.27594 70000014100007554 70000014100007553 70000014100007575 4.17683491473
9.28788 70000014100007553 70000014100007552 70000014100007575 4.00794511147
9.29951 70000014100007552 70000014100007551 70000014100007575 3.93726108473
9.3044 70000014100007551 70000014100007550 70000014100007575 3.70877426464
9.33415 70000014100007550 70000014100007549 70000014100007575 3.49086136926
9.03463 70000014100007856 70000014100007855 70000014100007867 4.00794511147
9.04358 70000014100007855 70000014100007854 70000014100007867 3.93726108473
9.07766 70000014100007854 70000014100007853 70000014100007867 3.70877426464
9.09375 70000014100007853 70000014100007851 70000014100007867 3.28303305796
9.10157 70000014100007851 70000014100007850 70000014100007867 3.08482263583
9.10415 70000014100007850 70000014100007849 70000014100007867 3.00813107163
9.15273 70000014100007849 70000014100007848 70000014100007867 2.89578500573
9.00012 70000014100008037 70000014100008036 70000014100008042 6.01075739884
9.20464 70000014100008036 70000014100008034 70000014100008042 5.52976580795
9.38005 70000014100008034 70000014100008033 70000014100008042 5.22758097313
9.11431 70000014100008159 70000014100008158 70000014100008168 6.49159774567
9.13394 70000014100008158 70000014100008157 70000014100008168 6.14490120342
9.14108 70000014100008157 70000014100008156 70000014100008168 6.01075739884
9.34902 70000014100008156 70000014100008155 70000014100008168 5.84661374788
9.44447 70000014100008155 70000014100008154 70000014100008168 5.52976580795
9.46844 70000014100008154 70000014100008153 70000014100008168 5.22758097313
9.50465 70000014100008153 70000014100008150 70000014100008168 4.42803373661
9.53713 70000014100008150 70000014100008149 70000014100008168 4.17683491473
9.55751 70000014100008149 70000014100008148 70000014100008168 4.00794511147
9.56468 70000014100008148 70000014100008147 70000014100008168 3.93726108473
9.56911 70000014100008147 70000014100008146 70000014100008168 3.70877426464
9.5956 70000014100008146 70000014100008145 70000014100008168 3.49086136926
9.38412 70000014100008177 70000014100008176 70000014100008177 4.66451770247
9.01614 70000014100008215 70000014100008214 70000014100008244 2.00202813925
9.09637 70000014100008584 70000014100008583 70000014100008593 4.66451770247
9.10671 70000014100008583 70000014100008582 70000014100008593 4.42803373661
9.23799 70000014100008582 70000014100008581 70000014100008593 4.17683491473
9.34313 70000014100008581 70000014100008580 70000014100008593 4.00794511147
9.35338 70000014100008580 70000014100008579 70000014100008593 3.93726108473
9.45376 70000014100008579 70000014100008578 70000014100008593 3.70877426464
9.5207 70000014100008578 70000014100008577 70000014100008593 3.49086136926
9.62056 70000014100008577 70000014100008576 70000014100008593 3.28303305796
9.65369 70000014100008576 70000014100008575 70000014100008593 3.08482263583
9.0098 70000014100008650 70000014100008649 70000014100008652 3.70877426464
9.02855 70000014100008649 70000014100008647 70000014100008652 3.28303305796
9.12912 70000014100008647 70000014100008646 70000014100008652 3.08482263583
9.22262 70000014100008646 70000014100008643 70000014100008652 2.73314261732
9.3634 70000014100008643 70000014100008636 70000014100008652 1.90408954353
9.37732 70000014100008636 70000014100008633 70000014100008652 1.66666955611
9.43974 70000014100008633 70000014100008632 70000014100008652 1.60423452207
9.02239 70000014100008826 70000014100008825 70000014100008830 8.01217294887
9.08578 70000014100008825 70000014100008824 70000014100008830 7.59510714987
9.13394 70000014100008824 70000014100008823 70000014100008830 7.23627606617
9.2811 70000014100008823 70000014100008822 70000014100008830 7.00541704554
9.29622 70000014100008822 70000014100008820 70000014100008830 6.49159774567
9.4651 70000014100008820 70000014100008819 70000014100008830 6.14490120342
9.53618 70000014100008819 70000014100008817 70000014100008830 5.84661374788
9.58469 70000014100008817 70000014100008816 70000014100008830 5.52976580795
9.62908 70000014100008816 70000014100008815 70000014100008830 5.22758097313
9.69515 70000014100008815 70000014100008814 70000014100008830 4.99593346816
9.70685 70000014100008814 70000014100008813 70000014100008830 4.93938066349
9.736 70000014100008813 70000014100008812 70000014100008830 4.66451770247
9.80823 70000014100008812 70000014100008811 70000014100008830 4.42803373661
9.91329 70000014100008811 70000014100008810 70000014100008830 4.17683491473
9.98313 70000014100008810 70000014100008809 70000014100008830 4.00794511147
10.0352 70000014100008809 70000014100008806 70000014100008830 3.49086136926
10.0477 70000014100008806 70000014100008805 70000014100008830 3.28303305796
10.0969 70000014100008805 70000014100008803 70000014100008830 3.00813107163
9.0098 70000014100008853 70000014100008852 70000014100008863 4.99593346816
9.04653 70000014100008852 70000014100008851 70000014100008863 4.93938066349
9.06939 70000014100008851 70000014100008850 70000014100008863 4.66451770247
9.0666 70000014100008930 70000014100008929 70000014100008941 4.66451770247
9.10415 70000014100008929 70000014100008928 70000014100008941 4.42803373661
9.04062 70000014100008978 70000014100008977 70000014100008978 2.44422570455
9.08038 70000014100009040 70000014100009039 70000014100009050 4.66451770247
9.12178 70000014100009039 70000014100009035 70000014100009050 3.93726108473
9.19848 70000014100009035 70000014100009034 70000014100009050 3.70877426464
9.24175 70000014100009034 70000014100009033 70000014100009050 3.49086136926
9.32958 70000014100009033 70000014100009032 70000014100009050 3.28303305796
9.37457 70000014100009032 70000014100009031 70000014100009050 3.08482263583
9.40646 70000014100009031 70000014100009024 70000014100009050 2.20792547238
9.43974 70000014100009024 70000014100009021 70000014100009050 1.90408954353
9.03763 70000014100009132 70000014100009131 70000014100009142 2.44422570455
9.04653 70000014100009131 70000014100009130 70000014100009142 2.31611074396
9.12424 70000014100009130 70000014100009129 70000014100009142 2.20792547238
9.18376 70000014100009129 70000014100009128 70000014100009142 2.1032696526
9.20464 70000014100009128 70000014100009126 70000014100009142 1.90408954353
9.03763 70000014100009439 70000014100009438 70000014100009446 8.44947629437
9.11431 70000014100009438 70000014100009437 70000014100009446 8.01217294887
9.20055 70000014100009437 70000014100009436 70000014100009446 7.59510714987
9.29622 70000014100009436 70000014100009432 70000014100009446 6.49159774567
9.32497 70000014100009432 70000014100009424 70000014100009446 4.66451770247
9.46397 70000014100009424 70000014100009423 70000014100009446 4.42803373661
9.54558 70000014100009423 70000014100009422 70000014100009446 4.17683491473
9.61106 70000014100009422 70000014100009421 70000014100009446 4.00794511147
9.04653 70000014100009643 70000014100009642 70000014100009655 3.70877426464
9.14811 70000014100009642 70000014100009641 70000014100009655 3.49086136926
9.24918 70000014100009641 70000014100009639 70000014100009655 3.08482263583
9.26008 70000014100009639 70000014100009638 70000014100009655 3.00813107163
9.3044 70000014100009638 70000014100009637 70000014100009655 2.89578500573
9.05524 70000014100009823 70000014100009822 70000014100009828 6.14490120342
9.10415 70000014100009822 70000014100009820 70000014100009828 5.84661374788
9.16407 70000014100009820 70000014100009819 70000014100009828 5.52976580795
9.19641 70000014100009819 70000014100009817 70000014100009828 4.99593346816
9.21869 70000014100009817 70000014100009816 70000014100009828 4.93938066349
9.24548 70000014100009816 70000014100009815 70000014100009828 4.66451770247
9.28788 70000014100009815 70000014100009814 70000014100009828 4.42803373661
9.31401 70000014100009814 70000014100009813 70000014100009828 4.17683491473
9.37042 70000014100009813 70000014100009812 70000014100009828 4.00794511147
9.47724 70000014100009812 70000014100009810 70000014100009828 3.70877426464
9.05235 70000014100009920 70000014100009919 70000014100009930 5.22758097313
9.19641 70000014100009919 70000014100009918 70000014100009930 4.99593346816
9.24362 70000014100009918 70000014100009917 70000014100009930 4.93938066349
9.34313 70000014100009917 70000014100009916 70000014100009930 4.66451770247
9.42649 70000014100009916 70000014100009915 70000014100009930 4.42803373661
9.43497 70000014100009915 70000014100009914 70000014100009930 4.17683491473
9.44564 70000014100009914 70000014100009913 70000014100009930 4.00794511147
9.44564 70000014100009913 70000014100009912 70000014100009930 3.93726108473
9.4606 70000014100009912 70000014100009911 70000014100009930 3.70877426464
9.50973 70000014100009911 70000014100009909 70000014100009930 3.28303305796
9.54185 70000014100009909 70000014100009907 70000014100009930 3.00813107163
9.54185 70000014100009907 70000014100009906 70000014100009930 2.89578500573
9.56201 70000014100009906 70000014100009905 70000014100009930 2.73314261732
9.60218 70000014100009905 70000014100009904 70000014100009930 2.5772902716
9.60543 70000014100009904 70000014100009903 70000014100009930 2.44422570455
9.69051 70000014100009903 70000014100009902 70000014100009930 2.31611074396
9.02239 70000014100010024 70000014100010023 70000014100010034 4.99593346816
9.10671 70000014100010023 70000014100010020 70000014100010034 4.42803373661
9.16182 70000014100010020 70000014100010019 70000014100010034 4.17683491473
9.16407 70000014100010019 70000014100010018 70000014100010034 4.00794511147
9.2342 70000014100010018 70000014100010016 70000014100010034 3.70877426464
9.38005 70000014100010016 70000014100010015 70000014100010034 3.49086136926
9.46733 70000014100010015 70000014100010012 70000014100010034 3.00813107163
9.5566 70000014100010012 70000014100010008 70000014100010034 2.44422570455
9.74491 70000014100010008 70000014100009995 70000014100010034 1.3575766674
9.23229 70000014100010284 70000014100010283 70000014100010291 7.23627606617
9.32958 70000014100010283 70000014100010282 70000014100010291 7.00541704554
9.33263 70000014100010282 70000014100010265 70000014100010291 3.28303305796
9.14108 70000014100010593 70000014100010592 70000014100010607 2.73314261732
9.14578 70000014100010592 70000014100010591 70000014100010607 2.5772902716
9.24918 70000014100010591 70000014100010590 70000014100010607 2.44422570455
9.32031 70000014100010590 70000014100010589 70000014100010607 2.31611074396
9.33415 70000014100010589 70000014100010586 70000014100010607 2.00202813925
9.36056 70000014100010586 70000014100010583 70000014100010607 1.74357057433
9.36481 70000014100010583 70000014100010581 70000014100010607 1.60423452207
9.38948 70000014100010581 70000014100010580 70000014100010607 1.53123902916
9.39081 70000014100010580 70000014100010576 70000014100010607 1.30237845991
9.12178 70000014100010799 70000014100010798 70000014100010803 9.00233985416
9.14578 70000014100010798 70000014100010797 70000014100010803 8.9079991856
9.16182 70000014100010797 70000014100010795 70000014100010803 8.01217294887
9.43377 70000014100010795 70000014100010794 70000014100010803 7.59510714987
9.47286 70000014100010794 70000014100010793 70000014100010803 7.23627606617
9.47941 70000014100010793 70000014100010792 70000014100010803 7.00541704554
9.48265 70000014100010792 70000014100010791 70000014100010803 6.85511726265
9.51575 70000014100010791 70000014100010790 70000014100010803 6.49159774567
9.64638 70000014100010790 70000014100010789 70000014100010803 6.14490120342
9.68582 70000014100010789 70000014100010788 70000014100010803 6.01075739884
9.7342 70000014100010788 70000014100010786 70000014100010803 5.52976580795
9.85536 70000014100010786 70000014100010785 70000014100010803 5.22758097313
9.98987 70000014100010785 70000014100010784 70000014100010803 4.99593346816
10.0143 70000014100010784 70000014100010783 70000014100010803 4.93938066349
10.3801 70000014100010783 70000014100010780 70000014100010803 4.17683491473
10.4223 70000014100010780 70000014100010779 70000014100010803 4.00794511147
10.4356 70000014100010779 70000014100010777 70000014100010803 3.70877426464
10.4757 70000014100010777 70000014100010776 70000014100010803 3.49086136926
10.5 70000014100010776 70000014100010775 70000014100010803 3.28303305796
10.5167 70000014100010775 70000014100010774 70000014100010803 3.08482263583
10.5495 70000014100010774 70000014100010773 70000014100010803 3.00813107163
10.6016 70000014100010773 70000014100010772 70000014100010803 2.89578500573
10.6533 70000014100010772 70000014100010771 70000014100010803 2.73314261732
10.7111 70000014100010771 70000014100010770 70000014100010803 2.5772902716
10.7525 70000014100010770 70000014100010769 70000014100010803 2.44422570455
10.782 70000014100010769 70000014100010768 70000014100010803 2.31611074396
10.789 70000014100010768 70000014100010767 70000014100010803 2.20792547238
10.7902 70000014100010767 70000014100010762 70000014100010803 1.74357057433
10.8245 70000014100010762 70000014100010761 70000014100010803 1.66666955611
10.8308 70000014100010761 70000014100010760 70000014100010803 1.60423452207
10.8343 70000014100010760 70000014100010759 70000014100010803 1.53123902916
9.01928 70000014100010835 70000014100010834 70000014100010844 7.59510714987
9.02855 70000014100010834 70000014100010833 70000014100010844 7.23627606617
9.47505 70000014100010833 70000014100010832 70000014100010844 7.00541704554
9.61504 70000014100010832 70000014100010827 70000014100010844 5.84661374788
9.71322 70000014100010827 70000014100010826 70000014100010844 5.52976580795
10.2619 70000014100010826 70000014100010823 70000014100010844 4.66451770247
10.3167 70000014100010823 70000014100010822 70000014100010844 4.42803373661
9.04653 70000014100010856 70000014100010855 70000014100010861 8.01217294887
9.17512 70000014100010855 70000014100010854 70000014100010861 7.59510714987
9.27246 70000014100010854 70000014100010852 70000014100010861 6.85511726265
9.38141 70000014100010852 70000014100010851 70000014100010861 6.49159774567
9.48049 70000014100010851 70000014100010850 70000014100010861 6.14490120342
9.50771 70000014100010850 70000014100010849 70000014100010861 6.01075739884
9.67698 70000014100010849 70000014100010847 70000014100010861 5.22758097313
9.00337 70000014100010882 70000014100010881 70000014100010886 7.59510714987
9.07216 70000014100010881 70000014100010880 70000014100010886 7.23627606617
9.08578 70000014100010880 70000014100010879 70000014100010886 7.00541704554
9.04945 70000014100010912 70000014100010911 70000014100010920 5.52976580795
10.4229 70000014100010935 70000014100010934 70000014100010945 3.93726108473
9.06378 70000014100011119 70000014100011118 70000014100011127 3.70877426464
9.03763 70000014100011152 70000014100011151 70000014100011166 5.84661374788
9.10671 70000014100011151 70000014100011150 70000014100011166 5.52976580795
9.12424 70000014100011150 70000014100011149 70000014100011166 5.22758097313
9.20055 70000014100011149 70000014100011148 70000014100011166 4.99593346816
9.2026 70000014100011148 70000014100011147 70000014100011166 4.93938066349
9.24733 70000014100011147 70000014100011146 70000014100011166 4.66451770247
9.56201 70000014100011146 70000014100011145 70000014100011166 4.42803373661
9.72813 70000014100011145 70000014100011144 70000014100011166 4.17683491473
9.80312 70000014100011144 70000014100011142 70000014100011166 3.93726108473
9.02239 70000014100011171 70000014100011170 70000014100011175 5.22758097313
9.02239 70000014100011293 70000014100011292 70000014100011304 2.1032696526
9.32651 70000014100011349 70000014100011348 70000014100011353 6.01075739884
9.04653 70000014100011381 70000014100011380 70000014100011402 2.89578500573
9.04062 70000014100011483 70000014100011482 70000014100011494 6.14490120342
9.04062 70000014100011482 70000014100011481 70000014100011494 6.01075739884
9.04653 70000014100011481 70000014100011480 70000014100011494 5.84661374788
9.13394 70000014100011480 70000014100011479 70000014100011494 5.52976580795
9.14811 70000014100011479 70000014100011478 70000014100011494 5.22758097313
9.22845 70000014100011478 70000014100011477 70000014100011494 4.99593346816
9.33263 70000014100011477 70000014100011475 70000014100011494 4.66451770247
9.43377 70000014100011475 70000014100011474 70000014100011494 4.42803373661
9.48265 70000014100011474 70000014100011473 70000014100011494 4.17683491473
9.48265 70000014100011473 70000014100011470 70000014100011494 3.70877426464
9.49326 70000014100011470 70000014100011469 70000014100011494 3.49086136926
9.00012 70000014100011572 70000014100011571 70000014100011584 3.28303305796
9.17293 70000014100011571 70000014100011570 70000014100011584 3.08482263583
9.23799 70000014100011570 70000014100011569 70000014100011584 3.00813107163
9.24548 70000014100011569 70000014100011568 70000014100011584 2.89578500573
9.25101 70000014100011568 70000014100011567 70000014100011584 2.73314261732
9.27246 70000014100011567 70000014100011566 70000014100011584 2.5772902716
9.01298 70000014100011662 70000014100011661 70000014100011675 2.89578500573
9.01928 70000014100011661 70000014100011655 70000014100011675 2.1032696526
9.07492 70000014100011655 70000014100011651 70000014100011675 1.74357057433
9.12668 70000014100011651 70000014100011646 70000014100011675 1.41409822037
9.01614 70000014100011765 70000014100011764 70000014100011786 2.5772902716
9.03463 70000014100011877 70000014100011876 70000014100011889 4.17683491473
9.05811 70000014100011876 70000014100011875 70000014100011889 4.00794511147
9.06378 70000014100011875 70000014100011874 70000014100011889 3.93726108473
9.06378 70000014100011874 70000014100011873 70000014100011889 3.70877426464
9.10157 70000014100011873 70000014100011872 70000014100011889 3.49086136926
9.10671 70000014100011872 70000014100011871 70000014100011889 3.28303305796
9.18162 70000014100011871 70000014100011870 70000014100011889 3.08482263583
9.50771 70000014100011870 70000014100011856 70000014100011889 1.60423452207
9.51873 70000014100011856 70000014100011855 70000014100011889 1.53123902916
9.56111 70000014100011855 70000014100011846 70000014100011889 1.07445789455
9.08309 70000014100011917 70000014100011916 70000014100011921 4.00794511147
9.1193 70000014100011916 70000014100011914 70000014100011921 3.70877426464
9.12668 70000014100011914 70000014100011912 70000014100011921 3.28303305796
9.18802 70000014100011912 70000014100011911 70000014100011921 3.08482263583
9.24733 70000014100011911 70000014100011898 70000014100011921 1.66666955611
9.0316 70000014100011927 70000014100011926 70000014100011927 4.17683491473
9.0066 70000014100012041 70000014100012040 70000014100012052 6.14490120342
9.0098 70000014100012040 70000014100012039 70000014100012052 6.01075739884
9.01928 70000014100012039 70000014100012036 70000014100012052 5.22758097313
9.07216 70000014100012036 70000014100012034 70000014100012052 4.93938066349
9.09111 70000014100012034 70000014100012033 70000014100012052 4.66451770247
9.13871 70000014100012033 70000014100012032 70000014100012052 4.42803373661
9.20055 70000014100012032 70000014100012031 70000014100012052 4.17683491473
9.21072 70000014100012031 70000014100012028 70000014100012052 3.70877426464
9.26365 70000014100012028 70000014100012027 70000014100012052 3.49086136926
9.2828 70000014100012027 70000014100012025 70000014100012052 3.08482263583
9.30115 70000014100012025 70000014100012021 70000014100012052 2.5772902716
9.44093 70000014100012021 70000014100012020 70000014100012052 2.44422570455
9.19223 70000014100012222 70000014100012221 70000014100012236 3.28303305796
9.0098 70000014100012598 70000014100012597 70000014100012602 10.9190331982
9.03763 70000014100012597 70000014100012596 70000014100012602 10.3674435724
9.10415 70000014100012596 70000014100012595 70000014100012602 9.99659046619
9.15273 70000014100012595 70000014100012594 70000014100012602 9.84138043947
9.33111 70000014100012594 70000014100012593 70000014100012602 9.38877127194
9.40131 70000014100012593 70000014100012592 70000014100012602 9.00233985416
9.40902 70000014100012592 70000014100012591 70000014100012602 8.9079991856
9.52169 70000014100012591 70000014100012590 70000014100012602 8.44947629437
9.57783 70000014100012590 70000014100012589 70000014100012602 8.01217294887
9.749 70000014100012589 70000014100012588 70000014100012602 7.59510714987
9.94408 70000014100012588 70000014100012587 70000014100012602 7.23627606617
9.98551 70000014100012587 70000014100012586 70000014100012602 7.00541704554
10.0043 70000014100012586 70000014100012585 70000014100012602 6.85511726265
10.0433 70000014100012585 70000014100012584 70000014100012602 6.49159774567
10.0724 70000014100012584 70000014100012583 70000014100012602 6.14490120342
10.0895 70000014100012583 70000014100012582 70000014100012602 6.01075739884
10.0937 70000014100012582 70000014100012581 70000014100012602 5.84661374788
10.2661 70000014100012581 70000014100012580 70000014100012602 5.52976580795
10.2987 70000014100012580 70000014100012578 70000014100012602 4.99593346816
10.3245 70000014100012578 70000014100012577 70000014100012602 4.93938066349
10.3896 70000014100012577 70000014100012576 70000014100012602 4.66451770247
10.4496 70000014100012576 70000014100012575 70000014100012602 4.42803373661
10.4888 70000014100012575 70000014100012574 70000014100012602 4.17683491473
10.5132 70000014100012574 70000014100012573 70000014100012602 4.00794511147
10.522 70000014100012573 70000014100012572 70000014100012602 3.93726108473
10.5407 70000014100012572 70000014100012571 70000014100012602 3.70877426464
10.5627 70000014100012571 70000014100012570 70000014100012602 3.49086136926
10.5679 70000014100012570 70000014100012569 70000014100012602 3.28303305796
10.6037 70000014100012569 70000014100012568 70000014100012602 3.08482263583
10.6186 70000014100012568 70000014100012567 70000014100012602 3.00813107163
10.6277 70000014100012567 70000014100012566 70000014100012602 2.89578500573
10.6519 70000014100012566 70000014100012565 70000014100012602 2.73314261732
10.7297 70000014100012565 70000014100012564 70000014100012602 2.5772902716
10.79 70000014100012564 70000014100012563 70000014100012602 2.44422570455
10.8805 70000014100012563 70000014100012562 70000014100012602 2.31611074396
10.9083 70000014100012562 70000014100012561 70000014100012602 2.20792547238
10.957 70000014100012561 70000014100012560 70000014100012602 2.1032696526
11.0123 70000014100012560 70000014100012559 70000014100012602 2.00202813925
11.0465 70000014100012559 70000014100012558 70000014100012602 1.90408954353
9.10157 70000014100012623 70000014100012622 70000014100012627 8.01217294887
9.01614 70000014100012696 70000014100012695 70000014100012702 8.44947629437
9.16407 70000014100012695 70000014100012694 70000014100012702 8.01217294887
9.3044 70000014100012694 70000014100012693 70000014100012702 7.59510714987
9.38547 70000014100012693 70000014100012692 70000014100012702 7.23627606617
9.42281 70000014100012692 70000014100012690 70000014100012702 6.85511726265
9.45376 70000014100012690 70000014100012689 70000014100012702 6.49159774567
9.49744 70000014100012689 70000014100012688 70000014100012702 6.14490120342
9.49848 70000014100012688 70000014100012687 70000014100012702 6.01075739884
9.52365 70000014100012687 70000014100012686 70000014100012702 5.84661374788
9.1663 70000014100012731 70000014100012730 70000014100012737 7.59510714987
9.40646 70000014100012730 70000014100012729 70000014100012737 7.23627606617
9.47066 70000014100012729 70000014100012728 70000014100012737 7.00541704554
9.47941 70000014100012728 70000014100012727 70000014100012737 6.85511726265
9.54278 70000014100012727 70000014100012726 70000014100012737 6.49159774567
9.55387 70000014100012726 70000014100012725 70000014100012737 6.14490120342
9.57783 70000014100012725 70000014100012724 70000014100012737 6.01075739884
9.57783 70000014100012724 70000014100012723 70000014100012737 5.84661374788
9.02855 70000014100012807 70000014100012806 70000014100012815 4.66451770247
9.04945 70000014100012806 70000014100012805 70000014100012815 4.42803373661
9.03763 70000014100012924 70000014100012923 70000014100012932 8.01217294887
9.14108 70000014100012923 70000014100012922 70000014100012932 7.59510714987
9.44093 70000014100012922 70000014100012920 70000014100012932 7.00541704554
9.48586 70000014100012920 70000014100012919 70000014100012932 6.85511726265
9.64564 70000014100012919 70000014100012918 70000014100012932 6.49159774567
9.68918 70000014100012918 70000014100012917 70000014100012932 6.14490120342
9.69184 70000014100012917 70000014100012916 70000014100012932 6.01075739884
9.72813 70000014100012916 70000014100012915 70000014100012932 5.84661374788
10.1233 70000014100012915 70000014100012912 70000014100012932 4.99593346816
10.142 70000014100012912 70000014100012910 70000014100012932 4.66451770247
10.1823 70000014100012910 70000014100012908 70000014100012932 4.17683491473
10.2363 70000014100012908 70000014100012905 70000014100012932 3.70877426464
10.2449 70000014100012905 70000014100012904 70000014100012932 3.49086136926
10.2742 70000014100012904 70000014100012903 70000014100012932 3.28303305796
9.09375 70000014100012939 70000014100012938 70000014100012945 8.44947629437
9.14578 70000014100012938 70000014100012937 70000014100012945 8.01217294887
9.26543 70000014100012937 70000014100012936 70000014100012945 7.59510714987
9.2845 70000014100012936 70000014100012935 70000014100012945 7.23627606617
9.29622 70000014100012975 70000014100012974 70000014100012980 6.49159774567
9.51074 70000014100012974 70000014100012973 70000014100012980 6.14490120342
9.6449 70000014100012973 70000014100012972 70000014100012980 6.01075739884
9.78528 70000014100012972 70000014100012971 70000014100012980 5.52976580795
10.1543 70000014100012971 70000014100012963 70000014100012980 3.93726108473
9.0316 70000014100012992 70000014100012991 70000014100013000 7.00541704554
9.90727 70000014100013004 70000014100013003 70000014100013005 5.22758097313
9.01928 70000014100013130 70000014100013129 70000014100013137 7.00541704554
9.06096 70000014100013129 70000014100013128 70000014100013137 6.85511726265
9.11681 70000014100013128 70000014100013127 70000014100013137 6.49159774567
9.15042 70000014100013127 70000014100013126 70000014100013137 6.14490120342
9.17293 70000014100013126 70000014100013125 70000014100013137 6.01075739884
9.24733 70000014100013125 70000014100013123 70000014100013137 5.52976580795
9.80823 70000014100013123 70000014100013117 70000014100013137 4.17683491473
9.81578 70000014100013117 70000014100013116 70000014100013137 4.00794511147
9.82272 70000014100013116 70000014100013115 70000014100013137 3.93726108473
9.9212 70000014100013115 70000014100013111 70000014100013137 3.00813107163
9.01298 70000014100013170 70000014100013169 70000014100013179 5.52976580795
9.22457 70000014100013169 70000014100013168 70000014100013179 5.22758097313
9.27246 70000014100013168 70000014100013167 70000014100013179 4.99593346816
9.50973 70000014100013167 70000014100013165 70000014100013179 4.66451770247
9.76275 70000014100013165 70000014100013164 70000014100013179 4.42803373661
9.80517 70000014100013164 70000014100013159 70000014100013179 3.49086136926
9.86304 70000014100013159 70000014100013158 70000014100013179 3.28303305796
9.08578 70000014100013361 70000014100013360 70000014100013374 5.22758097313
9.08845 70000014100013360 70000014100013359 70000014100013374 4.99593346816
9.12912 70000014100013359 70000014100013358 70000014100013374 4.93938066349
9.14108 70000014100013358 70000014100013357 70000014100013374 4.66451770247
9.21072 70000014100013357 70000014100013356 70000014100013374 4.42803373661
9.24918 70000014100013356 70000014100013355 70000014100013374 4.17683491473
9.25648 70000014100013355 70000014100013354 70000014100013374 4.00794511147
9.26008 70000014100013354 70000014100013353 70000014100013374 3.93726108473
9.2742 70000014100013353 70000014100013352 70000014100013374 3.70877426464
9.30763 70000014100013352 70000014100013351 70000014100013374 3.49086136926
9.36902 70000014100013351 70000014100013348 70000014100013374 3.00813107163
9.38141 70000014100013348 70000014100013347 70000014100013374 2.89578500573
9.42281 70000014100013347 70000014100013346 70000014100013374 2.73314261732
9.44797 70000014100013346 70000014100013344 70000014100013374 2.44422570455
9.4503 70000014100013344 70000014100013342 70000014100013374 2.20792547238
9.45946 70000014100013342 70000014100013341 70000014100013374 2.1032696526
9.47286 70000014100013341 70000014100013335 70000014100013374 1.60423452207
9.0098 70000014100013408 70000014100013407 70000014100013413 5.22758097313
9.01614 70000014100013407 70000014100013406 70000014100013413 4.99593346816
9.01928 70000014100013406 70000014100013405 70000014100013413 4.93938066349
9.04062 70000014100013405 70000014100013399 70000014100013413 3.70877426464
9.04653 70000014100013399 70000014100013398 70000014100013413 3.49086136926
9.08309 70000014100013398 70000014100013397 70000014100013413 3.28303305796
9.01298 70000014100013714 70000014100013713 70000014100013724 2.5772902716
