logMh | fpID | subhaloID | main leaf ID | z
9.11431 70000066300000103 70000066300000102 70000066300000105 9.99659046619
9.11431 70000066300000102 70000066300000099 70000066300000105 9.00233985416
9.27938 70000066300000099 70000066300000098 70000066300000105 8.9079991856
9.44093 70000066300000098 70000066300000097 70000066300000105 8.44947629437
9.50669 70000066300000097 70000066300000096 70000066300000105 8.01217294887
9.54372 70000066300000096 70000066300000095 70000066300000105 7.59510714987
9.59059 70000066300000095 70000066300000094 70000066300000105 7.23627606617
10.0866 70000066300000094 70000066300000090 70000066300000105 6.14490120342
10.1472 70000066300000090 70000066300000089 70000066300000105 6.01075739884
10.204 70000066300000089 70000066300000088 70000066300000105 5.84661374788
10.2946 70000066300000088 70000066300000087 70000066300000105 5.52976580795
10.4249 70000066300000087 70000066300000086 70000066300000105 5.22758097313
10.4809 70000066300000086 70000066300000085 70000066300000105 4.99593346816
10.5061 70000066300000085 70000066300000084 70000066300000105 4.93938066349
10.6833 70000066300000084 70000066300000083 70000066300000105 4.66451770247
10.7904 70000066300000083 70000066300000082 70000066300000105 4.42803373661
10.851 70000066300000082 70000066300000081 70000066300000105 4.17683491473
10.8769 70000066300000081 70000066300000080 70000066300000105 4.00794511147
10.8901 70000066300000080 70000066300000079 70000066300000105 3.93726108473
10.9779 70000066300000079 70000066300000078 70000066300000105 3.70877426464
11.1717 70000066300000078 70000066300000075 70000066300000105 3.00813107163
11.1742 70000066300000075 70000066300000074 70000066300000105 2.89578500573
11.1788 70000066300000074 70000066300000073 70000066300000105 2.73314261732
11.1906 70000066300000073 70000066300000072 70000066300000105 2.5772902716
11.202 70000066300000072 70000066300000071 70000066300000105 2.44422570455
11.2203 70000066300000071 70000066300000070 70000066300000105 2.31611074396
11.2291 70000066300000070 70000066300000069 70000066300000105 2.20792547238
11.2539 70000066300000069 70000066300000068 70000066300000105 2.1032696526
11.2855 70000066300000068 70000066300000067 70000066300000105 2.00202813925
11.3076 70000066300000067 70000066300000065 70000066300000105 1.82268925262
11.3272 70000066300000065 70000066300000064 70000066300000105 1.74357057433
11.3441 70000066300000064 70000066300000063 70000066300000105 1.66666955611
11.3831 70000066300000063 70000066300000061 70000066300000105 1.53123902916
11.3882 70000066300000061 70000066300000060 70000066300000105 1.47197484527
11.4136 70000066300000060 70000066300000059 70000066300000105 1.41409822037
11.4378 70000066300000059 70000066300000058 70000066300000105 1.3575766674
11.444 70000066300000058 70000066300000056 70000066300000105 1.24847261425
11.4568 70000066300000056 70000066300000055 70000066300000105 1.20625808078
11.4719 70000066300000055 70000066300000054 70000066300000105 1.15460271236
11.4977 70000066300000054 70000066300000053 70000066300000105 1.11415056377
11.5178 70000066300000053 70000066300000052 70000066300000105 1.07445789455
11.5262 70000066300000052 70000066300000051 70000066300000105 1.03551044566
11.574 70000066300000051 70000066300000050 70000066300000105 0.997294225782
11.606 70000066300000050 70000066300000048 70000066300000105 0.950531351585
11.6164 70000066300000048 70000066300000047 70000066300000105 0.923000816178
11.6508 70000066300000047 70000066300000046 70000066300000105 0.886896937575
11.7146 70000066300000046 70000066300000044 70000066300000105 0.816709979012
11.7467 70000066300000044 70000066300000043 70000066300000105 0.791068248946
11.7861 70000066300000043 70000066300000042 70000066300000105 0.757441372616
11.8022 70000066300000042 70000066300000041 70000066300000105 0.732636182022
11.8375 70000066300000041 70000066300000040 70000066300000105 0.700106353719
11.8577 70000066300000040 70000066300000039 70000066300000105 0.676110411213
11.8999 70000066300000039 70000066300000035 70000066300000105 0.575980845108
11.9093 70000066300000035 70000066300000034 70000066300000105 0.546392183141
11.9433 70000066300000034 70000066300000033 70000066300000105 0.524565820434
11.9757 70000066300000033 70000066300000032 70000066300000105 0.503047523245
11.9863 70000066300000032 70000066300000031 70000066300000105 0.481832943421
11.9918 70000066300000031 70000066300000029 70000066300000105 0.440297849248
12.0124 70000066300000029 70000066300000028 70000066300000105 0.419968941997
12.0256 70000066300000028 70000066300000027 70000066300000105 0.399926964614
12.0288 70000066300000027 70000066300000018 70000066300000105 0.243540181555
12.0488 70000066300000018 70000066300000017 70000066300000105 0.22598838626
12.0517 70000066300000017 70000066300000014 70000066300000105 0.180385261706
12.052 70000066300000014 70000066300000012 70000066300000105 0.152748768902
12.063 70000066300000012 70000066300000010 70000066300000105 0.125759332411
12.0683 70000066300000010 70000066300000009 70000066300000105 0.109869940459
12.075 70000066300000009 70000066300000008 70000066300000105 0.0994018026302
12.0758 70000066300000008 70000066300000007 70000066300000105 0.0838844307975
12.0793 70000066300000007 70000066300000006 70000066300000105 0.0736613846564
12.0868 70000066300000006 70000066300000005 70000066300000105 0.0585073227945
12.0888 70000066300000005 70000066300000004 70000066300000105 0.0485236299818
12.0894 70000066300000004 70000066300000003 70000066300000105 0.0337243718735
12.0907 70000066300000003 70000066300000002 70000066300000105 0.0239744283828
12.0963 70000066300000002 70000066300000001 70000066300000105 0.00952166696794
12.0982 70000066300000001 70000066300000000 70000066300000105 2.22044604925e-16
9.07766 70000066300000123 70000066300000122 70000066300000130 8.01217294887
9.14108 70000066300000122 70000066300000121 70000066300000130 7.59510714987
9.19223 70000066300000121 70000066300000120 70000066300000130 7.23627606617
9.59477 70000066300000120 70000066300000119 70000066300000130 7.00541704554
9.77935 70000066300000119 70000066300000118 70000066300000130 6.85511726265
9.9463 70000066300000118 70000066300000117 70000066300000130 6.49159774567
9.06096 70000066300000142 70000066300000141 70000066300000147 8.44947629437
9.10671 70000066300000141 70000066300000140 70000066300000147 8.01217294887
9.19013 70000066300000140 70000066300000139 70000066300000147 7.59510714987
9.27246 70000066300000139 70000066300000138 70000066300000147 7.23627606617
9.10926 70000066300000183 70000066300000182 70000066300000191 6.49159774567
9.00012 70000066300000240 70000066300000239 70000066300000249 5.22758097313
9.15273 70000066300000239 70000066300000238 70000066300000249 4.99593346816
9.15273 70000066300000238 70000066300000237 70000066300000249 4.93938066349
9.10926 70000066300000262 70000066300000261 70000066300000273 6.49159774567
9.1573 70000066300000261 70000066300000260 70000066300000273 6.14490120342
9.06939 70000066300000290 70000066300000289 70000066300000294 7.23627606617
9.26896 70000066300000289 70000066300000288 70000066300000294 7.00541704554
9.32031 70000066300000288 70000066300000287 70000066300000294 6.85511726265
9.41029 70000066300000287 70000066300000286 70000066300000294 6.49159774567
9.58638 70000066300000286 70000066300000285 70000066300000294 6.14490120342
9.60218 70000066300000285 70000066300000284 70000066300000294 6.01075739884
9.6573 70000066300000284 70000066300000283 70000066300000294 5.84661374788
9.70039 70000066300000283 70000066300000282 70000066300000294 5.52976580795
9.71637 70000066300000282 70000066300000279 70000066300000294 4.93938066349
9.13634 70000066300000320 70000066300000319 70000066300000330 6.14490120342
9.15956 70000066300000319 70000066300000317 70000066300000330 5.84661374788
9.19433 70000066300000317 70000066300000315 70000066300000330 5.22758097313
9.21272 70000066300000342 70000066300000341 70000066300000355 5.84661374788
11.0764 70000066300000381 70000066300000380 70000066300000392 3.49086136926
11.132 70000066300000380 70000066300000379 70000066300000392 3.28303305796
11.1513 70000066300000379 70000066300000378 70000066300000392 3.08482263583
9.1573 70000066300000447 70000066300000446 70000066300000455 6.49159774567
9.19848 70000066300000446 70000066300000441 70000066300000455 5.22758097313
9.24548 70000066300000441 70000066300000440 70000066300000455 4.99593346816
9.2672 70000066300000440 70000066300000439 70000066300000455 4.93938066349
9.2845 70000066300000439 70000066300000438 70000066300000455 4.66451770247
9.02239 70000066300000469 70000066300000468 70000066300000472 5.22758097313
9.0666 70000066300000468 70000066300000467 70000066300000472 4.99593346816
9.14578 70000066300000467 70000066300000465 70000066300000472 4.66451770247
9.05811 70000066300000501 70000066300000500 70000066300000504 10.9190331982
9.08578 70000066300000500 70000066300000499 70000066300000504 10.3674435724
9.26187 70000066300000499 70000066300000498 70000066300000504 9.99659046619
9.33415 70000066300000498 70000066300000497 70000066300000504 9.84138043947
9.51774 70000066300000497 70000066300000496 70000066300000504 9.38877127194
9.58213 70000066300000496 70000066300000495 70000066300000504 9.00233985416
9.58298 70000066300000495 70000066300000494 70000066300000504 8.9079991856
9.62908 70000066300000494 70000066300000493 70000066300000504 8.44947629437
9.68985 70000066300000493 70000066300000492 70000066300000504 8.01217294887
9.75822 70000066300000492 70000066300000491 70000066300000504 7.59510714987
9.79899 70000066300000491 70000066300000490 70000066300000504 7.23627606617
9.85124 70000066300000490 70000066300000489 70000066300000504 7.00541704554
9.88144 70000066300000489 70000066300000488 70000066300000504 6.85511726265
9.88699 70000066300000488 70000066300000485 70000066300000504 6.01075739884
9.92509 70000066300000485 70000066300000484 70000066300000504 5.84661374788
10.0421 70000066300000484 70000066300000483 70000066300000504 5.52976580795
10.0427 70000066300000483 70000066300000482 70000066300000504 5.22758097313
10.0535 70000066300000482 70000066300000481 70000066300000504 4.99593346816
9.00012 70000066300000515 70000066300000514 70000066300000518 9.84138043947
9.01298 70000066300000566 70000066300000565 70000066300000573 6.01075739884
9.22066 70000066300000565 70000066300000564 70000066300000573 5.84661374788
9.1663 70000066300000609 70000066300000608 70000066300000614 5.22758097313
9.2862 70000066300000608 70000066300000605 70000066300000614 4.66451770247
9.31401 70000066300000605 70000066300000604 70000066300000614 4.42803373661
9.35771 70000066300000604 70000066300000603 70000066300000614 4.17683491473
9.06378 70000066300000700 70000066300000699 70000066300000707 8.44947629437
9.16852 70000066300000699 70000066300000698 70000066300000707 8.01217294887
9.32031 70000066300000698 70000066300000697 70000066300000707 7.59510714987
9.38681 70000066300000697 70000066300000696 70000066300000707 7.23627606617
9.52851 70000066300000696 70000066300000694 70000066300000707 6.85511726265
9.63593 70000066300000694 70000066300000693 70000066300000707 6.49159774567
9.68176 70000066300000693 70000066300000692 70000066300000707 6.14490120342
9.7342 70000066300000692 70000066300000691 70000066300000707 6.01075739884
9.78421 70000066300000691 70000066300000690 70000066300000707 5.84661374788
9.82954 70000066300000690 70000066300000689 70000066300000707 5.52976580795
9.88994 70000066300000689 70000066300000688 70000066300000707 5.22758097313
9.93355 70000066300000688 70000066300000687 70000066300000707 4.99593346816
9.94851 70000066300000687 70000066300000685 70000066300000707 4.66451770247
9.95689 70000066300000685 70000066300000684 70000066300000707 4.42803373661
9.08038 70000066300000780 70000066300000779 70000066300000787 7.00541704554
9.10415 70000066300000779 70000066300000778 70000066300000787 6.85511726265
9.10415 70000066300000778 70000066300000777 70000066300000787 6.49159774567
9.11179 70000066300000777 70000066300000776 70000066300000787 6.14490120342
9.17073 70000066300000776 70000066300000775 70000066300000787 6.01075739884
9.21072 70000066300000775 70000066300000774 70000066300000787 5.84661374788
9.24733 70000066300000774 70000066300000773 70000066300000787 5.52976580795
9.25284 70000066300000773 70000066300000772 70000066300000787 5.22758097313
9.27246 70000066300000772 70000066300000770 70000066300000787 4.93938066349
9.30602 70000066300000770 70000066300000769 70000066300000787 4.66451770247
9.58127 70000066300000769 70000066300000768 70000066300000787 4.42803373661
9.58723 70000066300000768 70000066300000767 70000066300000787 4.17683491473
9.01928 70000066300000792 70000066300000791 70000066300000793 5.22758097313
9.04653 70000066300000791 70000066300000790 70000066300000793 4.99593346816
9.05811 70000066300000790 70000066300000789 70000066300000793 4.93938066349
9.06096 70000066300000897 70000066300000896 70000066300000913 4.42803373661
9.32805 70000066300000953 70000066300000952 70000066300000960 8.44947629437
9.40001 70000066300000952 70000066300000950 70000066300000960 7.59510714987
9.40131 70000066300000950 70000066300000949 70000066300000960 7.23627606617
9.48905 70000066300000949 70000066300000948 70000066300000960 7.00541704554
9.52754 70000066300000948 70000066300000947 70000066300000960 6.85511726265
9.55113 70000066300000947 70000066300000946 70000066300000960 6.49159774567
9.58383 70000066300000946 70000066300000945 70000066300000960 6.14490120342
9.59642 70000066300000945 70000066300000943 70000066300000960 5.84661374788
9.68985 70000066300000943 70000066300000942 70000066300000960 5.52976580795
9.74784 70000066300000942 70000066300000941 70000066300000960 5.22758097313
9.78902 70000066300000941 70000066300000940 70000066300000960 4.99593346816
9.86034 70000066300000940 70000066300000938 70000066300000960 4.66451770247
9.96191 70000066300000938 70000066300000937 70000066300000960 4.42803373661
10.0445 70000066300000937 70000066300000936 70000066300000960 4.17683491473
10.1335 70000066300000936 70000066300000935 70000066300000960 4.00794511147
9.01298 70000066300001318 70000066300001317 70000066300001327 8.01217294887
9.04653 70000066300001317 70000066300001315 70000066300001327 7.23627606617
9.07492 70000066300001315 70000066300001314 70000066300001327 7.00541704554
9.1193 70000066300001314 70000066300001313 70000066300001327 6.85511726265
9.15502 70000066300001313 70000066300001312 70000066300001327 6.49159774567
9.18802 70000066300001312 70000066300001311 70000066300001327 6.14490120342
9.19223 70000066300001311 70000066300001309 70000066300001327 5.84661374788
9.21671 70000066300001309 70000066300001308 70000066300001327 5.52976580795
9.22262 70000066300001308 70000066300001306 70000066300001327 4.99593346816
9.24733 70000066300001306 70000066300001305 70000066300001327 4.93938066349
9.2862 70000066300001305 70000066300001304 70000066300001327 4.66451770247
9.32958 70000066300001304 70000066300001303 70000066300001327 4.42803373661
9.33111 70000066300001303 70000066300001302 70000066300001327 4.17683491473
9.34461 70000066300001302 70000066300001301 70000066300001327 4.00794511147
9.60299 70000066300001301 70000066300001299 70000066300001327 3.70877426464
9.62056 70000066300001299 70000066300001293 70000066300001327 2.73314261732
9.10157 70000066300001353 70000066300001352 70000066300001361 5.52976580795
9.23037 70000066300001352 70000066300001351 70000066300001361 5.22758097313
9.58723 70000066300001351 70000066300001342 70000066300001361 3.49086136926
9.04653 70000066300001505 70000066300001504 70000066300001518 2.20792547238
9.06096 70000066300001504 70000066300001503 70000066300001518 2.1032696526
9.06939 70000066300001503 70000066300001502 70000066300001518 2.00202813925
9.0316 70000066300001623 70000066300001622 70000066300001640 3.28303305796
9.08578 70000066300001622 70000066300001621 70000066300001640 3.08482263583
9.08845 70000066300001621 70000066300001620 70000066300001640 3.00813107163
9.04358 70000066300001710 70000066300001709 70000066300001715 5.22758097313
9.07216 70000066300001709 70000066300001708 70000066300001715 4.99593346816
9.08309 70000066300001708 70000066300001707 70000066300001715 4.93938066349
9.14811 70000066300001707 70000066300001706 70000066300001715 4.66451770247
9.17729 70000066300001706 70000066300001705 70000066300001715 4.42803373661
9.18376 70000066300001705 70000066300001700 70000066300001715 3.49086136926
9.14344 70000066300001787 70000066300001786 70000066300001803 3.93726108473
9.1573 70000066300001786 70000066300001785 70000066300001803 3.70877426464
9.2361 70000066300001785 70000066300001784 70000066300001803 3.49086136926
9.30923 70000066300001784 70000066300001783 70000066300001803 3.28303305796
9.3156 70000066300001783 70000066300001781 70000066300001803 3.00813107163
9.35483 70000066300001781 70000066300001780 70000066300001803 2.89578500573
9.02548 70000066300001938 70000066300001937 70000066300001944 6.14490120342
9.06378 70000066300001937 70000066300001934 70000066300001944 5.52976580795
9.1663 70000066300001934 70000066300001933 70000066300001944 5.22758097313
9.18162 70000066300001933 70000066300001931 70000066300001944 4.93938066349
9.18162 70000066300001931 70000066300001929 70000066300001944 4.42803373661
9.24733 70000066300001929 70000066300001928 70000066300001944 4.17683491473
9.30115 70000066300001928 70000066300001927 70000066300001944 4.00794511147
9.0666 70000066300002141 70000066300002140 70000066300002153 4.42803373661
9.07766 70000066300002140 70000066300002139 70000066300002153 4.17683491473
9.1573 70000066300002139 70000066300002138 70000066300002153 4.00794511147
9.16407 70000066300002138 70000066300002137 70000066300002153 3.93726108473
9.18589 70000066300002137 70000066300002136 70000066300002153 3.70877426464
9.25101 70000066300002136 70000066300002135 70000066300002153 3.49086136926
9.37042 70000066300002135 70000066300002134 70000066300002153 3.28303305796
9.37595 70000066300002134 70000066300002133 70000066300002153 3.08482263583
9.38141 70000066300002133 70000066300002131 70000066300002153 2.89578500573
9.41534 70000066300002131 70000066300002130 70000066300002153 2.73314261732
9.07766 70000066300002225 70000066300002224 70000066300002238 4.00794511147
9.09375 70000066300002224 70000066300002222 70000066300002238 3.70877426464
9.12668 70000066300002222 70000066300002220 70000066300002238 3.28303305796
9.02548 70000066300002633 70000066300002632 70000066300002642 3.70877426464
9.27594 70000066300002632 70000066300002631 70000066300002642 3.49086136926
9.32651 70000066300002631 70000066300002630 70000066300002642 3.28303305796
9.34165 70000066300002630 70000066300002629 70000066300002642 3.08482263583
9.37181 70000066300002629 70000066300002628 70000066300002642 3.00813107163
9.1663 70000066300002848 70000066300002847 70000066300002856 7.59510714987
9.1663 70000066300002847 70000066300002846 70000066300002856 7.23627606617
9.20464 70000066300002846 70000066300002845 70000066300002856 7.00541704554
9.25284 70000066300002845 70000066300002844 70000066300002856 6.85511726265
9.28788 70000066300002844 70000066300002843 70000066300002856 6.49159774567
9.37181 70000066300002843 70000066300002842 70000066300002856 6.14490120342
9.49744 70000066300002842 70000066300002841 70000066300002856 6.01075739884
9.69647 70000066300002841 70000066300002840 70000066300002856 5.84661374788
9.79639 70000066300002840 70000066300002839 70000066300002856 5.52976580795
9.87365 70000066300002839 70000066300002838 70000066300002856 5.22758097313
9.9529 70000066300002838 70000066300002837 70000066300002856 4.99593346816
9.96012 70000066300002837 70000066300002836 70000066300002856 4.93938066349
10.0766 70000066300002836 70000066300002835 70000066300002856 4.66451770247
10.139 70000066300002835 70000066300002834 70000066300002856 4.42803373661
10.2577 70000066300002834 70000066300002833 70000066300002856 4.17683491473
10.3192 70000066300002833 70000066300002832 70000066300002856 4.00794511147
10.3671 70000066300002832 70000066300002831 70000066300002856 3.93726108473
10.5135 70000066300002831 70000066300002830 70000066300002856 3.70877426464
10.5788 70000066300002830 70000066300002829 70000066300002856 3.49086136926
10.7311 70000066300002829 70000066300002828 70000066300002856 3.28303305796
10.801 70000066300002828 70000066300002827 70000066300002856 3.08482263583
10.8123 70000066300002827 70000066300002826 70000066300002856 3.00813107163
10.8682 70000066300002826 70000066300002825 70000066300002856 2.89578500573
10.9186 70000066300002825 70000066300002824 70000066300002856 2.73314261732
10.951 70000066300002824 70000066300002823 70000066300002856 2.5772902716
11.015 70000066300002823 70000066300002822 70000066300002856 2.44422570455
11.0476 70000066300002822 70000066300002821 70000066300002856 2.31611074396
11.1164 70000066300002821 70000066300002820 70000066300002856 2.20792547238
11.1783 70000066300002820 70000066300002819 70000066300002856 2.1032696526
11.1876 70000066300002819 70000066300002818 70000066300002856 2.00202813925
11.1946 70000066300002818 70000066300002817 70000066300002856 1.90408954353
11.2366 70000066300002817 70000066300002816 70000066300002856 1.82268925262
11.28 70000066300002816 70000066300002815 70000066300002856 1.74357057433
11.2985 70000066300002815 70000066300002814 70000066300002856 1.66666955611
11.3224 70000066300002814 70000066300002813 70000066300002856 1.60423452207
11.3274 70000066300002813 70000066300002809 70000066300002856 1.3575766674
11.3283 70000066300002809 70000066300002805 70000066300002856 1.15460271236
11.6211 70000066300002805 70000066300002796 70000066300002856 0.851470900625
9.02239 70000066300002888 70000066300002887 70000066300002893 6.49159774567
9.17073 70000066300002887 70000066300002886 70000066300002893 6.14490120342
9.05524 70000066300002916 70000066300002915 70000066300002928 4.93938066349
9.1663 70000066300002915 70000066300002913 70000066300002928 4.42803373661
9.00012 70000066300002936 70000066300002935 70000066300002941 4.99593346816
9.06939 70000066300002935 70000066300002933 70000066300002941 4.66451770247
9.01928 70000066300002979 70000066300002978 70000066300002984 6.14490120342
9.05524 70000066300002978 70000066300002977 70000066300002984 6.01075739884
9.06378 70000066300002977 70000066300002976 70000066300002984 5.84661374788
9.12178 70000066300002976 70000066300002975 70000066300002984 5.52976580795
9.01928 70000066300003036 70000066300003035 70000066300003037 7.23627606617
9.02855 70000066300003035 70000066300003022 70000066300003037 4.17683491473
9.19223 70000066300003064 70000066300003063 70000066300003072 5.22758097313
9.19641 70000066300003063 70000066300003059 70000066300003072 4.42803373661
9.22262 70000066300003059 70000066300003057 70000066300003072 4.00794511147
9.01614 70000066300003096 70000066300003095 70000066300003104 6.14490120342
9.01928 70000066300003095 70000066300003094 70000066300003104 6.01075739884
9.09898 70000066300003094 70000066300003093 70000066300003104 5.84661374788
9.09898 70000066300003093 70000066300003092 70000066300003104 5.52976580795
9.17946 70000066300003092 70000066300003091 70000066300003104 5.22758097313
9.23037 70000066300003091 70000066300003090 70000066300003104 4.99593346816
9.25101 70000066300003090 70000066300003088 70000066300003104 4.66451770247
9.43617 70000066300003088 70000066300003087 70000066300003104 4.42803373661
9.50158 70000066300003087 70000066300003086 70000066300003104 4.17683491473
9.10157 70000066300003166 70000066300003165 70000066300003175 7.59510714987
9.14578 70000066300003165 70000066300003164 70000066300003175 7.23627606617
9.19223 70000066300003164 70000066300003163 70000066300003175 7.00541704554
9.35194 70000066300003163 70000066300003162 70000066300003175 6.85511726265
9.41282 70000066300003162 70000066300003160 70000066300003175 6.14490120342
9.44093 70000066300003160 70000066300003159 70000066300003175 6.01075739884
9.45261 70000066300003159 70000066300003158 70000066300003175 5.84661374788
9.51275 70000066300003158 70000066300003157 70000066300003175 5.52976580795
9.57349 70000066300003157 70000066300003155 70000066300003175 4.99593346816
9.57436 70000066300003155 70000066300003154 70000066300003175 4.93938066349
9.60381 70000066300003154 70000066300003153 70000066300003175 4.66451770247
9.62754 70000066300003153 70000066300003152 70000066300003175 4.42803373661
9.02239 70000066300003282 70000066300003281 70000066300003289 8.01217294887
9.17729 70000066300003281 70000066300003280 70000066300003289 7.59510714987
9.17946 70000066300003280 70000066300003279 70000066300003289 7.23627606617
9.19641 70000066300003279 70000066300003278 70000066300003289 7.00541704554
9.21869 70000066300003278 70000066300003277 70000066300003289 6.85511726265
9.25466 70000066300003277 70000066300003276 70000066300003289 6.49159774567
9.30602 70000066300003276 70000066300003275 70000066300003289 6.14490120342
9.31717 70000066300003275 70000066300003274 70000066300003289 6.01075739884
9.32958 70000066300003274 70000066300003273 70000066300003289 5.84661374788
9.37732 70000066300003273 70000066300003272 70000066300003289 5.52976580795
9.39478 70000066300003272 70000066300003271 70000066300003289 5.22758097313
9.44093 70000066300003271 70000066300003270 70000066300003289 4.99593346816
9.45376 70000066300003270 70000066300003269 70000066300003289 4.93938066349
9.49951 70000066300003269 70000066300003268 70000066300003289 4.66451770247
9.52851 70000066300003268 70000066300003267 70000066300003289 4.42803373661
9.62134 70000066300003267 70000066300003266 70000066300003289 4.17683491473
9.69647 70000066300003266 70000066300003262 70000066300003289 3.49086136926
9.02239 70000066300003347 70000066300003346 70000066300003356 4.17683491473
9.0316 70000066300003346 70000066300003344 70000066300003356 3.93726108473
9.04062 70000066300003344 70000066300003342 70000066300003356 3.49086136926
9.13154 70000066300003493 70000066300003492 70000066300003495 10.3674435724
9.36902 70000066300003492 70000066300003491 70000066300003495 9.99659046619
9.4651 70000066300003491 70000066300003489 70000066300003495 9.38877127194
9.54928 70000066300003489 70000066300003488 70000066300003495 9.00233985416
9.59725 70000066300003488 70000066300003487 70000066300003495 8.9079991856
9.70621 70000066300003487 70000066300003486 70000066300003495 8.44947629437
9.85763 70000066300003486 70000066300003485 70000066300003495 8.01217294887
9.89911 70000066300003485 70000066300003484 70000066300003495 7.59510714987
10.0088 70000066300003484 70000066300003483 70000066300003495 7.23627606617
10.0652 70000066300003483 70000066300003482 70000066300003495 7.00541704554
10.0735 70000066300003482 70000066300003480 70000066300003495 6.49159774567
10.1158 70000066300003480 70000066300003479 70000066300003495 6.14490120342
10.1406 70000066300003479 70000066300003478 70000066300003495 6.01075739884
10.1857 70000066300003478 70000066300003477 70000066300003495 5.84661374788
10.2321 70000066300003477 70000066300003476 70000066300003495 5.52976580795
10.262 70000066300003476 70000066300003475 70000066300003495 5.22758097313
10.2889 70000066300003475 70000066300003474 70000066300003495 4.99593346816
10.306 70000066300003474 70000066300003473 70000066300003495 4.93938066349
10.3451 70000066300003473 70000066300003472 70000066300003495 4.66451770247
10.3697 70000066300003472 70000066300003471 70000066300003495 4.42803373661
10.3958 70000066300003471 70000066300003470 70000066300003495 4.17683491473
10.4281 70000066300003470 70000066300003469 70000066300003495 4.00794511147
10.4429 70000066300003469 70000066300003468 70000066300003495 3.93726108473
10.4618 70000066300003468 70000066300003467 70000066300003495 3.70877426464
10.487 70000066300003467 70000066300003465 70000066300003495 3.28303305796
10.5005 70000066300003465 70000066300003464 70000066300003495 3.08482263583
10.5063 70000066300003464 70000066300003463 70000066300003495 3.00813107163
10.5092 70000066300003463 70000066300003462 70000066300003495 2.89578500573
10.5279 70000066300003462 70000066300003461 70000066300003495 2.73314261732
9.23988 70000066300003557 70000066300003556 70000066300003562 8.44947629437
9.2811 70000066300003556 70000066300003554 70000066300003562 7.59510714987
9.29787 70000066300003554 70000066300003553 70000066300003562 7.23627606617
9.3156 70000066300003553 70000066300003552 70000066300003562 7.00541704554
9.38815 70000066300003552 70000066300003551 70000066300003562 6.85511726265
9.04653 70000066300003649 70000066300003648 70000066300003654 6.14490120342
9.08309 70000066300003648 70000066300003647 70000066300003654 6.01075739884
9.11179 70000066300003647 70000066300003645 70000066300003654 5.52976580795
9.1573 70000066300003645 70000066300003644 70000066300003654 5.22758097313
9.22845 70000066300003644 70000066300003642 70000066300003654 4.93938066349
9.40518 70000066300003642 70000066300003641 70000066300003654 4.66451770247
9.45145 70000066300003641 70000066300003640 70000066300003654 4.42803373661
9.50158 70000066300003640 70000066300003638 70000066300003654 4.00794511147
9.51575 70000066300003638 70000066300003637 70000066300003654 3.93726108473
9.55113 70000066300003637 70000066300003636 70000066300003654 3.70877426464
9.60624 70000066300003636 70000066300003634 70000066300003654 3.28303305796
9.65005 70000066300003634 70000066300003631 70000066300003654 2.89578500573
9.00337 70000066300003673 70000066300003672 70000066300003683 5.22758097313
9.08038 70000066300003710 70000066300003709 70000066300003724 4.00794511147
9.14344 70000066300003709 70000066300003704 70000066300003724 3.08482263583
9.0098 70000066300003831 70000066300003830 70000066300003844 6.14490120342
9.04062 70000066300003830 70000066300003829 70000066300003844 6.01075739884
9.06939 70000066300003829 70000066300003828 70000066300003844 5.84661374788
9.10926 70000066300003828 70000066300003827 70000066300003844 5.52976580795
9.21869 70000066300003827 70000066300003825 70000066300003844 4.99593346816
9.26187 70000066300003825 70000066300003822 70000066300003844 4.42803373661
9.27766 70000066300003822 70000066300003821 70000066300003844 4.17683491473
9.3156 70000066300003821 70000066300003820 70000066300003844 4.00794511147
9.33566 70000066300003820 70000066300003819 70000066300003844 3.93726108473
9.0098 70000066300003877 70000066300003876 70000066300003882 6.14490120342
9.12424 70000066300003876 70000066300003875 70000066300003882 6.01075739884
9.15273 70000066300003875 70000066300003873 70000066300003882 5.52976580795
9.21272 70000066300003873 70000066300003872 70000066300003882 5.22758097313
9.22066 70000066300003872 70000066300003871 70000066300003882 4.99593346816
9.24918 70000066300003871 70000066300003870 70000066300003882 4.93938066349
9.2742 70000066300003870 70000066300003869 70000066300003882 4.66451770247
9.40646 70000066300003869 70000066300003867 70000066300003882 4.17683491473
9.42281 70000066300003867 70000066300003863 70000066300003882 3.49086136926
9.00337 70000066300003917 70000066300003916 70000066300003924 6.49159774567
9.03763 70000066300003916 70000066300003915 70000066300003924 6.14490120342
9.13154 70000066300003915 70000066300003912 70000066300003924 5.52976580795
9.21272 70000066300003912 70000066300003911 70000066300003924 5.22758097313
9.29622 70000066300003911 70000066300003910 70000066300003924 4.99593346816
9.36902 70000066300003910 70000066300003908 70000066300003924 4.66451770247
9.43377 70000066300003908 70000066300003907 70000066300003924 4.42803373661
9.4651 70000066300003907 70000066300003906 70000066300003924 4.17683491473
9.49431 70000066300003906 70000066300003905 70000066300003924 4.00794511147
9.10671 70000066300004021 70000066300004020 70000066300004023 10.3674435724
9.24918 70000066300004020 70000066300004019 70000066300004023 9.99659046619
9.39346 70000066300004019 70000066300004018 70000066300004023 9.84138043947
9.65078 70000066300004018 70000066300004017 70000066300004023 9.38877127194
9.69778 70000066300004017 70000066300004016 70000066300004023 9.00233985416
9.7378 70000066300004016 70000066300004015 70000066300004023 8.9079991856
9.81628 70000066300004015 70000066300004014 70000066300004023 8.44947629437
9.90929 70000066300004014 70000066300004013 70000066300004023 8.01217294887
9.95833 70000066300004013 70000066300004012 70000066300004023 7.59510714987
10.006 70000066300004012 70000066300004011 70000066300004023 7.23627606617
10.0168 70000066300004011 70000066300004009 70000066300004023 6.85511726265
10.0686 70000066300004009 70000066300004008 70000066300004023 6.49159774567
10.0974 70000066300004008 70000066300004007 70000066300004023 6.14490120342
10.1156 70000066300004007 70000066300004005 70000066300004023 5.84661374788
10.1215 70000066300004005 70000066300004004 70000066300004023 5.52976580795
10.2103 70000066300004004 70000066300004003 70000066300004023 5.22758097313
10.2139 70000066300004003 70000066300004002 70000066300004023 4.99593346816
10.2453 70000066300004002 70000066300004001 70000066300004023 4.93938066349
10.3248 70000066300004001 70000066300004000 70000066300004023 4.66451770247
10.3651 70000066300004000 70000066300003999 70000066300004023 4.42803373661
10.395 70000066300003999 70000066300003998 70000066300004023 4.17683491473
10.4396 70000066300003998 70000066300003997 70000066300004023 4.00794511147
10.4579 70000066300003997 70000066300003995 70000066300004023 3.70877426464
10.4643 70000066300003995 70000066300003994 70000066300004023 3.49086136926
10.49 70000066300003994 70000066300003993 70000066300004023 3.28303305796
10.4913 70000066300003993 70000066300003992 70000066300004023 3.08482263583
10.4992 70000066300003992 70000066300003991 70000066300004023 3.00813107163
10.5036 70000066300003991 70000066300003990 70000066300004023 2.89578500573
10.5264 70000066300003990 70000066300003989 70000066300004023 2.73314261732
10.5545 70000066300003989 70000066300003987 70000066300004023 2.44422570455
10.5646 70000066300003987 70000066300003986 70000066300004023 2.31611074396
10.5721 70000066300003986 70000066300003985 70000066300004023 2.20792547238
10.5847 70000066300003985 70000066300003984 70000066300004023 2.1032696526
10.5941 70000066300003984 70000066300003983 70000066300004023 2.00202813925
10.6159 70000066300003983 70000066300003982 70000066300004023 1.90408954353
9.04358 70000066300004094 70000066300004093 70000066300004099 6.01075739884
9.19223 70000066300004093 70000066300004091 70000066300004099 5.52976580795
9.02855 70000066300004164 70000066300004163 70000066300004179 4.66451770247
9.06096 70000066300004163 70000066300004161 70000066300004179 4.17683491473
9.10926 70000066300004161 70000066300004160 70000066300004179 4.00794511147
9.15273 70000066300004160 70000066300004159 70000066300004179 3.93726108473
9.18162 70000066300004159 70000066300004157 70000066300004179 3.49086136926
9.12424 70000066300004251 70000066300004250 70000066300004263 4.17683491473
9.17293 70000066300004250 70000066300004249 70000066300004263 4.00794511147
9.27938 70000066300004249 70000066300004247 70000066300004263 3.70877426464
9.2845 70000066300004247 70000066300004246 70000066300004263 3.49086136926
9.3156 70000066300004246 70000066300004245 70000066300004263 3.28303305796
9.33111 70000066300004245 70000066300004242 70000066300004263 2.89578500573
9.33866 70000066300004242 70000066300004240 70000066300004263 2.5772902716
9.33866 70000066300004240 70000066300004238 70000066300004263 2.31611074396
9.11431 70000066300004395 70000066300004394 70000066300004402 4.66451770247
9.12912 70000066300004394 70000066300004393 70000066300004402 4.42803373661
9.15956 70000066300004393 70000066300004392 70000066300004402 4.17683491473
9.16407 70000066300004392 70000066300004389 70000066300004402 3.70877426464
9.1663 70000066300004389 70000066300004388 70000066300004402 3.49086136926
9.20464 70000066300004388 70000066300004387 70000066300004402 3.28303305796
9.2342 70000066300004387 70000066300004386 70000066300004402 3.08482263583
9.24548 70000066300004386 70000066300004383 70000066300004402 2.73314261732
9.2862 70000066300004383 70000066300004382 70000066300004402 2.5772902716
9.30763 70000066300004382 70000066300004379 70000066300004402 2.20792547238
9.35627 70000066300004379 70000066300004378 70000066300004402 2.1032696526
9.48049 70000066300004378 70000066300004374 70000066300004402 1.74357057433
9.54091 70000066300004374 70000066300004373 70000066300004402 1.66666955611
9.55113 70000066300004373 70000066300004371 70000066300004402 1.53123902916
9.37732 70000066300004600 70000066300004599 70000066300004600 0.399926964614
9.06096 70000066300004850 70000066300004849 70000066300004865 3.93726108473
9.10926 70000066300004849 70000066300004848 70000066300004865 3.70877426464
9.17293 70000066300004848 70000066300004847 70000066300004865 3.49086136926
9.23799 70000066300004847 70000066300004845 70000066300004865 3.08482263583
9.24548 70000066300004845 70000066300004843 70000066300004865 2.89578500573
9.27072 70000066300004843 70000066300004834 70000066300004865 1.82268925262
9.14811 70000066300005624 70000066300005623 70000066300005627 7.59510714987
9.29951 70000066300005623 70000066300005622 70000066300005627 7.23627606617
9.36056 70000066300005622 70000066300005620 70000066300005627 6.85511726265
9.42893 70000066300005620 70000066300005619 70000066300005627 6.49159774567
9.51375 70000066300005619 70000066300005618 70000066300005627 6.14490120342
9.52267 70000066300005618 70000066300005617 70000066300005627 6.01075739884
9.52657 70000066300005617 70000066300005616 70000066300005627 5.84661374788
9.53236 70000066300005616 70000066300005615 70000066300005627 5.52976580795
9.5956 70000066300005615 70000066300005614 70000066300005627 5.22758097313
9.61186 70000066300005614 70000066300005613 70000066300005627 4.99593346816
9.61977 70000066300005613 70000066300005609 70000066300005627 4.17683491473
9.6865 70000066300005609 70000066300005606 70000066300005627 3.70877426464
9.09637 70000066300005825 70000066300005824 70000066300005833 6.01075739884
9.11431 70000066300005824 70000066300005822 70000066300005833 5.52976580795
9.11681 70000066300005822 70000066300005819 70000066300005833 4.93938066349
9.66584 70000066300005819 70000066300005817 70000066300005833 4.42803373661
9.82321 70000066300005817 70000066300005816 70000066300005833 4.17683491473
9.91766 70000066300005816 70000066300005815 70000066300005833 4.00794511147
9.92315 70000066300005815 70000066300005814 70000066300005833 3.93726108473
10.0355 70000066300005814 70000066300005813 70000066300005833 3.70877426464
10.0895 70000066300005813 70000066300005812 70000066300005833 3.49086136926
10.1065 70000066300005812 70000066300005811 70000066300005833 3.28303305796
10.1654 70000066300005811 70000066300005810 70000066300005833 3.08482263583
10.1895 70000066300005810 70000066300005809 70000066300005833 3.00813107163
10.1972 70000066300005809 70000066300005808 70000066300005833 2.89578500573
10.2523 70000066300005808 70000066300005807 70000066300005833 2.73314261732
10.3146 70000066300005807 70000066300005806 70000066300005833 2.5772902716
10.3671 70000066300005806 70000066300005804 70000066300005833 2.31611074396
10.3954 70000066300005804 70000066300005803 70000066300005833 2.20792547238
10.3962 70000066300005803 70000066300005802 70000066300005833 2.1032696526
10.3988 70000066300005802 70000066300005790 70000066300005833 1.24847261425
10.4118 70000066300005790 70000066300005789 70000066300005833 1.20625808078
10.4162 70000066300005789 70000066300005788 70000066300005833 1.15460271236
10.4292 70000066300005788 70000066300005787 70000066300005833 1.11415056377
9.01298 70000066300005844 70000066300005843 70000066300005851 5.84661374788
9.08038 70000066300005843 70000066300005842 70000066300005851 5.52976580795
9.11431 70000066300005842 70000066300005841 70000066300005851 5.22758097313
9.15956 70000066300005841 70000066300005840 70000066300005851 4.99593346816
9.23037 70000066300005840 70000066300005839 70000066300005851 4.93938066349
9.01928 70000066300005873 70000066300005872 70000066300005880 5.84661374788
9.11431 70000066300005872 70000066300005871 70000066300005880 5.52976580795
9.18802 70000066300005871 70000066300005870 70000066300005880 5.22758097313
9.40001 70000066300005870 70000066300005867 70000066300005880 4.66451770247
9.07216 70000066300005899 70000066300005898 70000066300005902 6.14490120342
9.17073 70000066300005898 70000066300005896 70000066300005902 5.84661374788
9.31401 70000066300005896 70000066300005895 70000066300005902 5.52976580795
9.38005 70000066300005895 70000066300005894 70000066300005902 5.22758097313
9.41282 70000066300005894 70000066300005893 70000066300005902 4.99593346816
9.43377 70000066300005893 70000066300005892 70000066300005902 4.93938066349
9.50669 70000066300005892 70000066300005890 70000066300005902 4.42803373661
9.0098 70000066300005972 70000066300005971 70000066300005980 6.49159774567
9.01614 70000066300005971 70000066300005970 70000066300005980 6.14490120342
9.05524 70000066300005970 70000066300005969 70000066300005980 6.01075739884
9.15956 70000066300005969 70000066300005967 70000066300005980 5.52976580795
9.38005 70000066300005967 70000066300005964 70000066300005980 4.93938066349
9.38141 70000066300005964 70000066300005963 70000066300005980 4.66451770247
9.50973 70000066300005963 70000066300005962 70000066300005980 4.42803373661
9.52462 70000066300005962 70000066300005961 70000066300005980 4.17683491473
9.53428 70000066300005961 70000066300005958 70000066300005980 3.70877426464
9.55021 70000066300005958 70000066300005957 70000066300005980 3.49086136926
9.18162 70000066300005987 70000066300005986 70000066300006000 5.22758097313
9.3156 70000066300005986 70000066300005985 70000066300006000 4.99593346816
