logMh | fpID | subhaloID | main leaf ID | z
9.00337 70000085100000104 70000085100000103 70000085100000107 9.99659046619
9.00337 70000085100000103 70000085100000102 70000085100000107 9.84138043947
9.0666 70000085100000102 70000085100000101 70000085100000107 9.38877127194
9.0666 70000085100000101 70000085100000100 70000085100000107 9.00233985416
9.10157 70000085100000100 70000085100000099 70000085100000107 8.9079991856
9.18802 70000085100000099 70000085100000098 70000085100000107 8.44947629437
9.33716 70000085100000098 70000085100000097 70000085100000107 8.01217294887
9.91726 70000085100000097 70000085100000095 70000085100000107 7.23627606617
10.0683 70000085100000095 70000085100000094 70000085100000107 7.00541704554
10.1962 70000085100000094 70000085100000091 70000085100000107 6.14490120342
10.3181 70000085100000091 70000085100000089 70000085100000107 5.84661374788
10.4472 70000085100000089 70000085100000088 70000085100000107 5.52976580795
10.5627 70000085100000088 70000085100000087 70000085100000107 5.22758097313
10.6241 70000085100000087 70000085100000086 70000085100000107 4.99593346816
10.6519 70000085100000086 70000085100000085 70000085100000107 4.93938066349
10.7391 70000085100000085 70000085100000084 70000085100000107 4.66451770247
10.7839 70000085100000084 70000085100000083 70000085100000107 4.42803373661
10.8224 70000085100000083 70000085100000082 70000085100000107 4.17683491473
10.8393 70000085100000082 70000085100000081 70000085100000107 4.00794511147
10.8503 70000085100000081 70000085100000080 70000085100000107 3.93726108473
10.8685 70000085100000080 70000085100000079 70000085100000107 3.70877426464
10.8904 70000085100000079 70000085100000076 70000085100000107 3.08482263583
10.9028 70000085100000076 70000085100000074 70000085100000107 2.89578500573
10.9252 70000085100000074 70000085100000073 70000085100000107 2.73314261732
10.9544 70000085100000073 70000085100000072 70000085100000107 2.5772902716
10.9603 70000085100000072 70000085100000071 70000085100000107 2.44422570455
10.9734 70000085100000071 70000085100000070 70000085100000107 2.31611074396
11.0334 70000085100000070 70000085100000069 70000085100000107 2.20792547238
11.0558 70000085100000069 70000085100000068 70000085100000107 2.1032696526
11.1248 70000085100000068 70000085100000067 70000085100000107 2.00202813925
11.2263 70000085100000067 70000085100000066 70000085100000107 1.90408954353
11.3462 70000085100000066 70000085100000065 70000085100000107 1.82268925262
11.3655 70000085100000065 70000085100000064 70000085100000107 1.74357057433
11.3714 70000085100000064 70000085100000063 70000085100000107 1.66666955611
11.4043 70000085100000063 70000085100000062 70000085100000107 1.60423452207
11.439 70000085100000062 70000085100000061 70000085100000107 1.53123902916
11.4401 70000085100000061 70000085100000060 70000085100000107 1.47197484527
11.4493 70000085100000060 70000085100000059 70000085100000107 1.41409822037
11.4557 70000085100000059 70000085100000058 70000085100000107 1.3575766674
11.4895 70000085100000058 70000085100000056 70000085100000107 1.24847261425
11.4911 70000085100000056 70000085100000054 70000085100000107 1.15460271236
11.5179 70000085100000054 70000085100000053 70000085100000107 1.11415056377
11.5346 70000085100000053 70000085100000052 70000085100000107 1.07445789455
11.5423 70000085100000052 70000085100000051 70000085100000107 1.03551044566
11.5492 70000085100000051 70000085100000049 70000085100000107 0.987852810816
11.5806 70000085100000049 70000085100000048 70000085100000107 0.950531351585
11.6286 70000085100000048 70000085100000047 70000085100000107 0.923000816178
11.6454 70000085100000047 70000085100000046 70000085100000107 0.886896937575
11.6535 70000085100000046 70000085100000045 70000085100000107 0.851470900625
11.6624 70000085100000045 70000085100000044 70000085100000107 0.816709979012
11.6931 70000085100000044 70000085100000043 70000085100000107 0.791068248946
11.7187 70000085100000043 70000085100000042 70000085100000107 0.757441372616
11.7231 70000085100000042 70000085100000041 70000085100000107 0.732636182022
11.728 70000085100000041 70000085100000040 70000085100000107 0.700106353719
11.7395 70000085100000040 70000085100000039 70000085100000107 0.676110411213
11.7502 70000085100000039 70000085100000038 70000085100000107 0.644641840685
11.764 70000085100000038 70000085100000037 70000085100000107 0.621428745243
11.7721 70000085100000037 70000085100000036 70000085100000107 0.598543288188
11.7768 70000085100000036 70000085100000035 70000085100000107 0.575980845108
11.778 70000085100000035 70000085100000024 70000085100000107 0.347853841858
11.7805 70000085100000024 70000085100000023 70000085100000107 0.328829724206
11.7852 70000085100000023 70000085100000022 70000085100000107 0.310074120128
11.7856 70000085100000022 70000085100000021 70000085100000107 0.291583239722
11.7914 70000085100000021 70000085100000020 70000085100000107 0.273353346578
11.7975 70000085100000020 70000085100000019 70000085100000107 0.261343256161
11.8038 70000085100000019 70000085100000018 70000085100000107 0.243540181555
11.8084 70000085100000018 70000085100000017 70000085100000107 0.22598838626
11.8117 70000085100000017 70000085100000016 70000085100000107 0.214425035514
11.8163 70000085100000016 70000085100000015 70000085100000107 0.197284182376
11.8178 70000085100000015 70000085100000014 70000085100000107 0.180385261706
11.8222 70000085100000014 70000085100000013 70000085100000107 0.169252033244
11.8294 70000085100000013 70000085100000012 70000085100000107 0.152748768902
11.8344 70000085100000012 70000085100000011 70000085100000107 0.14187620397
11.8502 70000085100000011 70000085100000010 70000085100000107 0.125759332411
11.8549 70000085100000010 70000085100000009 70000085100000107 0.109869940459
11.8608 70000085100000009 70000085100000008 70000085100000107 0.0994018026302
11.8664 70000085100000008 70000085100000007 70000085100000107 0.0838844307975
11.8712 70000085100000007 70000085100000006 70000085100000107 0.0736613846564
11.873 70000085100000006 70000085100000005 70000085100000107 0.0585073227945
11.8772 70000085100000005 70000085100000004 70000085100000107 0.0485236299818
11.8848 70000085100000004 70000085100000003 70000085100000107 0.0337243718735
11.8871 70000085100000003 70000085100000002 70000085100000107 0.0239744283828
11.8948 70000085100000002 70000085100000001 70000085100000107 0.00952166696794
11.8959 70000085100000001 70000085100000000 70000085100000107 2.22044604925e-16
9.1573 70000085100000160 70000085100000159 70000085100000161 10.3674435724
9.22457 70000085100000159 70000085100000158 70000085100000161 9.99659046619
9.29457 70000085100000158 70000085100000157 70000085100000161 9.84138043947
9.32342 70000085100000157 70000085100000156 70000085100000161 9.38877127194
9.33866 70000085100000156 70000085100000155 70000085100000161 9.00233985416
9.34902 70000085100000155 70000085100000154 70000085100000161 8.9079991856
9.60624 70000085100000154 70000085100000153 70000085100000161 8.44947629437
9.65658 70000085100000153 70000085100000152 70000085100000161 8.01217294887
9.78368 70000085100000152 70000085100000151 70000085100000161 7.59510714987
10.1977 70000085100000151 70000085100000148 70000085100000161 6.85511726265
10.2348 70000085100000148 70000085100000145 70000085100000161 6.01075739884
9.13154 70000085100000193 70000085100000192 70000085100000196 9.99659046619
9.13871 70000085100000192 70000085100000191 70000085100000196 9.84138043947
9.15956 70000085100000191 70000085100000190 70000085100000196 9.38877127194
9.2811 70000085100000190 70000085100000189 70000085100000196 9.00233985416
9.35627 70000085100000189 70000085100000187 70000085100000196 8.44947629437
9.43856 70000085100000187 70000085100000185 70000085100000196 7.59510714987
9.57523 70000085100000185 70000085100000184 70000085100000196 7.23627606617
9.65945 70000085100000184 70000085100000181 70000085100000196 6.49159774567
9.04062 70000085100000233 70000085100000232 70000085100000239 8.44947629437
9.2087 70000085100000232 70000085100000231 70000085100000239 8.01217294887
9.34016 70000085100000231 70000085100000229 70000085100000239 7.23627606617
9.43136 70000085100000229 70000085100000228 70000085100000239 7.00541704554
9.77224 70000085100000228 70000085100000224 70000085100000239 6.01075739884
9.87014 70000085100000224 70000085100000223 70000085100000239 5.52976580795
9.86169 70000085100000248 70000085100000247 70000085100000260 5.84661374788
9.86527 70000085100000268 70000085100000267 70000085100000281 6.49159774567
9.88016 70000085100000267 70000085100000266 70000085100000281 6.14490120342
9.01928 70000085100000285 70000085100000284 70000085100000290 7.23627606617
9.22066 70000085100000284 70000085100000282 70000085100000290 6.85511726265
9.08845 70000085100000326 70000085100000325 70000085100000337 6.49159774567
9.12424 70000085100000325 70000085100000324 70000085100000337 6.14490120342
9.09898 70000085100000460 70000085100000459 70000085100000472 7.00541704554
9.01298 70000085100000661 70000085100000660 70000085100000666 6.14490120342
9.01298 70000085100000660 70000085100000659 70000085100000666 6.01075739884
9.14811 70000085100000659 70000085100000658 70000085100000666 5.84661374788
9.2361 70000085100000658 70000085100000657 70000085100000666 5.52976580795
9.25284 70000085100000657 70000085100000656 70000085100000666 5.22758097313
9.29787 70000085100000656 70000085100000655 70000085100000666 4.99593346816
9.37869 70000085100000655 70000085100000653 70000085100000666 4.66451770247
9.44329 70000085100000653 70000085100000652 70000085100000666 4.42803373661
9.45376 70000085100000652 70000085100000651 70000085100000666 4.17683491473
9.02855 70000085100000786 70000085100000785 70000085100000800 6.85511726265
9.22066 70000085100000785 70000085100000784 70000085100000800 6.49159774567
9.29622 70000085100000784 70000085100000780 70000085100000800 5.52976580795
9.34313 70000085100000780 70000085100000779 70000085100000800 5.22758097313
9.38681 70000085100000779 70000085100000778 70000085100000800 4.99593346816
9.39478 70000085100000778 70000085100000776 70000085100000800 4.66451770247
9.44211 70000085100000776 70000085100000775 70000085100000800 4.42803373661
9.5566 70000085100000775 70000085100000774 70000085100000800 4.17683491473
9.58553 70000085100000774 70000085100000773 70000085100000800 4.00794511147
9.58807 70000085100000773 70000085100000772 70000085100000800 3.93726108473
9.61026 70000085100000772 70000085100000770 70000085100000800 3.49086136926
9.61977 70000085100000770 70000085100000769 70000085100000800 3.28303305796
9.0066 70000085100000925 70000085100000924 70000085100000931 9.00233985416
9.0098 70000085100000924 70000085100000923 70000085100000931 8.9079991856
9.08845 70000085100000923 70000085100000922 70000085100000931 8.44947629437
9.14108 70000085100000922 70000085100000921 70000085100000931 8.01217294887
9.47941 70000085100000921 70000085100000920 70000085100000931 7.59510714987
9.51675 70000085100000920 70000085100000919 70000085100000931 7.23627606617
9.55478 70000085100000919 70000085100000918 70000085100000931 7.00541704554
9.57869 70000085100000918 70000085100000917 70000085100000931 6.85511726265
9.74314 70000085100000917 70000085100000916 70000085100000931 6.49159774567
9.82614 70000085100000916 70000085100000915 70000085100000931 6.14490120342
9.87321 70000085100000915 70000085100000914 70000085100000931 6.01075739884
9.93545 70000085100000914 70000085100000913 70000085100000931 5.84661374788
10.0066 70000085100000913 70000085100000912 70000085100000931 5.52976580795
10.0394 70000085100000912 70000085100000911 70000085100000931 5.22758097313
10.143 70000085100000911 70000085100000910 70000085100000931 4.99593346816
10.1698 70000085100000910 70000085100000909 70000085100000931 4.93938066349
10.2447 70000085100000909 70000085100000908 70000085100000931 4.66451770247
10.3393 70000085100000908 70000085100000907 70000085100000931 4.42803373661
10.4431 70000085100000907 70000085100000905 70000085100000931 4.00794511147
10.4534 70000085100000905 70000085100000904 70000085100000931 3.93726108473
10.5079 70000085100000904 70000085100000903 70000085100000931 3.70877426464
10.5291 70000085100000903 70000085100000902 70000085100000931 3.49086136926
10.555 70000085100000902 70000085100000901 70000085100000931 3.28303305796
10.5882 70000085100000901 70000085100000900 70000085100000931 3.08482263583
10.6187 70000085100000900 70000085100000899 70000085100000931 3.00813107163
10.6669 70000085100000899 70000085100000898 70000085100000931 2.89578500573
10.7204 70000085100000898 70000085100000897 70000085100000931 2.73314261732
10.8449 70000085100000897 70000085100000896 70000085100000931 2.5772902716
10.8514 70000085100000896 70000085100000895 70000085100000931 2.44422570455
10.8946 70000085100000895 70000085100000894 70000085100000931 2.31611074396
9.0316 70000085100000954 70000085100000953 70000085100000960 6.14490120342
9.05524 70000085100000974 70000085100000973 70000085100000978 6.01075739884
9.08038 70000085100000973 70000085100000972 70000085100000978 5.84661374788
9.16852 70000085100000972 70000085100000970 70000085100000978 5.22758097313
10.3834 70000085100000970 70000085100000966 70000085100000978 4.17683491473
9.11431 70000085100001074 70000085100001073 70000085100001081 8.9079991856
9.14811 70000085100001073 70000085100001071 70000085100001081 8.01217294887
9.17512 70000085100001071 70000085100001070 70000085100001081 7.59510714987
9.27594 70000085100001070 70000085100001069 70000085100001081 7.23627606617
9.29951 70000085100001069 70000085100001068 70000085100001081 7.00541704554
9.40001 70000085100001068 70000085100001067 70000085100001081 6.85511726265
9.42033 70000085100001067 70000085100001066 70000085100001081 6.49159774567
9.43497 70000085100001066 70000085100001065 70000085100001081 6.14490120342
9.47724 70000085100001065 70000085100001064 70000085100001081 6.01075739884
9.50567 70000085100001064 70000085100001062 70000085100001081 5.52976580795
9.57262 70000085100001062 70000085100001061 70000085100001081 5.22758097313
9.5989 70000085100001061 70000085100001060 70000085100001081 4.99593346816
9.60054 70000085100001060 70000085100001059 70000085100001081 4.93938066349
9.12912 70000085100001230 70000085100001229 70000085100001236 8.44947629437
9.1663 70000085100001229 70000085100001228 70000085100001236 8.01217294887
9.3156 70000085100001228 70000085100001227 70000085100001236 7.59510714987
9.42771 70000085100001227 70000085100001226 70000085100001236 7.23627606617
9.43377 70000085100001226 70000085100001225 70000085100001236 7.00541704554
9.44681 70000085100001225 70000085100001224 70000085100001236 6.85511726265
9.50055 70000085100001224 70000085100001223 70000085100001236 6.49159774567
9.58723 70000085100001223 70000085100001222 70000085100001236 6.14490120342
9.63442 70000085100001222 70000085100001221 70000085100001236 6.01075739884
9.6623 70000085100001221 70000085100001220 70000085100001236 5.84661374788
9.70813 70000085100001220 70000085100001219 70000085100001236 5.52976580795
9.74373 70000085100001219 70000085100001218 70000085100001236 5.22758097313
9.79639 70000085100001218 70000085100001217 70000085100001236 4.99593346816
9.80772 70000085100001217 70000085100001216 70000085100001236 4.93938066349
9.83721 70000085100001216 70000085100001215 70000085100001236 4.66451770247
9.88486 70000085100001215 70000085100001214 70000085100001236 4.42803373661
9.92934 70000085100001214 70000085100001213 70000085100001236 4.17683491473
9.96828 70000085100001213 70000085100001212 70000085100001236 4.00794511147
9.9932 70000085100001212 70000085100001211 70000085100001236 3.93726108473
10.0462 70000085100001211 70000085100001210 70000085100001236 3.70877426464
10.1052 70000085100001210 70000085100001209 70000085100001236 3.49086136926
10.1075 70000085100001209 70000085100001208 70000085100001236 3.28303305796
9.01928 70000085100001379 70000085100001378 70000085100001389 4.66451770247
9.02548 70000085100001378 70000085100001377 70000085100001389 4.42803373661
9.13634 70000085100001377 70000085100001373 70000085100001389 3.70877426464
9.32031 70000085100001373 70000085100001372 70000085100001389 3.49086136926
9.34902 70000085100001372 70000085100001371 70000085100001389 3.28303305796
9.01614 70000085100001481 70000085100001480 70000085100001489 5.52976580795
9.04062 70000085100001480 70000085100001479 70000085100001489 5.22758097313
9.04945 70000085100001479 70000085100001478 70000085100001489 4.99593346816
9.12668 70000085100001478 70000085100001477 70000085100001489 4.93938066349
9.13871 70000085100001477 70000085100001476 70000085100001489 4.66451770247
9.18376 70000085100001476 70000085100001475 70000085100001489 4.42803373661
9.27938 70000085100001475 70000085100001474 70000085100001489 4.17683491473
9.2929 70000085100001474 70000085100001472 70000085100001489 3.93726108473
9.32187 70000085100001472 70000085100001471 70000085100001489 3.70877426464
9.34313 70000085100001471 70000085100001470 70000085100001489 3.49086136926
9.37732 70000085100001470 70000085100001469 70000085100001489 3.28303305796
9.3974 70000085100001469 70000085100001468 70000085100001489 3.08482263583
9.41659 70000085100001468 70000085100001467 70000085100001489 3.00813107163
9.43856 70000085100001467 70000085100001466 70000085100001489 2.89578500573
9.47724 70000085100001466 70000085100001465 70000085100001489 2.73314261732
9.03763 70000085100001578 70000085100001577 70000085100001592 2.1032696526
9.19641 70000085100001577 70000085100001574 70000085100001592 1.82268925262
9.23037 70000085100001574 70000085100001569 70000085100001592 1.47197484527
9.04358 70000085100001801 70000085100001800 70000085100001807 9.38877127194
9.11681 70000085100001800 70000085100001799 70000085100001807 9.00233985416
9.13154 70000085100001799 70000085100001798 70000085100001807 8.9079991856
9.14811 70000085100001798 70000085100001797 70000085100001807 8.44947629437
9.21072 70000085100001797 70000085100001796 70000085100001807 8.01217294887
9.29787 70000085100001796 70000085100001795 70000085100001807 7.59510714987
9.32497 70000085100001795 70000085100001794 70000085100001807 7.23627606617
9.38681 70000085100001794 70000085100001793 70000085100001807 7.00541704554
9.41534 70000085100001793 70000085100001792 70000085100001807 6.85511726265
9.47505 70000085100001792 70000085100001791 70000085100001807 6.49159774567
9.54185 70000085100001791 70000085100001790 70000085100001807 6.14490120342
9.60054 70000085100001790 70000085100001788 70000085100001807 5.84661374788
9.68108 70000085100001788 70000085100001787 70000085100001807 5.52976580795
9.72384 70000085100001787 70000085100001786 70000085100001807 5.22758097313
9.77718 70000085100001786 70000085100001785 70000085100001807 4.99593346816
9.78475 70000085100001785 70000085100001784 70000085100001807 4.93938066349
9.82321 70000085100001784 70000085100001783 70000085100001807 4.66451770247
9.88273 70000085100001783 70000085100001781 70000085100001807 4.17683491473
9.90969 70000085100001781 70000085100001780 70000085100001807 4.00794511147
9.91884 70000085100001780 70000085100001779 70000085100001807 3.93726108473
9.96155 70000085100001779 70000085100001778 70000085100001807 3.70877426464
9.98415 70000085100001778 70000085100001777 70000085100001807 3.49086136926
9.99387 70000085100001777 70000085100001776 70000085100001807 3.28303305796
10.0304 70000085100001776 70000085100001775 70000085100001807 3.08482263583
10.061 70000085100001775 70000085100001773 70000085100001807 2.89578500573
10.0612 70000085100001773 70000085100001767 70000085100001807 2.1032696526
9.15502 70000085100001939 70000085100001938 70000085100001949 5.84661374788
9.38277 70000085100001938 70000085100001937 70000085100001949 5.52976580795
9.42404 70000085100001937 70000085100001935 70000085100001949 4.99593346816
9.50465 70000085100001935 70000085100001934 70000085100001949 4.93938066349
9.5931 70000085100001934 70000085100001933 70000085100001949 4.66451770247
9.67353 70000085100001933 70000085100001931 70000085100001949 4.17683491473
9.79219 70000085100001931 70000085100001930 70000085100001949 4.00794511147
9.89787 70000085100001930 70000085100001928 70000085100001949 3.70877426464
9.93241 70000085100001928 70000085100001927 70000085100001949 3.49086136926
10.0111 70000085100001927 70000085100001926 70000085100001949 3.28303305796
10.0866 70000085100001926 70000085100001925 70000085100001949 3.08482263583
10.1021 70000085100001925 70000085100001924 70000085100001949 3.00813107163
10.1427 70000085100001924 70000085100001923 70000085100001949 2.89578500573
10.2331 70000085100001923 70000085100001922 70000085100001949 2.73314261732
10.2828 70000085100001922 70000085100001920 70000085100001949 2.44422570455
10.3151 70000085100001920 70000085100001918 70000085100001949 2.20792547238
10.3446 70000085100001918 70000085100001917 70000085100001949 2.1032696526
10.378 70000085100001917 70000085100001916 70000085100001949 2.00202813925
10.4244 70000085100001916 70000085100001915 70000085100001949 1.90408954353
10.4555 70000085100001915 70000085100001914 70000085100001949 1.82268925262
10.4645 70000085100001914 70000085100001913 70000085100001949 1.74357057433
10.5081 70000085100001913 70000085100001912 70000085100001949 1.66666955611
10.5175 70000085100001912 70000085100001911 70000085100001949 1.60423452207
10.5736 70000085100001911 70000085100001910 70000085100001949 1.53123902916
9.07492 70000085100001967 70000085100001966 70000085100001972 6.14490120342
9.08038 70000085100001966 70000085100001965 70000085100001972 6.01075739884
9.02548 70000085100002056 70000085100002055 70000085100002069 4.17683491473
9.07766 70000085100002055 70000085100002052 70000085100002069 3.70877426464
9.0066 70000085100002101 70000085100002100 70000085100002107 6.85511726265
9.0066 70000085100002100 70000085100002087 70000085100002107 3.93726108473
9.04945 70000085100002087 70000085100002085 70000085100002107 3.49086136926
9.05235 70000085100002085 70000085100002084 70000085100002107 3.28303305796
9.08309 70000085100002084 70000085100002083 70000085100002107 3.08482263583
9.0066 70000085100002127 70000085100002126 70000085100002138 4.17683491473
9.00012 70000085100002163 70000085100002162 70000085100002173 4.17683491473
9.0066 70000085100002162 70000085100002161 70000085100002173 4.00794511147
9.12668 70000085100002161 70000085100002159 70000085100002173 3.70877426464
9.15502 70000085100002159 70000085100002158 70000085100002173 3.49086136926
9.20464 70000085100002158 70000085100002157 70000085100002173 3.28303305796
9.23988 70000085100002157 70000085100002156 70000085100002173 3.08482263583
9.04062 70000085100002211 70000085100002210 70000085100002216 7.00541704554
9.10157 70000085100002210 70000085100002209 70000085100002216 6.85511726265
9.3044 70000085100002209 70000085100002208 70000085100002216 6.49159774567
9.41784 70000085100002208 70000085100002207 70000085100002216 6.14490120342
9.48905 70000085100002207 70000085100002206 70000085100002216 6.01075739884
9.60054 70000085100002206 70000085100002204 70000085100002216 5.52976580795
9.62677 70000085100002204 70000085100002202 70000085100002216 4.99593346816
9.65658 70000085100002202 70000085100002201 70000085100002216 4.93938066349
9.65802 70000085100002201 70000085100002199 70000085100002216 4.42803373661
9.69051 70000085100002199 70000085100002192 70000085100002216 3.08482263583
9.72507 70000085100002192 70000085100002189 70000085100002216 2.73314261732
9.75479 70000085100002189 70000085100002188 70000085100002216 2.5772902716
9.78368 70000085100002188 70000085100002187 70000085100002216 2.44422570455
9.62368 70000085100002233 70000085100002232 70000085100002241 5.22758097313
9.0098 70000085100002378 70000085100002377 70000085100002407 0.923000816178
9.16182 70000085100002377 70000085100002375 70000085100002407 0.851470900625
9.03763 70000085100002746 70000085100002745 70000085100002754 8.44947629437
9.17729 70000085100002745 70000085100002744 70000085100002754 8.01217294887
9.25101 70000085100002744 70000085100002743 70000085100002754 7.59510714987
9.32958 70000085100002743 70000085100002742 70000085100002754 7.23627606617
9.35627 70000085100002742 70000085100002741 70000085100002754 7.00541704554
9.40902 70000085100002741 70000085100002740 70000085100002754 6.85511726265
9.54372 70000085100002740 70000085100002739 70000085100002754 6.49159774567
9.58553 70000085100002739 70000085100002738 70000085100002754 6.14490120342
9.60946 70000085100002738 70000085100002736 70000085100002754 5.84661374788
9.70234 70000085100002736 70000085100002735 70000085100002754 5.52976580795
9.88741 70000085100002735 70000085100002734 70000085100002754 5.22758097313
10.085 70000085100002734 70000085100002733 70000085100002754 4.99593346816
10.0914 70000085100002733 70000085100002732 70000085100002754 4.93938066349
10.1751 70000085100002732 70000085100002731 70000085100002754 4.66451770247
10.2864 70000085100002731 70000085100002730 70000085100002754 4.42803373661
10.406 70000085100002730 70000085100002729 70000085100002754 4.17683491473
10.4282 70000085100002729 70000085100002728 70000085100002754 4.00794511147
10.4298 70000085100002728 70000085100002727 70000085100002754 3.93726108473
10.4662 70000085100002727 70000085100002726 70000085100002754 3.70877426464
10.541 70000085100002726 70000085100002725 70000085100002754 3.49086136926
10.5497 70000085100002725 70000085100002724 70000085100002754 3.28303305796
10.5715 70000085100002724 70000085100002723 70000085100002754 3.08482263583
10.6019 70000085100002723 70000085100002722 70000085100002754 3.00813107163
10.6152 70000085100002722 70000085100002721 70000085100002754 2.89578500573
10.6272 70000085100002721 70000085100002720 70000085100002754 2.73314261732
10.6392 70000085100002720 70000085100002719 70000085100002754 2.5772902716
10.6653 70000085100002719 70000085100002717 70000085100002754 2.31611074396
10.6715 70000085100002717 70000085100002716 70000085100002754 2.20792547238
10.679 70000085100002716 70000085100002715 70000085100002754 2.1032696526
10.7103 70000085100002715 70000085100002714 70000085100002754 2.00202813925
10.7244 70000085100002714 70000085100002713 70000085100002754 1.90408954353
10.7328 70000085100002713 70000085100002712 70000085100002754 1.82268925262
10.7462 70000085100002712 70000085100002711 70000085100002754 1.74357057433
10.7706 70000085100002711 70000085100002710 70000085100002754 1.66666955611
10.7925 70000085100002710 70000085100002709 70000085100002754 1.60423452207
10.8286 70000085100002709 70000085100002708 70000085100002754 1.53123902916
10.8301 70000085100002708 70000085100002707 70000085100002754 1.47197484527
10.8484 70000085100002707 70000085100002706 70000085100002754 1.41409822037
10.8606 70000085100002706 70000085100002705 70000085100002754 1.3575766674
10.8691 70000085100002705 70000085100002704 70000085100002754 1.30237845991
10.8843 70000085100002704 70000085100002701 70000085100002754 1.15460271236
10.8845 70000085100002701 70000085100002698 70000085100002754 1.03551044566
10.9437 70000085100002698 70000085100002697 70000085100002754 0.997294225782
9.02855 70000085100002774 70000085100002773 70000085100002779 8.01217294887
9.12912 70000085100002773 70000085100002772 70000085100002779 7.59510714987
9.20464 70000085100002772 70000085100002771 70000085100002779 7.23627606617
9.20668 70000085100002771 70000085100002770 70000085100002779 7.00541704554
9.24918 70000085100002770 70000085100002769 70000085100002779 6.85511726265
9.3634 70000085100002769 70000085100002768 70000085100002779 6.49159774567
9.03463 70000085100002814 70000085100002813 70000085100002820 6.49159774567
9.07766 70000085100002813 70000085100002812 70000085100002820 6.14490120342
9.09637 70000085100002812 70000085100002809 70000085100002820 5.52976580795
9.05811 70000085100002844 70000085100002843 70000085100002853 5.22758097313
9.08309 70000085100002843 70000085100002842 70000085100002853 4.99593346816
9.16852 70000085100002842 70000085100002841 70000085100002853 4.93938066349
9.01298 70000085100002900 70000085100002899 70000085100002906 7.00541704554
9.02855 70000085100002899 70000085100002898 70000085100002906 6.85511726265
9.13394 70000085100002898 70000085100002897 70000085100002906 6.49159774567
9.15956 70000085100002897 70000085100002896 70000085100002906 6.14490120342
9.20464 70000085100002896 70000085100002895 70000085100002906 6.01075739884
9.30602 70000085100002895 70000085100002894 70000085100002906 5.84661374788
9.35483 70000085100002894 70000085100002893 70000085100002906 5.52976580795
9.08309 70000085100002922 70000085100002921 70000085100002934 3.70877426464
9.0066 70000085100002984 70000085100002983 70000085100002986 7.23627606617
9.05811 70000085100002983 70000085100002982 70000085100002986 7.00541704554
9.12912 70000085100002982 70000085100002981 70000085100002986 6.85511726265
9.17946 70000085100002981 70000085100002979 70000085100002986 6.14490120342
9.21272 70000085100002979 70000085100002977 70000085100002986 5.84661374788
9.26543 70000085100002977 70000085100002970 70000085100002986 4.17683491473
9.34609 70000085100002970 70000085100002969 70000085100002986 4.00794511147
9.35483 70000085100002969 70000085100002967 70000085100002986 3.70877426464
9.3974 70000085100002967 70000085100002966 70000085100002986 3.49086136926
9.0098 70000085100002998 70000085100002997 70000085100003010 5.52976580795
9.00337 70000085100003041 70000085100003040 70000085100003047 6.85511726265
9.02548 70000085100003040 70000085100003039 70000085100003047 6.49159774567
9.06096 70000085100003039 70000085100003038 70000085100003047 6.14490120342
9.08038 70000085100003038 70000085100003037 70000085100003047 6.01075739884
9.13154 70000085100003037 70000085100003036 70000085100003047 5.84661374788
9.1573 70000085100003036 70000085100003035 70000085100003047 5.52976580795
9.23037 70000085100003035 70000085100003034 70000085100003047 5.22758097313
9.23037 70000085100003034 70000085100003033 70000085100003047 4.99593346816
9.25284 70000085100003033 70000085100003032 70000085100003047 4.93938066349
9.27072 70000085100003032 70000085100003031 70000085100003047 4.66451770247
9.01298 70000085100003228 70000085100003227 70000085100003232 7.23627606617
9.04945 70000085100003227 70000085100003226 70000085100003232 7.00541704554
9.05235 70000085100003226 70000085100003225 70000085100003232 6.85511726265
9.13154 70000085100003225 70000085100003224 70000085100003232 6.49159774567
9.20464 70000085100003224 70000085100003222 70000085100003232 6.01075739884
9.26365 70000085100003222 70000085100003221 70000085100003232 5.84661374788
9.32342 70000085100003221 70000085100003220 70000085100003232 5.52976580795
9.44211 70000085100003220 70000085100003219 70000085100003232 5.22758097313
9.44797 70000085100003219 70000085100003218 70000085100003232 4.99593346816
9.45605 70000085100003218 70000085100003217 70000085100003232 4.93938066349
9.50872 70000085100003217 70000085100003216 70000085100003232 4.66451770247
9.51774 70000085100003216 70000085100003215 70000085100003232 4.42803373661
9.59807 70000085100003215 70000085100003214 70000085100003232 4.17683491473
9.68515 70000085100003214 70000085100003213 70000085100003232 4.00794511147
9.79272 70000085100003213 70000085100003212 70000085100003232 3.93726108473
9.91923 70000085100003212 70000085100003211 70000085100003232 3.70877426464
10.0439 70000085100003211 70000085100003210 70000085100003232 3.49086136926
10.0793 70000085100003210 70000085100003209 70000085100003232 3.28303305796
10.12 70000085100003209 70000085100003208 70000085100003232 3.08482263583
10.1264 70000085100003208 70000085100003198 70000085100003232 1.90408954353
10.1504 70000085100003198 70000085100003197 70000085100003232 1.82268925262
9.0098 70000085100003287 70000085100003286 70000085100003290 6.14490120342
9.05811 70000085100003286 70000085100003285 70000085100003290 6.01075739884
9.08038 70000085100003285 70000085100003283 70000085100003290 5.52976580795
9.16407 70000085100003283 70000085100003282 70000085100003290 5.22758097313
9.25466 70000085100003282 70000085100003279 70000085100003290 4.66451770247
9.36763 70000085100003279 70000085100003278 70000085100003290 4.42803373661
9.02239 70000085100003309 70000085100003308 70000085100003313 6.49159774567
9.0316 70000085100003308 70000085100003306 70000085100003313 6.01075739884
9.08845 70000085100003306 70000085100003304 70000085100003313 5.52976580795
9.27938 70000085100003304 70000085100003303 70000085100003313 5.22758097313
9.30602 70000085100003303 70000085100003298 70000085100003313 4.17683491473
9.01614 70000085100003620 70000085100003619 70000085100003629 4.99593346816
9.02239 70000085100003619 70000085100003618 70000085100003629 4.93938066349
9.06096 70000085100003618 70000085100003617 70000085100003629 4.66451770247
9.09637 70000085100003617 70000085100003616 70000085100003629 4.42803373661
9.14108 70000085100003616 70000085100003615 70000085100003629 4.17683491473
9.21869 70000085100003615 70000085100003614 70000085100003629 4.00794511147
9.33263 70000085100003614 70000085100003612 70000085100003629 3.70877426464
9.39478 70000085100003612 70000085100003611 70000085100003629 3.49086136926
9.40518 70000085100003611 70000085100003610 70000085100003629 3.28303305796
9.4549 70000085100003610 70000085100003609 70000085100003629 3.08482263583
9.4606 70000085100003609 70000085100003608 70000085100003629 3.00813107163
9.49536 70000085100003608 70000085100003607 70000085100003629 2.89578500573
9.5314 70000085100003607 70000085100003606 70000085100003629 2.73314261732
9.54928 70000085100003606 70000085100003605 70000085100003629 2.5772902716
9.04945 70000085100003711 70000085100003710 70000085100003718 3.49086136926
9.18802 70000085100003710 70000085100003709 70000085100003718 3.28303305796
9.22845 70000085100003709 70000085100003706 70000085100003718 2.89578500573
9.29951 70000085100003706 70000085100003705 70000085100003718 2.73314261732
9.32805 70000085100003705 70000085100003704 70000085100003718 2.5772902716
9.40001 70000085100003704 70000085100003703 70000085100003718 2.44422570455
9.08309 70000085100003870 70000085100003869 70000085100003885 4.99593346816
9.12668 70000085100003869 70000085100003868 70000085100003885 4.93938066349
9.35338 70000085100003868 70000085100003867 70000085100003885 4.66451770247
9.35771 70000085100003867 70000085100003862 70000085100003885 3.70877426464
9.40001 70000085100003862 70000085100003861 70000085100003885 3.49086136926
9.41156 70000085100003861 70000085100003859 70000085100003885 3.08482263583
9.43497 70000085100003859 70000085100003856 70000085100003885 2.73314261732
9.50771 70000085100003856 70000085100003855 70000085100003885 2.5772902716
9.53236 70000085100003855 70000085100003853 70000085100003885 2.31611074396
9.53428 70000085100003853 70000085100003852 70000085100003885 2.20792547238
9.53618 70000085100003852 70000085100003850 70000085100003885 2.00202813925
9.54558 70000085100003850 70000085100003846 70000085100003885 1.66666955611
9.0316 70000085100003965 70000085100003964 70000085100003976 2.44422570455
9.07766 70000085100003964 70000085100003963 70000085100003976 2.31611074396
9.07766 70000085100003963 70000085100003962 70000085100003976 2.20792547238
9.09898 70000085100003962 70000085100003960 70000085100003976 2.00202813925
9.10671 70000085100003960 70000085100003957 70000085100003976 1.74357057433
9.10671 70000085100003957 70000085100003955 70000085100003976 1.60423452207
9.10671 70000085100003955 70000085100003954 70000085100003976 1.53123902916
9.0098 70000085100004065 70000085100004064 70000085100004077 6.01075739884
9.0316 70000085100004064 70000085100004063 70000085100004077 5.84661374788
9.06939 70000085100004063 70000085100004062 70000085100004077 5.52976580795
9.06939 70000085100004062 70000085100004061 70000085100004077 5.22758097313
9.17729 70000085100004061 70000085100004058 70000085100004077 4.66451770247
9.21869 70000085100004058 70000085100004055 70000085100004077 4.00794511147
9.23799 70000085100004055 70000085100004054 70000085100004077 3.93726108473
9.37042 70000085100004054 70000085100004053 70000085100004077 3.70877426464
9.4026 70000085100004053 70000085100004052 70000085100004077 3.49086136926
9.44447 70000085100004052 70000085100004050 70000085100004077 3.08482263583
9.46397 70000085100004050 70000085100004048 70000085100004077 2.89578500573
9.47615 70000085100004048 70000085100004040 70000085100004077 1.90408954353
9.49221 70000085100004040 70000085100004038 70000085100004077 1.74357057433
9.50973 70000085100004038 70000085100004037 70000085100004077 1.66666955611
9.06378 70000085100004204 70000085100004203 70000085100004256 0.310074120128
