logMh | fpID | subhaloID | main leaf ID | z
9.04358 80000069000000100 80000069000000099 80000069000000106 8.9079991856
9.17073 80000069000000099 80000069000000098 80000069000000106 8.44947629437
9.19641 80000069000000098 80000069000000097 80000069000000106 8.01217294887
9.24918 80000069000000097 80000069000000096 80000069000000106 7.59510714987
9.32805 80000069000000096 80000069000000095 80000069000000106 7.23627606617
9.35771 80000069000000095 80000069000000094 80000069000000106 7.00541704554
9.53523 80000069000000094 80000069000000093 80000069000000106 6.85511726265
9.61266 80000069000000093 80000069000000092 80000069000000106 6.49159774567
9.74196 80000069000000092 80000069000000091 80000069000000106 6.14490120342
9.76106 80000069000000091 80000069000000090 80000069000000106 6.01075739884
9.82222 80000069000000090 80000069000000089 80000069000000106 5.84661374788
9.88101 80000069000000089 80000069000000088 80000069000000106 5.52976580795
9.91766 80000069000000088 80000069000000087 80000069000000106 5.22758097313
9.97904 80000069000000087 80000069000000086 80000069000000106 4.99593346816
10.006 80000069000000086 80000069000000084 80000069000000106 4.66451770247
10.0524 80000069000000084 80000069000000083 80000069000000106 4.42803373661
10.1347 80000069000000083 80000069000000082 80000069000000106 4.17683491473
10.1629 80000069000000082 80000069000000081 80000069000000106 4.00794511147
10.1859 80000069000000081 80000069000000080 80000069000000106 3.93726108473
10.2975 80000069000000080 80000069000000079 80000069000000106 3.70877426464
10.3247 80000069000000079 80000069000000078 80000069000000106 3.49086136926
10.4035 80000069000000078 80000069000000077 80000069000000106 3.28303305796
10.435 80000069000000077 80000069000000076 80000069000000106 3.08482263583
10.4567 80000069000000076 80000069000000075 80000069000000106 3.00813107163
10.4701 80000069000000075 80000069000000074 80000069000000106 2.89578500573
10.5118 80000069000000074 80000069000000073 80000069000000106 2.73314261732
10.6926 80000069000000073 80000069000000072 80000069000000106 2.5772902716
11.3024 80000069000000072 80000069000000069 80000069000000106 2.20792547238
11.3368 80000069000000069 80000069000000068 80000069000000106 2.1032696526
11.407 80000069000000068 80000069000000067 80000069000000106 2.00202813925
11.4382 80000069000000067 80000069000000066 80000069000000106 1.90408954353
11.4761 80000069000000066 80000069000000065 80000069000000106 1.82268925262
11.4859 80000069000000065 80000069000000064 80000069000000106 1.74357057433
11.5201 80000069000000064 80000069000000063 80000069000000106 1.66666955611
11.5243 80000069000000063 80000069000000061 80000069000000106 1.53123902916
11.5283 80000069000000061 80000069000000060 80000069000000106 1.47197484527
11.5379 80000069000000060 80000069000000047 80000069000000106 0.923000816178
11.5421 80000069000000047 80000069000000046 80000069000000106 0.886896937575
11.5453 80000069000000046 80000069000000045 80000069000000106 0.851470900625
11.5639 80000069000000045 80000069000000043 80000069000000106 0.791068248946
11.5684 80000069000000043 80000069000000035 80000069000000106 0.575980845108
11.5691 80000069000000035 80000069000000034 80000069000000106 0.546392183141
11.5803 80000069000000034 80000069000000033 80000069000000106 0.524565820434
11.5848 80000069000000033 80000069000000032 80000069000000106 0.503047523245
11.5885 80000069000000032 80000069000000031 80000069000000106 0.481832943421
11.5964 80000069000000031 80000069000000030 80000069000000106 0.460917794181
11.599 80000069000000030 80000069000000029 80000069000000106 0.440297849248
11.6165 80000069000000029 80000069000000028 80000069000000106 0.419968941997
11.6237 80000069000000028 80000069000000027 80000069000000106 0.399926964614
11.6303 80000069000000027 80000069000000026 80000069000000106 0.38016786726
11.642 80000069000000026 80000069000000025 80000069000000106 0.360687657262
11.6425 80000069000000025 80000069000000024 80000069000000106 0.347853841858
11.6514 80000069000000024 80000069000000023 80000069000000106 0.328829724206
11.6594 80000069000000023 80000069000000022 80000069000000106 0.310074120128
11.6625 80000069000000022 80000069000000021 80000069000000106 0.291583239722
11.6683 80000069000000021 80000069000000020 80000069000000106 0.273353346578
11.6743 80000069000000020 80000069000000019 80000069000000106 0.261343256161
11.6772 80000069000000019 80000069000000018 80000069000000106 0.243540181555
11.6856 80000069000000018 80000069000000017 80000069000000106 0.22598838626
11.6901 80000069000000017 80000069000000016 80000069000000106 0.214425035514
11.6949 80000069000000016 80000069000000015 80000069000000106 0.197284182376
11.7013 80000069000000015 80000069000000014 80000069000000106 0.180385261706
11.7024 80000069000000014 80000069000000013 80000069000000106 0.169252033244
11.7058 80000069000000013 80000069000000012 80000069000000106 0.152748768902
11.7102 80000069000000012 80000069000000011 80000069000000106 0.14187620397
11.7159 80000069000000011 80000069000000010 80000069000000106 0.125759332411
11.7171 80000069000000010 80000069000000009 80000069000000106 0.109869940459
11.7246 80000069000000009 80000069000000008 80000069000000106 0.0994018026302
11.7272 80000069000000008 80000069000000007 80000069000000106 0.0838844307975
11.7319 80000069000000007 80000069000000006 80000069000000106 0.0736613846564
11.7389 80000069000000006 80000069000000005 80000069000000106 0.0585073227945
11.746 80000069000000005 80000069000000003 80000069000000106 0.0337243718735
11.7469 80000069000000003 80000069000000002 80000069000000106 0.0239744283828
11.7494 80000069000000002 80000069000000001 80000069000000106 0.00952166696794
11.7542 80000069000000001 80000069000000000 80000069000000106 2.22044604925e-16
9.06378 80000069000000117 80000069000000116 80000069000000124 7.59510714987
9.15273 80000069000000116 80000069000000114 80000069000000124 7.00541704554
9.06939 80000069000000138 80000069000000137 80000069000000149 6.49159774567
9.04945 80000069000000176 80000069000000175 80000069000000178 7.23627606617
9.17729 80000069000000175 80000069000000173 80000069000000178 6.85511726265
9.21472 80000069000000173 80000069000000168 80000069000000178 5.52976580795
9.23988 80000069000000168 80000069000000167 80000069000000178 5.22758097313
9.2845 80000069000000167 80000069000000166 80000069000000178 4.99593346816
9.00337 80000069000000194 80000069000000193 80000069000000207 4.66451770247
9.08845 80000069000000193 80000069000000191 80000069000000207 4.17683491473
9.03463 80000069000000231 80000069000000230 80000069000000238 5.22758097313
9.33566 80000069000000230 80000069000000229 80000069000000238 4.99593346816
9.33716 80000069000000229 80000069000000228 80000069000000238 4.93938066349
9.43737 80000069000000228 80000069000000225 80000069000000238 4.17683491473
9.46621 80000069000000225 80000069000000223 80000069000000238 3.93726108473
9.51175 80000069000000223 80000069000000222 80000069000000238 3.70877426464
9.52267 80000069000000222 80000069000000221 80000069000000238 3.49086136926
9.41659 80000069000000248 80000069000000247 80000069000000262 4.00794511147
9.08309 80000069000000275 80000069000000274 80000069000000287 3.08482263583
9.10671 80000069000000274 80000069000000273 80000069000000287 3.00813107163
9.12178 80000069000000273 80000069000000272 80000069000000287 2.89578500573
11.0111 80000069000000272 80000069000000270 80000069000000287 2.44422570455
9.15273 80000069000000313 80000069000000312 80000069000000325 3.49086136926
9.22457 80000069000000312 80000069000000311 80000069000000325 3.28303305796
9.26365 80000069000000311 80000069000000310 80000069000000325 3.08482263583
9.30923 80000069000000310 80000069000000308 80000069000000325 2.73314261732
9.01298 80000069000000502 80000069000000501 80000069000000508 4.00794511147
9.02239 80000069000000501 80000069000000500 80000069000000508 3.93726108473
9.07216 80000069000000500 80000069000000499 80000069000000508 3.70877426464
9.11431 80000069000000499 80000069000000498 80000069000000508 3.49086136926
9.11431 80000069000000498 80000069000000495 80000069000000508 3.00813107163
9.19223 80000069000000495 80000069000000493 80000069000000508 2.73314261732
9.38681 80000069000000493 80000069000000491 80000069000000508 2.44422570455
9.05811 80000069000000560 80000069000000559 80000069000000576 2.89578500573
9.12178 80000069000000559 80000069000000558 80000069000000576 2.73314261732
9.02855 80000069000000613 80000069000000612 80000069000000622 7.23627606617
9.14344 80000069000000612 80000069000000611 80000069000000622 7.00541704554
9.17293 80000069000000611 80000069000000610 80000069000000622 6.85511726265
9.20464 80000069000000610 80000069000000609 80000069000000622 6.49159774567
9.23799 80000069000000609 80000069000000608 80000069000000622 6.14490120342
9.27072 80000069000000608 80000069000000607 80000069000000622 6.01075739884
9.32187 80000069000000607 80000069000000606 80000069000000622 5.84661374788
9.41408 80000069000000606 80000069000000605 80000069000000622 5.52976580795
9.42893 80000069000000605 80000069000000604 80000069000000622 5.22758097313
9.44093 80000069000000604 80000069000000603 80000069000000622 4.99593346816
9.44797 80000069000000603 80000069000000602 80000069000000622 4.93938066349
9.57697 80000069000000602 80000069000000601 80000069000000622 4.66451770247
9.63214 80000069000000601 80000069000000600 80000069000000622 4.42803373661
9.83626 80000069000000600 80000069000000599 80000069000000622 4.17683491473
9.98211 80000069000000599 80000069000000598 80000069000000622 4.00794511147
10.0183 80000069000000598 80000069000000596 80000069000000622 3.70877426464
10.2103 80000069000000596 80000069000000595 80000069000000622 3.49086136926
10.2852 80000069000000595 80000069000000594 80000069000000622 3.28303305796
10.331 80000069000000594 80000069000000593 80000069000000622 3.08482263583
10.3528 80000069000000593 80000069000000592 80000069000000622 3.00813107163
10.3982 80000069000000592 80000069000000591 80000069000000622 2.89578500573
10.5757 80000069000000591 80000069000000590 80000069000000622 2.73314261732
9.18802 80000069000000669 80000069000000668 80000069000000673 6.14490120342
9.25284 80000069000000668 80000069000000667 80000069000000673 6.01075739884
9.27938 80000069000000667 80000069000000666 80000069000000673 5.84661374788
9.32958 80000069000000666 80000069000000665 80000069000000673 5.52976580795
9.41659 80000069000000665 80000069000000664 80000069000000673 5.22758097313
9.43257 80000069000000664 80000069000000663 80000069000000673 4.99593346816
9.4503 80000069000000663 80000069000000662 80000069000000673 4.93938066349
9.4549 80000069000000662 80000069000000661 80000069000000673 4.66451770247
9.28788 80000069000000695 80000069000000694 80000069000000701 5.52976580795
9.3634 80000069000000694 80000069000000693 80000069000000701 5.22758097313
9.42893 80000069000000693 80000069000000692 80000069000000701 4.99593346816
9.48905 80000069000000692 80000069000000691 80000069000000701 4.93938066349
9.57869 80000069000000691 80000069000000690 80000069000000701 4.66451770247
9.69449 80000069000000690 80000069000000689 80000069000000701 4.42803373661
9.0066 80000069000000754 80000069000000753 80000069000000762 7.00541704554
9.01928 80000069000000753 80000069000000752 80000069000000762 6.85511726265
9.06378 80000069000000752 80000069000000751 80000069000000762 6.49159774567
9.21472 80000069000000751 80000069000000750 80000069000000762 6.14490120342
9.21472 80000069000000750 80000069000000748 80000069000000762 5.84661374788
9.25284 80000069000000748 80000069000000747 80000069000000762 5.52976580795
9.2929 80000069000000747 80000069000000746 80000069000000762 5.22758097313
9.35338 80000069000000746 80000069000000745 80000069000000762 4.99593346816
9.4026 80000069000000745 80000069000000743 80000069000000762 4.66451770247
9.42527 80000069000000743 80000069000000742 80000069000000762 4.42803373661
9.44447 80000069000000742 80000069000000741 80000069000000762 4.17683491473
9.44914 80000069000000741 80000069000000740 80000069000000762 4.00794511147
9.46733 80000069000000740 80000069000000739 80000069000000762 3.93726108473
9.47176 80000069000000739 80000069000000738 80000069000000762 3.70877426464
9.57956 80000069000000738 80000069000000737 80000069000000762 3.49086136926
9.68918 80000069000000737 80000069000000736 80000069000000762 3.28303305796
10.5307 80000069000000736 80000069000000731 80000069000000762 2.5772902716
9.00337 80000069000000963 80000069000000962 80000069000000969 4.66451770247
9.05524 80000069000000962 80000069000000956 80000069000000969 3.49086136926
9.14578 80000069000000956 80000069000000954 80000069000000969 3.08482263583
9.19433 80000069000000982 80000069000000981 80000069000000984 2.44422570455
9.11431 80000069000001049 80000069000001048 80000069000001058 7.00541704554
9.12178 80000069000001048 80000069000001047 80000069000001058 6.85511726265
9.17293 80000069000001047 80000069000001046 80000069000001058 6.49159774567
9.22845 80000069000001046 80000069000001045 80000069000001058 6.14490120342
9.23037 80000069000001045 80000069000001044 80000069000001058 6.01075739884
9.25828 80000069000001044 80000069000001043 80000069000001058 5.84661374788
9.37319 80000069000001043 80000069000001042 80000069000001058 5.52976580795
9.44447 80000069000001042 80000069000001041 80000069000001058 5.22758097313
9.54278 80000069000001041 80000069000001038 80000069000001058 4.66451770247
9.59807 80000069000001038 80000069000001037 80000069000001058 4.42803373661
9.61026 80000069000001037 80000069000001036 80000069000001058 4.17683491473
9.64932 80000069000001036 80000069000001035 80000069000001058 4.00794511147
9.66655 80000069000001035 80000069000001034 80000069000001058 3.93726108473
9.72568 80000069000001034 80000069000001033 80000069000001058 3.70877426464
9.81976 80000069000001033 80000069000001032 80000069000001058 3.49086136926
9.98313 80000069000001032 80000069000001031 80000069000001058 3.28303305796
10.0541 80000069000001031 80000069000001030 80000069000001058 3.08482263583
10.376 80000069000001030 80000069000001026 80000069000001058 2.44422570455
9.10415 80000069000001146 80000069000001145 80000069000001156 4.99593346816
9.12424 80000069000001145 80000069000001144 80000069000001156 4.93938066349
9.16182 80000069000001144 80000069000001143 80000069000001156 4.66451770247
9.19848 80000069000001143 80000069000001142 80000069000001156 4.42803373661
9.24175 80000069000001142 80000069000001141 80000069000001156 4.17683491473
9.29457 80000069000001141 80000069000001140 80000069000001156 4.00794511147
9.29457 80000069000001140 80000069000001138 80000069000001156 3.70877426464
9.04062 80000069000001207 80000069000001206 80000069000001215 6.14490120342
9.06939 80000069000001206 80000069000001203 80000069000001215 5.52976580795
9.13871 80000069000001203 80000069000001202 80000069000001215 5.22758097313
9.22845 80000069000001202 80000069000001201 80000069000001215 4.99593346816
9.27938 80000069000001201 80000069000001199 80000069000001215 4.66451770247
9.39214 80000069000001199 80000069000001198 80000069000001215 4.42803373661
9.4964 80000069000001198 80000069000001197 80000069000001215 4.17683491473
9.63819 80000069000001197 80000069000001196 80000069000001215 4.00794511147
9.69712 80000069000001196 80000069000001195 80000069000001215 3.93726108473
9.71195 80000069000001195 80000069000001194 80000069000001215 3.70877426464
9.85944 80000069000001194 80000069000001193 80000069000001215 3.49086136926
10.059 80000069000001193 80000069000001191 80000069000001215 3.08482263583
10.068 80000069000001191 80000069000001190 80000069000001215 3.00813107163
10.0943 80000069000001190 80000069000001189 80000069000001215 2.89578500573
10.1647 80000069000001189 80000069000001188 80000069000001215 2.73314261732
9.05235 80000069000001230 80000069000001229 80000069000001242 5.52976580795
9.05811 80000069000001229 80000069000001228 80000069000001242 5.22758097313
9.06939 80000069000001228 80000069000001227 80000069000001242 4.99593346816
9.98246 80000069000001227 80000069000001218 80000069000001242 3.28303305796
9.06378 80000069000001249 80000069000001248 80000069000001261 4.66451770247
9.23799 80000069000001405 80000069000001404 80000069000001414 8.01217294887
9.42771 80000069000001404 80000069000001403 80000069000001414 7.59510714987
9.48265 80000069000001403 80000069000001402 80000069000001414 7.23627606617
9.7354 80000069000001402 80000069000001401 80000069000001414 7.00541704554
9.92934 80000069000001401 80000069000001398 80000069000001414 6.14490120342
9.95545 80000069000001398 80000069000001397 80000069000001414 6.01075739884
10.0108 80000069000001397 80000069000001396 80000069000001414 5.84661374788
10.1215 80000069000001396 80000069000001395 80000069000001414 5.52976580795
10.1694 80000069000001395 80000069000001394 80000069000001414 5.22758097313
10.2284 80000069000001394 80000069000001393 80000069000001414 4.99593346816
10.2442 80000069000001393 80000069000001392 80000069000001414 4.93938066349
10.3305 80000069000001392 80000069000001391 80000069000001414 4.66451770247
10.4043 80000069000001391 80000069000001390 80000069000001414 4.42803373661
10.4942 80000069000001390 80000069000001389 80000069000001414 4.17683491473
10.5134 80000069000001389 80000069000001387 80000069000001414 3.93726108473
10.5565 80000069000001387 80000069000001386 80000069000001414 3.70877426464
10.5783 80000069000001386 80000069000001385 80000069000001414 3.49086136926
10.597 80000069000001385 80000069000001381 80000069000001414 2.89578500573
10.6083 80000069000001381 80000069000001380 80000069000001414 2.73314261732
11.1221 80000069000001380 80000069000001377 80000069000001414 2.31611074396
9.00337 80000069000001434 80000069000001433 80000069000001439 7.59510714987
9.10157 80000069000001433 80000069000001432 80000069000001439 7.23627606617
9.16407 80000069000001432 80000069000001431 80000069000001439 6.85511726265
9.09375 80000069000001568 80000069000001567 80000069000001575 8.44947629437
9.10415 80000069000001567 80000069000001566 80000069000001575 8.01217294887
9.23988 80000069000001566 80000069000001565 80000069000001575 7.59510714987
9.38681 80000069000001565 80000069000001564 80000069000001575 7.23627606617
9.46285 80000069000001564 80000069000001562 80000069000001575 6.85511726265
9.48479 80000069000001562 80000069000001561 80000069000001575 6.49159774567
9.52754 80000069000001561 80000069000001560 80000069000001575 6.14490120342
9.53808 80000069000001560 80000069000001559 80000069000001575 6.01075739884
9.56999 80000069000001559 80000069000001558 80000069000001575 5.84661374788
9.62134 80000069000001558 80000069000001557 80000069000001575 5.52976580795
9.62908 80000069000001557 80000069000001556 80000069000001575 5.22758097313
9.67353 80000069000001556 80000069000001555 80000069000001575 4.99593346816
9.02239 80000069000001669 80000069000001668 80000069000001681 5.22758097313
9.05235 80000069000001668 80000069000001667 80000069000001681 4.99593346816
9.0666 80000069000001667 80000069000001666 80000069000001681 4.93938066349
9.06939 80000069000001666 80000069000001665 80000069000001681 4.66451770247
9.13634 80000069000001665 80000069000001664 80000069000001681 4.42803373661
9.16852 80000069000001664 80000069000001663 80000069000001681 4.17683491473
9.70685 80000069000001663 80000069000001656 80000069000001681 3.00813107163
9.08845 80000069000001695 80000069000001694 80000069000001704 5.22758097313
9.10671 80000069000001694 80000069000001688 80000069000001704 4.00794511147
9.1193 80000069000001688 80000069000001687 80000069000001704 3.93726108473
9.3044 80000069000001687 80000069000001686 80000069000001704 3.70877426464
9.32958 80000069000001686 80000069000001685 80000069000001704 3.49086136926
9.54372 80000069000001685 80000069000001684 80000069000001704 3.28303305796
9.64342 80000069000001684 80000069000001683 80000069000001704 3.08482263583
9.22845 80000069000001720 80000069000001719 80000069000001720 1.74357057433
9.00012 80000069000001754 80000069000001753 80000069000001763 6.14490120342
9.01614 80000069000001753 80000069000001752 80000069000001763 6.01075739884
9.04653 80000069000001752 80000069000001751 80000069000001763 5.84661374788
9.09111 80000069000001751 80000069000001750 80000069000001763 5.52976580795
9.10157 80000069000001750 80000069000001749 80000069000001763 5.22758097313
9.14344 80000069000001749 80000069000001748 80000069000001763 4.99593346816
9.14344 80000069000001748 80000069000001747 80000069000001763 4.93938066349
9.17946 80000069000001747 80000069000001746 80000069000001763 4.66451770247
9.18802 80000069000001746 80000069000001745 80000069000001763 4.42803373661
9.23799 80000069000001745 80000069000001744 80000069000001763 4.17683491473
9.2811 80000069000001744 80000069000001743 80000069000001763 4.00794511147
9.30115 80000069000001743 80000069000001742 80000069000001763 3.93726108473
9.40131 80000069000001742 80000069000001741 80000069000001763 3.70877426464
9.42157 80000069000001741 80000069000001739 80000069000001763 3.28303305796
9.52365 80000069000001739 80000069000001738 80000069000001763 3.08482263583
9.62523 80000069000001738 80000069000001736 80000069000001763 2.89578500573
9.65005 80000069000001736 80000069000001735 80000069000001763 2.73314261732
9.69184 80000069000001735 80000069000001733 80000069000001763 2.44422570455
9.0316 80000069000001877 80000069000001876 80000069000001882 9.38877127194
9.10157 80000069000001876 80000069000001875 80000069000001882 9.00233985416
9.20668 80000069000001875 80000069000001872 80000069000001882 8.01217294887
9.33263 80000069000001872 80000069000001871 80000069000001882 7.59510714987
9.36481 80000069000001871 80000069000001870 80000069000001882 7.23627606617
9.37869 80000069000001870 80000069000001869 80000069000001882 7.00541704554
9.38412 80000069000001869 80000069000001868 80000069000001882 6.85511726265
9.47066 80000069000001868 80000069000001867 80000069000001882 6.49159774567
9.51175 80000069000001867 80000069000001865 80000069000001882 6.01075739884
9.53996 80000069000001865 80000069000001864 80000069000001882 5.84661374788
9.56823 80000069000001864 80000069000001863 80000069000001882 5.52976580795
9.56999 80000069000001863 80000069000001862 80000069000001882 5.22758097313
9.62523 80000069000001862 80000069000001861 80000069000001882 4.99593346816
9.63894 80000069000001861 80000069000001860 80000069000001882 4.93938066349
9.69581 80000069000001860 80000069000001859 80000069000001882 4.66451770247
9.73239 80000069000001859 80000069000001858 80000069000001882 4.42803373661
9.79377 80000069000001858 80000069000001857 80000069000001882 4.17683491473
9.86838 80000069000001857 80000069000001856 80000069000001882 4.00794511147
9.89036 80000069000001856 80000069000001855 80000069000001882 3.93726108473
9.95977 80000069000001855 80000069000001854 80000069000001882 3.70877426464
9.9892 80000069000001854 80000069000001853 80000069000001882 3.49086136926
10.0325 80000069000001853 80000069000001852 80000069000001882 3.28303305796
10.0403 80000069000001852 80000069000001851 80000069000001882 3.08482263583
10.0532 80000069000001851 80000069000001850 80000069000001882 3.00813107163
9.08845 80000069000001936 80000069000001935 80000069000001942 4.93938066349
9.17729 80000069000001935 80000069000001934 80000069000001942 4.66451770247
9.30763 80000069000001934 80000069000001932 80000069000001942 4.17683491473
9.38412 80000069000001932 80000069000001927 80000069000001942 3.28303305796
9.46844 80000069000001927 80000069000001926 80000069000001942 3.08482263583
9.50158 80000069000001926 80000069000001925 80000069000001942 3.00813107163
9.54372 80000069000001925 80000069000001924 80000069000001942 2.89578500573
9.01298 80000069000002138 80000069000002137 80000069000002145 6.01075739884
9.06096 80000069000002137 80000069000002136 80000069000002145 5.84661374788
9.16407 80000069000002136 80000069000002134 80000069000002145 5.22758097313
9.21272 80000069000002134 80000069000002133 80000069000002145 4.99593346816
9.21472 80000069000002133 80000069000002132 80000069000002145 4.93938066349
9.32805 80000069000002132 80000069000002131 80000069000002145 4.66451770247
9.36902 80000069000002131 80000069000002130 80000069000002145 4.42803373661
9.4651 80000069000002130 80000069000002128 80000069000002145 4.00794511147
9.46955 80000069000002128 80000069000002124 80000069000002145 3.28303305796
9.07766 80000069000002187 80000069000002186 80000069000002195 2.89578500573
9.1193 80000069000002282 80000069000002281 80000069000002288 6.14490120342
9.15273 80000069000002281 80000069000002280 80000069000002288 6.01075739884
9.16852 80000069000002280 80000069000002279 80000069000002288 5.84661374788
9.22262 80000069000002279 80000069000002278 80000069000002288 5.52976580795
9.27766 80000069000002278 80000069000002277 80000069000002288 5.22758097313
9.31083 80000069000002277 80000069000002276 80000069000002288 4.99593346816
9.34016 80000069000002276 80000069000002275 80000069000002288 4.93938066349
9.42527 80000069000002275 80000069000002274 80000069000002288 4.66451770247
9.48692 80000069000002274 80000069000002273 80000069000002288 4.42803373661
9.54558 80000069000002273 80000069000002272 80000069000002288 4.17683491473
9.56823 80000069000002272 80000069000002271 80000069000002288 4.00794511147
9.56911 80000069000002271 80000069000002270 80000069000002288 3.93726108473
9.5761 80000069000002270 80000069000002269 80000069000002288 3.70877426464
9.63969 80000069000002269 80000069000002268 80000069000002288 3.49086136926
9.72813 80000069000002268 80000069000002267 80000069000002288 3.28303305796
9.74137 80000069000002267 80000069000002266 80000069000002288 3.08482263583
9.84847 80000069000002266 80000069000002265 80000069000002288 3.00813107163
9.86749 80000069000002265 80000069000002263 80000069000002288 2.73314261732
9.89246 80000069000002263 80000069000002262 80000069000002288 2.5772902716
9.90361 80000069000002262 80000069000002260 80000069000002288 2.31611074396
9.92896 80000069000002260 80000069000002259 80000069000002288 2.20792547238
9.99088 80000069000002259 80000069000002258 80000069000002288 2.1032696526
10.0669 80000069000002258 80000069000002257 80000069000002288 2.00202813925
9.02239 80000069000002296 80000069000002295 80000069000002302 4.00794511147
9.3974 80000069000002394 80000069000002393 80000069000002407 3.08482263583
9.54651 80000069000002393 80000069000002392 80000069000002407 3.00813107163
9.58383 80000069000002392 80000069000002391 80000069000002407 2.89578500573
9.10415 80000069000002412 80000069000002411 80000069000002418 3.70877426464
9.20055 80000069000002411 80000069000002410 80000069000002418 3.49086136926
9.45719 80000069000002410 80000069000002409 80000069000002418 3.28303305796
9.09375 80000069000002483 80000069000002482 80000069000002490 5.52976580795
9.13154 80000069000002482 80000069000002481 80000069000002490 5.22758097313
9.18376 80000069000002481 80000069000002480 80000069000002490 4.99593346816
9.18376 80000069000002480 80000069000002479 80000069000002490 4.93938066349
9.23988 80000069000002479 80000069000002478 80000069000002490 4.66451770247
9.30115 80000069000002478 80000069000002477 80000069000002490 4.42803373661
9.33111 80000069000002477 80000069000002476 80000069000002490 4.17683491473
9.33263 80000069000002476 80000069000002475 80000069000002490 4.00794511147
9.36763 80000069000002475 80000069000002474 80000069000002490 3.93726108473
9.39081 80000069000002474 80000069000002473 80000069000002490 3.70877426464
9.42281 80000069000002473 80000069000002472 80000069000002490 3.49086136926
9.49116 80000069000002472 80000069000002470 80000069000002490 3.08482263583
9.50158 80000069000002470 80000069000002468 80000069000002490 2.89578500573
9.51375 80000069000002468 80000069000002467 80000069000002490 2.73314261732
9.58891 80000069000002467 80000069000002466 80000069000002490 2.5772902716
9.59972 80000069000002466 80000069000002465 80000069000002490 2.44422570455
9.64342 80000069000002465 80000069000002464 80000069000002490 2.31611074396
9.00337 80000069000002549 80000069000002548 80000069000002560 2.89578500573
9.04653 80000069000002548 80000069000002547 80000069000002560 2.73314261732
9.10157 80000069000002547 80000069000002546 80000069000002560 2.5772902716
9.14108 80000069000002546 80000069000002545 80000069000002560 2.44422570455
9.03763 80000069000002719 80000069000002718 80000069000002724 8.44947629437
9.08309 80000069000002718 80000069000002717 80000069000002724 8.01217294887
9.13394 80000069000002717 80000069000002716 80000069000002724 7.59510714987
9.2087 80000069000002716 80000069000002715 80000069000002724 7.23627606617
9.2342 80000069000002715 80000069000002714 80000069000002724 7.00541704554
9.2811 80000069000002714 80000069000002713 80000069000002724 6.85511726265
9.32651 80000069000002713 80000069000002712 80000069000002724 6.49159774567
9.33263 80000069000002712 80000069000002711 80000069000002724 6.14490120342
9.36763 80000069000002711 80000069000002710 80000069000002724 6.01075739884
9.38277 80000069000002710 80000069000002709 80000069000002724 5.84661374788
9.44093 80000069000002709 80000069000002708 80000069000002724 5.52976580795
9.51575 80000069000002708 80000069000002707 80000069000002724 5.22758097313
9.58891 80000069000002707 80000069000002706 80000069000002724 4.99593346816
9.64119 80000069000002706 80000069000002705 80000069000002724 4.93938066349
9.73299 80000069000002705 80000069000002704 80000069000002724 4.66451770247
9.79743 80000069000002704 80000069000002703 80000069000002724 4.42803373661
9.87583 80000069000002703 80000069000002702 80000069000002724 4.17683491473
9.90808 80000069000002702 80000069000002701 80000069000002724 4.00794511147
9.94556 80000069000002701 80000069000002700 80000069000002724 3.93726108473
10.0227 80000069000002700 80000069000002699 80000069000002724 3.70877426464
10.0544 80000069000002699 80000069000002698 80000069000002724 3.49086136926
10.146 80000069000002698 80000069000002697 80000069000002724 3.28303305796
10.191 80000069000002697 80000069000002696 80000069000002724 3.08482263583
10.2378 80000069000002696 80000069000002695 80000069000002724 3.00813107163
10.2563 80000069000002695 80000069000002694 80000069000002724 2.89578500573
10.3251 80000069000002694 80000069000002693 80000069000002724 2.73314261732
9.0666 80000069000002764 80000069000002763 80000069000002772 3.70877426464
9.08038 80000069000002763 80000069000002762 80000069000002772 3.49086136926
9.01928 80000069000002800 80000069000002799 80000069000002820 3.70877426464
9.12668 80000069000002855 80000069000002854 80000069000002866 4.42803373661
9.14811 80000069000002854 80000069000002853 80000069000002866 4.17683491473
9.19848 80000069000002853 80000069000002852 80000069000002866 4.00794511147
9.34016 80000069000003268 80000069000003267 80000069000003284 2.5772902716
9.17512 80000069000003289 80000069000003288 80000069000003299 2.73314261732
9.0066 80000069000003372 80000069000003371 80000069000003376 2.20792547238
9.02239 80000069000003371 80000069000003369 80000069000003376 2.00202813925
9.04945 80000069000003369 80000069000003368 80000069000003376 1.90408954353
9.06378 80000069000003368 80000069000003366 80000069000003376 1.74357057433
9.0666 80000069000003366 80000069000003365 80000069000003376 1.66666955611
9.06939 80000069000003365 80000069000003364 80000069000003376 1.60423452207
