logMh | fpID | subhaloID | main leaf ID | z
9.04062 80000167400000098 80000167400000097 80000167400000107 8.01217294887
9.05811 80000167400000097 80000167400000096 80000167400000107 7.59510714987
9.43257 80000167400000096 80000167400000093 80000167400000107 6.85511726265
9.58127 80000167400000093 80000167400000092 80000167400000107 6.49159774567
9.63969 80000167400000092 80000167400000091 80000167400000107 6.14490120342
9.66302 80000167400000091 80000167400000090 80000167400000107 6.01075739884
9.70621 80000167400000090 80000167400000089 80000167400000107 5.84661374788
9.7342 80000167400000089 80000167400000088 80000167400000107 5.52976580795
9.74725 80000167400000088 80000167400000087 80000167400000107 5.22758097313
9.76557 80000167400000087 80000167400000086 80000167400000107 4.99593346816
9.78582 80000167400000086 80000167400000085 80000167400000107 4.93938066349
9.79743 80000167400000085 80000167400000084 80000167400000107 4.66451770247
9.80054 80000167400000084 80000167400000082 80000167400000107 4.17683491473
9.86571 80000167400000082 80000167400000081 80000167400000107 4.00794511147
9.89952 80000167400000081 80000167400000079 80000167400000107 3.70877426464
9.96191 80000167400000079 80000167400000078 80000167400000107 3.49086136926
10.0295 80000167400000078 80000167400000077 80000167400000107 3.28303305796
10.0346 80000167400000077 80000167400000076 80000167400000107 3.08482263583
10.1003 80000167400000076 80000167400000075 80000167400000107 3.00813107163
10.1827 80000167400000075 80000167400000074 80000167400000107 2.89578500573
10.3924 80000167400000074 80000167400000073 80000167400000107 2.73314261732
10.5749 80000167400000073 80000167400000071 80000167400000107 2.44422570455
10.6296 80000167400000071 80000167400000070 80000167400000107 2.31611074396
10.669 80000167400000070 80000167400000069 80000167400000107 2.20792547238
10.6876 80000167400000069 80000167400000068 80000167400000107 2.1032696526
10.714 80000167400000068 80000167400000067 80000167400000107 2.00202813925
10.7461 80000167400000067 80000167400000064 80000167400000107 1.74357057433
10.7662 80000167400000064 80000167400000063 80000167400000107 1.66666955611
10.7858 80000167400000063 80000167400000061 80000167400000107 1.53123902916
10.8027 80000167400000061 80000167400000060 80000167400000107 1.47197484527
10.837 80000167400000060 80000167400000058 80000167400000107 1.3575766674
10.8471 80000167400000058 80000167400000057 80000167400000107 1.30237845991
10.8726 80000167400000057 80000167400000056 80000167400000107 1.24847261425
10.9476 80000167400000056 80000167400000053 80000167400000107 1.11415056377
10.9716 80000167400000053 80000167400000052 80000167400000107 1.07445789455
10.9829 80000167400000052 80000167400000051 80000167400000107 1.03551044566
11.0031 80000167400000051 80000167400000050 80000167400000107 0.997294225782
11.0198 80000167400000050 80000167400000049 80000167400000107 0.987852810816
11.0768 80000167400000049 80000167400000048 80000167400000107 0.950531351585
11.1489 80000167400000048 80000167400000045 80000167400000107 0.851470900625
11.1695 80000167400000045 80000167400000044 80000167400000107 0.816709979012
11.2165 80000167400000044 80000167400000043 80000167400000107 0.791068248946
11.2471 80000167400000043 80000167400000042 80000167400000107 0.757441372616
11.2769 80000167400000042 80000167400000041 80000167400000107 0.732636182022
11.2824 80000167400000041 80000167400000035 80000167400000107 0.575980845108
11.3239 80000167400000035 80000167400000034 80000167400000107 0.546392183141
11.3391 80000167400000034 80000167400000033 80000167400000107 0.524565820434
11.3394 80000167400000033 80000167400000032 80000167400000107 0.503047523245
11.3454 80000167400000032 80000167400000031 80000167400000107 0.481832943421
11.3567 80000167400000031 80000167400000028 80000167400000107 0.419968941997
11.3687 80000167400000028 80000167400000027 80000167400000107 0.399926964614
11.4069 80000167400000027 80000167400000026 80000167400000107 0.38016786726
11.4242 80000167400000026 80000167400000025 80000167400000107 0.360687657262
11.4302 80000167400000025 80000167400000024 80000167400000107 0.347853841858
11.4507 80000167400000024 80000167400000023 80000167400000107 0.328829724206
11.4651 80000167400000023 80000167400000022 80000167400000107 0.310074120128
11.4685 80000167400000022 80000167400000017 80000167400000107 0.22598838626
11.47 80000167400000017 80000167400000016 80000167400000107 0.214425035514
11.4882 80000167400000016 80000167400000015 80000167400000107 0.197284182376
11.5011 80000167400000015 80000167400000014 80000167400000107 0.180385261706
11.5082 80000167400000014 80000167400000012 80000167400000107 0.152748768902
11.5134 80000167400000012 80000167400000011 80000167400000107 0.14187620397
11.5171 80000167400000011 80000167400000010 80000167400000107 0.125759332411
11.5235 80000167400000010 80000167400000009 80000167400000107 0.109869940459
11.5239 80000167400000009 80000167400000008 80000167400000107 0.0994018026302
11.5289 80000167400000008 80000167400000007 80000167400000107 0.0838844307975
11.5296 80000167400000007 80000167400000006 80000167400000107 0.0736613846564
11.5362 80000167400000006 80000167400000005 80000167400000107 0.0585073227945
11.5399 80000167400000005 80000167400000004 80000167400000107 0.0485236299818
11.5455 80000167400000004 80000167400000002 80000167400000107 0.0239744283828
11.5562 80000167400000002 80000167400000001 80000167400000107 0.00952166696794
11.56 80000167400000001 80000167400000000 80000167400000107 2.22044604925e-16
9.02548 80000167400000113 80000167400000112 80000167400000119 8.01217294887
9.06096 80000167400000112 80000167400000111 80000167400000119 7.59510714987
9.19641 80000167400000111 80000167400000110 80000167400000119 7.23627606617
9.2828 80000167400000110 80000167400000109 80000167400000119 7.00541704554
9.07766 80000167400000213 80000167400000212 80000167400000222 8.01217294887
9.11431 80000167400000212 80000167400000211 80000167400000222 7.59510714987
9.11681 80000167400000211 80000167400000210 80000167400000222 7.23627606617
9.19013 80000167400000210 80000167400000209 80000167400000222 7.00541704554
9.29457 80000167400000209 80000167400000208 80000167400000222 6.85511726265
9.30923 80000167400000208 80000167400000203 80000167400000222 5.52976580795
9.37457 80000167400000203 80000167400000202 80000167400000222 5.22758097313
9.42771 80000167400000202 80000167400000201 80000167400000222 4.99593346816
9.43136 80000167400000201 80000167400000200 80000167400000222 4.93938066349
9.5207 80000167400000200 80000167400000199 80000167400000222 4.66451770247
9.52948 80000167400000199 80000167400000198 80000167400000222 4.42803373661
9.65802 80000167400000198 80000167400000197 80000167400000222 4.17683491473
9.67698 80000167400000197 80000167400000196 80000167400000222 4.00794511147
9.69184 80000167400000196 80000167400000195 80000167400000222 3.93726108473
9.70428 80000167400000195 80000167400000194 80000167400000222 3.70877426464
9.0316 80000167400000234 80000167400000233 80000167400000240 6.49159774567
9.03463 80000167400000233 80000167400000232 80000167400000240 6.14490120342
9.07216 80000167400000232 80000167400000231 80000167400000240 6.01075739884
9.04653 80000167400000302 80000167400000301 80000167400000308 9.00233985416
9.06939 80000167400000301 80000167400000300 80000167400000308 8.9079991856
9.12178 80000167400000300 80000167400000299 80000167400000308 8.44947629437
9.23229 80000167400000299 80000167400000298 80000167400000308 8.01217294887
9.2828 80000167400000298 80000167400000297 80000167400000308 7.59510714987
9.33866 80000167400000297 80000167400000296 80000167400000308 7.23627606617
9.37869 80000167400000296 80000167400000295 80000167400000308 7.00541704554
9.4026 80000167400000295 80000167400000294 80000167400000308 6.85511726265
9.46733 80000167400000294 80000167400000293 80000167400000308 6.49159774567
9.51175 80000167400000293 80000167400000292 80000167400000308 6.14490120342
9.53618 80000167400000292 80000167400000291 80000167400000308 6.01075739884
9.56021 80000167400000291 80000167400000290 80000167400000308 5.84661374788
9.60462 80000167400000290 80000167400000289 80000167400000308 5.52976580795
9.60543 80000167400000289 80000167400000288 80000167400000308 5.22758097313
9.64564 80000167400000288 80000167400000287 80000167400000308 4.99593346816
9.69051 80000167400000287 80000167400000286 80000167400000308 4.93938066349
9.77881 80000167400000286 80000167400000285 80000167400000308 4.66451770247
9.85261 80000167400000285 80000167400000284 80000167400000308 4.42803373661
9.93126 80000167400000284 80000167400000283 80000167400000308 4.17683491473
9.98109 80000167400000283 80000167400000282 80000167400000308 4.00794511147
9.98381 80000167400000282 80000167400000281 80000167400000308 3.93726108473
10.037 80000167400000281 80000167400000280 80000167400000308 3.70877426464
10.0524 80000167400000280 80000167400000279 80000167400000308 3.49086136926
9.04358 80000167400000331 80000167400000330 80000167400000334 8.01217294887
9.12912 80000167400000330 80000167400000329 80000167400000334 7.59510714987
9.17729 80000167400000329 80000167400000328 80000167400000334 7.23627606617
9.22845 80000167400000328 80000167400000327 80000167400000334 7.00541704554
9.26896 80000167400000327 80000167400000325 80000167400000334 6.49159774567
9.29787 80000167400000325 80000167400000324 80000167400000334 6.14490120342
9.29951 80000167400000324 80000167400000323 80000167400000334 6.01075739884
9.32031 80000167400000323 80000167400000321 80000167400000334 5.52976580795
9.00337 80000167400000376 80000167400000375 80000167400000391 4.17683491473
9.03763 80000167400000375 80000167400000374 80000167400000391 4.00794511147
9.05235 80000167400000374 80000167400000372 80000167400000391 3.70877426464
9.0666 80000167400000372 80000167400000371 80000167400000391 3.49086136926
9.07766 80000167400000371 80000167400000368 80000167400000391 3.00813107163
9.23799 80000167400000368 80000167400000365 80000167400000391 2.5772902716
9.29951 80000167400000365 80000167400000364 80000167400000391 2.44422570455
9.02855 80000167400000400 80000167400000399 80000167400000411 3.08482263583
9.08309 80000167400000399 80000167400000397 80000167400000411 2.89578500573
9.14344 80000167400000397 80000167400000396 80000167400000411 2.73314261732
9.01614 80000167400000460 80000167400000459 80000167400000473 3.49086136926
9.0066 80000167400000526 80000167400000525 80000167400000528 6.85511726265
9.0098 80000167400000525 80000167400000524 80000167400000528 6.49159774567
9.07216 80000167400000524 80000167400000523 80000167400000528 6.14490120342
9.09375 80000167400000523 80000167400000522 80000167400000528 6.01075739884
9.12178 80000167400000522 80000167400000521 80000167400000528 5.84661374788
9.24918 80000167400000521 80000167400000519 80000167400000528 5.22758097313
9.2811 80000167400000519 80000167400000518 80000167400000528 4.99593346816
9.2845 80000167400000518 80000167400000512 80000167400000528 3.93726108473
9.31083 80000167400000512 80000167400000511 80000167400000528 3.70877426464
9.33111 80000167400000511 80000167400000508 80000167400000528 3.08482263583
9.34313 80000167400000508 80000167400000507 80000167400000528 3.00813107163
9.39214 80000167400000507 80000167400000506 80000167400000528 2.89578500573
9.39609 80000167400000506 80000167400000505 80000167400000528 2.73314261732
9.45605 80000167400000505 80000167400000504 80000167400000528 2.5772902716
9.45946 80000167400000504 80000167400000503 80000167400000528 2.44422570455
9.54651 80000167400000503 80000167400000502 80000167400000528 2.31611074396
9.58807 80000167400000502 80000167400000501 80000167400000528 2.20792547238
9.66795 80000167400000501 80000167400000500 80000167400000528 2.1032696526
9.71825 80000167400000500 80000167400000499 80000167400000528 2.00202813925
9.77169 80000167400000499 80000167400000497 80000167400000528 1.82268925262
9.02239 80000167400000550 80000167400000549 80000167400000557 4.42803373661
9.06378 80000167400000549 80000167400000546 80000167400000557 3.93726108473
9.08309 80000167400000546 80000167400000544 80000167400000557 3.49086136926
9.10671 80000167400000544 80000167400000543 80000167400000557 3.28303305796
9.13154 80000167400000543 80000167400000542 80000167400000557 3.08482263583
9.15502 80000167400000542 80000167400000541 80000167400000557 3.00813107163
9.19013 80000167400000541 80000167400000539 80000167400000557 2.73314261732
9.00337 80000167400000799 80000167400000798 80000167400000802 5.52976580795
9.06939 80000167400000798 80000167400000797 80000167400000802 5.22758097313
9.14344 80000167400000797 80000167400000796 80000167400000802 4.99593346816
9.16182 80000167400000796 80000167400000795 80000167400000802 4.93938066349
9.17946 80000167400000795 80000167400000794 80000167400000802 4.66451770247
9.18162 80000167400000794 80000167400000792 80000167400000802 4.17683491473
9.18376 80000167400000792 80000167400000788 80000167400000802 3.49086136926
9.23229 80000167400000788 80000167400000787 80000167400000802 3.28303305796
9.26365 80000167400000787 80000167400000786 80000167400000802 3.08482263583
9.27766 80000167400000786 80000167400000785 80000167400000802 3.00813107163
9.30278 80000167400000785 80000167400000784 80000167400000802 2.89578500573
9.30923 80000167400000784 80000167400000783 80000167400000802 2.73314261732
9.34756 80000167400000783 80000167400000782 80000167400000802 2.5772902716
9.38412 80000167400000782 80000167400000781 80000167400000802 2.44422570455
9.41659 80000167400000781 80000167400000780 80000167400000802 2.31611074396
9.46285 80000167400000780 80000167400000779 80000167400000802 2.20792547238
9.49326 80000167400000779 80000167400000778 80000167400000802 2.1032696526
9.5314 80000167400000778 80000167400000777 80000167400000802 2.00202813925
9.54651 80000167400000777 80000167400000776 80000167400000802 1.90408954353
9.05235 80000167400000880 80000167400000879 80000167400000889 4.17683491473
9.06939 80000167400000879 80000167400000878 80000167400000889 4.00794511147
9.10926 80000167400000878 80000167400000876 80000167400000889 3.70877426464
9.11431 80000167400000876 80000167400000873 80000167400000889 3.08482263583
9.13634 80000167400000873 80000167400000871 80000167400000889 2.89578500573
9.1573 80000167400000871 80000167400000869 80000167400000889 2.5772902716
9.19223 80000167400000869 80000167400000868 80000167400000889 2.44422570455
9.2026 80000167400000868 80000167400000865 80000167400000889 2.1032696526
9.25648 80000167400000865 80000167400000863 80000167400000889 1.90408954353
9.25648 80000167400000863 80000167400000862 80000167400000889 1.82268925262
9.26543 80000167400000862 80000167400000861 80000167400000889 1.74357057433
9.2742 80000167400000861 80000167400000859 80000167400000889 1.60423452207
9.2845 80000167400000859 80000167400000856 80000167400000889 1.41409822037
9.2845 80000167400000856 80000167400000854 80000167400000889 1.30237845991
9.06939 80000167400001013 80000167400001012 80000167400001024 6.49159774567
9.08309 80000167400001012 80000167400001007 80000167400001024 5.22758097313
9.11431 80000167400001007 80000167400001006 80000167400001024 4.99593346816
9.11681 80000167400001006 80000167400001005 80000167400001024 4.93938066349
9.13394 80000167400001005 80000167400001004 80000167400001024 4.66451770247
9.47176 80000167400001004 80000167400001003 80000167400001024 4.42803373661
9.65514 80000167400001003 80000167400001002 80000167400001024 4.17683491473
9.67698 80000167400001002 80000167400001000 80000167400001024 3.93726108473
9.76275 80000167400001000 80000167400000999 80000167400001024 3.70877426464
9.86571 80000167400000999 80000167400000998 80000167400001024 3.49086136926
9.96475 80000167400000998 80000167400000997 80000167400001024 3.28303305796
9.99088 80000167400000997 80000167400000996 80000167400001024 3.08482263583
10.107 80000167400000996 80000167400000995 80000167400001024 3.00813107163
10.1816 80000167400000995 80000167400000992 80000167400001024 2.5772902716
10.235 80000167400000992 80000167400000991 80000167400001024 2.44422570455
10.2814 80000167400000991 80000167400000990 80000167400001024 2.31611074396
10.2916 80000167400000990 80000167400000989 80000167400001024 2.20792547238
10.3054 80000167400000989 80000167400000988 80000167400001024 2.1032696526
10.3083 80000167400000988 80000167400000987 80000167400001024 2.00202813925
10.3126 80000167400000987 80000167400000986 80000167400001024 1.90408954353
10.3161 80000167400000986 80000167400000984 80000167400001024 1.74357057433
10.3237 80000167400000984 80000167400000977 80000167400001024 1.30237845991
10.3314 80000167400000977 80000167400000976 80000167400001024 1.24847261425
9.32342 80000167400001041 80000167400001040 80000167400001047 6.14490120342
9.33866 80000167400001040 80000167400001038 80000167400001047 5.84661374788
9.02239 80000167400001138 80000167400001137 80000167400001144 6.01075739884
9.05235 80000167400001137 80000167400001135 80000167400001144 5.52976580795
9.09375 80000167400001135 80000167400001134 80000167400001144 5.22758097313
9.10926 80000167400001134 80000167400001133 80000167400001144 4.99593346816
9.1193 80000167400001133 80000167400001132 80000167400001144 4.93938066349
9.14344 80000167400001132 80000167400001131 80000167400001144 4.66451770247
9.18589 80000167400001131 80000167400001130 80000167400001144 4.42803373661
9.00337 80000167400001167 80000167400001166 80000167400001184 4.00794511147
9.03463 80000167400001166 80000167400001165 80000167400001184 3.93726108473
9.11681 80000167400001165 80000167400001164 80000167400001184 3.70877426464
9.14811 80000167400001164 80000167400001163 80000167400001184 3.49086136926
9.35483 80000167400001163 80000167400001162 80000167400001184 3.28303305796
9.01614 80000167400001332 80000167400001331 80000167400001342 3.28303305796
9.01614 80000167400001331 80000167400001330 80000167400001342 3.08482263583
9.04945 80000167400001330 80000167400001329 80000167400001342 3.00813107163
9.06096 80000167400001329 80000167400001328 80000167400001342 2.89578500573
9.15956 80000167400001328 80000167400001326 80000167400001342 2.44422570455
9.08578 80000167400001437 80000167400001436 80000167400001442 8.01217294887
9.10415 80000167400001436 80000167400001431 80000167400001442 6.49159774567
9.17946 80000167400001431 80000167400001430 80000167400001442 6.14490120342
9.19641 80000167400001430 80000167400001429 80000167400001442 6.01075739884
9.27594 80000167400001429 80000167400001428 80000167400001442 5.84661374788
9.38005 80000167400001428 80000167400001427 80000167400001442 5.52976580795
9.38412 80000167400001427 80000167400001426 80000167400001442 5.22758097313
9.44564 80000167400001426 80000167400001425 80000167400001442 4.99593346816
9.54928 80000167400001425 80000167400001423 80000167400001442 4.66451770247
9.59725 80000167400001423 80000167400001422 80000167400001442 4.42803373661
9.60462 80000167400001422 80000167400001421 80000167400001442 4.17683491473
9.61977 80000167400001421 80000167400001419 80000167400001442 3.93726108473
9.66302 80000167400001419 80000167400001418 80000167400001442 3.70877426464
9.74373 80000167400001418 80000167400001417 80000167400001442 3.49086136926
9.76669 80000167400001417 80000167400001416 80000167400001442 3.28303305796
9.77334 80000167400001416 80000167400001415 80000167400001442 3.08482263583
9.79377 80000167400001415 80000167400001413 80000167400001442 2.89578500573
9.83958 80000167400001413 80000167400001412 80000167400001442 2.73314261732
9.87146 80000167400001412 80000167400001411 80000167400001442 2.5772902716
9.88187 80000167400001411 80000167400001410 80000167400001442 2.44422570455
9.8933 80000167400001410 80000167400001409 80000167400001442 2.31611074396
9.92626 80000167400001409 80000167400001408 80000167400001442 2.20792547238
9.93545 80000167400001408 80000167400001407 80000167400001442 2.1032696526
10.4616 80000167400001407 80000167400001405 80000167400001442 1.90408954353
10.5404 80000167400001405 80000167400001404 80000167400001442 1.82268925262
10.682 80000167400001404 80000167400001401 80000167400001442 1.60423452207
10.7207 80000167400001401 80000167400001400 80000167400001442 1.53123902916
10.7748 80000167400001400 80000167400001399 80000167400001442 1.47197484527
10.8017 80000167400001399 80000167400001398 80000167400001442 1.41409822037
10.8241 80000167400001398 80000167400001397 80000167400001442 1.3575766674
10.8268 80000167400001397 80000167400001395 80000167400001442 1.24847261425
10.8547 80000167400001395 80000167400001394 80000167400001442 1.20625808078
10.8571 80000167400001394 80000167400001393 80000167400001442 1.15460271236
11.1098 80000167400001393 80000167400001379 80000167400001442 0.700106353719
11.1518 80000167400001379 80000167400001377 80000167400001442 0.644641840685
9.1663 80000167400001510 80000167400001509 80000167400001519 8.01217294887
9.17073 80000167400001509 80000167400001508 80000167400001519 7.59510714987
9.2087 80000167400001508 80000167400001507 80000167400001519 7.23627606617
9.24733 80000167400001507 80000167400001506 80000167400001519 7.00541704554
9.27246 80000167400001506 80000167400001504 80000167400001519 6.49159774567
9.32187 80000167400001504 80000167400001503 80000167400001519 6.14490120342
9.33566 80000167400001503 80000167400001502 80000167400001519 6.01075739884
9.33716 80000167400001502 80000167400001501 80000167400001519 5.84661374788
9.38815 80000167400001501 80000167400001500 80000167400001519 5.52976580795
9.41909 80000167400001500 80000167400001498 80000167400001519 4.99593346816
9.42404 80000167400001498 80000167400001496 80000167400001519 4.66451770247
9.48905 80000167400001496 80000167400001495 80000167400001519 4.42803373661
9.51275 80000167400001495 80000167400001494 80000167400001519 4.17683491473
9.58127 80000167400001494 80000167400001493 80000167400001519 4.00794511147
9.60785 80000167400001493 80000167400001491 80000167400001519 3.70877426464
9.61504 80000167400001491 80000167400001490 80000167400001519 3.49086136926
9.62831 80000167400001490 80000167400001489 80000167400001519 3.28303305796
9.64119 80000167400001489 80000167400001488 80000167400001519 3.08482263583
9.65514 80000167400001488 80000167400001487 80000167400001519 3.00813107163
9.65945 80000167400001487 80000167400001486 80000167400001519 2.89578500573
9.72012 80000167400001486 80000167400001485 80000167400001519 2.73314261732
9.74018 80000167400001485 80000167400001484 80000167400001519 2.5772902716
9.75133 80000167400001484 80000167400001483 80000167400001519 2.44422570455
10.3718 80000167400001483 80000167400001479 80000167400001519 2.00202813925
10.5611 80000167400001479 80000167400001476 80000167400001519 1.74357057433
10.6231 80000167400001476 80000167400001475 80000167400001519 1.66666955611
9.05811 80000167400001551 80000167400001550 80000167400001559 5.52976580795
9.07216 80000167400001550 80000167400001549 80000167400001559 5.22758097313
9.08309 80000167400001549 80000167400001548 80000167400001559 4.99593346816
9.08845 80000167400001548 80000167400001547 80000167400001559 4.93938066349
9.17946 80000167400001547 80000167400001546 80000167400001559 4.66451770247
9.21671 80000167400001546 80000167400001545 80000167400001559 4.42803373661
9.39214 80000167400001545 80000167400001544 80000167400001559 4.17683491473
9.49951 80000167400001544 80000167400001543 80000167400001559 4.00794511147
9.5314 80000167400001543 80000167400001542 80000167400001559 3.93726108473
9.61584 80000167400001542 80000167400001541 80000167400001559 3.70877426464
9.6756 80000167400001541 80000167400001540 80000167400001559 3.49086136926
9.68784 80000167400001540 80000167400001539 80000167400001559 3.28303305796
9.79219 80000167400001539 80000167400001538 80000167400001559 3.08482263583
9.81177 80000167400001538 80000167400001537 80000167400001559 3.00813107163
9.82075 80000167400001537 80000167400001536 80000167400001559 2.89578500573
9.83531 80000167400001536 80000167400001534 80000167400001559 2.5772902716
9.91528 80000167400001534 80000167400001533 80000167400001559 2.44422570455
9.93922 80000167400001533 80000167400001532 80000167400001559 2.31611074396
9.02239 80000167400001646 80000167400001645 80000167400001672 2.1032696526
9.10671 80000167400001697 80000167400001696 80000167400001706 3.49086136926
9.34165 80000167400001696 80000167400001694 80000167400001706 3.08482263583
9.38547 80000167400001694 80000167400001693 80000167400001706 3.00813107163
9.44797 80000167400001693 80000167400001692 80000167400001706 2.89578500573
9.48372 80000167400001692 80000167400001691 80000167400001706 2.73314261732
9.53044 80000167400001691 80000167400001690 80000167400001706 2.5772902716
9.00337 80000167400001817 80000167400001816 80000167400001823 6.14490120342
9.06096 80000167400001816 80000167400001815 80000167400001823 6.01075739884
9.10157 80000167400001815 80000167400001814 80000167400001823 5.84661374788
9.17729 80000167400001814 80000167400001813 80000167400001823 5.52976580795
9.24733 80000167400001813 80000167400001812 80000167400001823 5.22758097313
9.33415 80000167400001812 80000167400001809 80000167400001823 4.66451770247
9.37457 80000167400001809 80000167400001808 80000167400001823 4.42803373661
9.46621 80000167400001808 80000167400001807 80000167400001823 4.17683491473
9.49116 80000167400001807 80000167400001806 80000167400001823 4.00794511147
9.50055 80000167400001806 80000167400001804 80000167400001823 3.70877426464
9.55569 80000167400001804 80000167400001803 80000167400001823 3.49086136926
9.62523 80000167400001803 80000167400001802 80000167400001823 3.28303305796
9.7226 80000167400001802 80000167400001801 80000167400001823 3.08482263583
9.73178 80000167400001801 80000167400001800 80000167400001823 3.00813107163
9.76275 80000167400001800 80000167400001799 80000167400001823 2.89578500573
9.81278 80000167400001799 80000167400001798 80000167400001823 2.73314261732
9.85944 80000167400001798 80000167400001797 80000167400001823 2.5772902716
9.89993 80000167400001797 80000167400001796 80000167400001823 2.44422570455
9.90321 80000167400001796 80000167400001795 80000167400001823 2.31611074396
9.92509 80000167400001795 80000167400001794 80000167400001823 2.20792547238
9.9411 80000167400001794 80000167400001793 80000167400001823 2.1032696526
9.01298 80000167400001917 80000167400001916 80000167400001924 5.84661374788
9.08309 80000167400001916 80000167400001915 80000167400001924 5.52976580795
9.11179 80000167400001915 80000167400001914 80000167400001924 5.22758097313
9.13154 80000167400001914 80000167400001913 80000167400001924 4.99593346816
9.15502 80000167400001913 80000167400001912 80000167400001924 4.93938066349
9.18376 80000167400001912 80000167400001911 80000167400001924 4.66451770247
9.22845 80000167400001911 80000167400001910 80000167400001924 4.42803373661
9.2342 80000167400001910 80000167400001909 80000167400001924 4.17683491473
9.41784 80000167400001909 80000167400001908 80000167400001924 4.00794511147
9.42527 80000167400001908 80000167400001907 80000167400001924 3.93726108473
9.48372 80000167400001907 80000167400001905 80000167400001924 3.49086136926
9.52754 80000167400001905 80000167400001904 80000167400001924 3.28303305796
9.57436 80000167400001904 80000167400001898 80000167400001924 2.44422570455
9.62754 80000167400001898 80000167400001897 80000167400001924 2.31611074396
9.70492 80000167400001897 80000167400001896 80000167400001924 2.20792547238
9.75133 80000167400001896 80000167400001895 80000167400001924 2.1032696526
9.76724 80000167400001895 80000167400001894 80000167400001924 2.00202813925
9.88016 80000167400001894 80000167400001892 80000167400001924 1.82268925262
9.01298 80000167400001951 80000167400001950 80000167400001959 3.70877426464
9.02239 80000167400001950 80000167400001947 80000167400001959 3.08482263583
9.05811 80000167400001976 80000167400001975 80000167400001991 4.00794511147
9.09111 80000167400001975 80000167400001974 80000167400001991 3.93726108473
9.15273 80000167400001974 80000167400001973 80000167400001991 3.70877426464
9.16182 80000167400001973 80000167400001971 80000167400001991 3.28303305796
9.18376 80000167400001971 80000167400001970 80000167400001991 3.08482263583
9.19013 80000167400001970 80000167400001969 80000167400001991 3.00813107163
9.19013 80000167400001969 80000167400001968 80000167400001991 2.89578500573
9.19433 80000167400001968 80000167400001967 80000167400001991 2.73314261732
9.21869 80000167400001967 80000167400001966 80000167400001991 2.5772902716
9.26896 80000167400001966 80000167400001965 80000167400001991 2.44422570455
9.81378 80000167400001965 80000167400001960 80000167400001991 1.90408954353
9.06939 80000167400002057 80000167400002056 80000167400002064 5.52976580795
9.10671 80000167400002056 80000167400002055 80000167400002064 5.22758097313
9.19848 80000167400002055 80000167400002054 80000167400002064 4.99593346816
9.21472 80000167400002054 80000167400002052 80000167400002064 4.66451770247
9.2342 80000167400002052 80000167400002049 80000167400002064 4.00794511147
9.25828 80000167400002049 80000167400002048 80000167400002064 3.93726108473
9.30602 80000167400002048 80000167400002047 80000167400002064 3.70877426464
9.43617 80000167400002047 80000167400002046 80000167400002064 3.49086136926
9.50973 80000167400002046 80000167400002045 80000167400002064 3.28303305796
9.58127 80000167400002045 80000167400002044 80000167400002064 3.08482263583
9.58807 80000167400002044 80000167400002042 80000167400002064 2.89578500573
9.65224 80000167400002042 80000167400002041 80000167400002064 2.73314261732
9.69647 80000167400002041 80000167400002040 80000167400002064 2.5772902716
9.76892 80000167400002040 80000167400002038 80000167400002064 2.31611074396
9.77113 80000167400002038 80000167400002037 80000167400002064 2.20792547238
9.78795 80000167400002037 80000167400002036 80000167400002064 2.1032696526
9.82565 80000167400002036 80000167400002035 80000167400002064 2.00202813925
9.83147 80000167400002035 80000167400002032 80000167400002064 1.74357057433
9.84521 80000167400002032 80000167400002031 80000167400002064 1.66666955611
9.85944 80000167400002031 80000167400002029 80000167400002064 1.53123902916
9.00012 80000167400002127 80000167400002126 80000167400002152 2.20792547238
