logMh | fpID | subhaloID | main leaf ID | z
9.06096 80000035300005239 80000035300005238 80000035300005244 10.9190331982
9.16182 80000035300005238 80000035300005237 80000035300005244 10.3674435724
9.31401 80000035300005237 80000035300005236 80000035300005244 9.99659046619
9.32031 80000035300005236 80000035300005235 80000035300005244 9.84138043947
9.42771 80000035300005235 80000035300005234 80000035300005244 9.38877127194
9.81026 80000035300005234 80000035300005231 80000035300005244 8.44947629437
9.86926 80000035300005231 80000035300005230 80000035300005244 8.01217294887
9.90929 80000035300005230 80000035300005229 80000035300005244 7.59510714987
9.97074 80000035300005229 80000035300005228 80000035300005244 7.23627606617
10.0149 80000035300005228 80000035300005227 80000035300005244 7.00541704554
10.0307 80000035300005227 80000035300005226 80000035300005244 6.85511726265
10.0992 80000035300005226 80000035300005225 80000035300005244 6.49159774567
10.1833 80000035300005225 80000035300005224 80000035300005244 6.14490120342
10.23 80000035300005224 80000035300005221 80000035300005244 5.52976580795
10.2712 80000035300005221 80000035300005220 80000035300005244 5.22758097313
10.3971 80000035300005220 80000035300005218 80000035300005244 4.93938066349
10.768 80000035300005218 80000035300005216 80000035300005244 4.42803373661
10.817 80000035300005216 80000035300005215 80000035300005244 4.17683491473
10.8288 80000035300005215 80000035300005214 80000035300005244 4.00794511147
10.8423 80000035300005214 80000035300005213 80000035300005244 3.93726108473
10.9023 80000035300005213 80000035300005212 80000035300005244 3.70877426464
10.9464 80000035300005212 80000035300005211 80000035300005244 3.49086136926
10.9897 80000035300005211 80000035300005210 80000035300005244 3.28303305796
10.9997 80000035300005210 80000035300005209 80000035300005244 3.08482263583
11.0154 80000035300005209 80000035300005208 80000035300005244 3.00813107163
11.0203 80000035300005208 80000035300005207 80000035300005244 2.89578500573
11.024 80000035300005207 80000035300005206 80000035300005244 2.73314261732
11.0599 80000035300005206 80000035300005205 80000035300005244 2.5772902716
11.0738 80000035300005205 80000035300005204 80000035300005244 2.44422570455
11.0874 80000035300005204 80000035300005203 80000035300005244 2.31611074396
11.0991 80000035300005203 80000035300005202 80000035300005244 2.20792547238
11.1258 80000035300005202 80000035300005201 80000035300005244 2.1032696526
11.1423 80000035300005201 80000035300005200 80000035300005244 2.00202813925
11.1661 80000035300005200 80000035300005199 80000035300005244 1.90408954353
11.1736 80000035300005199 80000035300005198 80000035300005244 1.82268925262
11.1773 80000035300005198 80000035300005197 80000035300005244 1.74357057433
11.1869 80000035300005197 80000035300005196 80000035300005244 1.66666955611
11.1907 80000035300005196 80000035300005195 80000035300005244 1.60423452207
11.1959 80000035300005195 80000035300005194 80000035300005244 1.53123902916
11.2137 80000035300005194 80000035300005193 80000035300005244 1.47197484527
11.2278 80000035300005193 80000035300005192 80000035300005244 1.41409822037
11.2415 80000035300005192 80000035300005191 80000035300005244 1.3575766674
11.2455 80000035300005191 80000035300005190 80000035300005244 1.30237845991
11.2502 80000035300005190 80000035300005189 80000035300005244 1.24847261425
11.2534 80000035300005189 80000035300005188 80000035300005244 1.20625808078
11.2661 80000035300005188 80000035300005187 80000035300005244 1.15460271236
11.2706 80000035300005187 80000035300005186 80000035300005244 1.11415056377
11.2753 80000035300005186 80000035300005185 80000035300005244 1.07445789455
11.282 80000035300005185 80000035300005183 80000035300005244 0.997294225782
11.2894 80000035300005183 80000035300005182 80000035300005244 0.987852810816
11.2911 80000035300005182 80000035300005181 80000035300005244 0.950531351585
11.2982 80000035300005181 80000035300005180 80000035300005244 0.923000816178
11.3021 80000035300005180 80000035300005179 80000035300005244 0.886896937575
11.3092 80000035300005179 80000035300005178 80000035300005244 0.851470900625
11.3146 80000035300005178 80000035300005177 80000035300005244 0.816709979012
11.3172 80000035300005177 80000035300005176 80000035300005244 0.791068248946
11.3211 80000035300005176 80000035300005175 80000035300005244 0.757441372616
11.3233 80000035300005175 80000035300005174 80000035300005244 0.732636182022
11.3325 80000035300005174 80000035300005173 80000035300005244 0.700106353719
11.3328 80000035300005173 80000035300005172 80000035300005244 0.676110411213
11.3435 80000035300005172 80000035300005171 80000035300005244 0.644641840685
11.3489 80000035300005171 80000035300005170 80000035300005244 0.621428745243
11.3541 80000035300005170 80000035300005169 80000035300005244 0.598543288188
11.3583 80000035300005169 80000035300005168 80000035300005244 0.575980845108
11.3645 80000035300005168 80000035300005167 80000035300005244 0.546392183141
11.3694 80000035300005167 80000035300005166 80000035300005244 0.524565820434
11.3704 80000035300005166 80000035300005164 80000035300005244 0.481832943421
11.3732 80000035300005164 80000035300005163 80000035300005244 0.460917794181
11.3747 80000035300005163 80000035300005162 80000035300005244 0.440297849248
11.3793 80000035300005162 80000035300005161 80000035300005244 0.419968941997
11.3817 80000035300005161 80000035300005160 80000035300005244 0.399926964614
11.3845 80000035300005160 80000035300005159 80000035300005244 0.38016786726
11.3904 80000035300005159 80000035300005155 80000035300005244 0.310074120128
11.3935 80000035300005155 80000035300005154 80000035300005244 0.291583239722
11.403 80000035300005154 80000035300005153 80000035300005244 0.273353346578
11.408 80000035300005153 80000035300005151 80000035300005244 0.243540181555
11.4132 80000035300005151 80000035300005149 80000035300005244 0.214425035514
11.4144 80000035300005149 80000035300005148 80000035300005244 0.197284182376
11.4148 80000035300005148 80000035300005147 80000035300005244 0.180385261706
11.4208 80000035300005147 80000035300005146 80000035300005244 0.169252033244
11.4259 80000035300005146 80000035300005145 80000035300005244 0.152748768902
11.4279 80000035300005145 80000035300005144 80000035300005244 0.14187620397
11.4303 80000035300005144 80000035300005143 80000035300005244 0.125759332411
11.4331 80000035300005143 80000035300005141 80000035300005244 0.0994018026302
11.4371 80000035300005141 80000035300005140 80000035300005244 0.0838844307975
11.4397 80000035300005140 80000035300005139 80000035300005244 0.0736613846564
11.4442 80000035300005139 80000035300005138 80000035300005244 0.0585073227945
11.447 80000035300005138 80000035300005137 80000035300005244 0.0485236299818
11.454 80000035300005137 80000035300005136 80000035300005244 0.0337243718735
11.4596 80000035300005136 80000035300005135 80000035300005244 0.0239744283828
11.4658 80000035300005135 80000035300005134 80000035300005244 0.00952166696794
11.4676 80000035300005134 80000035300005133 80000035300005244 2.22044604925e-16
9.06096 80000035300005253 80000035300005252 80000035300005256 10.3674435724
9.50872 80000035300005252 80000035300005248 80000035300005256 9.00233985416
9.62754 80000035300005248 80000035300005247 80000035300005256 8.9079991856
9.07216 80000035300005305 80000035300005304 80000035300005310 7.00541704554
9.09637 80000035300005304 80000035300005303 80000035300005310 6.85511726265
9.16852 80000035300005303 80000035300005302 80000035300005310 6.49159774567
9.10157 80000035300005389 80000035300005388 80000035300005393 8.44947629437
9.17293 80000035300005388 80000035300005387 80000035300005393 8.01217294887
9.2087 80000035300005387 80000035300005386 80000035300005393 7.59510714987
9.27072 80000035300005386 80000035300005385 80000035300005393 7.23627606617
9.40774 80000035300005385 80000035300005384 80000035300005393 7.00541704554
9.50567 80000035300005384 80000035300005382 80000035300005393 6.49159774567
9.06378 80000035300005426 80000035300005425 80000035300005428 9.99659046619
9.18802 80000035300005425 80000035300005423 80000035300005428 9.38877127194
9.21671 80000035300005423 80000035300005422 80000035300005428 9.00233985416
9.64193 80000035300005422 80000035300005420 80000035300005428 8.44947629437
9.74078 80000035300005420 80000035300005419 80000035300005428 8.01217294887
9.79377 80000035300005419 80000035300005418 80000035300005428 7.59510714987
9.85215 80000035300005418 80000035300005415 80000035300005428 6.85511726265
9.96155 80000035300005415 80000035300005414 80000035300005428 6.49159774567
9.98246 80000035300005414 80000035300005413 80000035300005428 6.14490120342
10.0301 80000035300005413 80000035300005412 80000035300005428 6.01075739884
10.0489 80000035300005412 80000035300005411 80000035300005428 5.84661374788
10.139 80000035300005411 80000035300005410 80000035300005428 5.52976580795
10.2484 80000035300005410 80000035300005409 80000035300005428 5.22758097313
10.3208 80000035300005409 80000035300005408 80000035300005428 4.99593346816
9.00012 80000035300005511 80000035300005510 80000035300005516 7.23627606617
9.0066 80000035300005510 80000035300005509 80000035300005516 7.00541704554
9.34016 80000035300005509 80000035300005506 80000035300005516 6.14490120342
9.3974 80000035300005506 80000035300005505 80000035300005516 6.01075739884
9.08038 80000035300005556 80000035300005555 80000035300005560 9.38877127194
9.10157 80000035300005555 80000035300005554 80000035300005560 9.00233985416
9.11179 80000035300005554 80000035300005553 80000035300005560 8.9079991856
9.22262 80000035300005553 80000035300005552 80000035300005560 8.44947629437
9.31874 80000035300005552 80000035300005551 80000035300005560 8.01217294887
9.40518 80000035300005551 80000035300005550 80000035300005560 7.59510714987
9.42404 80000035300005550 80000035300005547 80000035300005560 6.85511726265
9.49431 80000035300005547 80000035300005546 80000035300005560 6.49159774567
9.58891 80000035300005546 80000035300005545 80000035300005560 6.14490120342
9.5931 80000035300005545 80000035300005544 80000035300005560 6.01075739884
9.60866 80000035300005544 80000035300005543 80000035300005560 5.84661374788
9.63214 80000035300005543 80000035300005542 80000035300005560 5.52976580795
9.06096 80000035300005611 80000035300005610 80000035300005628 3.49086136926
9.0316 80000035300005744 80000035300005743 80000035300005752 8.44947629437
9.06378 80000035300005743 80000035300005742 80000035300005752 8.01217294887
9.14344 80000035300005742 80000035300005741 80000035300005752 7.59510714987
9.14811 80000035300005741 80000035300005740 80000035300005752 7.23627606617
9.15042 80000035300005740 80000035300005739 80000035300005752 7.00541704554
9.21072 80000035300005739 80000035300005738 80000035300005752 6.85511726265
9.43377 80000035300005738 80000035300005737 80000035300005752 6.49159774567
9.50669 80000035300005737 80000035300005736 80000035300005752 6.14490120342
9.51873 80000035300005736 80000035300005735 80000035300005752 6.01075739884
9.5314 80000035300005735 80000035300005734 80000035300005752 5.84661374788
9.55569 80000035300005734 80000035300005733 80000035300005752 5.52976580795
9.62831 80000035300005733 80000035300005732 80000035300005752 5.22758097313
9.72935 80000035300005732 80000035300005731 80000035300005752 4.99593346816
9.76947 80000035300005731 80000035300005727 80000035300005752 4.17683491473
9.00337 80000035300005828 80000035300005827 80000035300005835 7.00541704554
9.06939 80000035300005827 80000035300005826 80000035300005835 6.85511726265
9.07216 80000035300005826 80000035300005825 80000035300005835 6.49159774567
9.13154 80000035300005825 80000035300005824 80000035300005835 6.14490120342
9.13871 80000035300005824 80000035300005823 80000035300005835 6.01075739884
9.15042 80000035300005823 80000035300005822 80000035300005835 5.84661374788
9.18589 80000035300005822 80000035300005821 80000035300005835 5.52976580795
9.0316 80000035300005962 80000035300005961 80000035300005971 4.42803373661
9.13871 80000035300005961 80000035300005960 80000035300005971 4.17683491473
9.19223 80000035300005960 80000035300005956 80000035300005971 3.49086136926
9.20464 80000035300005956 80000035300005955 80000035300005971 3.28303305796
9.28956 80000035300005955 80000035300005954 80000035300005971 3.08482263583
9.00012 80000035300006001 80000035300006000 80000035300006020 2.44422570455
9.0066 80000035300006000 80000035300005998 80000035300006020 2.20792547238
9.01298 80000035300005998 80000035300005990 80000035300006020 1.53123902916
9.03763 80000035300006043 80000035300006042 80000035300006060 1.90408954353
9.0098 80000035300006202 80000035300006201 80000035300006212 4.17683491473
9.04358 80000035300006201 80000035300006200 80000035300006212 4.00794511147
9.05235 80000035300006200 80000035300006197 80000035300006212 3.49086136926
9.10157 80000035300006197 80000035300006195 80000035300006212 3.08482263583
9.10926 80000035300006195 80000035300006194 80000035300006212 3.00813107163
9.25828 80000035300006463 80000035300006462 80000035300006466 8.01217294887
9.27246 80000035300006462 80000035300006461 80000035300006466 7.59510714987
9.40001 80000035300006461 80000035300006460 80000035300006466 7.23627606617
9.43136 80000035300006460 80000035300006459 80000035300006466 7.00541704554
9.51074 80000035300006459 80000035300006458 80000035300006466 6.85511726265
9.58469 80000035300006458 80000035300006457 80000035300006466 6.49159774567
9.64638 80000035300006457 80000035300006456 80000035300006466 6.14490120342
9.66655 80000035300006456 80000035300006454 80000035300006466 5.84661374788
9.71574 80000035300006454 80000035300006453 80000035300006466 5.52976580795
9.78955 80000035300006453 80000035300006452 80000035300006466 5.22758097313
9.82906 80000035300006452 80000035300006451 80000035300006466 4.99593346816
9.86527 80000035300006451 80000035300006449 80000035300006466 4.66451770247
9.92198 80000035300006449 80000035300006448 80000035300006466 4.42803373661
9.93011 80000035300006448 80000035300006447 80000035300006466 4.17683491473
9.9411 80000035300006447 80000035300006445 80000035300006466 3.93726108473
