logMh | fpID | subhaloID | main leaf ID | z
9.626 90000052200000095 90000052200000094 90000052200000104 7.00541704554
9.72507 90000052200000094 90000052200000093 90000052200000104 6.85511726265
9.81328 90000052200000093 90000052200000092 90000052200000104 6.49159774567
9.85353 90000052200000092 90000052200000091 90000052200000104 6.14490120342
9.88826 90000052200000091 90000052200000090 90000052200000104 6.01075739884
9.91289 90000052200000090 90000052200000089 90000052200000104 5.84661374788
9.9278 90000052200000089 90000052200000088 90000052200000104 5.52976580795
9.98584 90000052200000088 90000052200000087 90000052200000104 5.22758097313
10.0221 90000052200000087 90000052200000086 90000052200000104 4.99593346816
10.027 90000052200000086 90000052200000085 90000052200000104 4.93938066349
10.05 90000052200000085 90000052200000084 90000052200000104 4.66451770247
10.0869 90000052200000084 90000052200000083 90000052200000104 4.42803373661
10.1667 90000052200000083 90000052200000082 90000052200000104 4.17683491473
10.2255 90000052200000082 90000052200000081 90000052200000104 4.00794511147
10.2536 90000052200000081 90000052200000080 90000052200000104 3.93726108473
10.3262 90000052200000080 90000052200000079 90000052200000104 3.70877426464
10.427 90000052200000079 90000052200000078 90000052200000104 3.49086136926
10.481 90000052200000078 90000052200000077 90000052200000104 3.28303305796
10.5325 90000052200000077 90000052200000076 90000052200000104 3.08482263583
10.5521 90000052200000076 90000052200000075 90000052200000104 3.00813107163
10.5703 90000052200000075 90000052200000074 90000052200000104 2.89578500573
10.5924 90000052200000074 90000052200000073 90000052200000104 2.73314261732
10.6229 90000052200000073 90000052200000071 90000052200000104 2.44422570455
10.738 90000052200000071 90000052200000070 90000052200000104 2.31611074396
10.8159 90000052200000070 90000052200000069 90000052200000104 2.20792547238
10.9094 90000052200000069 90000052200000068 90000052200000104 2.1032696526
10.9202 90000052200000068 90000052200000067 90000052200000104 2.00202813925
10.9623 90000052200000067 90000052200000066 90000052200000104 1.90408954353
10.9766 90000052200000066 90000052200000065 90000052200000104 1.82268925262
11.0267 90000052200000065 90000052200000058 90000052200000104 1.3575766674
11.0369 90000052200000058 90000052200000057 90000052200000104 1.30237845991
11.0811 90000052200000057 90000052200000056 90000052200000104 1.24847261425
11.0879 90000052200000056 90000052200000055 90000052200000104 1.20625808078
11.1597 90000052200000055 90000052200000054 90000052200000104 1.15460271236
11.1805 90000052200000054 90000052200000053 90000052200000104 1.11415056377
11.226 90000052200000053 90000052200000052 90000052200000104 1.07445789455
11.2346 90000052200000052 90000052200000050 90000052200000104 0.997294225782
11.2458 90000052200000050 90000052200000049 90000052200000104 0.987852810816
11.2598 90000052200000049 90000052200000048 90000052200000104 0.950531351585
11.2741 90000052200000048 90000052200000047 90000052200000104 0.923000816178
11.286 90000052200000047 90000052200000046 90000052200000104 0.886896937575
11.2989 90000052200000046 90000052200000045 90000052200000104 0.851470900625
11.3009 90000052200000045 90000052200000044 90000052200000104 0.816709979012
11.3083 90000052200000044 90000052200000042 90000052200000104 0.757441372616
11.3191 90000052200000042 90000052200000041 90000052200000104 0.732636182022
11.3212 90000052200000041 90000052200000040 90000052200000104 0.700106353719
11.3227 90000052200000040 90000052200000039 90000052200000104 0.676110411213
11.3336 90000052200000039 90000052200000036 90000052200000104 0.598543288188
11.3403 90000052200000036 90000052200000034 90000052200000104 0.546392183141
11.3424 90000052200000034 90000052200000032 90000052200000104 0.503047523245
11.3437 90000052200000032 90000052200000030 90000052200000104 0.460917794181
11.3441 90000052200000030 90000052200000029 90000052200000104 0.440297849248
11.3448 90000052200000029 90000052200000027 90000052200000104 0.399926964614
11.3499 90000052200000027 90000052200000022 90000052200000104 0.310074120128
11.3521 90000052200000022 90000052200000021 90000052200000104 0.291583239722
11.3587 90000052200000021 90000052200000020 90000052200000104 0.273353346578
11.3624 90000052200000020 90000052200000019 90000052200000104 0.261343256161
11.3666 90000052200000019 90000052200000018 90000052200000104 0.243540181555
11.368 90000052200000018 90000052200000017 90000052200000104 0.22598838626
11.3694 90000052200000017 90000052200000016 90000052200000104 0.214425035514
11.3734 90000052200000016 90000052200000015 90000052200000104 0.197284182376
11.3755 90000052200000015 90000052200000014 90000052200000104 0.180385261706
11.3823 90000052200000014 90000052200000012 90000052200000104 0.152748768902
11.3846 90000052200000012 90000052200000011 90000052200000104 0.14187620397
11.3861 90000052200000011 90000052200000010 90000052200000104 0.125759332411
11.3875 90000052200000010 90000052200000009 90000052200000104 0.109869940459
11.3898 90000052200000009 90000052200000008 90000052200000104 0.0994018026302
11.3939 90000052200000008 90000052200000007 90000052200000104 0.0838844307975
11.3961 90000052200000007 90000052200000006 90000052200000104 0.0736613846564
11.3986 90000052200000006 90000052200000005 90000052200000104 0.0585073227945
11.4015 90000052200000005 90000052200000004 90000052200000104 0.0485236299818
11.4047 90000052200000004 90000052200000003 90000052200000104 0.0337243718735
11.4095 90000052200000003 90000052200000002 90000052200000104 0.0239744283828
11.4137 90000052200000002 90000052200000001 90000052200000104 0.00952166696794
11.4138 90000052200000001 90000052200000000 90000052200000104 2.22044604925e-16
9.03763 90000052200000111 90000052200000110 90000052200000117 8.44947629437
9.11431 90000052200000110 90000052200000109 90000052200000117 8.01217294887
9.30763 90000052200000109 90000052200000108 90000052200000117 7.59510714987
9.53044 90000052200000108 90000052200000107 90000052200000117 7.23627606617
9.00337 90000052200000124 90000052200000123 90000052200000127 8.01217294887
9.11179 90000052200000123 90000052200000122 90000052200000127 7.59510714987
9.05811 90000052200000197 90000052200000196 90000052200000202 7.23627606617
9.14108 90000052200000196 90000052200000195 90000052200000202 7.00541704554
9.35771 90000052200000195 90000052200000193 90000052200000202 6.49159774567
9.47396 90000052200000193 90000052200000192 90000052200000202 6.14490120342
9.55478 90000052200000192 90000052200000191 90000052200000202 6.01075739884
9.59807 90000052200000191 90000052200000190 90000052200000202 5.84661374788
9.64932 90000052200000190 90000052200000189 90000052200000202 5.52976580795
9.66655 90000052200000189 90000052200000188 90000052200000202 5.22758097313
9.68515 90000052200000188 90000052200000187 90000052200000202 4.99593346816
9.71385 90000052200000187 90000052200000186 90000052200000202 4.93938066349
9.73899 90000052200000186 90000052200000185 90000052200000202 4.66451770247
9.75822 90000052200000185 90000052200000184 90000052200000202 4.42803373661
9.0066 90000052200000252 90000052200000251 90000052200000260 6.14490120342
9.04945 90000052200000251 90000052200000249 90000052200000260 5.84661374788
9.07766 90000052200000249 90000052200000248 90000052200000260 5.52976580795
9.20055 90000052200000248 90000052200000247 90000052200000260 5.22758097313
9.2026 90000052200000247 90000052200000245 90000052200000260 4.93938066349
9.25101 90000052200000245 90000052200000244 90000052200000260 4.66451770247
9.25466 90000052200000244 90000052200000243 90000052200000260 4.42803373661
9.25466 90000052200000243 90000052200000239 90000052200000260 3.70877426464
9.07492 90000052200000355 90000052200000354 90000052200000364 8.01217294887
9.11681 90000052200000354 90000052200000353 90000052200000364 7.59510714987
9.19433 90000052200000353 90000052200000352 90000052200000364 7.23627606617
9.20055 90000052200000352 90000052200000351 90000052200000364 7.00541704554
9.2361 90000052200000351 90000052200000350 90000052200000364 6.85511726265
9.32651 90000052200000350 90000052200000349 90000052200000364 6.49159774567
9.46621 90000052200000349 90000052200000348 90000052200000364 6.14490120342
9.48692 90000052200000348 90000052200000347 90000052200000364 6.01075739884
9.53713 90000052200000347 90000052200000345 90000052200000364 5.52976580795
9.66017 90000052200000345 90000052200000344 90000052200000364 5.22758097313
9.81528 90000052200000344 90000052200000343 90000052200000364 4.99593346816
9.87146 90000052200000343 90000052200000340 90000052200000364 4.42803373661
9.93809 90000052200000340 90000052200000339 90000052200000364 4.17683491473
9.95869 90000052200000339 90000052200000338 90000052200000364 4.00794511147
9.97004 90000052200000338 90000052200000337 90000052200000364 3.93726108473
9.99187 90000052200000337 90000052200000336 90000052200000364 3.70877426464
10.0844 90000052200000336 90000052200000335 90000052200000364 3.49086136926
10.1771 90000052200000335 90000052200000334 90000052200000364 3.28303305796
10.2697 90000052200000334 90000052200000333 90000052200000364 3.08482263583
10.4049 90000052200000333 90000052200000331 90000052200000364 2.89578500573
10.4364 90000052200000331 90000052200000329 90000052200000364 2.5772902716
9.18162 90000052200000386 90000052200000385 90000052200000394 5.52976580795
9.01614 90000052200000473 90000052200000472 90000052200000477 6.85511726265
9.11179 90000052200000472 90000052200000471 90000052200000477 6.49159774567
9.21472 90000052200000471 90000052200000470 90000052200000477 6.14490120342
9.26187 90000052200000470 90000052200000469 90000052200000477 6.01075739884
9.30923 90000052200000469 90000052200000468 90000052200000477 5.84661374788
9.55569 90000052200000468 90000052200000467 90000052200000477 5.52976580795
9.61106 90000052200000467 90000052200000466 90000052200000477 5.22758097313
9.73899 90000052200000466 90000052200000465 90000052200000477 4.99593346816
9.78955 90000052200000465 90000052200000463 90000052200000477 4.66451770247
9.83339 90000052200000463 90000052200000462 90000052200000477 4.42803373661
9.8697 90000052200000462 90000052200000461 90000052200000477 4.17683491473
9.90524 90000052200000461 90000052200000460 90000052200000477 4.00794511147
9.04653 90000052200000502 90000052200000501 90000052200000503 6.49159774567
9.16852 90000052200000501 90000052200000500 90000052200000503 6.14490120342
9.19641 90000052200000500 90000052200000499 90000052200000503 6.01075739884
9.04062 90000052200000612 90000052200000611 90000052200000624 3.70877426464
9.04653 90000052200000611 90000052200000610 90000052200000624 3.49086136926
9.05811 90000052200000610 90000052200000609 90000052200000624 3.28303305796
9.08845 90000052200000609 90000052200000608 90000052200000624 3.08482263583
9.15273 90000052200000608 90000052200000606 90000052200000624 2.89578500573
9.20055 90000052200000606 90000052200000605 90000052200000624 2.73314261732
9.26896 90000052200000605 90000052200000602 90000052200000624 2.31611074396
9.14344 90000052200000683 90000052200000682 90000052200000690 3.49086136926
9.20668 90000052200000682 90000052200000681 90000052200000690 3.28303305796
9.22651 90000052200000681 90000052200000676 90000052200000690 2.5772902716
9.2361 90000052200000676 90000052200000675 90000052200000690 2.44422570455
9.24548 90000052200000675 90000052200000674 90000052200000690 2.31611074396
9.09898 90000052200000696 90000052200000695 90000052200000708 2.73314261732
9.00012 90000052200000851 90000052200000850 90000052200000864 4.17683491473
9.0666 90000052200000850 90000052200000849 90000052200000864 4.00794511147
9.10926 90000052200000849 90000052200000848 90000052200000864 3.93726108473
9.12424 90000052200000848 90000052200000845 90000052200000864 3.28303305796
9.14344 90000052200000845 90000052200000844 90000052200000864 3.08482263583
9.14344 90000052200000844 90000052200000842 90000052200000864 2.89578500573
9.17073 90000052200000842 90000052200000841 90000052200000864 2.73314261732
9.22651 90000052200000841 90000052200000840 90000052200000864 2.5772902716
9.34609 90000052200000840 90000052200000838 90000052200000864 2.31611074396
9.35194 90000052200000838 90000052200000837 90000052200000864 2.20792547238
9.42157 90000052200000837 90000052200000836 90000052200000864 2.1032696526
9.49536 90000052200000836 90000052200000835 90000052200000864 2.00202813925
9.59642 90000052200000835 90000052200000834 90000052200000864 1.90408954353
9.61899 90000052200000834 90000052200000831 90000052200000864 1.66666955611
9.66302 90000052200000831 90000052200000830 90000052200000864 1.60423452207
9.00012 90000052200000976 90000052200000975 90000052200000984 8.01217294887
9.0098 90000052200000975 90000052200000974 90000052200000984 7.59510714987
9.11179 90000052200000974 90000052200000973 90000052200000984 7.23627606617
9.13394 90000052200000973 90000052200000970 90000052200000984 6.49159774567
9.23799 90000052200000970 90000052200000969 90000052200000984 6.14490120342
9.30923 90000052200000969 90000052200000968 90000052200000984 6.01075739884
9.31083 90000052200000968 90000052200000967 90000052200000984 5.84661374788
9.31874 90000052200000967 90000052200000966 90000052200000984 5.52976580795
9.32651 90000052200000966 90000052200000965 90000052200000984 5.22758097313
9.43497 90000052200000965 90000052200000964 90000052200000984 4.99593346816
9.45145 90000052200000964 90000052200000962 90000052200000984 4.66451770247
9.55296 90000052200000962 90000052200000961 90000052200000984 4.42803373661
9.60946 90000052200000961 90000052200000960 90000052200000984 4.17683491473
9.61346 90000052200000960 90000052200000958 90000052200000984 3.93726108473
9.76049 90000052200000958 90000052200000957 90000052200000984 3.70877426464
9.81877 90000052200000957 90000052200000956 90000052200000984 3.49086136926
9.85307 90000052200000956 90000052200000955 90000052200000984 3.28303305796
9.88656 90000052200000955 90000052200000954 90000052200000984 3.08482263583
9.89162 90000052200000954 90000052200000953 90000052200000984 3.00813107163
9.90402 90000052200000953 90000052200000952 90000052200000984 2.89578500573
9.93772 90000052200000952 90000052200000941 90000052200000984 1.66666955611
9.03463 90000052200000997 90000052200000996 90000052200001002 6.14490120342
9.08309 90000052200000996 90000052200000994 90000052200001002 5.84661374788
9.12178 90000052200000994 90000052200000993 90000052200001002 5.52976580795
9.13634 90000052200000993 90000052200000992 90000052200001002 5.22758097313
9.03463 90000052200001051 90000052200001050 90000052200001054 5.22758097313
9.05524 90000052200001050 90000052200001049 90000052200001054 4.99593346816
9.08578 90000052200001049 90000052200001044 90000052200001054 4.00794511147
9.22845 90000052200001044 90000052200001042 90000052200001054 3.70877426464
9.2862 90000052200001042 90000052200001040 90000052200001054 3.28303305796
9.29787 90000052200001040 90000052200001039 90000052200001054 3.08482263583
9.32651 90000052200001039 90000052200001038 90000052200001054 3.00813107163
9.36056 90000052200001038 90000052200001037 90000052200001054 2.89578500573
9.37457 90000052200001037 90000052200001036 90000052200001054 2.73314261732
9.37732 90000052200001036 90000052200001035 90000052200001054 2.5772902716
9.3974 90000052200001035 90000052200001033 90000052200001054 2.31611074396
9.4651 90000052200001033 90000052200001032 90000052200001054 2.20792547238
9.46733 90000052200001032 90000052200001031 90000052200001054 2.1032696526
9.49951 90000052200001031 90000052200001030 90000052200001054 2.00202813925
9.53523 90000052200001030 90000052200001029 90000052200001054 1.90408954353
9.56111 90000052200001029 90000052200001026 90000052200001054 1.66666955611
9.0098 90000052200001187 90000052200001186 90000052200001193 7.59510714987
9.10415 90000052200001186 90000052200001185 90000052200001193 7.23627606617
9.12424 90000052200001185 90000052200001184 90000052200001193 7.00541704554
9.20464 90000052200001184 90000052200001182 90000052200001193 6.49159774567
9.22845 90000052200001182 90000052200001181 90000052200001193 6.14490120342
9.33716 90000052200001181 90000052200001178 90000052200001193 5.52976580795
9.45261 90000052200001178 90000052200001177 90000052200001193 5.22758097313
9.53236 90000052200001177 90000052200001176 90000052200001193 4.99593346816
9.61106 90000052200001176 90000052200001175 90000052200001193 4.93938066349
9.86393 90000052200001175 90000052200001174 90000052200001193 4.66451770247
9.91329 90000052200001174 90000052200001173 90000052200001193 4.42803373661
9.9892 90000052200001173 90000052200001172 90000052200001193 4.17683491473
10.0155 90000052200001172 90000052200001171 90000052200001193 4.00794511147
10.0468 90000052200001171 90000052200001170 90000052200001193 3.93726108473
10.0895 90000052200001170 90000052200001169 90000052200001193 3.70877426464
10.1208 90000052200001169 90000052200001168 90000052200001193 3.49086136926
10.1406 90000052200001168 90000052200001166 90000052200001193 3.08482263583
10.1546 90000052200001166 90000052200001165 90000052200001193 3.00813107163
10.1587 90000052200001165 90000052200001164 90000052200001193 2.89578500573
10.1912 90000052200001164 90000052200001160 90000052200001193 2.31611074396
10.2283 90000052200001160 90000052200001159 90000052200001193 2.20792547238
10.2651 90000052200001159 90000052200001158 90000052200001193 2.1032696526
10.2782 90000052200001158 90000052200001157 90000052200001193 2.00202813925
10.2974 90000052200001157 90000052200001155 90000052200001193 1.82268925262
10.3067 90000052200001155 90000052200001154 90000052200001193 1.74357057433
10.3247 90000052200001154 90000052200001153 90000052200001193 1.66666955611
10.3413 90000052200001153 90000052200001152 90000052200001193 1.60423452207
10.3758 90000052200001152 90000052200001151 90000052200001193 1.53123902916
10.3923 90000052200001151 90000052200001149 90000052200001193 1.41409822037
10.4598 90000052200001149 90000052200001147 90000052200001193 1.30237845991
9.08309 90000052200001209 90000052200001208 90000052200001218 6.01075739884
9.13394 90000052200001208 90000052200001207 90000052200001218 5.84661374788
9.10926 90000052200001304 90000052200001303 90000052200001311 6.01075739884
9.11179 90000052200001303 90000052200001301 90000052200001311 5.52976580795
9.04062 90000052200001703 90000052200001702 90000052200001711 5.52976580795
9.26008 90000052200001702 90000052200001701 90000052200001711 5.22758097313
9.29124 90000052200001701 90000052200001697 90000052200001711 4.42803373661
9.32187 90000052200001697 90000052200001696 90000052200001711 4.17683491473
9.40774 90000052200001696 90000052200001695 90000052200001711 4.00794511147
9.42893 90000052200001695 90000052200001694 90000052200001711 3.93726108473
9.43015 90000052200001694 90000052200001693 90000052200001711 3.70877426464
9.43737 90000052200001693 90000052200001692 90000052200001711 3.49086136926
9.44797 90000052200001692 90000052200001691 90000052200001711 3.28303305796
9.45833 90000052200001691 90000052200001690 90000052200001711 3.08482263583
9.47941 90000052200001690 90000052200001689 90000052200001711 3.00813107163
9.51575 90000052200001689 90000052200001686 90000052200001711 2.5772902716
9.52462 90000052200001686 90000052200001685 90000052200001711 2.44422570455
9.54278 90000052200001685 90000052200001684 90000052200001711 2.31611074396
9.56999 90000052200001684 90000052200001683 90000052200001711 2.20792547238
9.59227 90000052200001683 90000052200001682 90000052200001711 2.1032696526
9.63593 90000052200001682 90000052200001681 90000052200001711 2.00202813925
9.68108 90000052200001681 90000052200001680 90000052200001711 1.90408954353
9.69118 90000052200001680 90000052200001679 90000052200001711 1.82268925262
9.71448 90000052200001679 90000052200001678 90000052200001711 1.74357057433
9.72813 90000052200001678 90000052200001677 90000052200001711 1.66666955611
9.75075 90000052200001677 90000052200001676 90000052200001711 1.60423452207
9.77663 90000052200001676 90000052200001675 90000052200001711 1.53123902916
9.77827 90000052200001675 90000052200001674 90000052200001711 1.47197484527
9.78475 90000052200001674 90000052200001673 90000052200001711 1.41409822037
9.80823 90000052200001673 90000052200001672 90000052200001711 1.3575766674
9.00337 90000052200001884 90000052200001883 90000052200001895 2.73314261732
9.06096 90000052200001883 90000052200001882 90000052200001895 2.5772902716
9.08845 90000052200001882 90000052200001881 90000052200001895 2.44422570455
9.12424 90000052200001881 90000052200001880 90000052200001895 2.31611074396
9.12912 90000052200001880 90000052200001876 90000052200001895 1.90408954353
9.12912 90000052200001876 90000052200001875 90000052200001895 1.82268925262
9.17073 90000052200001875 90000052200001870 90000052200001895 1.47197484527
9.22457 90000052200001870 90000052200001868 90000052200001895 1.3575766674
9.27072 90000052200001868 90000052200001867 90000052200001895 1.30237845991
9.2845 90000052200001867 90000052200001866 90000052200001895 1.24847261425
9.32958 90000052200001866 90000052200001865 90000052200001895 1.20625808078
9.36622 90000052200001865 90000052200001863 90000052200001895 1.11415056377
9.44093 90000052200001863 90000052200001862 90000052200001895 1.07445789455
9.4651 90000052200001862 90000052200001860 90000052200001895 0.997294225782
9.46955 90000052200001860 90000052200001859 90000052200001895 0.987852810816
9.47176 90000052200001859 90000052200001857 90000052200001895 0.923000816178
9.50973 90000052200001857 90000052200001856 90000052200001895 0.886896937575
9.50973 90000052200001856 90000052200001853 90000052200001895 0.791068248946
