logMh | fpID | subhaloID | main leaf ID | z
9.0066 80000301300000105 80000301300000104 80000301300000109 10.3674435724
9.09375 80000301300000104 80000301300000103 80000301300000109 9.99659046619
9.19641 80000301300000103 80000301300000102 80000301300000109 9.84138043947
9.2828 80000301300000102 80000301300000098 80000301300000109 8.44947629437
9.34461 80000301300000098 80000301300000097 80000301300000109 8.01217294887
9.34461 80000301300000097 80000301300000096 80000301300000109 7.59510714987
9.37319 80000301300000096 80000301300000095 80000301300000109 7.23627606617
9.41282 80000301300000095 80000301300000094 80000301300000109 7.00541704554
9.44329 80000301300000094 80000301300000092 80000301300000109 6.49159774567
9.47396 80000301300000092 80000301300000091 80000301300000109 6.14490120342
9.51774 80000301300000091 80000301300000089 80000301300000109 5.84661374788
9.91409 80000301300000089 80000301300000087 80000301300000109 5.22758097313
10.0744 80000301300000087 80000301300000084 80000301300000109 4.66451770247
10.2147 80000301300000084 80000301300000082 80000301300000109 4.17683491473
10.2406 80000301300000082 80000301300000081 80000301300000109 4.00794511147
10.2438 80000301300000081 80000301300000080 80000301300000109 3.93726108473
10.3097 80000301300000080 80000301300000079 80000301300000109 3.70877426464
10.3237 80000301300000079 80000301300000078 80000301300000109 3.49086136926
10.3659 80000301300000078 80000301300000077 80000301300000109 3.28303305796
10.4503 80000301300000077 80000301300000076 80000301300000109 3.08482263583
10.4565 80000301300000076 80000301300000075 80000301300000109 3.00813107163
10.4764 80000301300000075 80000301300000074 80000301300000109 2.89578500573
10.6184 80000301300000074 80000301300000073 80000301300000109 2.73314261732
10.7227 80000301300000073 80000301300000072 80000301300000109 2.5772902716
10.7855 80000301300000072 80000301300000071 80000301300000109 2.44422570455
10.8166 80000301300000071 80000301300000070 80000301300000109 2.31611074396
10.8626 80000301300000070 80000301300000069 80000301300000109 2.20792547238
10.8779 80000301300000069 80000301300000068 80000301300000109 2.1032696526
10.8938 80000301300000068 80000301300000067 80000301300000109 2.00202813925
10.9263 80000301300000067 80000301300000066 80000301300000109 1.90408954353
10.9347 80000301300000066 80000301300000065 80000301300000109 1.82268925262
10.9562 80000301300000065 80000301300000064 80000301300000109 1.74357057433
10.9692 80000301300000064 80000301300000061 80000301300000109 1.53123902916
10.9694 80000301300000061 80000301300000060 80000301300000109 1.47197484527
10.9777 80000301300000060 80000301300000059 80000301300000109 1.41409822037
10.9869 80000301300000059 80000301300000057 80000301300000109 1.30237845991
10.9988 80000301300000057 80000301300000056 80000301300000109 1.24847261425
11.0182 80000301300000056 80000301300000054 80000301300000109 1.15460271236
11.0336 80000301300000054 80000301300000053 80000301300000109 1.11415056377
11.0466 80000301300000053 80000301300000052 80000301300000109 1.07445789455
11.0578 80000301300000052 80000301300000050 80000301300000109 0.997294225782
11.0683 80000301300000050 80000301300000049 80000301300000109 0.987852810816
11.0937 80000301300000049 80000301300000048 80000301300000109 0.950531351585
11.1171 80000301300000048 80000301300000047 80000301300000109 0.923000816178
11.128 80000301300000047 80000301300000046 80000301300000109 0.886896937575
11.1554 80000301300000046 80000301300000045 80000301300000109 0.851470900625
11.1731 80000301300000045 80000301300000044 80000301300000109 0.816709979012
11.1796 80000301300000044 80000301300000043 80000301300000109 0.791068248946
11.1968 80000301300000043 80000301300000042 80000301300000109 0.757441372616
11.2033 80000301300000042 80000301300000040 80000301300000109 0.700106353719
11.2067 80000301300000040 80000301300000038 80000301300000109 0.644641840685
11.221 80000301300000038 80000301300000037 80000301300000109 0.621428745243
11.2307 80000301300000037 80000301300000036 80000301300000109 0.598543288188
11.2436 80000301300000036 80000301300000035 80000301300000109 0.575980845108
11.2547 80000301300000035 80000301300000034 80000301300000109 0.546392183141
11.2553 80000301300000034 80000301300000033 80000301300000109 0.524565820434
11.2631 80000301300000033 80000301300000032 80000301300000109 0.503047523245
11.2765 80000301300000032 80000301300000031 80000301300000109 0.481832943421
11.2964 80000301300000031 80000301300000030 80000301300000109 0.460917794181
11.2969 80000301300000030 80000301300000028 80000301300000109 0.419968941997
11.3004 80000301300000028 80000301300000027 80000301300000109 0.399926964614
11.3016 80000301300000027 80000301300000026 80000301300000109 0.38016786726
11.3077 80000301300000026 80000301300000025 80000301300000109 0.360687657262
11.3104 80000301300000025 80000301300000024 80000301300000109 0.347853841858
11.3214 80000301300000024 80000301300000023 80000301300000109 0.328829724206
11.3354 80000301300000023 80000301300000022 80000301300000109 0.310074120128
11.3566 80000301300000022 80000301300000018 80000301300000109 0.243540181555
11.3632 80000301300000018 80000301300000017 80000301300000109 0.22598838626
11.3652 80000301300000017 80000301300000016 80000301300000109 0.214425035514
11.3674 80000301300000016 80000301300000015 80000301300000109 0.197284182376
11.3702 80000301300000015 80000301300000014 80000301300000109 0.180385261706
11.3725 80000301300000014 80000301300000013 80000301300000109 0.169252033244
11.373 80000301300000013 80000301300000011 80000301300000109 0.14187620397
11.3759 80000301300000011 80000301300000008 80000301300000109 0.0994018026302
11.378 80000301300000008 80000301300000007 80000301300000109 0.0838844307975
11.3793 80000301300000007 80000301300000006 80000301300000109 0.0736613846564
11.3851 80000301300000006 80000301300000005 80000301300000109 0.0585073227945
11.3871 80000301300000005 80000301300000003 80000301300000109 0.0337243718735
11.3933 80000301300000003 80000301300000002 80000301300000109 0.0239744283828
11.3973 80000301300000002 80000301300000001 80000301300000109 0.00952166696794
11.4008 80000301300000001 80000301300000000 80000301300000109 2.22044604925e-16
9.03463 80000301300000146 80000301300000145 80000301300000149 8.01217294887
9.05524 80000301300000145 80000301300000144 80000301300000149 7.59510714987
9.15956 80000301300000144 80000301300000143 80000301300000149 7.23627606617
9.34902 80000301300000143 80000301300000140 80000301300000149 6.49159774567
9.36199 80000301300000140 80000301300000139 80000301300000149 6.14490120342
9.37319 80000301300000139 80000301300000138 80000301300000149 6.01075739884
9.38141 80000301300000138 80000301300000137 80000301300000149 5.84661374788
9.48372 80000301300000137 80000301300000136 80000301300000149 5.52976580795
10.0646 80000301300000157 80000301300000156 80000301300000158 4.42803373661
9.02548 80000301300000173 80000301300000172 80000301300000177 7.59510714987
9.08038 80000301300000172 80000301300000170 80000301300000177 7.00541704554
9.12178 80000301300000170 80000301300000169 80000301300000177 6.85511726265
9.38412 80000301300000169 80000301300000168 80000301300000177 6.49159774567
9.49536 80000301300000168 80000301300000166 80000301300000177 6.01075739884
9.50567 80000301300000166 80000301300000164 80000301300000177 5.52976580795
9.09375 80000301300000247 80000301300000246 80000301300000255 7.00541704554
9.10415 80000301300000246 80000301300000237 80000301300000255 4.93938066349
9.09637 80000301300000314 80000301300000313 80000301300000318 9.00233985416
9.2342 80000301300000313 80000301300000312 80000301300000318 8.9079991856
9.33566 80000301300000312 80000301300000310 80000301300000318 8.01217294887
9.5026 80000301300000310 80000301300000308 80000301300000318 7.23627606617
9.51275 80000301300000308 80000301300000304 80000301300000318 6.14490120342
9.51873 80000301300000304 80000301300000303 80000301300000318 6.01075739884
9.56646 80000301300000303 80000301300000302 80000301300000318 5.84661374788
9.59227 80000301300000302 80000301300000301 80000301300000318 5.52976580795
9.6182 80000301300000301 80000301300000300 80000301300000318 5.22758097313
9.61899 80000301300000300 80000301300000299 80000301300000318 4.99593346816
9.61899 80000301300000299 80000301300000298 80000301300000318 4.93938066349
9.61977 80000301300000298 80000301300000297 80000301300000318 4.66451770247
9.63744 80000301300000297 80000301300000296 80000301300000318 4.42803373661
9.68717 80000301300000296 80000301300000295 80000301300000318 4.17683491473
9.7384 80000301300000295 80000301300000294 80000301300000318 4.00794511147
9.76724 80000301300000294 80000301300000293 80000301300000318 3.93726108473
9.81528 80000301300000293 80000301300000292 80000301300000318 3.70877426464
9.04358 80000301300000351 80000301300000350 80000301300000359 8.01217294887
9.08038 80000301300000350 80000301300000348 80000301300000359 7.23627606617
9.18589 80000301300000442 80000301300000441 80000301300000448 5.52976580795
9.25284 80000301300000441 80000301300000440 80000301300000448 5.22758097313
9.46172 80000301300000440 80000301300000439 80000301300000448 4.99593346816
9.79795 80000301300000439 80000301300000437 80000301300000448 4.66451770247
9.84754 80000301300000437 80000301300000436 80000301300000448 4.42803373661
9.8767 80000301300000436 80000301300000434 80000301300000448 4.00794511147
9.87886 80000301300000434 80000301300000432 80000301300000448 3.70877426464
9.96546 80000301300000432 80000301300000431 80000301300000448 3.49086136926
9.97629 80000301300000431 80000301300000427 80000301300000448 2.89578500573
9.0066 80000301300000479 80000301300000478 80000301300000491 5.52976580795
9.05235 80000301300000478 80000301300000477 80000301300000491 5.22758097313
9.72384 80000301300000477 80000301300000471 80000301300000491 3.93726108473
9.17512 80000301300000598 80000301300000597 80000301300000607 4.99593346816
9.19223 80000301300000597 80000301300000596 80000301300000607 4.93938066349
9.30923 80000301300000596 80000301300000595 80000301300000607 4.66451770247
9.32031 80000301300000595 80000301300000594 80000301300000607 4.42803373661
9.32031 80000301300000594 80000301300000593 80000301300000607 4.17683491473
9.34609 80000301300000593 80000301300000591 80000301300000607 3.93726108473
9.01298 80000301300000910 80000301300000909 80000301300000923 2.5772902716
9.05524 80000301300000909 80000301300000908 80000301300000923 2.44422570455
9.07216 80000301300000908 80000301300000906 80000301300000923 2.20792547238
9.10671 80000301300000906 80000301300000903 80000301300000923 1.90408954353
9.00012 80000301300000987 80000301300000986 80000301300001005 3.70877426464
9.01928 80000301300000986 80000301300000985 80000301300001005 3.49086136926
9.04062 80000301300000985 80000301300000983 80000301300001005 3.08482263583
9.05811 80000301300000983 80000301300000981 80000301300001005 2.89578500573
9.08578 80000301300000981 80000301300000980 80000301300001005 2.73314261732
9.11681 80000301300000980 80000301300000978 80000301300001005 2.44422570455
9.16182 80000301300000978 80000301300000977 80000301300001005 2.31611074396
9.19223 80000301300000977 80000301300000976 80000301300001005 2.20792547238
9.24175 80000301300000976 80000301300000974 80000301300001005 2.00202813925
9.04062 80000301300001081 80000301300001080 80000301300001091 5.52976580795
9.13394 80000301300001080 80000301300001079 80000301300001091 5.22758097313
9.21869 80000301300001079 80000301300001078 80000301300001091 4.99593346816
9.2342 80000301300001078 80000301300001077 80000301300001091 4.93938066349
9.27938 80000301300001077 80000301300001075 80000301300001091 4.42803373661
9.37042 80000301300001075 80000301300001074 80000301300001091 4.17683491473
9.40902 80000301300001074 80000301300001072 80000301300001091 3.93726108473
9.41156 80000301300001072 80000301300001071 80000301300001091 3.70877426464
9.43617 80000301300001071 80000301300001070 80000301300001091 3.49086136926
9.53428 80000301300001070 80000301300001069 80000301300001091 3.28303305796
9.56999 80000301300001069 80000301300001068 80000301300001091 3.08482263583
9.64932 80000301300001068 80000301300001066 80000301300001091 2.89578500573
9.72074 80000301300001066 80000301300001064 80000301300001091 2.5772902716
9.75708 80000301300001064 80000301300001063 80000301300001091 2.44422570455
9.82321 80000301300001063 80000301300001062 80000301300001091 2.31611074396
9.04653 80000301300001129 80000301300001128 80000301300001143 4.66451770247
9.05235 80000301300001128 80000301300001127 80000301300001143 4.42803373661
9.05524 80000301300001127 80000301300001126 80000301300001143 4.17683491473
9.13394 80000301300001126 80000301300001125 80000301300001143 4.00794511147
9.14108 80000301300001125 80000301300001124 80000301300001143 3.93726108473
9.21869 80000301300001124 80000301300001123 80000301300001143 3.70877426464
9.14811 80000301300001241 80000301300001240 80000301300001247 9.00233985416
9.22262 80000301300001240 80000301300001238 80000301300001247 8.44947629437
9.42893 80000301300001238 80000301300001237 80000301300001247 8.01217294887
9.4549 80000301300001237 80000301300001236 80000301300001247 7.59510714987
9.47176 80000301300001236 80000301300001235 80000301300001247 7.23627606617
9.51175 80000301300001235 80000301300001234 80000301300001247 7.00541704554
9.56468 80000301300001234 80000301300001233 80000301300001247 6.85511726265
9.69712 80000301300001233 80000301300001232 80000301300001247 6.49159774567
9.71005 80000301300001232 80000301300001231 80000301300001247 6.14490120342
9.75993 80000301300001231 80000301300001229 80000301300001247 5.84661374788
10.0239 80000301300001229 80000301300001226 80000301300001247 4.99593346816
10.1075 80000301300001226 80000301300001224 80000301300001247 4.66451770247
10.1727 80000301300001224 80000301300001223 80000301300001247 4.42803373661
10.2127 80000301300001223 80000301300001222 80000301300001247 4.17683491473
10.3233 80000301300001222 80000301300001221 80000301300001247 4.00794511147
10.3421 80000301300001221 80000301300001220 80000301300001247 3.93726108473
10.3859 80000301300001220 80000301300001219 80000301300001247 3.70877426464
10.4452 80000301300001219 80000301300001218 80000301300001247 3.49086136926
10.4771 80000301300001218 80000301300001217 80000301300001247 3.28303305796
10.4992 80000301300001217 80000301300001212 80000301300001247 2.5772902716
10.5214 80000301300001212 80000301300001211 80000301300001247 2.44422570455
10.5522 80000301300001211 80000301300001210 80000301300001247 2.31611074396
10.5822 80000301300001210 80000301300001209 80000301300001247 2.20792547238
10.5957 80000301300001209 80000301300001208 80000301300001247 2.1032696526
10.6315 80000301300001208 80000301300001207 80000301300001247 2.00202813925
10.6705 80000301300001207 80000301300001206 80000301300001247 1.90408954353
10.6861 80000301300001206 80000301300001205 80000301300001247 1.82268925262
10.697 80000301300001205 80000301300001204 80000301300001247 1.74357057433
10.7092 80000301300001204 80000301300001203 80000301300001247 1.66666955611
10.7113 80000301300001203 80000301300001202 80000301300001247 1.60423452207
11.3435 80000301300001202 80000301300001161 80000301300001247 0.291583239722
11.3507 80000301300001161 80000301300001160 80000301300001247 0.273353346578
9.01928 80000301300001295 80000301300001294 80000301300001302 9.00233985416
9.03463 80000301300001294 80000301300001293 80000301300001302 8.9079991856
9.0666 80000301300001293 80000301300001292 80000301300001302 8.44947629437
9.20668 80000301300001292 80000301300001291 80000301300001302 8.01217294887
9.30763 80000301300001291 80000301300001290 80000301300001302 7.59510714987
9.38277 80000301300001290 80000301300001289 80000301300001302 7.23627606617
9.53713 80000301300001289 80000301300001288 80000301300001302 7.00541704554
9.58469 80000301300001288 80000301300001286 80000301300001302 6.49159774567
9.60785 80000301300001286 80000301300001285 80000301300001302 6.14490120342
9.63366 80000301300001285 80000301300001284 80000301300001302 6.01075739884
9.64712 80000301300001284 80000301300001283 80000301300001302 5.84661374788
9.03463 80000301300001338 80000301300001337 80000301300001347 8.9079991856
9.06378 80000301300001337 80000301300001336 80000301300001347 8.44947629437
9.12424 80000301300001336 80000301300001335 80000301300001347 8.01217294887
9.23037 80000301300001335 80000301300001334 80000301300001347 7.59510714987
9.24175 80000301300001334 80000301300001333 80000301300001347 7.23627606617
9.35483 80000301300001333 80000301300001332 80000301300001347 7.00541704554
9.44093 80000301300001332 80000301300001331 80000301300001347 6.85511726265
9.59807 80000301300001331 80000301300001328 80000301300001347 6.01075739884
9.64564 80000301300001328 80000301300001326 80000301300001347 5.52976580795
9.86882 80000301300001326 80000301300001325 80000301300001347 5.22758097313
9.0098 80000301300001391 80000301300001390 80000301300001398 8.01217294887
9.03463 80000301300001390 80000301300001389 80000301300001398 7.59510714987
9.3044 80000301300001389 80000301300001387 80000301300001398 7.00541704554
9.32651 80000301300001387 80000301300001386 80000301300001398 6.85511726265
9.35771 80000301300001386 80000301300001383 80000301300001398 6.01075739884
9.42157 80000301300001383 80000301300001381 80000301300001398 5.52976580795
9.47176 80000301300001381 80000301300001380 80000301300001398 5.22758097313
9.22262 80000301300001460 80000301300001459 80000301300001467 5.84661374788
9.23799 80000301300001459 80000301300001458 80000301300001467 5.52976580795
9.29951 80000301300001458 80000301300001457 80000301300001467 5.22758097313
9.33111 80000301300001457 80000301300001456 80000301300001467 4.99593346816
9.33866 80000301300001456 80000301300001455 80000301300001467 4.93938066349
9.37319 80000301300001455 80000301300001453 80000301300001467 4.42803373661
9.37732 80000301300001453 80000301300001442 80000301300001467 2.5772902716
9.03463 80000301300001484 80000301300001483 80000301300001498 2.73314261732
9.01928 80000301300001570 80000301300001569 80000301300001575 6.01075739884
9.04945 80000301300001569 80000301300001568 80000301300001575 5.84661374788
9.11431 80000301300001568 80000301300001567 80000301300001575 5.52976580795
9.17729 80000301300001567 80000301300001566 80000301300001575 5.22758097313
9.20668 80000301300001566 80000301300001565 80000301300001575 4.99593346816
9.22845 80000301300001565 80000301300001564 80000301300001575 4.93938066349
9.28956 80000301300001564 80000301300001563 80000301300001575 4.66451770247
9.29787 80000301300001563 80000301300001561 80000301300001575 4.17683491473
9.38277 80000301300001561 80000301300001560 80000301300001575 4.00794511147
9.38948 80000301300001560 80000301300001558 80000301300001575 3.70877426464
9.45145 80000301300001558 80000301300001557 80000301300001575 3.49086136926
9.45376 80000301300001557 80000301300001555 80000301300001575 3.08482263583
9.47286 80000301300001555 80000301300001552 80000301300001575 2.73314261732
9.5026 80000301300001552 80000301300001551 80000301300001575 2.5772902716
9.5026 80000301300001551 80000301300001550 80000301300001575 2.44422570455
9.53236 80000301300001550 80000301300001548 80000301300001575 2.20792547238
