logMh | fpID | subhaloID | main leaf ID | z
9.01298 80000295500000095 80000295500000094 80000295500000098 7.00541704554
9.09637 80000295500000094 80000295500000092 80000295500000098 6.49159774567
9.32497 80000295500000092 80000295500000091 80000295500000098 6.14490120342
9.36481 80000295500000091 80000295500000090 80000295500000098 6.01075739884
9.47615 80000295500000090 80000295500000088 80000295500000098 5.52976580795
9.52851 80000295500000088 80000295500000087 80000295500000098 5.22758097313
9.62056 80000295500000087 80000295500000086 80000295500000098 4.99593346816
9.63819 80000295500000086 80000295500000085 80000295500000098 4.93938066349
9.75017 80000295500000085 80000295500000084 80000295500000098 4.66451770247
9.87496 80000295500000084 80000295500000083 80000295500000098 4.42803373661
9.8767 80000295500000083 80000295500000082 80000295500000098 4.17683491473
9.93545 80000295500000082 80000295500000081 80000295500000098 4.00794511147
9.96369 80000295500000081 80000295500000080 80000295500000098 3.93726108473
9.98483 80000295500000080 80000295500000079 80000295500000098 3.70877426464
9.98753 80000295500000079 80000295500000078 80000295500000098 3.49086136926
10.2684 80000295500000078 80000295500000075 80000295500000098 3.00813107163
10.339 80000295500000075 80000295500000074 80000295500000098 2.89578500573
10.3676 80000295500000074 80000295500000073 80000295500000098 2.73314261732
10.3987 80000295500000073 80000295500000072 80000295500000098 2.5772902716
10.4601 80000295500000072 80000295500000071 80000295500000098 2.44422570455
10.4906 80000295500000071 80000295500000070 80000295500000098 2.31611074396
10.5048 80000295500000070 80000295500000069 80000295500000098 2.20792547238
10.512 80000295500000069 80000295500000068 80000295500000098 2.1032696526
10.5245 80000295500000068 80000295500000067 80000295500000098 2.00202813925
10.5748 80000295500000067 80000295500000066 80000295500000098 1.90408954353
10.6 80000295500000066 80000295500000065 80000295500000098 1.82268925262
10.6248 80000295500000065 80000295500000064 80000295500000098 1.74357057433
10.6523 80000295500000064 80000295500000063 80000295500000098 1.66666955611
10.6985 80000295500000063 80000295500000062 80000295500000098 1.60423452207
10.7499 80000295500000062 80000295500000061 80000295500000098 1.53123902916
10.806 80000295500000061 80000295500000060 80000295500000098 1.47197484527
10.8321 80000295500000060 80000295500000059 80000295500000098 1.41409822037
10.8374 80000295500000059 80000295500000058 80000295500000098 1.3575766674
10.8661 80000295500000058 80000295500000057 80000295500000098 1.30237845991
10.9028 80000295500000057 80000295500000056 80000295500000098 1.24847261425
10.919 80000295500000056 80000295500000055 80000295500000098 1.20625808078
10.9473 80000295500000055 80000295500000054 80000295500000098 1.15460271236
10.9598 80000295500000054 80000295500000053 80000295500000098 1.11415056377
10.9746 80000295500000053 80000295500000052 80000295500000098 1.07445789455
10.9823 80000295500000052 80000295500000051 80000295500000098 1.03551044566
10.9876 80000295500000051 80000295500000050 80000295500000098 0.997294225782
10.9987 80000295500000050 80000295500000049 80000295500000098 0.987852810816
11.0131 80000295500000049 80000295500000048 80000295500000098 0.950531351585
11.0193 80000295500000048 80000295500000047 80000295500000098 0.923000816178
11.0381 80000295500000047 80000295500000045 80000295500000098 0.851470900625
11.0542 80000295500000045 80000295500000044 80000295500000098 0.816709979012
11.0579 80000295500000044 80000295500000043 80000295500000098 0.791068248946
11.0591 80000295500000043 80000295500000042 80000295500000098 0.757441372616
11.0703 80000295500000042 80000295500000040 80000295500000098 0.700106353719
11.0733 80000295500000040 80000295500000036 80000295500000098 0.598543288188
11.1005 80000295500000036 80000295500000035 80000295500000098 0.575980845108
11.1231 80000295500000035 80000295500000034 80000295500000098 0.546392183141
11.1317 80000295500000034 80000295500000033 80000295500000098 0.524565820434
11.1611 80000295500000033 80000295500000032 80000295500000098 0.503047523245
11.1946 80000295500000032 80000295500000031 80000295500000098 0.481832943421
11.2089 80000295500000031 80000295500000030 80000295500000098 0.460917794181
11.2173 80000295500000030 80000295500000029 80000295500000098 0.440297849248
11.2494 80000295500000029 80000295500000028 80000295500000098 0.419968941997
11.2703 80000295500000028 80000295500000027 80000295500000098 0.399926964614
11.2795 80000295500000027 80000295500000026 80000295500000098 0.38016786726
11.287 80000295500000026 80000295500000021 80000295500000098 0.291583239722
11.2971 80000295500000021 80000295500000020 80000295500000098 0.273353346578
11.3039 80000295500000020 80000295500000019 80000295500000098 0.261343256161
11.3094 80000295500000019 80000295500000018 80000295500000098 0.243540181555
11.322 80000295500000018 80000295500000017 80000295500000098 0.22598838626
11.3256 80000295500000017 80000295500000016 80000295500000098 0.214425035514
11.3337 80000295500000016 80000295500000015 80000295500000098 0.197284182376
11.3441 80000295500000015 80000295500000014 80000295500000098 0.180385261706
9.04062 80000295500000122 80000295500000121 80000295500000133 6.49159774567
9.08038 80000295500000121 80000295500000120 80000295500000133 6.14490120342
9.08309 80000295500000120 80000295500000119 80000295500000133 6.01075739884
9.09375 80000295500000119 80000295500000118 80000295500000133 5.84661374788
9.19013 80000295500000188 80000295500000187 80000295500000194 5.52976580795
9.45376 80000295500000187 80000295500000184 80000295500000194 4.93938066349
9.49536 80000295500000184 80000295500000183 80000295500000194 4.66451770247
9.54278 80000295500000183 80000295500000182 80000295500000194 4.42803373661
9.5989 80000295500000182 80000295500000181 80000295500000194 4.17683491473
9.61742 80000295500000181 80000295500000180 80000295500000194 4.00794511147
9.66159 80000295500000180 80000295500000179 80000295500000194 3.93726108473
9.71762 80000295500000179 80000295500000178 80000295500000194 3.70877426464
9.88016 80000295500000178 80000295500000177 80000295500000194 3.49086136926
10.0349 80000295500000177 80000295500000176 80000295500000194 3.28303305796
10.1786 80000295500000176 80000295500000175 80000295500000194 3.08482263583
9.18589 80000295500000223 80000295500000222 80000295500000232 4.00794511147
9.32958 80000295500000222 80000295500000221 80000295500000232 3.93726108473
9.0066 80000295500000369 80000295500000368 80000295500000382 3.28303305796
9.0066 80000295500000368 80000295500000367 80000295500000382 3.08482263583
9.02548 80000295500000367 80000295500000364 80000295500000382 2.73314261732
9.06939 80000295500000364 80000295500000363 80000295500000382 2.5772902716
9.02548 80000295500000401 80000295500000400 80000295500000418 2.73314261732
9.02855 80000295500000400 80000295500000395 80000295500000418 2.1032696526
9.05235 80000295500000395 80000295500000394 80000295500000418 2.00202813925
9.04062 80000295500000448 80000295500000447 80000295500000458 5.22758097313
9.04062 80000295500000447 80000295500000446 80000295500000458 4.99593346816
9.0666 80000295500000446 80000295500000444 80000295500000458 4.66451770247
9.09375 80000295500000444 80000295500000443 80000295500000458 4.42803373661
9.2087 80000295500000443 80000295500000442 80000295500000458 4.17683491473
9.2342 80000295500000442 80000295500000441 80000295500000458 4.00794511147
9.25284 80000295500000441 80000295500000440 80000295500000458 3.93726108473
9.3044 80000295500000440 80000295500000439 80000295500000458 3.70877426464
9.48905 80000295500000439 80000295500000438 80000295500000458 3.49086136926
9.67005 80000295500000438 80000295500000437 80000295500000458 3.28303305796
9.75075 80000295500000437 80000295500000436 80000295500000458 3.08482263583
9.76892 80000295500000436 80000295500000434 80000295500000458 2.89578500573
9.79008 80000295500000434 80000295500000433 80000295500000458 2.73314261732
9.83578 80000295500000433 80000295500000432 80000295500000458 2.5772902716
9.88316 80000295500000432 80000295500000429 80000295500000458 2.20792547238
9.96546 80000295500000429 80000295500000428 80000295500000458 2.1032696526
9.97835 80000295500000428 80000295500000425 80000295500000458 1.82268925262
9.0098 80000295500000475 80000295500000474 80000295500000482 4.99593346816
9.01298 80000295500000474 80000295500000473 80000295500000482 4.93938066349
9.03463 80000295500000473 80000295500000470 80000295500000482 4.17683491473
9.13871 80000295500000470 80000295500000469 80000295500000482 4.00794511147
9.16407 80000295500000469 80000295500000468 80000295500000482 3.93726108473
9.03463 80000295500000521 80000295500000520 80000295500000525 6.49159774567
9.11431 80000295500000520 80000295500000519 80000295500000525 6.14490120342
9.19848 80000295500000519 80000295500000517 80000295500000525 5.84661374788
9.29787 80000295500000517 80000295500000516 80000295500000525 5.52976580795
9.33716 80000295500000516 80000295500000514 80000295500000525 4.99593346816
9.35914 80000295500000514 80000295500000512 80000295500000525 4.66451770247
9.37457 80000295500000512 80000295500000511 80000295500000525 4.42803373661
9.40131 80000295500000511 80000295500000509 80000295500000525 4.00794511147
9.41029 80000295500000509 80000295500000504 80000295500000525 3.08482263583
9.43136 80000295500000504 80000295500000503 80000295500000525 3.00813107163
9.00337 80000295500000579 80000295500000578 80000295500000589 4.66451770247
9.05235 80000295500000578 80000295500000577 80000295500000589 4.42803373661
9.08845 80000295500000577 80000295500000576 80000295500000589 4.17683491473
9.08845 80000295500000576 80000295500000574 80000295500000589 3.93726108473
9.22457 80000295500000574 80000295500000573 80000295500000589 3.70877426464
9.24918 80000295500000573 80000295500000563 80000295500000589 2.20792547238
9.04653 80000295500000657 80000295500000656 80000295500000662 6.14490120342
9.16182 80000295500000656 80000295500000654 80000295500000662 5.84661374788
9.23799 80000295500000654 80000295500000652 80000295500000662 5.22758097313
9.27246 80000295500000652 80000295500000651 80000295500000662 4.99593346816
9.29622 80000295500000651 80000295500000650 80000295500000662 4.93938066349
9.34016 80000295500000650 80000295500000649 80000295500000662 4.66451770247
9.36481 80000295500000649 80000295500000648 80000295500000662 4.42803373661
9.43257 80000295500000648 80000295500000647 80000295500000662 4.17683491473
9.44564 80000295500000647 80000295500000646 80000295500000662 4.00794511147
9.45376 80000295500000646 80000295500000645 80000295500000662 3.93726108473
9.51275 80000295500000645 80000295500000641 80000295500000662 3.08482263583
9.59393 80000295500000641 80000295500000638 80000295500000662 2.73314261732
9.60543 80000295500000638 80000295500000637 80000295500000662 2.5772902716
9.65514 80000295500000637 80000295500000635 80000295500000662 2.31611074396
9.68582 80000295500000635 80000295500000634 80000295500000662 2.20792547238
9.71195 80000295500000634 80000295500000633 80000295500000662 2.1032696526
9.72752 80000295500000633 80000295500000632 80000295500000662 2.00202813925
9.76669 80000295500000632 80000295500000631 80000295500000662 1.90408954353
9.86214 80000295500000631 80000295500000630 80000295500000662 1.82268925262
9.04945 80000295500000728 80000295500000727 80000295500000742 2.89578500573
9.07492 80000295500000727 80000295500000726 80000295500000742 2.73314261732
9.1573 80000295500000726 80000295500000725 80000295500000742 2.5772902716
9.18589 80000295500000725 80000295500000724 80000295500000742 2.44422570455
9.2361 80000295500000724 80000295500000722 80000295500000742 2.20792547238
9.30115 80000295500000722 80000295500000721 80000295500000742 2.1032696526
9.31717 80000295500000721 80000295500000720 80000295500000742 2.00202813925
9.34756 80000295500000720 80000295500000719 80000295500000742 1.90408954353
9.37457 80000295500000719 80000295500000718 80000295500000742 1.82268925262
9.43497 80000295500000718 80000295500000717 80000295500000742 1.74357057433
9.45719 80000295500000717 80000295500000716 80000295500000742 1.66666955611
9.47396 80000295500000716 80000295500000715 80000295500000742 1.60423452207
9.50055 80000295500000715 80000295500000714 80000295500000742 1.53123902916
9.53523 80000295500000714 80000295500000712 80000295500000742 1.41409822037
9.58298 80000295500000712 80000295500000710 80000295500000742 1.30237845991
9.59059 80000295500000710 80000295500000709 80000295500000742 1.24847261425
9.01298 80000295500000756 80000295500000755 80000295500000767 2.31611074396
9.01298 80000295500000755 80000295500000754 80000295500000767 2.20792547238
9.04945 80000295500000754 80000295500000753 80000295500000767 2.1032696526
9.06096 80000295500000891 80000295500000890 80000295500000896 6.14490120342
9.0666 80000295500000890 80000295500000889 80000295500000896 6.01075739884
9.07492 80000295500000889 80000295500000888 80000295500000896 5.84661374788
9.23988 80000295500000888 80000295500000887 80000295500000896 5.52976580795
9.2672 80000295500000887 80000295500000886 80000295500000896 5.22758097313
9.29124 80000295500000886 80000295500000885 80000295500000896 4.99593346816
9.30763 80000295500000885 80000295500000884 80000295500000896 4.93938066349
9.32031 80000295500000884 80000295500000883 80000295500000896 4.66451770247
9.36763 80000295500000883 80000295500000882 80000295500000896 4.42803373661
9.42033 80000295500000882 80000295500000881 80000295500000896 4.17683491473
9.50465 80000295500000881 80000295500000878 80000295500000896 3.70877426464
9.54744 80000295500000878 80000295500000877 80000295500000896 3.49086136926
9.54928 80000295500000877 80000295500000876 80000295500000896 3.28303305796
9.58891 80000295500000876 80000295500000875 80000295500000896 3.08482263583
9.61742 80000295500000875 80000295500000874 80000295500000896 3.00813107163
9.626 80000295500000874 80000295500000873 80000295500000896 2.89578500573
9.63744 80000295500000873 80000295500000872 80000295500000896 2.73314261732
9.65945 80000295500000872 80000295500000871 80000295500000896 2.5772902716
9.66795 80000295500000871 80000295500000870 80000295500000896 2.44422570455
9.71574 80000295500000870 80000295500000869 80000295500000896 2.31611074396
9.7342 80000295500000869 80000295500000868 80000295500000896 2.20792547238
9.78528 80000295500000868 80000295500000866 80000295500000896 2.00202813925
9.82222 80000295500000866 80000295500000865 80000295500000896 1.90408954353
9.8276 80000295500000865 80000295500000862 80000295500000896 1.66666955611
9.84241 80000295500000862 80000295500000861 80000295500000896 1.60423452207
9.86705 80000295500000861 80000295500000860 80000295500000896 1.53123902916
9.87409 80000295500000860 80000295500000859 80000295500000896 1.47197484527
9.8891 80000295500000859 80000295500000858 80000295500000896 1.41409822037
9.90686 80000295500000858 80000295500000857 80000295500000896 1.3575766674
9.92703 80000295500000857 80000295500000856 80000295500000896 1.30237845991
9.93658 80000295500000856 80000295500000855 80000295500000896 1.24847261425
9.94296 80000295500000855 80000295500000854 80000295500000896 1.20625808078
9.00012 80000295500001013 80000295500001012 80000295500001025 3.93726108473
9.20055 80000295500001012 80000295500001011 80000295500001025 3.70877426464
9.29622 80000295500001011 80000295500001010 80000295500001025 3.49086136926
9.32497 80000295500001010 80000295500001009 80000295500001025 3.28303305796
9.34756 80000295500001009 80000295500001008 80000295500001025 3.08482263583
9.38141 80000295500001008 80000295500001006 80000295500001025 2.89578500573
9.41156 80000295500001006 80000295500001005 80000295500001025 2.73314261732
9.41282 80000295500001005 80000295500001003 80000295500001025 2.44422570455
9.44681 80000295500001003 80000295500001002 80000295500001025 2.31611074396
9.46621 80000295500001002 80000295500001001 80000295500001025 2.20792547238
9.48799 80000295500001001 80000295500001000 80000295500001025 2.1032696526
9.54744 80000295500001000 80000295500000997 80000295500001025 1.82268925262
9.57869 80000295500000997 80000295500000996 80000295500001025 1.74357057433
9.61663 80000295500000996 80000295500000995 80000295500001025 1.66666955611
9.6229 80000295500000995 80000295500000994 80000295500001025 1.60423452207
9.64119 80000295500000994 80000295500000993 80000295500001025 1.53123902916
9.66584 80000295500000993 80000295500000992 80000295500001025 1.47197484527
9.6756 80000295500000992 80000295500000991 80000295500001025 1.41409822037
9.67698 80000295500000991 80000295500000990 80000295500001025 1.3575766674
9.04653 80000295500001351 80000295500001350 80000295500001358 3.70877426464
9.07492 80000295500001350 80000295500001348 80000295500001358 3.28303305796
9.08038 80000295500001348 80000295500001346 80000295500001358 3.00813107163
9.14578 80000295500001346 80000295500001345 80000295500001358 2.89578500573
9.17946 80000295500001345 80000295500001344 80000295500001358 2.73314261732
9.18802 80000295500001344 80000295500001343 80000295500001358 2.5772902716
9.24918 80000295500001343 80000295500001342 80000295500001358 2.44422570455
9.25648 80000295500001342 80000295500001341 80000295500001358 2.31611074396
9.26008 80000295500001341 80000295500001340 80000295500001358 2.20792547238
9.29457 80000295500001340 80000295500001339 80000295500001358 2.1032696526
9.35627 80000295500001339 80000295500001338 80000295500001358 2.00202813925
9.04653 80000295500001780 80000295500001779 80000295500001787 8.01217294887
9.08309 80000295500001779 80000295500001778 80000295500001787 7.59510714987
9.13634 80000295500001778 80000295500001777 80000295500001787 7.23627606617
9.19013 80000295500001777 80000295500001776 80000295500001787 7.00541704554
9.2026 80000295500001776 80000295500001775 80000295500001787 6.85511726265
9.27246 80000295500001775 80000295500001774 80000295500001787 6.49159774567
9.36902 80000295500001774 80000295500001773 80000295500001787 6.14490120342
9.40131 80000295500001773 80000295500001772 80000295500001787 6.01075739884
9.49221 80000295500001772 80000295500001771 80000295500001787 5.84661374788
9.57262 80000295500001771 80000295500001770 80000295500001787 5.52976580795
9.59393 80000295500001770 80000295500001769 80000295500001787 5.22758097313
9.62677 80000295500001769 80000295500001768 80000295500001787 4.99593346816
9.63366 80000295500001768 80000295500001767 80000295500001787 4.93938066349
9.65945 80000295500001767 80000295500001766 80000295500001787 4.66451770247
9.71385 80000295500001766 80000295500001765 80000295500001787 4.42803373661
9.74491 80000295500001765 80000295500001764 80000295500001787 4.17683491473
9.8067 80000295500001764 80000295500001763 80000295500001787 4.00794511147
9.89371 80000295500001763 80000295500001762 80000295500001787 3.93726108473
9.94222 80000295500001762 80000295500001761 80000295500001787 3.70877426464
9.97317 80000295500001761 80000295500001760 80000295500001787 3.49086136926
10.0391 80000295500001760 80000295500001759 80000295500001787 3.28303305796
10.0512 80000295500001759 80000295500001758 80000295500001787 3.08482263583
10.1269 80000295500001758 80000295500001754 80000295500001787 2.5772902716
10.1557 80000295500001754 80000295500001753 80000295500001787 2.44422570455
10.1696 80000295500001753 80000295500001752 80000295500001787 2.31611074396
10.176 80000295500001752 80000295500001751 80000295500001787 2.20792547238
10.204 80000295500001751 80000295500001750 80000295500001787 2.1032696526
10.2095 80000295500001750 80000295500001749 80000295500001787 2.00202813925
10.2224 80000295500001749 80000295500001748 80000295500001787 1.90408954353
10.247 80000295500001748 80000295500001745 80000295500001787 1.66666955611
10.2801 80000295500001745 80000295500001744 80000295500001787 1.60423452207
10.2889 80000295500001744 80000295500001742 80000295500001787 1.47197484527
10.3361 80000295500001742 80000295500001741 80000295500001787 1.41409822037
10.3596 80000295500001741 80000295500001739 80000295500001787 1.30237845991
10.3958 80000295500001739 80000295500001738 80000295500001787 1.24847261425
10.4413 80000295500001738 80000295500001737 80000295500001787 1.20625808078
10.4551 80000295500001737 80000295500001736 80000295500001787 1.15460271236
10.4919 80000295500001736 80000295500001735 80000295500001787 1.11415056377
10.5307 80000295500001735 80000295500001734 80000295500001787 1.07445789455
10.5416 80000295500001734 80000295500001732 80000295500001787 0.997294225782
10.542 80000295500001732 80000295500001731 80000295500001787 0.987852810816
10.5698 80000295500001731 80000295500001730 80000295500001787 0.950531351585
10.5796 80000295500001730 80000295500001729 80000295500001787 0.923000816178
10.606 80000295500001729 80000295500001728 80000295500001787 0.886896937575
10.6102 80000295500001728 80000295500001727 80000295500001787 0.851470900625
10.6172 80000295500001727 80000295500001723 80000295500001787 0.732636182022
10.6238 80000295500001723 80000295500001722 80000295500001787 0.700106353719
9.05235 80000295500001809 80000295500001808 80000295500001814 5.84661374788
9.12668 80000295500001808 80000295500001807 80000295500001814 5.52976580795
9.38547 80000295500001807 80000295500001802 80000295500001814 4.42803373661
9.06096 80000295500001819 80000295500001818 80000295500001823 4.99593346816
9.22066 80000295500001818 80000295500001816 80000295500001823 4.66451770247
9.00012 80000295500001878 80000295500001877 80000295500001887 4.17683491473
9.09898 80000295500001877 80000295500001876 80000295500001887 4.00794511147
9.15956 80000295500001876 80000295500001875 80000295500001887 3.93726108473
9.28788 80000295500001875 80000295500001874 80000295500001887 3.70877426464
9.33415 80000295500001874 80000295500001873 80000295500001887 3.49086136926
9.37042 80000295500001873 80000295500001872 80000295500001887 3.28303305796
9.37595 80000295500001872 80000295500001870 80000295500001887 3.00813107163
9.38948 80000295500001870 80000295500001869 80000295500001887 2.89578500573
9.01928 80000295500002010 80000295500002009 80000295500002022 6.14490120342
9.04062 80000295500002009 80000295500002005 80000295500002022 5.22758097313
9.04945 80000295500002005 80000295500002003 80000295500002022 4.93938066349
9.05235 80000295500002003 80000295500002002 80000295500002022 4.66451770247
9.1663 80000295500002002 80000295500002000 80000295500002022 4.17683491473
9.1663 80000295500002000 80000295500001999 80000295500002022 4.00794511147
9.19641 80000295500001999 80000295500001998 80000295500002022 3.93726108473
9.38412 80000295500001998 80000295500001997 80000295500002022 3.70877426464
9.42404 80000295500001997 80000295500001995 80000295500002022 3.28303305796
9.44093 80000295500001995 80000295500001994 80000295500002022 3.08482263583
9.46621 80000295500001994 80000295500001993 80000295500002022 3.00813107163
9.49848 80000295500001993 80000295500001992 80000295500002022 2.89578500573
9.55021 80000295500001992 80000295500001990 80000295500002022 2.5772902716
9.55296 80000295500001990 80000295500001988 80000295500002022 2.31611074396
9.56735 80000295500001988 80000295500001986 80000295500002022 2.1032696526
9.60462 80000295500001986 80000295500001985 80000295500002022 2.00202813925
9.65224 80000295500001985 80000295500001984 80000295500002022 1.90408954353
9.66584 80000295500001984 80000295500001982 80000295500002022 1.74357057433
9.72996 80000295500001982 80000295500001981 80000295500002022 1.66666955611
9.749 80000295500001981 80000295500001979 80000295500002022 1.53123902916
9.75133 80000295500001979 80000295500001978 80000295500002022 1.47197484527
