logMh | fpID | subhaloID | main leaf ID | z
9.11179 20000000021622446 20000000021622445 20000000021622447 12.6747021048
9.15273 20000000021622445 20000000021622444 20000000021622447 12.0418635439
9.2342 20000000021622444 20000000021622443 20000000021622447 11.4973879548
9.25648 20000000021622443 20000000021622442 20000000021622447 10.9190331982
9.49744 20000000021622442 20000000021622441 20000000021622447 10.3674435724
9.55751 20000000021622441 20000000021622440 20000000021622447 9.99659046619
9.62908 20000000021622440 20000000021622439 20000000021622447 9.84138043947
9.68784 20000000021622439 20000000021622438 20000000021622447 9.38877127194
9.73118 20000000021622438 20000000021622437 20000000021622447 9.00233985416
9.87321 20000000021622437 20000000021622435 20000000021622447 8.44947629437
9.98786 20000000021622435 20000000021622434 20000000021622447 8.01217294887
10.0322 20000000021622434 20000000021622433 20000000021622447 7.59510714987
10.1451 20000000021622433 20000000021622432 20000000021622447 7.23627606617
10.1908 20000000021622432 20000000021622431 20000000021622447 7.00541704554
10.2163 20000000021622431 20000000021622430 20000000021622447 6.85511726265
10.3208 20000000021622430 20000000021622429 20000000021622447 6.49159774567
10.3881 20000000021622429 20000000021622428 20000000021622447 6.14490120342
10.415 20000000021622428 20000000021622427 20000000021622447 6.01075739884
10.5229 20000000021622427 20000000021622426 20000000021622447 5.84661374788
10.5349 20000000021622426 20000000021622425 20000000021622447 5.52976580795
10.5837 20000000021622425 20000000021622424 20000000021622447 5.22758097313
10.6436 20000000021622424 20000000021622423 20000000021622447 4.99593346816
10.6588 20000000021622423 20000000021622422 20000000021622447 4.93938066349
10.7054 20000000021622422 20000000021622421 20000000021622447 4.66451770247
10.7612 20000000021622421 20000000021622420 20000000021622447 4.42803373661
10.7926 20000000021622420 20000000021622419 20000000021622447 4.17683491473
10.8499 20000000021622419 20000000021622418 20000000021622447 4.00794511147
10.878 20000000021622418 20000000021622417 20000000021622447 3.93726108473
10.8869 20000000021622417 20000000021622416 20000000021622447 3.70877426464
10.9039 20000000021622416 20000000021622415 20000000021622447 3.49086136926
10.9208 20000000021622415 20000000021622414 20000000021622447 3.28303305796
10.9513 20000000021622414 20000000021622413 20000000021622447 3.08482263583
10.9771 20000000021622413 20000000021622412 20000000021622447 3.00813107163
11.0024 20000000021622412 20000000021622411 20000000021622447 2.89578500573
11.0142 20000000021622411 20000000021622410 20000000021622447 2.73314261732
11.0176 20000000021622410 20000000021622408 20000000021622447 2.44422570455
11.0233 20000000021622408 20000000021622405 20000000021622447 2.1032696526
11.0263 20000000021622405 20000000021622404 20000000021622447 2.00202813925
11.0432 20000000021622404 20000000021622403 20000000021622447 1.90408954353
11.0918 20000000021622403 20000000021622402 20000000021622447 1.82268925262
11.111 20000000021622402 20000000021622401 20000000021622447 1.74357057433
11.1372 20000000021622401 20000000021622400 20000000021622447 1.66666955611
11.1513 20000000021622400 20000000021622399 20000000021622447 1.60423452207
11.1746 20000000021622399 20000000021622398 20000000021622447 1.53123902916
11.1913 20000000021622398 20000000021622397 20000000021622447 1.47197484527
11.2022 20000000021622397 20000000021622396 20000000021622447 1.41409822037
11.2149 20000000021622396 20000000021622395 20000000021622447 1.3575766674
11.2298 20000000021622395 20000000021622394 20000000021622447 1.30237845991
11.2312 20000000021622394 20000000021622393 20000000021622447 1.24847261425
11.2399 20000000021622393 20000000021622392 20000000021622447 1.20625808078
11.2468 20000000021622392 20000000021622384 20000000021622447 0.923000816178
11.247 20000000021622384 20000000021622383 20000000021622447 0.886896937575
11.2656 20000000021622383 20000000021622382 20000000021622447 0.851470900625
11.2681 20000000021622382 20000000021622381 20000000021622447 0.816709979012
11.2727 20000000021622381 20000000021622379 20000000021622447 0.757441372616
11.2766 20000000021622379 20000000021622378 20000000021622447 0.732636182022
11.2791 20000000021622378 20000000021622377 20000000021622447 0.700106353719
11.2847 20000000021622377 20000000021622376 20000000021622447 0.676110411213
11.2915 20000000021622376 20000000021622375 20000000021622447 0.644641840685
11.2934 20000000021622375 20000000021622374 20000000021622447 0.621428745243
11.2964 20000000021622374 20000000021622372 20000000021622447 0.575980845108
11.305 20000000021622372 20000000021622371 20000000021622447 0.546392183141
11.3092 20000000021622371 20000000021622370 20000000021622447 0.524565820434
11.3151 20000000021622370 20000000021622369 20000000021622447 0.503047523245
11.3184 20000000021622369 20000000021622368 20000000021622447 0.481832943421
11.3213 20000000021622368 20000000021622367 20000000021622447 0.460917794181
11.3217 20000000021622367 20000000021622366 20000000021622447 0.440297849248
11.3228 20000000021622366 20000000021622365 20000000021622447 0.419968941997
11.3254 20000000021622365 20000000021622364 20000000021622447 0.399926964614
11.3265 20000000021622364 20000000021622363 20000000021622447 0.38016786726
11.329 20000000021622363 20000000021622362 20000000021622447 0.360687657262
11.33 20000000021622362 20000000021622361 20000000021622447 0.347853841858
11.333 20000000021622361 20000000021622360 20000000021622447 0.328829724206
11.337 20000000021622360 20000000021622359 20000000021622447 0.310074120128
11.3428 20000000021622359 20000000021622358 20000000021622447 0.291583239722
11.3437 20000000021622358 20000000021622356 20000000021622447 0.261343256161
11.3458 20000000021622356 20000000021622355 20000000021622447 0.243540181555
11.3498 20000000021622355 20000000021622354 20000000021622447 0.22598838626
11.3517 20000000021622354 20000000021622351 20000000021622447 0.180385261706
11.3524 20000000021622351 20000000021622349 20000000021622447 0.152748768902
11.3541 20000000021622349 20000000021622348 20000000021622447 0.14187620397
11.357 20000000021622348 20000000021622347 20000000021622447 0.125759332411
11.3592 20000000021622347 20000000021622344 20000000021622447 0.0838844307975
11.3605 20000000021622344 20000000021622342 20000000021622447 0.0585073227945
9.00012 20000000021622455 20000000021622454 20000000021622460 10.9190331982
9.09637 20000000021622477 20000000021622476 20000000021622481 12.0418635439
9.24362 20000000021622476 20000000021622474 20000000021622481 10.9190331982
9.26543 20000000021622474 20000000021622473 20000000021622481 10.3674435724
9.31083 20000000021622473 20000000021622470 20000000021622481 9.38877127194
9.44681 20000000021622470 20000000021622469 20000000021622481 9.00233985416
9.0666 20000000021622512 20000000021622511 20000000021622515 9.99659046619
9.07492 20000000021622511 20000000021622510 20000000021622515 9.84138043947
9.17073 20000000021622510 20000000021622509 20000000021622515 9.38877127194
9.2342 20000000021622509 20000000021622508 20000000021622515 9.00233985416
9.34016 20000000021622508 20000000021622506 20000000021622515 8.44947629437
9.49536 20000000021622506 20000000021622505 20000000021622515 8.01217294887
9.55751 20000000021622505 20000000021622504 20000000021622515 7.59510714987
9.05811 20000000021622550 20000000021622549 20000000021622561 7.00541704554
9.06096 20000000021622549 20000000021622544 20000000021622561 5.52976580795
9.03463 20000000021622574 20000000021622573 20000000021622582 7.23627606617
9.04062 20000000021622573 20000000021622569 20000000021622582 6.14490120342
9.08845 20000000021622599 20000000021622598 20000000021622605 8.44947629437
9.14344 20000000021622598 20000000021622597 20000000021622605 8.01217294887
9.35914 20000000021622597 20000000021622596 20000000021622605 7.59510714987
9.43377 20000000021622596 20000000021622595 20000000021622605 7.23627606617
9.46955 20000000021622595 20000000021622594 20000000021622605 7.00541704554
9.5314 20000000021622594 20000000021622593 20000000021622605 6.85511726265
9.64342 20000000021622593 20000000021622592 20000000021622605 6.49159774567
9.75708 20000000021622592 20000000021622590 20000000021622605 6.01075739884
9.01614 20000000021622698 20000000021622697 20000000021622708 6.49159774567
9.05811 20000000021622697 20000000021622695 20000000021622708 6.01075739884
9.11681 20000000021622695 20000000021622694 20000000021622708 5.84661374788
9.18162 20000000021622694 20000000021622693 20000000021622708 5.52976580795
9.01928 20000000021622832 20000000021622831 20000000021622834 9.84138043947
9.0316 20000000021622831 20000000021622829 20000000021622834 9.00233985416
9.14578 20000000021622829 20000000021622827 20000000021622834 8.44947629437
9.29124 20000000021622827 20000000021622825 20000000021622834 7.59510714987
9.39478 20000000021622825 20000000021622824 20000000021622834 7.23627606617
9.48799 20000000021622824 20000000021622822 20000000021622834 6.85511726265
9.54836 20000000021622822 20000000021622821 20000000021622834 6.49159774567
9.55478 20000000021622821 20000000021622817 20000000021622834 5.52976580795
9.70877 20000000021622817 20000000021622816 20000000021622834 5.22758097313
9.72322 20000000021622816 20000000021622815 20000000021622834 4.99593346816
9.78636 20000000021622815 20000000021622812 20000000021622834 4.42803373661
9.89036 20000000021622812 20000000021622811 20000000021622834 4.17683491473
9.0066 20000000021622840 20000000021622839 20000000021622849 6.14490120342
9.06939 20000000021622839 20000000021622837 20000000021622849 5.84661374788
9.0098 20000000021622959 20000000021622958 20000000021622966 4.42803373661
9.10415 20000000021622958 20000000021622957 20000000021622966 4.17683491473
9.15956 20000000021622957 20000000021622956 20000000021622966 4.00794511147
9.20668 20000000021622956 20000000021622954 20000000021622966 3.70877426464
9.2862 20000000021622954 20000000021622953 20000000021622966 3.49086136926
9.31243 20000000021622953 20000000021622952 20000000021622966 3.28303305796
9.33716 20000000021622952 20000000021622950 20000000021622966 3.00813107163
9.37457 20000000021622950 20000000021622949 20000000021622966 2.89578500573
9.38277 20000000021622949 20000000021622948 20000000021622966 2.73314261732
9.78098 20000000021622948 20000000021622945 20000000021622966 2.31611074396
9.81076 20000000021622945 20000000021622944 20000000021622966 2.20792547238
9.05811 20000000021623028 20000000021623027 20000000021623036 7.59510714987
9.14108 20000000021623027 20000000021623026 20000000021623036 7.23627606617
9.17512 20000000021623026 20000000021623023 20000000021623036 6.49159774567
9.17729 20000000021623023 20000000021623022 20000000021623036 6.14490120342
9.18376 20000000021623022 20000000021623019 20000000021623036 5.52976580795
9.24918 20000000021623019 20000000021623017 20000000021623036 4.99593346816
9.2672 20000000021623017 20000000021623016 20000000021623036 4.93938066349
9.27594 20000000021623016 20000000021623015 20000000021623036 4.66451770247
9.00337 20000000021623134 20000000021623133 20000000021623147 4.42803373661
9.06096 20000000021623133 20000000021623132 20000000021623147 4.17683491473
9.08578 20000000021623132 20000000021623131 20000000021623147 4.00794511147
9.11179 20000000021623131 20000000021623130 20000000021623147 3.93726108473
9.15042 20000000021623130 20000000021623128 20000000021623147 3.49086136926
9.18162 20000000021623128 20000000021623126 20000000021623147 3.08482263583
9.2026 20000000021623126 20000000021623125 20000000021623147 3.00813107163
9.2361 20000000021623125 20000000021623124 20000000021623147 2.89578500573
9.23988 20000000021623124 20000000021623123 20000000021623147 2.73314261732
9.38948 20000000021623123 20000000021623122 20000000021623147 2.5772902716
9.55569 20000000021623122 20000000021623121 20000000021623147 2.44422570455
9.56646 20000000021623121 20000000021623115 20000000021623147 1.82268925262
9.33263 20000000021623206 20000000021623205 20000000021623215 4.99593346816
9.43257 20000000021623205 20000000021623199 20000000021623215 3.93726108473
9.45145 20000000021623199 20000000021623197 20000000021623215 3.49086136926
9.47724 20000000021623197 20000000021623196 20000000021623215 3.28303305796
9.48586 20000000021623196 20000000021623195 20000000021623215 3.08482263583
9.48586 20000000021623195 20000000021623194 20000000021623215 3.00813107163
9.54372 20000000021623194 20000000021623193 20000000021623215 2.89578500573
9.54372 20000000021623193 20000000021623192 20000000021623215 2.73314261732
9.60543 20000000021623192 20000000021623191 20000000021623215 2.5772902716
9.61899 20000000021623191 20000000021623189 20000000021623215 2.31611074396
9.62831 20000000021623189 20000000021623186 20000000021623215 2.00202813925
9.03763 20000000021623237 20000000021623236 20000000021623239 4.17683491473
9.04653 20000000021623290 20000000021623289 20000000021623308 3.70877426464
9.04945 20000000021623289 20000000021623288 20000000021623308 3.49086136926
9.01928 20000000021623505 20000000021623504 20000000021623518 3.93726108473
