logMh | fpID | subhaloID | main leaf ID | z
9.10157 90000077500000089 90000077500000088 90000077500000095 5.52976580795
9.27072 90000077500000088 90000077500000087 90000077500000095 5.22758097313
9.32958 90000077500000087 90000077500000086 90000077500000095 4.99593346816
9.3634 90000077500000086 90000077500000085 90000077500000095 4.93938066349
9.5566 90000077500000085 90000077500000084 90000077500000095 4.66451770247
9.58638 90000077500000084 90000077500000083 90000077500000095 4.42803373661
9.61425 90000077500000083 90000077500000082 90000077500000095 4.17683491473
9.64342 90000077500000082 90000077500000081 90000077500000095 4.00794511147
9.71195 90000077500000081 90000077500000080 90000077500000095 3.93726108473
9.81278 90000077500000080 90000077500000079 90000077500000095 3.70877426464
9.85444 90000077500000079 90000077500000078 90000077500000095 3.49086136926
9.92973 90000077500000078 90000077500000077 90000077500000095 3.28303305796
10.0364 90000077500000077 90000077500000076 90000077500000095 3.08482263583
10.0598 90000077500000076 90000077500000075 90000077500000095 3.00813107163
10.1401 90000077500000075 90000077500000074 90000077500000095 2.89578500573
10.2014 90000077500000074 90000077500000073 90000077500000095 2.73314261732
10.259 90000077500000073 90000077500000072 90000077500000095 2.5772902716
10.2924 90000077500000072 90000077500000071 90000077500000095 2.44422570455
10.3265 90000077500000071 90000077500000070 90000077500000095 2.31611074396
10.3706 90000077500000070 90000077500000069 90000077500000095 2.20792547238
10.374 90000077500000069 90000077500000068 90000077500000095 2.1032696526
10.4068 90000077500000068 90000077500000067 90000077500000095 2.00202813925
10.4118 90000077500000067 90000077500000066 90000077500000095 1.90408954353
10.4262 90000077500000066 90000077500000064 90000077500000095 1.74357057433
10.4363 90000077500000064 90000077500000063 90000077500000095 1.66666955611
10.4564 90000077500000063 90000077500000062 90000077500000095 1.60423452207
10.4682 90000077500000062 90000077500000060 90000077500000095 1.47197484527
10.4682 90000077500000060 90000077500000058 90000077500000095 1.3575766674
10.5162 90000077500000058 90000077500000057 90000077500000095 1.30237845991
10.543 90000077500000057 90000077500000056 90000077500000095 1.24847261425
10.5624 90000077500000056 90000077500000055 90000077500000095 1.20625808078
10.5936 90000077500000055 90000077500000054 90000077500000095 1.15460271236
10.6603 90000077500000054 90000077500000053 90000077500000095 1.11415056377
10.7052 90000077500000053 90000077500000052 90000077500000095 1.07445789455
10.7495 90000077500000052 90000077500000051 90000077500000095 1.03551044566
10.7918 90000077500000051 90000077500000050 90000077500000095 0.997294225782
10.8025 90000077500000050 90000077500000049 90000077500000095 0.987852810816
10.8564 90000077500000049 90000077500000048 90000077500000095 0.950531351585
10.8983 90000077500000048 90000077500000047 90000077500000095 0.923000816178
10.9231 90000077500000047 90000077500000046 90000077500000095 0.886896937575
10.9613 90000077500000046 90000077500000045 90000077500000095 0.851470900625
10.97 90000077500000045 90000077500000044 90000077500000095 0.816709979012
10.9939 90000077500000044 90000077500000043 90000077500000095 0.791068248946
11.0039 90000077500000043 90000077500000042 90000077500000095 0.757441372616
11.0087 90000077500000042 90000077500000041 90000077500000095 0.732636182022
11.017 90000077500000041 90000077500000022 90000077500000095 0.310074120128
11.0264 90000077500000022 90000077500000021 90000077500000095 0.291583239722
11.0374 90000077500000021 90000077500000020 90000077500000095 0.273353346578
11.0471 90000077500000020 90000077500000019 90000077500000095 0.261343256161
11.1025 90000077500000019 90000077500000018 90000077500000095 0.243540181555
11.1494 90000077500000018 90000077500000017 90000077500000095 0.22598838626
11.181 90000077500000017 90000077500000016 90000077500000095 0.214425035514
11.1927 90000077500000016 90000077500000015 90000077500000095 0.197284182376
11.2272 90000077500000015 90000077500000014 90000077500000095 0.180385261706
11.238 90000077500000014 90000077500000008 90000077500000095 0.0994018026302
11.2436 90000077500000008 90000077500000007 90000077500000095 0.0838844307975
11.2608 90000077500000007 90000077500000004 90000077500000095 0.0485236299818
11.2681 90000077500000004 90000077500000003 90000077500000095 0.0337243718735
11.2817 90000077500000003 90000077500000002 90000077500000095 0.0239744283828
11.2982 90000077500000002 90000077500000001 90000077500000095 0.00952166696794
9.04358 90000077500000152 90000077500000151 90000077500000158 3.93726108473
9.07492 90000077500000151 90000077500000150 90000077500000158 3.70877426464
9.09375 90000077500000150 90000077500000149 90000077500000158 3.49086136926
9.12912 90000077500000149 90000077500000148 90000077500000158 3.28303305796
9.17073 90000077500000148 90000077500000147 90000077500000158 3.08482263583
9.18802 90000077500000147 90000077500000146 90000077500000158 3.00813107163
9.0098 90000077500000179 90000077500000178 90000077500000188 4.42803373661
9.06939 90000077500000178 90000077500000176 90000077500000188 4.00794511147
9.07492 90000077500000176 90000077500000175 90000077500000188 3.93726108473
9.16852 90000077500000175 90000077500000174 90000077500000188 3.70877426464
9.00012 90000077500000236 90000077500000235 90000077500000249 5.22758097313
9.04945 90000077500000235 90000077500000234 90000077500000249 4.99593346816
9.06378 90000077500000234 90000077500000233 90000077500000249 4.93938066349
9.0666 90000077500000233 90000077500000231 90000077500000249 4.42803373661
9.09375 90000077500000231 90000077500000230 90000077500000249 4.17683491473
9.01928 90000077500000266 90000077500000265 90000077500000275 3.70877426464
9.13871 90000077500000265 90000077500000264 90000077500000275 3.49086136926
9.14108 90000077500000264 90000077500000258 90000077500000275 2.5772902716
9.02548 90000077500000302 90000077500000301 90000077500000304 5.22758097313
9.05235 90000077500000301 90000077500000300 90000077500000304 4.99593346816
9.07216 90000077500000300 90000077500000298 90000077500000304 4.66451770247
9.07492 90000077500000298 90000077500000297 90000077500000304 4.42803373661
9.11431 90000077500000297 90000077500000295 90000077500000304 4.00794511147
9.13634 90000077500000295 90000077500000293 90000077500000304 3.70877426464
9.15273 90000077500000412 90000077500000411 90000077500000417 4.42803373661
9.2828 90000077500000411 90000077500000409 90000077500000417 4.00794511147
9.2845 90000077500000409 90000077500000407 90000077500000417 3.70877426464
9.33111 90000077500000407 90000077500000406 90000077500000417 3.49086136926
9.40902 90000077500000406 90000077500000405 90000077500000417 3.28303305796
9.52169 90000077500000405 90000077500000404 90000077500000417 3.08482263583
9.57175 90000077500000404 90000077500000400 90000077500000417 2.5772902716
9.70234 90000077500000400 90000077500000398 90000077500000417 2.31611074396
9.79272 90000077500000398 90000077500000397 90000077500000417 2.20792547238
9.84147 90000077500000397 90000077500000396 90000077500000417 2.1032696526
9.87278 90000077500000396 90000077500000395 90000077500000417 2.00202813925
9.91289 90000077500000395 90000077500000394 90000077500000417 1.90408954353
9.93696 90000077500000394 90000077500000393 90000077500000417 1.82268925262
9.93997 90000077500000393 90000077500000392 90000077500000417 1.74357057433
9.96688 90000077500000392 90000077500000391 90000077500000417 1.66666955611
9.97973 90000077500000391 90000077500000390 90000077500000417 1.60423452207
10.0267 90000077500000390 90000077500000388 90000077500000417 1.47197484527
10.0518 90000077500000388 90000077500000387 90000077500000417 1.41409822037
9.62056 90000077500000435 90000077500000434 90000077500000436 2.44422570455
9.05235 90000077500000444 90000077500000443 90000077500000453 3.28303305796
9.25828 90000077500000443 90000077500000442 90000077500000453 3.08482263583
9.29124 90000077500000442 90000077500000441 90000077500000453 3.00813107163
9.32805 90000077500000441 90000077500000439 90000077500000453 2.73314261732
9.02855 90000077500000552 90000077500000551 90000077500000575 2.31611074396
9.10671 90000077500000551 90000077500000546 90000077500000575 1.82268925262
9.0066 90000077500000598 90000077500000597 90000077500000607 2.1032696526
9.01928 90000077500000597 90000077500000596 90000077500000607 2.00202813925
9.0666 90000077500000596 90000077500000595 90000077500000607 1.90408954353
9.07216 90000077500000595 90000077500000594 90000077500000607 1.82268925262
9.07766 90000077500000594 90000077500000593 90000077500000607 1.74357057433
9.09898 90000077500000593 90000077500000592 90000077500000607 1.66666955611
9.13871 90000077500000725 90000077500000724 90000077500000732 3.08482263583
9.17729 90000077500000724 90000077500000723 90000077500000732 3.00813107163
9.24175 90000077500000723 90000077500000722 90000077500000732 2.89578500573
9.26187 90000077500000722 90000077500000721 90000077500000732 2.73314261732
9.28956 90000077500000721 90000077500000720 90000077500000732 2.5772902716
9.32805 90000077500000720 90000077500000719 90000077500000732 2.44422570455
9.37319 90000077500000719 90000077500000718 90000077500000732 2.31611074396
9.46621 90000077500000718 90000077500000717 90000077500000732 2.20792547238
9.55296 90000077500000717 90000077500000716 90000077500000732 2.1032696526
9.01614 90000077500000783 90000077500000782 90000077500000789 3.28303305796
9.05235 90000077500000782 90000077500000781 90000077500000789 3.08482263583
9.07216 90000077500000781 90000077500000780 90000077500000789 3.00813107163
9.07216 90000077500000780 90000077500000779 90000077500000789 2.89578500573
9.12668 90000077500000779 90000077500000774 90000077500000789 2.20792547238
9.12912 90000077500000774 90000077500000770 90000077500000789 1.82268925262
9.13871 90000077500000770 90000077500000763 90000077500000789 1.3575766674
9.15042 90000077500000763 90000077500000762 90000077500000789 1.30237845991
9.01928 90000077500000843 90000077500000842 90000077500000848 4.00794511147
9.12912 90000077500000842 90000077500000840 90000077500000848 3.70877426464
9.30115 90000077500000840 90000077500000839 90000077500000848 3.49086136926
9.41784 90000077500000839 90000077500000838 90000077500000848 3.28303305796
9.42649 90000077500000838 90000077500000836 90000077500000848 3.00813107163
9.4549 90000077500000836 90000077500000835 90000077500000848 2.89578500573
9.47066 90000077500000835 90000077500000834 90000077500000848 2.73314261732
9.47941 90000077500000834 90000077500000833 90000077500000848 2.5772902716
9.51074 90000077500000833 90000077500000832 90000077500000848 2.44422570455
9.52657 90000077500000832 90000077500000831 90000077500000848 2.31611074396
9.53996 90000077500000831 90000077500000830 90000077500000848 2.20792547238
9.59477 90000077500000830 90000077500000829 90000077500000848 2.1032696526
9.67214 90000077500000829 90000077500000826 90000077500000848 1.82268925262
9.72874 90000077500000826 90000077500000825 90000077500000848 1.74357057433
9.73057 90000077500000825 90000077500000824 90000077500000848 1.66666955611
9.7519 90000077500000824 90000077500000823 90000077500000848 1.60423452207
9.79166 90000077500000823 90000077500000822 90000077500000848 1.53123902916
9.83002 90000077500000822 90000077500000821 90000077500000848 1.47197484527
9.84939 90000077500000821 90000077500000820 90000077500000848 1.41409822037
9.86705 90000077500000820 90000077500000819 90000077500000848 1.3575766674
9.00012 90000077500001068 90000077500001067 90000077500001090 2.20792547238
9.00012 90000077500001067 90000077500001066 90000077500001090 2.1032696526
9.03463 90000077500001066 90000077500001065 90000077500001090 2.00202813925
9.04062 90000077500001065 90000077500001064 90000077500001090 1.90408954353
9.04358 90000077500001064 90000077500001063 90000077500001090 1.82268925262
9.04653 90000077500001063 90000077500001062 90000077500001090 1.74357057433
9.10157 90000077500001062 90000077500001060 90000077500001090 1.60423452207
9.10157 90000077500001060 90000077500001056 90000077500001090 1.3575766674
9.21671 90000077500001214 90000077500001213 90000077500001220 3.28303305796
9.40902 90000077500001213 90000077500001212 90000077500001220 3.08482263583
9.43617 90000077500001212 90000077500001211 90000077500001220 3.00813107163
9.73899 90000077500001211 90000077500001208 90000077500001220 2.5772902716
9.78368 90000077500001208 90000077500001207 90000077500001220 2.44422570455
9.80975 90000077500001207 90000077500001206 90000077500001220 2.31611074396
9.84052 90000077500001206 90000077500001205 90000077500001220 2.20792547238
9.89663 90000077500001205 90000077500001204 90000077500001220 2.1032696526
9.92703 90000077500001204 90000077500001203 90000077500001220 2.00202813925
10.0298 90000077500001203 90000077500001201 90000077500001220 1.82268925262
10.0316 90000077500001201 90000077500001197 90000077500001220 1.53123902916
10.0852 90000077500001197 90000077500001196 90000077500001220 1.47197484527
10.1578 90000077500001196 90000077500001195 90000077500001220 1.41409822037
10.1598 90000077500001195 90000077500001193 90000077500001220 1.30237845991
10.1721 90000077500001193 90000077500001188 90000077500001220 1.07445789455
9.07766 90000077500001228 90000077500001227 90000077500001238 3.28303305796
9.23037 90000077500001227 90000077500001224 90000077500001238 2.89578500573
9.04945 90000077500001240 90000077500001239 90000077500001242 3.00813107163
9.00337 90000077500001327 90000077500001326 90000077500001341 2.44422570455
9.00012 90000077500001372 90000077500001371 90000077500001384 3.93726108473
9.11179 90000077500001371 90000077500001369 90000077500001384 3.49086136926
9.17293 90000077500001369 90000077500001367 90000077500001384 3.08482263583
9.19223 90000077500001367 90000077500001365 90000077500001384 2.89578500573
9.24362 90000077500001365 90000077500001364 90000077500001384 2.73314261732
9.26187 90000077500001364 90000077500001363 90000077500001384 2.5772902716
