logMh | fpID | subhaloID | main leaf ID | z
9.20464 90000461200000096 90000461200000095 90000461200000105 7.23627606617
9.27072 90000461200000095 90000461200000094 90000461200000105 7.00541704554
9.28956 90000461200000094 90000461200000093 90000461200000105 6.85511726265
9.36199 90000461200000093 90000461200000092 90000461200000105 6.49159774567
9.38815 90000461200000092 90000461200000091 90000461200000105 6.14490120342
9.56111 90000461200000091 90000461200000090 90000461200000105 6.01075739884
9.79429 90000461200000090 90000461200000089 90000461200000105 5.84661374788
9.83578 90000461200000089 90000461200000088 90000461200000105 5.52976580795
10.1525 90000461200000088 90000461200000084 90000461200000105 4.66451770247
10.1801 90000461200000084 90000461200000083 90000461200000105 4.42803373661
10.299 90000461200000083 90000461200000082 90000461200000105 4.17683491473
10.3025 90000461200000082 90000461200000080 90000461200000105 3.93726108473
10.3257 90000461200000080 90000461200000078 90000461200000105 3.49086136926
10.3311 90000461200000078 90000461200000077 90000461200000105 3.28303305796
10.3505 90000461200000077 90000461200000076 90000461200000105 3.08482263583
10.3511 90000461200000076 90000461200000075 90000461200000105 3.00813107163
10.353 90000461200000075 90000461200000074 90000461200000105 2.89578500573
10.8207 90000461200000074 90000461200000069 90000461200000105 2.20792547238
10.8265 90000461200000069 90000461200000068 90000461200000105 2.1032696526
10.8549 90000461200000068 90000461200000067 90000461200000105 2.00202813925
10.8829 90000461200000067 90000461200000066 90000461200000105 1.90408954353
10.888 90000461200000066 90000461200000065 90000461200000105 1.82268925262
10.893 90000461200000065 90000461200000063 90000461200000105 1.66666955611
10.8935 90000461200000063 90000461200000062 90000461200000105 1.60423452207
10.9028 90000461200000062 90000461200000057 90000461200000105 1.30237845991
10.9067 90000461200000057 90000461200000056 90000461200000105 1.24847261425
10.9117 90000461200000056 90000461200000055 90000461200000105 1.20625808078
10.9266 90000461200000055 90000461200000054 90000461200000105 1.15460271236
10.9317 90000461200000054 90000461200000052 90000461200000105 1.07445789455
10.9435 90000461200000052 90000461200000051 90000461200000105 1.03551044566
10.953 90000461200000051 90000461200000050 90000461200000105 0.997294225782
10.9638 90000461200000050 90000461200000048 90000461200000105 0.950531351585
10.9674 90000461200000048 90000461200000047 90000461200000105 0.923000816178
10.9744 90000461200000047 90000461200000046 90000461200000105 0.886896937575
10.9887 90000461200000046 90000461200000045 90000461200000105 0.851470900625
10.9934 90000461200000045 90000461200000044 90000461200000105 0.816709979012
10.9975 90000461200000044 90000461200000043 90000461200000105 0.791068248946
11.0057 90000461200000043 90000461200000042 90000461200000105 0.757441372616
11.0158 90000461200000042 90000461200000041 90000461200000105 0.732636182022
11.0185 90000461200000041 90000461200000040 90000461200000105 0.700106353719
11.0234 90000461200000040 90000461200000039 90000461200000105 0.676110411213
11.0264 90000461200000039 90000461200000038 90000461200000105 0.644641840685
11.0353 90000461200000038 90000461200000037 90000461200000105 0.621428745243
11.0353 90000461200000037 90000461200000036 90000461200000105 0.598543288188
11.0387 90000461200000036 90000461200000035 90000461200000105 0.575980845108
11.0458 90000461200000035 90000461200000034 90000461200000105 0.546392183141
11.0495 90000461200000034 90000461200000033 90000461200000105 0.524565820434
11.0567 90000461200000033 90000461200000031 90000461200000105 0.481832943421
11.0607 90000461200000031 90000461200000030 90000461200000105 0.460917794181
11.0647 90000461200000030 90000461200000029 90000461200000105 0.440297849248
11.0661 90000461200000029 90000461200000028 90000461200000105 0.419968941997
11.0754 90000461200000028 90000461200000026 90000461200000105 0.38016786726
11.0879 90000461200000026 90000461200000024 90000461200000105 0.347853841858
11.1014 90000461200000024 90000461200000022 90000461200000105 0.310074120128
11.1058 90000461200000022 90000461200000021 90000461200000105 0.291583239722
11.1137 90000461200000021 90000461200000020 90000461200000105 0.273353346578
11.1249 90000461200000020 90000461200000019 90000461200000105 0.261343256161
11.128 90000461200000019 90000461200000017 90000461200000105 0.22598838626
11.1385 90000461200000017 90000461200000016 90000461200000105 0.214425035514
11.1602 90000461200000016 90000461200000015 90000461200000105 0.197284182376
11.1652 90000461200000015 90000461200000014 90000461200000105 0.180385261706
11.1914 90000461200000014 90000461200000013 90000461200000105 0.169252033244
11.2004 90000461200000013 90000461200000012 90000461200000105 0.152748768902
11.221 90000461200000012 90000461200000011 90000461200000105 0.14187620397
11.2601 90000461200000011 90000461200000010 90000461200000105 0.125759332411
11.2888 90000461200000010 90000461200000009 90000461200000105 0.109869940459
11.3029 90000461200000009 90000461200000008 90000461200000105 0.0994018026302
11.3091 90000461200000008 90000461200000003 90000461200000105 0.0337243718735
11.3133 90000461200000003 90000461200000002 90000461200000105 0.0239744283828
11.3195 90000461200000002 90000461200000001 90000461200000105 0.00952166696794
11.3264 90000461200000001 90000461200000000 90000461200000105 2.22044604925e-16
9.16852 90000461200000113 90000461200000112 90000461200000119 6.14490120342
9.18589 90000461200000145 90000461200000144 90000461200000148 5.84661374788
9.23229 90000461200000159 90000461200000158 90000461200000164 6.49159774567
9.2929 90000461200000158 90000461200000156 90000461200000164 6.01075739884
9.35048 90000461200000156 90000461200000155 90000461200000164 5.84661374788
9.5931 90000461200000155 90000461200000154 90000461200000164 5.52976580795
9.87626 90000461200000154 90000461200000153 90000461200000164 5.22758097313
10.1723 90000461200000153 90000461200000152 90000461200000164 4.99593346816
10.2163 90000461200000152 90000461200000151 90000461200000164 4.93938066349
9.04062 90000461200000223 90000461200000222 90000461200000236 6.14490120342
9.04358 90000461200000222 90000461200000221 90000461200000236 6.01075739884
9.09637 90000461200000221 90000461200000219 90000461200000236 5.52976580795
9.11431 90000461200000267 90000461200000266 90000461200000270 6.85511726265
9.2828 90000461200000266 90000461200000265 90000461200000270 6.49159774567
9.02855 90000461200000298 90000461200000297 90000461200000304 7.59510714987
9.03763 90000461200000297 90000461200000296 90000461200000304 7.23627606617
9.18589 90000461200000296 90000461200000294 90000461200000304 6.85511726265
9.21472 90000461200000294 90000461200000293 90000461200000304 6.49159774567
9.26187 90000461200000293 90000461200000292 90000461200000304 6.14490120342
9.30763 90000461200000292 90000461200000291 90000461200000304 6.01075739884
9.33866 90000461200000291 90000461200000289 90000461200000304 5.52976580795
9.38815 90000461200000289 90000461200000288 90000461200000304 5.22758097313
9.40131 90000461200000288 90000461200000287 90000461200000304 4.99593346816
9.40774 90000461200000287 90000461200000285 90000461200000304 4.66451770247
9.41282 90000461200000285 90000461200000284 90000461200000304 4.42803373661
9.44797 90000461200000284 90000461200000283 90000461200000304 4.17683491473
9.1193 90000461200000365 90000461200000364 90000461200000372 8.01217294887
9.20464 90000461200000364 90000461200000363 90000461200000372 7.59510714987
9.23037 90000461200000363 90000461200000362 90000461200000372 7.23627606617
9.24918 90000461200000362 90000461200000361 90000461200000372 7.00541704554
9.25648 90000461200000361 90000461200000360 90000461200000372 6.85511726265
9.32805 90000461200000360 90000461200000359 90000461200000372 6.49159774567
9.41534 90000461200000359 90000461200000358 90000461200000372 6.14490120342
9.43136 90000461200000358 90000461200000357 90000461200000372 6.01075739884
9.44211 90000461200000357 90000461200000356 90000461200000372 5.84661374788
9.52754 90000461200000356 90000461200000355 90000461200000372 5.52976580795
9.52851 90000461200000355 90000461200000354 90000461200000372 5.22758097313
9.62677 90000461200000354 90000461200000353 90000461200000372 4.99593346816
9.70299 90000461200000353 90000461200000352 90000461200000372 4.93938066349
9.78528 90000461200000352 90000461200000351 90000461200000372 4.66451770247
9.8237 90000461200000351 90000461200000350 90000461200000372 4.42803373661
10.0877 90000461200000350 90000461200000349 90000461200000372 4.17683491473
10.1347 90000461200000349 90000461200000347 90000461200000372 3.93726108473
10.2117 90000461200000347 90000461200000346 90000461200000372 3.70877426464
10.2758 90000461200000346 90000461200000345 90000461200000372 3.49086136926
10.3208 90000461200000345 90000461200000344 90000461200000372 3.28303305796
10.3476 90000461200000344 90000461200000343 90000461200000372 3.08482263583
10.3848 90000461200000343 90000461200000342 90000461200000372 3.00813107163
10.4065 90000461200000342 90000461200000341 90000461200000372 2.89578500573
10.4495 90000461200000341 90000461200000340 90000461200000372 2.73314261732
10.5307 90000461200000340 90000461200000339 90000461200000372 2.5772902716
10.6066 90000461200000339 90000461200000338 90000461200000372 2.44422570455
10.7205 90000461200000338 90000461200000337 90000461200000372 2.31611074396
9.04358 90000461200000443 90000461200000442 90000461200000450 7.59510714987
9.1573 90000461200000442 90000461200000441 90000461200000450 7.23627606617
9.2361 90000461200000441 90000461200000440 90000461200000450 7.00541704554
9.33263 90000461200000440 90000461200000438 90000461200000450 6.49159774567
9.40131 90000461200000438 90000461200000437 90000461200000450 6.14490120342
9.4026 90000461200000437 90000461200000436 90000461200000450 6.01075739884
9.46285 90000461200000436 90000461200000435 90000461200000450 5.84661374788
9.50771 90000461200000435 90000461200000434 90000461200000450 5.52976580795
9.5207 90000461200000434 90000461200000433 90000461200000450 5.22758097313
9.5629 90000461200000433 90000461200000432 90000461200000450 4.99593346816
