logMh | fpID | subhaloID | main leaf ID | z
9.1193 80000190500000089 80000190500000088 80000190500000098 5.52976580795
9.14578 80000190500000088 80000190500000087 80000190500000098 5.22758097313
9.39081 80000190500000087 80000190500000086 80000190500000098 4.99593346816
9.43257 80000190500000086 80000190500000085 80000190500000098 4.93938066349
9.57175 80000190500000085 80000190500000084 80000190500000098 4.66451770247
9.61425 80000190500000084 80000190500000083 80000190500000098 4.42803373661
9.68851 80000190500000083 80000190500000082 80000190500000098 4.17683491473
9.75479 80000190500000082 80000190500000080 80000190500000098 3.93726108473
9.79534 80000190500000080 80000190500000079 80000190500000098 3.70877426464
9.8666 80000190500000079 80000190500000078 80000190500000098 3.49086136926
9.98483 80000190500000078 80000190500000077 80000190500000098 3.28303305796
10.0117 80000190500000077 80000190500000076 80000190500000098 3.08482263583
10.0202 80000190500000076 80000190500000075 80000190500000098 3.00813107163
10.0524 80000190500000075 80000190500000074 80000190500000098 2.89578500573
10.0885 80000190500000074 80000190500000073 80000190500000098 2.73314261732
10.2283 80000190500000073 80000190500000072 80000190500000098 2.5772902716
10.324 80000190500000072 80000190500000071 80000190500000098 2.44422570455
10.4836 80000190500000071 80000190500000070 80000190500000098 2.31611074396
10.5689 80000190500000070 80000190500000069 80000190500000098 2.20792547238
10.5825 80000190500000069 80000190500000068 80000190500000098 2.1032696526
10.6245 80000190500000068 80000190500000067 80000190500000098 2.00202813925
10.6469 80000190500000067 80000190500000066 80000190500000098 1.90408954353
10.6786 80000190500000066 80000190500000065 80000190500000098 1.82268925262
10.688 80000190500000065 80000190500000062 80000190500000098 1.60423452207
10.6953 80000190500000062 80000190500000061 80000190500000098 1.53123902916
10.7052 80000190500000061 80000190500000060 80000190500000098 1.47197484527
10.7236 80000190500000060 80000190500000051 80000190500000098 1.03551044566
10.7353 80000190500000051 80000190500000050 80000190500000098 0.997294225782
10.7432 80000190500000050 80000190500000049 80000190500000098 0.987852810816
10.7506 80000190500000049 80000190500000048 80000190500000098 0.950531351585
10.7737 80000190500000048 80000190500000046 80000190500000098 0.886896937575
10.7798 80000190500000046 80000190500000045 80000190500000098 0.851470900625
10.8085 80000190500000045 80000190500000044 80000190500000098 0.816709979012
10.8331 80000190500000044 80000190500000043 80000190500000098 0.791068248946
10.8664 80000190500000043 80000190500000042 80000190500000098 0.757441372616
10.8818 80000190500000042 80000190500000041 80000190500000098 0.732636182022
10.9051 80000190500000041 80000190500000040 80000190500000098 0.700106353719
10.9082 80000190500000040 80000190500000039 80000190500000098 0.676110411213
10.9322 80000190500000039 80000190500000038 80000190500000098 0.644641840685
10.9742 80000190500000038 80000190500000037 80000190500000098 0.621428745243
10.9959 80000190500000037 80000190500000036 80000190500000098 0.598543288188
10.9996 80000190500000036 80000190500000035 80000190500000098 0.575980845108
11.026 80000190500000035 80000190500000034 80000190500000098 0.546392183141
11.0311 80000190500000034 80000190500000033 80000190500000098 0.524565820434
11.0422 80000190500000033 80000190500000032 80000190500000098 0.503047523245
11.0634 80000190500000032 80000190500000031 80000190500000098 0.481832943421
11.105 80000190500000031 80000190500000030 80000190500000098 0.460917794181
11.1558 80000190500000030 80000190500000029 80000190500000098 0.440297849248
11.1653 80000190500000029 80000190500000027 80000190500000098 0.399926964614
11.167 80000190500000027 80000190500000026 80000190500000098 0.38016786726
11.1829 80000190500000026 80000190500000025 80000190500000098 0.360687657262
11.1903 80000190500000025 80000190500000024 80000190500000098 0.347853841858
11.2174 80000190500000024 80000190500000023 80000190500000098 0.328829724206
11.2338 80000190500000023 80000190500000022 80000190500000098 0.310074120128
11.2471 80000190500000022 80000190500000021 80000190500000098 0.291583239722
11.2751 80000190500000021 80000190500000020 80000190500000098 0.273353346578
11.2863 80000190500000020 80000190500000019 80000190500000098 0.261343256161
11.2973 80000190500000019 80000190500000018 80000190500000098 0.243540181555
11.2975 80000190500000018 80000190500000000 80000190500000098 2.22044604925e-16
9.05524 80000190500000291 80000190500000290 80000190500000300 4.17683491473
9.06096 80000190500000290 80000190500000289 80000190500000300 4.00794511147
9.0666 80000190500000289 80000190500000288 80000190500000300 3.93726108473
9.08038 80000190500000288 80000190500000287 80000190500000300 3.70877426464
9.00012 80000190500000332 80000190500000331 80000190500000341 3.93726108473
9.13394 80000190500000331 80000190500000330 80000190500000341 3.70877426464
9.29457 80000190500000330 80000190500000329 80000190500000341 3.49086136926
9.55478 80000190500000329 80000190500000328 80000190500000341 3.28303305796
9.70621 80000190500000328 80000190500000327 80000190500000341 3.08482263583
9.70621 80000190500000327 80000190500000326 80000190500000341 3.00813107163
9.75822 80000190500000326 80000190500000325 80000190500000341 2.89578500573
9.81328 80000190500000325 80000190500000324 80000190500000341 2.73314261732
9.84661 80000190500000324 80000190500000323 80000190500000341 2.5772902716
9.01928 80000190500000405 80000190500000404 80000190500000416 3.08482263583
9.08845 80000190500000404 80000190500000403 80000190500000416 3.00813107163
9.00337 80000190500000451 80000190500000450 80000190500000460 5.52976580795
9.16852 80000190500000450 80000190500000449 80000190500000460 5.22758097313
9.21472 80000190500000449 80000190500000447 80000190500000460 4.93938066349
9.32342 80000190500000447 80000190500000446 80000190500000460 4.66451770247
9.38948 80000190500000446 80000190500000445 80000190500000460 4.42803373661
9.42893 80000190500000445 80000190500000444 80000190500000460 4.17683491473
9.45946 80000190500000444 80000190500000443 80000190500000460 4.00794511147
9.46172 80000190500000443 80000190500000441 80000190500000460 3.70877426464
9.46733 80000190500000441 80000190500000440 80000190500000460 3.49086136926
9.04945 80000190500000497 80000190500000496 80000190500000509 4.17683491473
9.04945 80000190500000496 80000190500000495 80000190500000509 4.00794511147
9.08038 80000190500000495 80000190500000494 80000190500000509 3.93726108473
9.08845 80000190500000494 80000190500000493 80000190500000509 3.70877426464
9.15273 80000190500000493 80000190500000492 80000190500000509 3.49086136926
9.19013 80000190500000492 80000190500000491 80000190500000509 3.28303305796
9.23229 80000190500000491 80000190500000488 80000190500000509 2.89578500573
9.02239 80000190500000616 80000190500000615 80000190500000633 2.1032696526
9.19013 80000190500000846 80000190500000845 80000190500000851 5.52976580795
9.29457 80000190500000845 80000190500000844 80000190500000851 5.22758097313
9.32342 80000190500000844 80000190500000843 80000190500000851 4.99593346816
9.32651 80000190500000843 80000190500000842 80000190500000851 4.93938066349
9.36481 80000190500000842 80000190500000841 80000190500000851 4.66451770247
9.41534 80000190500000841 80000190500000840 80000190500000851 4.42803373661
9.44093 80000190500000840 80000190500000839 80000190500000851 4.17683491473
9.47505 80000190500000839 80000190500000838 80000190500000851 4.00794511147
9.47832 80000190500000838 80000190500000837 80000190500000851 3.93726108473
9.52462 80000190500000837 80000190500000836 80000190500000851 3.70877426464
9.61106 80000190500000836 80000190500000835 80000190500000851 3.49086136926
9.67904 80000190500000835 80000190500000834 80000190500000851 3.28303305796
9.68985 80000190500000834 80000190500000833 80000190500000851 3.08482263583
9.72384 80000190500000833 80000190500000832 80000190500000851 3.00813107163
9.78902 80000190500000832 80000190500000831 80000190500000851 2.89578500573
9.79639 80000190500000831 80000190500000830 80000190500000851 2.73314261732
9.82565 80000190500000830 80000190500000829 80000190500000851 2.5772902716
9.84334 80000190500000829 80000190500000828 80000190500000851 2.44422570455
9.87452 80000190500000828 80000190500000827 80000190500000851 2.31611074396
9.91089 80000190500000827 80000190500000825 80000190500000851 2.1032696526
9.95436 80000190500000825 80000190500000824 80000190500000851 2.00202813925
9.9756 80000190500000824 80000190500000822 80000190500000851 1.82268925262
9.02855 80000190500000892 80000190500000891 80000190500000905 4.42803373661
9.0666 80000190500000891 80000190500000888 80000190500000905 3.93726108473
9.0098 80000190500000992 80000190500000991 80000190500001010 3.00813107163
9.02855 80000190500000991 80000190500000990 80000190500001010 2.89578500573
9.08845 80000190500000990 80000190500000989 80000190500001010 2.73314261732
9.09637 80000190500000989 80000190500000988 80000190500001010 2.5772902716
9.11179 80000190500000988 80000190500000987 80000190500001010 2.44422570455
9.11431 80000190500000987 80000190500000986 80000190500001010 2.31611074396
9.20464 80000190500000986 80000190500000984 80000190500001010 2.1032696526
9.24918 80000190500000984 80000190500000983 80000190500001010 2.00202813925
9.0316 80000190500001163 80000190500001162 80000190500001176 2.73314261732
9.08845 80000190500001162 80000190500001157 80000190500001176 2.1032696526
9.14108 80000190500001157 80000190500001156 80000190500001176 2.00202813925
9.16182 80000190500001156 80000190500001155 80000190500001176 1.90408954353
9.17512 80000190500001155 80000190500001154 80000190500001176 1.82268925262
9.24175 80000190500001154 80000190500001153 80000190500001176 1.74357057433
9.30115 80000190500001153 80000190500001151 80000190500001176 1.60423452207
9.0066 80000190500001274 80000190500001273 80000190500001281 8.44947629437
9.03763 80000190500001273 80000190500001272 80000190500001281 8.01217294887
9.19433 80000190500001272 80000190500001271 80000190500001281 7.59510714987
9.29124 80000190500001271 80000190500001270 80000190500001281 7.23627606617
9.3974 80000190500001270 80000190500001269 80000190500001281 7.00541704554
9.46844 80000190500001269 80000190500001267 80000190500001281 6.49159774567
9.54185 80000190500001267 80000190500001266 80000190500001281 6.14490120342
9.57087 80000190500001266 80000190500001265 80000190500001281 6.01075739884
9.58807 80000190500001265 80000190500001264 80000190500001281 5.84661374788
9.66866 80000190500001264 80000190500001263 80000190500001281 5.52976580795
9.6838 80000190500001263 80000190500001261 80000190500001281 4.99593346816
9.72074 80000190500001261 80000190500001260 80000190500001281 4.93938066349
9.80466 80000190500001260 80000190500001259 80000190500001281 4.66451770247
9.81177 80000190500001259 80000190500001258 80000190500001281 4.42803373661
9.91089 80000190500001258 80000190500001257 80000190500001281 4.17683491473
9.98618 80000190500001257 80000190500001256 80000190500001281 4.00794511147
10.1727 80000190500001256 80000190500001254 80000190500001281 3.70877426464
10.285 80000190500001254 80000190500001253 80000190500001281 3.49086136926
10.3244 80000190500001253 80000190500001252 80000190500001281 3.28303305796
10.3736 80000190500001252 80000190500001251 80000190500001281 3.08482263583
10.3817 80000190500001251 80000190500001250 80000190500001281 3.00813107163
10.3853 80000190500001250 80000190500001245 80000190500001281 2.31611074396
10.3889 80000190500001245 80000190500001241 80000190500001281 1.90408954353
10.3974 80000190500001241 80000190500001240 80000190500001281 1.82268925262
10.4088 80000190500001240 80000190500001239 80000190500001281 1.74357057433
10.4187 80000190500001239 80000190500001237 80000190500001281 1.60423452207
10.4376 80000190500001237 80000190500001236 80000190500001281 1.53123902916
10.4519 80000190500001236 80000190500001235 80000190500001281 1.47197484527
10.47 80000190500001235 80000190500001234 80000190500001281 1.41409822037
10.4725 80000190500001234 80000190500001233 80000190500001281 1.3575766674
10.504 80000190500001233 80000190500001232 80000190500001281 1.30237845991
10.5071 80000190500001232 80000190500001231 80000190500001281 1.24847261425
10.5092 80000190500001231 80000190500001230 80000190500001281 1.20625808078
10.5353 80000190500001230 80000190500001229 80000190500001281 1.15460271236
10.554 80000190500001229 80000190500001228 80000190500001281 1.11415056377
10.557 80000190500001228 80000190500001226 80000190500001281 1.03551044566
10.5631 80000190500001226 80000190500001225 80000190500001281 0.997294225782
10.5797 80000190500001225 80000190500001223 80000190500001281 0.950531351585
10.5879 80000190500001223 80000190500001222 80000190500001281 0.923000816178
10.5973 80000190500001222 80000190500001221 80000190500001281 0.886896937575
10.5973 80000190500001221 80000190500001220 80000190500001281 0.851470900625
10.6062 80000190500001220 80000190500001219 80000190500001281 0.816709979012
10.6201 80000190500001219 80000190500001218 80000190500001281 0.791068248946
10.6272 80000190500001218 80000190500001217 80000190500001281 0.757441372616
11.192 80000190500001217 80000190500001203 80000190500001281 0.419968941997
9.00337 80000190500001300 80000190500001299 80000190500001312 4.93938066349
9.05235 80000190500001299 80000190500001298 80000190500001312 4.66451770247
9.14344 80000190500001359 80000190500001358 80000190500001362 7.00541704554
9.16182 80000190500001358 80000190500001357 80000190500001362 6.85511726265
9.20668 80000190500001357 80000190500001356 80000190500001362 6.49159774567
9.30602 80000190500001356 80000190500001355 80000190500001362 6.14490120342
9.33566 80000190500001355 80000190500001353 80000190500001362 5.84661374788
9.4026 80000190500001353 80000190500001352 80000190500001362 5.52976580795
9.45605 80000190500001352 80000190500001351 80000190500001362 5.22758097313
9.51074 80000190500001351 80000190500001350 80000190500001362 4.99593346816
9.52754 80000190500001350 80000190500001349 80000190500001362 4.93938066349
9.57523 80000190500001349 80000190500001348 80000190500001362 4.66451770247
9.69515 80000190500001348 80000190500001347 80000190500001362 4.42803373661
9.87409 80000190500001347 80000190500001344 80000190500001362 3.93726108473
9.0098 80000190500001607 80000190500001606 80000190500001618 2.73314261732
9.07216 80000190500001606 80000190500001605 80000190500001618 2.5772902716
9.02239 80000190500001742 80000190500001741 80000190500001745 6.85511726265
9.12912 80000190500001741 80000190500001740 80000190500001745 6.49159774567
9.18802 80000190500001740 80000190500001739 80000190500001745 6.14490120342
9.21072 80000190500001739 80000190500001738 80000190500001745 6.01075739884
9.22066 80000190500001738 80000190500001737 80000190500001745 5.84661374788
9.24362 80000190500001737 80000190500001736 80000190500001745 5.52976580795
9.25828 80000190500001736 80000190500001735 80000190500001745 5.22758097313
9.25828 80000190500001735 80000190500001734 80000190500001745 4.99593346816
9.29622 80000190500001734 80000190500001733 80000190500001745 4.93938066349
9.33263 80000190500001733 80000190500001732 80000190500001745 4.66451770247
9.37319 80000190500001732 80000190500001731 80000190500001745 4.42803373661
9.38815 80000190500001731 80000190500001727 80000190500001745 3.70877426464
9.41282 80000190500001727 80000190500001726 80000190500001745 3.49086136926
9.42157 80000190500001726 80000190500001725 80000190500001745 3.28303305796
9.45261 80000190500001725 80000190500001724 80000190500001745 3.08482263583
9.52169 80000190500001724 80000190500001721 80000190500001745 2.73314261732
9.65297 80000190500001721 80000190500001720 80000190500001745 2.5772902716
9.76557 80000190500001720 80000190500001719 80000190500001745 2.44422570455
9.85944 80000190500001719 80000190500001718 80000190500001745 2.31611074396
9.88783 80000190500001718 80000190500001717 80000190500001745 2.20792547238
9.92315 80000190500001717 80000190500001716 80000190500001745 2.1032696526
9.98347 80000190500001716 80000190500001711 80000190500001745 1.66666955611
9.0316 80000190500001754 80000190500001753 80000190500001768 3.28303305796
9.0666 80000190500001753 80000190500001752 80000190500001768 3.08482263583
9.02548 80000190500001794 80000190500001793 80000190500001804 2.5772902716
9.0066 80000190500001892 80000190500001891 80000190500001903 3.08482263583
9.01298 80000190500001891 80000190500001883 80000190500001903 2.1032696526
9.04945 80000190500001883 80000190500001881 80000190500001903 1.90408954353
