logMh | fpID | subhaloID | main leaf ID | z
9.0098 90000131100000087 90000131100000086 90000131100000098 4.99593346816
9.05811 90000131100000086 90000131100000084 90000131100000098 4.66451770247
9.09637 90000131100000084 90000131100000083 90000131100000098 4.42803373661
9.2361 90000131100000083 90000131100000082 90000131100000098 4.17683491473
9.24175 90000131100000082 90000131100000080 90000131100000098 3.93726108473
9.2862 90000131100000080 90000131100000079 90000131100000098 3.70877426464
9.32497 90000131100000079 90000131100000078 90000131100000098 3.49086136926
9.8767 90000131100000078 90000131100000072 90000131100000098 2.5772902716
10.3316 90000131100000072 90000131100000070 90000131100000098 2.31611074396
10.7834 90000131100000070 90000131100000067 90000131100000098 2.00202813925
10.7952 90000131100000067 90000131100000066 90000131100000098 1.90408954353
10.8258 90000131100000066 90000131100000065 90000131100000098 1.82268925262
10.8466 90000131100000065 90000131100000057 90000131100000098 1.30237845991
10.8494 90000131100000057 90000131100000056 90000131100000098 1.24847261425
10.8569 90000131100000056 90000131100000055 90000131100000098 1.20625808078
10.8883 90000131100000055 90000131100000054 90000131100000098 1.15460271236
10.9003 90000131100000054 90000131100000052 90000131100000098 1.07445789455
10.9037 90000131100000052 90000131100000046 90000131100000098 0.886896937575
10.9085 90000131100000046 90000131100000045 90000131100000098 0.851470900625
10.9202 90000131100000045 90000131100000043 90000131100000098 0.791068248946
10.9239 90000131100000043 90000131100000042 90000131100000098 0.757441372616
10.9315 90000131100000042 90000131100000041 90000131100000098 0.732636182022
10.9391 90000131100000041 90000131100000040 90000131100000098 0.700106353719
10.9422 90000131100000040 90000131100000039 90000131100000098 0.676110411213
10.9589 90000131100000039 90000131100000038 90000131100000098 0.644641840685
10.9713 90000131100000038 90000131100000037 90000131100000098 0.621428745243
10.9781 90000131100000037 90000131100000036 90000131100000098 0.598543288188
10.9864 90000131100000036 90000131100000035 90000131100000098 0.575980845108
10.9888 90000131100000035 90000131100000034 90000131100000098 0.546392183141
10.9988 90000131100000034 90000131100000033 90000131100000098 0.524565820434
10.9997 90000131100000033 90000131100000032 90000131100000098 0.503047523245
11.0084 90000131100000032 90000131100000031 90000131100000098 0.481832943421
11.0149 90000131100000031 90000131100000030 90000131100000098 0.460917794181
11.0255 90000131100000030 90000131100000029 90000131100000098 0.440297849248
11.0264 90000131100000029 90000131100000028 90000131100000098 0.419968941997
11.0302 90000131100000028 90000131100000027 90000131100000098 0.399926964614
11.0368 90000131100000027 90000131100000026 90000131100000098 0.38016786726
11.0414 90000131100000026 90000131100000025 90000131100000098 0.360687657262
11.048 90000131100000025 90000131100000024 90000131100000098 0.347853841858
11.0554 90000131100000024 90000131100000023 90000131100000098 0.328829724206
11.0565 90000131100000023 90000131100000022 90000131100000098 0.310074120128
11.0793 90000131100000022 90000131100000021 90000131100000098 0.291583239722
11.0868 90000131100000021 90000131100000020 90000131100000098 0.273353346578
11.108 90000131100000020 90000131100000019 90000131100000098 0.261343256161
11.1087 90000131100000019 90000131100000018 90000131100000098 0.243540181555
11.1163 90000131100000018 90000131100000017 90000131100000098 0.22598838626
11.1175 90000131100000017 90000131100000015 90000131100000098 0.197284182376
11.1283 90000131100000015 90000131100000014 90000131100000098 0.180385261706
11.1343 90000131100000014 90000131100000012 90000131100000098 0.152748768902
11.1408 90000131100000012 90000131100000011 90000131100000098 0.14187620397
11.1488 90000131100000011 90000131100000010 90000131100000098 0.125759332411
11.1691 90000131100000010 90000131100000009 90000131100000098 0.109869940459
11.1863 90000131100000009 90000131100000007 90000131100000098 0.0838844307975
11.2042 90000131100000007 90000131100000006 90000131100000098 0.0736613846564
11.2321 90000131100000006 90000131100000005 90000131100000098 0.0585073227945
11.2351 90000131100000005 90000131100000004 90000131100000098 0.0485236299818
11.2551 90000131100000004 90000131100000003 90000131100000098 0.0337243718735
11.2666 90000131100000003 90000131100000002 90000131100000098 0.0239744283828
11.2907 90000131100000002 90000131100000001 90000131100000098 0.00952166696794
11.3175 90000131100000001 90000131100000000 90000131100000098 2.22044604925e-16
9.04062 90000131100000137 90000131100000136 90000131100000152 5.52976580795
9.08578 90000131100000136 90000131100000135 90000131100000152 5.22758097313
9.12178 90000131100000135 90000131100000134 90000131100000152 4.99593346816
9.2026 90000131100000134 90000131100000133 90000131100000152 4.93938066349
9.26008 90000131100000133 90000131100000131 90000131100000152 4.42803373661
9.32031 90000131100000131 90000131100000130 90000131100000152 4.17683491473
9.36763 90000131100000130 90000131100000129 90000131100000152 4.00794511147
9.37732 90000131100000129 90000131100000128 90000131100000152 3.93726108473
9.40518 90000131100000128 90000131100000127 90000131100000152 3.70877426464
9.43015 90000131100000127 90000131100000126 90000131100000152 3.49086136926
9.51475 90000131100000126 90000131100000125 90000131100000152 3.28303305796
9.63969 90000131100000125 90000131100000124 90000131100000152 3.08482263583
9.71825 90000131100000124 90000131100000122 90000131100000152 2.89578500573
9.72691 90000131100000122 90000131100000121 90000131100000152 2.73314261732
9.0316 90000131100000212 90000131100000211 90000131100000221 5.52976580795
9.08578 90000131100000211 90000131100000210 90000131100000221 5.22758097313
9.10415 90000131100000210 90000131100000207 90000131100000221 4.66451770247
9.15502 90000131100000207 90000131100000206 90000131100000221 4.42803373661
9.2342 90000131100000206 90000131100000205 90000131100000221 4.17683491473
9.39871 90000131100000205 90000131100000204 90000131100000221 4.00794511147
9.42771 90000131100000204 90000131100000202 90000131100000221 3.70877426464
9.48586 90000131100000202 90000131100000201 90000131100000221 3.49086136926
9.48905 90000131100000201 90000131100000197 90000131100000221 2.89578500573
9.56646 90000131100000197 90000131100000196 90000131100000221 2.73314261732
9.59972 90000131100000196 90000131100000195 90000131100000221 2.5772902716
9.65297 90000131100000195 90000131100000194 90000131100000221 2.44422570455
9.01614 90000131100000278 90000131100000277 90000131100000285 7.59510714987
9.09111 90000131100000277 90000131100000276 90000131100000285 7.23627606617
9.18162 90000131100000276 90000131100000275 90000131100000285 7.00541704554
9.23229 90000131100000275 90000131100000273 90000131100000285 6.49159774567
9.25648 90000131100000273 90000131100000272 90000131100000285 6.14490120342
9.31401 90000131100000272 90000131100000271 90000131100000285 6.01075739884
9.32342 90000131100000271 90000131100000270 90000131100000285 5.84661374788
9.41659 90000131100000270 90000131100000269 90000131100000285 5.52976580795
9.42527 90000131100000269 90000131100000268 90000131100000285 5.22758097313
9.55296 90000131100000268 90000131100000267 90000131100000285 4.99593346816
9.62831 90000131100000267 90000131100000264 90000131100000285 4.42803373661
9.7263 90000131100000264 90000131100000263 90000131100000285 4.17683491473
9.77169 90000131100000263 90000131100000262 90000131100000285 4.00794511147
9.82954 90000131100000262 90000131100000261 90000131100000285 3.93726108473
9.90727 90000131100000261 90000131100000260 90000131100000285 3.70877426464
9.95833 90000131100000260 90000131100000259 90000131100000285 3.49086136926
9.9787 90000131100000259 90000131100000258 90000131100000285 3.28303305796
9.9932 90000131100000258 90000131100000256 90000131100000285 3.00813107163
9.99585 90000131100000256 90000131100000254 90000131100000285 2.73314261732
10.6191 90000131100000254 90000131100000250 90000131100000285 2.20792547238
10.7385 90000131100000250 90000131100000249 90000131100000285 2.1032696526
9.00012 90000131100000347 90000131100000346 90000131100000351 6.14490120342
9.0316 90000131100000346 90000131100000345 90000131100000351 6.01075739884
9.05235 90000131100000345 90000131100000344 90000131100000351 5.84661374788
9.14344 90000131100000344 90000131100000343 90000131100000351 5.52976580795
9.16852 90000131100000343 90000131100000341 90000131100000351 4.99593346816
9.17073 90000131100000341 90000131100000340 90000131100000351 4.93938066349
9.25284 90000131100000340 90000131100000339 90000131100000351 4.66451770247
9.35627 90000131100000339 90000131100000338 90000131100000351 4.42803373661
9.45946 90000131100000338 90000131100000337 90000131100000351 4.17683491473
9.51675 90000131100000337 90000131100000334 90000131100000351 3.70877426464
9.54928 90000131100000334 90000131100000333 90000131100000351 3.49086136926
10.0763 90000131100000333 90000131100000326 90000131100000351 2.44422570455
9.04653 90000131100000372 90000131100000371 90000131100000379 4.17683491473
9.02239 90000131100000389 90000131100000388 90000131100000405 3.28303305796
9.92198 90000131100000388 90000131100000381 90000131100000405 2.31611074396
9.07216 90000131100000407 90000131100000406 90000131100000425 2.44422570455
9.0098 90000131100000440 90000131100000439 90000131100000453 3.93726108473
9.03463 90000131100000439 90000131100000437 90000131100000453 3.49086136926
9.12424 90000131100000437 90000131100000436 90000131100000453 3.28303305796
9.17729 90000131100000436 90000131100000435 90000131100000453 3.08482263583
9.18589 90000131100000435 90000131100000434 90000131100000453 3.00813107163
9.01928 90000131100000488 90000131100000487 90000131100000497 7.23627606617
9.04945 90000131100000487 90000131100000486 90000131100000497 7.00541704554
9.08578 90000131100000486 90000131100000485 90000131100000497 6.85511726265
9.1573 90000131100000485 90000131100000484 90000131100000497 6.49159774567
9.20055 90000131100000484 90000131100000483 90000131100000497 6.14490120342
9.20668 90000131100000483 90000131100000482 90000131100000497 6.01075739884
9.24918 90000131100000482 90000131100000481 90000131100000497 5.84661374788
9.30602 90000131100000481 90000131100000480 90000131100000497 5.52976580795
9.32651 90000131100000480 90000131100000477 90000131100000497 4.93938066349
9.36902 90000131100000477 90000131100000476 90000131100000497 4.66451770247
9.40646 90000131100000476 90000131100000475 90000131100000497 4.42803373661
9.45376 90000131100000475 90000131100000474 90000131100000497 4.17683491473
9.45605 90000131100000474 90000131100000473 90000131100000497 4.00794511147
9.45833 90000131100000473 90000131100000472 90000131100000497 3.93726108473
9.49326 90000131100000472 90000131100000471 90000131100000497 3.70877426464
9.52851 90000131100000471 90000131100000466 90000131100000497 2.89578500573
9.84194 90000131100000466 90000131100000464 90000131100000497 2.5772902716
9.02548 90000131100000509 90000131100000508 90000131100000512 4.66451770247
9.06096 90000131100000508 90000131100000506 90000131100000512 4.17683491473
9.06378 90000131100000506 90000131100000504 90000131100000512 3.93726108473
9.09898 90000131100000504 90000131100000503 90000131100000512 3.70877426464
9.31243 90000131100000503 90000131100000502 90000131100000512 3.49086136926
9.36622 90000131100000502 90000131100000501 90000131100000512 3.28303305796
9.59393 90000131100000501 90000131100000499 90000131100000512 3.00813107163
9.04062 90000131100000533 90000131100000532 90000131100000548 3.28303305796
9.08309 90000131100000532 90000131100000531 90000131100000548 3.08482263583
9.09637 90000131100000531 90000131100000530 90000131100000548 3.00813107163
9.13394 90000131100000530 90000131100000528 90000131100000548 2.73314261732
9.04358 90000131100000581 90000131100000580 90000131100000587 5.52976580795
9.04945 90000131100000580 90000131100000577 90000131100000587 4.93938066349
9.05524 90000131100000577 90000131100000576 90000131100000587 4.66451770247
9.09898 90000131100000576 90000131100000575 90000131100000587 4.42803373661
9.12178 90000131100000575 90000131100000574 90000131100000587 4.17683491473
9.15956 90000131100000574 90000131100000573 90000131100000587 4.00794511147
9.19641 90000131100000573 90000131100000568 90000131100000587 3.08482263583
9.2672 90000131100000568 90000131100000567 90000131100000587 3.00813107163
9.34902 90000131100000567 90000131100000566 90000131100000587 2.89578500573
9.39214 90000131100000566 90000131100000564 90000131100000587 2.5772902716
9.42527 90000131100000564 90000131100000563 90000131100000587 2.44422570455
9.47396 90000131100000563 90000131100000562 90000131100000587 2.31611074396
9.00012 90000131100000715 90000131100000714 90000131100000726 4.17683491473
9.01928 90000131100000714 90000131100000712 90000131100000726 3.93726108473
9.15273 90000131100000712 90000131100000711 90000131100000726 3.70877426464
9.02855 90000131100000746 90000131100000745 90000131100000765 1.47197484527
9.05811 90000131100000840 90000131100000839 90000131100000855 4.93938066349
9.10671 90000131100000839 90000131100000838 90000131100000855 4.66451770247
9.21272 90000131100000838 90000131100000837 90000131100000855 4.42803373661
9.29622 90000131100000837 90000131100000836 90000131100000855 4.17683491473
9.33415 90000131100000836 90000131100000835 90000131100000855 4.00794511147
9.34461 90000131100000835 90000131100000834 90000131100000855 3.93726108473
9.3634 90000131100000834 90000131100000833 90000131100000855 3.70877426464
9.37457 90000131100000833 90000131100000830 90000131100000855 3.08482263583
9.38412 90000131100000830 90000131100000828 90000131100000855 2.89578500573
9.3974 90000131100000828 90000131100000827 90000131100000855 2.73314261732
9.41784 90000131100000827 90000131100000826 90000131100000855 2.5772902716
9.42404 90000131100000826 90000131100000825 90000131100000855 2.44422570455
9.48157 90000131100000825 90000131100000824 90000131100000855 2.31611074396
9.50771 90000131100000824 90000131100000823 90000131100000855 2.20792547238
9.50973 90000131100000823 90000131100000822 90000131100000855 2.1032696526
9.51475 90000131100000822 90000131100000821 90000131100000855 2.00202813925
9.53428 90000131100000821 90000131100000820 90000131100000855 1.90408954353
9.55931 90000131100000820 90000131100000819 90000131100000855 1.82268925262
9.57697 90000131100000819 90000131100000818 90000131100000855 1.74357057433
9.03463 90000131100000918 90000131100000917 90000131100000927 3.08482263583
9.04062 90000131100000917 90000131100000916 90000131100000927 3.00813107163
9.04062 90000131100000916 90000131100000915 90000131100000927 2.89578500573
9.10671 90000131100000915 90000131100000914 90000131100000927 2.73314261732
9.13634 90000131100000914 90000131100000913 90000131100000927 2.5772902716
9.13871 90000131100000913 90000131100000912 90000131100000927 2.44422570455
9.14578 90000131100000912 90000131100000910 90000131100000927 2.20792547238
9.17729 90000131100000910 90000131100000909 90000131100000927 2.1032696526
9.18162 90000131100000909 90000131100000902 90000131100000927 1.53123902916
9.00337 90000131100001033 90000131100001032 90000131100001044 4.93938066349
9.04358 90000131100001032 90000131100001030 90000131100001044 4.42803373661
9.06096 90000131100001030 90000131100001029 90000131100001044 4.17683491473
9.08845 90000131100001029 90000131100001028 90000131100001044 4.00794511147
9.10157 90000131100001028 90000131100001024 90000131100001044 3.28303305796
9.12668 90000131100001024 90000131100001023 90000131100001044 3.08482263583
9.18589 90000131100001023 90000131100001020 90000131100001044 2.73314261732
9.23229 90000131100001020 90000131100001017 90000131100001044 2.31611074396
9.00337 90000131100001165 90000131100001164 90000131100001171 7.00541704554
9.02855 90000131100001164 90000131100001163 90000131100001171 6.85511726265
9.05235 90000131100001163 90000131100001162 90000131100001171 6.49159774567
9.05811 90000131100001162 90000131100001161 90000131100001171 6.14490120342
9.11431 90000131100001161 90000131100001160 90000131100001171 6.01075739884
9.11431 90000131100001160 90000131100001159 90000131100001171 5.84661374788
9.13154 90000131100001159 90000131100001158 90000131100001171 5.52976580795
9.16182 90000131100001158 90000131100001157 90000131100001171 5.22758097313
9.17073 90000131100001157 90000131100001156 90000131100001171 4.99593346816
9.18162 90000131100001156 90000131100001153 90000131100001171 4.42803373661
9.23037 90000131100001153 90000131100001149 90000131100001171 3.70877426464
9.33716 90000131100001149 90000131100001148 90000131100001171 3.49086136926
9.33866 90000131100001148 90000131100001147 90000131100001171 3.28303305796
9.43974 90000131100001147 90000131100001146 90000131100001171 3.08482263583
9.48372 90000131100001146 90000131100001142 90000131100001171 2.5772902716
9.52851 90000131100001142 90000131100001140 90000131100001171 2.31611074396
9.57175 90000131100001140 90000131100001139 90000131100001171 2.20792547238
9.57697 90000131100001139 90000131100001135 90000131100001171 1.82268925262
9.58213 90000131100001135 90000131100001134 90000131100001171 1.74357057433
9.58553 90000131100001134 90000131100001132 90000131100001171 1.60423452207
9.01298 90000131100001183 90000131100001182 90000131100001197 3.93726108473
9.07492 90000131100001293 90000131100001292 90000131100001310 1.53123902916
