logMh | fpID | subhaloID | main leaf ID | z
9.13634 90000163000000103 90000163000000102 90000163000000109 9.84138043947
9.18802 90000163000000102 90000163000000101 90000163000000109 9.38877127194
9.2342 90000163000000101 90000163000000100 90000163000000109 9.00233985416
9.23988 90000163000000100 90000163000000099 90000163000000109 8.9079991856
9.2862 90000163000000099 90000163000000098 90000163000000109 8.44947629437
9.36056 90000163000000098 90000163000000097 90000163000000109 8.01217294887
9.54928 90000163000000097 90000163000000096 90000163000000109 7.59510714987
9.60381 90000163000000096 90000163000000094 90000163000000109 7.00541704554
9.82565 90000163000000094 90000163000000092 90000163000000109 6.49159774567
9.88316 90000163000000092 90000163000000091 90000163000000109 6.14490120342
9.88486 90000163000000091 90000163000000090 90000163000000109 6.01075739884
9.93393 90000163000000090 90000163000000089 90000163000000109 5.84661374788
10.0199 90000163000000089 90000163000000088 90000163000000109 5.52976580795
10.1023 90000163000000088 90000163000000087 90000163000000109 5.22758097313
10.1632 90000163000000087 90000163000000086 90000163000000109 4.99593346816
10.1805 90000163000000086 90000163000000085 90000163000000109 4.93938066349
10.2157 90000163000000085 90000163000000084 90000163000000109 4.66451770247
10.2813 90000163000000084 90000163000000083 90000163000000109 4.42803373661
10.3194 90000163000000083 90000163000000082 90000163000000109 4.17683491473
10.3496 90000163000000082 90000163000000081 90000163000000109 4.00794511147
10.3746 90000163000000081 90000163000000080 90000163000000109 3.93726108473
10.4315 90000163000000080 90000163000000079 90000163000000109 3.70877426464
10.4517 90000163000000079 90000163000000078 90000163000000109 3.49086136926
10.5075 90000163000000078 90000163000000077 90000163000000109 3.28303305796
10.5174 90000163000000077 90000163000000076 90000163000000109 3.08482263583
10.5267 90000163000000076 90000163000000075 90000163000000109 3.00813107163
10.5331 90000163000000075 90000163000000074 90000163000000109 2.89578500573
10.5423 90000163000000074 90000163000000072 90000163000000109 2.5772902716
10.5437 90000163000000072 90000163000000069 90000163000000109 2.20792547238
10.5588 90000163000000069 90000163000000068 90000163000000109 2.1032696526
10.8565 90000163000000068 90000163000000064 90000163000000109 1.74357057433
10.8977 90000163000000064 90000163000000063 90000163000000109 1.66666955611
10.9845 90000163000000063 90000163000000061 90000163000000109 1.53123902916
10.9951 90000163000000061 90000163000000060 90000163000000109 1.47197484527
11.0505 90000163000000060 90000163000000058 90000163000000109 1.3575766674
11.0584 90000163000000058 90000163000000057 90000163000000109 1.30237845991
11.0746 90000163000000057 90000163000000048 90000163000000109 0.950531351585
11.0986 90000163000000048 90000163000000046 90000163000000109 0.886896937575
11.106 90000163000000046 90000163000000045 90000163000000109 0.851470900625
11.1105 90000163000000045 90000163000000044 90000163000000109 0.816709979012
11.1152 90000163000000044 90000163000000043 90000163000000109 0.791068248946
11.1232 90000163000000043 90000163000000042 90000163000000109 0.757441372616
11.1318 90000163000000042 90000163000000041 90000163000000109 0.732636182022
11.137 90000163000000041 90000163000000040 90000163000000109 0.700106353719
11.1399 90000163000000040 90000163000000039 90000163000000109 0.676110411213
11.1483 90000163000000039 90000163000000038 90000163000000109 0.644641840685
11.1567 90000163000000038 90000163000000036 90000163000000109 0.598543288188
11.1599 90000163000000036 90000163000000035 90000163000000109 0.575980845108
11.1683 90000163000000035 90000163000000034 90000163000000109 0.546392183141
11.1706 90000163000000034 90000163000000033 90000163000000109 0.524565820434
11.1774 90000163000000033 90000163000000032 90000163000000109 0.503047523245
11.182 90000163000000032 90000163000000031 90000163000000109 0.481832943421
11.1874 90000163000000031 90000163000000030 90000163000000109 0.460917794181
11.1895 90000163000000030 90000163000000028 90000163000000109 0.419968941997
11.1905 90000163000000028 90000163000000027 90000163000000109 0.399926964614
11.1911 90000163000000027 90000163000000026 90000163000000109 0.38016786726
11.1972 90000163000000026 90000163000000025 90000163000000109 0.360687657262
11.203 90000163000000025 90000163000000024 90000163000000109 0.347853841858
11.2075 90000163000000024 90000163000000022 90000163000000109 0.310074120128
11.2132 90000163000000022 90000163000000021 90000163000000109 0.291583239722
11.2207 90000163000000021 90000163000000019 90000163000000109 0.261343256161
11.2313 90000163000000019 90000163000000018 90000163000000109 0.243540181555
11.2337 90000163000000018 90000163000000017 90000163000000109 0.22598838626
11.2409 90000163000000017 90000163000000016 90000163000000109 0.214425035514
11.2452 90000163000000016 90000163000000015 90000163000000109 0.197284182376
11.2497 90000163000000015 90000163000000014 90000163000000109 0.180385261706
11.257 90000163000000014 90000163000000013 90000163000000109 0.169252033244
11.2601 90000163000000013 90000163000000012 90000163000000109 0.152748768902
11.2673 90000163000000012 90000163000000011 90000163000000109 0.14187620397
11.2743 90000163000000011 90000163000000010 90000163000000109 0.125759332411
11.2782 90000163000000010 90000163000000009 90000163000000109 0.109869940459
11.2875 90000163000000009 90000163000000008 90000163000000109 0.0994018026302
11.2945 90000163000000008 90000163000000007 90000163000000109 0.0838844307975
11.3045 90000163000000007 90000163000000006 90000163000000109 0.0736613846564
11.3124 90000163000000006 90000163000000005 90000163000000109 0.0585073227945
11.3159 90000163000000005 90000163000000003 90000163000000109 0.0337243718735
11.3194 90000163000000003 90000163000000002 90000163000000109 0.0239744283828
11.3227 90000163000000002 90000163000000001 90000163000000109 0.00952166696794
11.3248 90000163000000001 90000163000000000 90000163000000109 2.22044604925e-16
9.03763 90000163000000118 90000163000000117 90000163000000120 7.23627606617
9.06378 90000163000000183 90000163000000182 90000163000000191 7.59510714987
9.0666 90000163000000182 90000163000000181 90000163000000191 7.23627606617
9.24733 90000163000000181 90000163000000180 90000163000000191 7.00541704554
9.26365 90000163000000180 90000163000000179 90000163000000191 6.85511726265
9.31083 90000163000000179 90000163000000178 90000163000000191 6.49159774567
9.38141 90000163000000178 90000163000000177 90000163000000191 6.14490120342
9.39871 90000163000000177 90000163000000175 90000163000000191 5.84661374788
9.04358 90000163000000241 90000163000000240 90000163000000250 7.59510714987
9.09375 90000163000000240 90000163000000239 90000163000000250 7.23627606617
9.13394 90000163000000239 90000163000000232 90000163000000250 5.52976580795
9.01614 90000163000000282 90000163000000281 90000163000000302 4.66451770247
9.06378 90000163000000281 90000163000000280 90000163000000302 4.42803373661
9.16182 90000163000000405 90000163000000404 90000163000000411 9.00233985416
9.19641 90000163000000404 90000163000000403 90000163000000411 8.9079991856
9.27072 90000163000000403 90000163000000402 90000163000000411 8.44947629437
9.34461 90000163000000402 90000163000000401 90000163000000411 8.01217294887
9.3974 90000163000000401 90000163000000400 90000163000000411 7.59510714987
9.46844 90000163000000400 90000163000000399 90000163000000411 7.23627606617
9.52657 90000163000000399 90000163000000398 90000163000000411 7.00541704554
9.58469 90000163000000398 90000163000000397 90000163000000411 6.85511726265
9.65297 90000163000000397 90000163000000396 90000163000000411 6.49159774567
9.72445 90000163000000396 90000163000000395 90000163000000411 6.14490120342
9.81378 90000163000000395 90000163000000394 90000163000000411 6.01075739884
9.84615 90000163000000394 90000163000000393 90000163000000411 5.84661374788
9.88571 90000163000000393 90000163000000392 90000163000000411 5.52976580795
9.94072 90000163000000392 90000163000000391 90000163000000411 5.22758097313
9.98109 90000163000000391 90000163000000390 90000163000000411 4.99593346816
9.98987 90000163000000390 90000163000000389 90000163000000411 4.93938066349
10.0258 90000163000000389 90000163000000388 90000163000000411 4.66451770247
10.0489 90000163000000388 90000163000000387 90000163000000411 4.42803373661
10.0532 90000163000000387 90000163000000384 90000163000000411 3.93726108473
10.1093 90000163000000384 90000163000000383 90000163000000411 3.70877426464
10.2151 90000163000000383 90000163000000382 90000163000000411 3.49086136926
10.3015 90000163000000382 90000163000000381 90000163000000411 3.28303305796
10.4817 90000163000000381 90000163000000380 90000163000000411 3.08482263583
10.5067 90000163000000380 90000163000000379 90000163000000411 3.00813107163
10.559 90000163000000379 90000163000000377 90000163000000411 2.73314261732
10.5926 90000163000000377 90000163000000376 90000163000000411 2.5772902716
10.593 90000163000000376 90000163000000375 90000163000000411 2.44422570455
10.6006 90000163000000375 90000163000000372 90000163000000411 2.1032696526
10.6493 90000163000000372 90000163000000371 90000163000000411 2.00202813925
10.7338 90000163000000371 90000163000000370 90000163000000411 1.90408954353
10.7655 90000163000000370 90000163000000369 90000163000000411 1.82268925262
10.9665 90000163000000369 90000163000000366 90000163000000411 1.60423452207
11.0191 90000163000000366 90000163000000363 90000163000000411 1.41409822037
9.0066 90000163000000429 90000163000000428 90000163000000431 6.85511726265
9.06939 90000163000000428 90000163000000427 90000163000000431 6.49159774567
9.00012 90000163000000479 90000163000000478 90000163000000487 5.52976580795
9.00012 90000163000000478 90000163000000477 90000163000000487 5.22758097313
9.01298 90000163000000477 90000163000000473 90000163000000487 4.42803373661
9.05235 90000163000000473 90000163000000471 90000163000000487 4.00794511147
9.05235 90000163000000471 90000163000000470 90000163000000487 3.93726108473
9.08578 90000163000000470 90000163000000469 90000163000000487 3.70877426464
9.01298 90000163000000519 90000163000000518 90000163000000524 6.85511726265
9.04653 90000163000000518 90000163000000515 90000163000000524 6.01075739884
9.06378 90000163000000515 90000163000000514 90000163000000524 5.84661374788
9.09637 90000163000000514 90000163000000513 90000163000000524 5.52976580795
9.10157 90000163000000513 90000163000000512 90000163000000524 5.22758097313
9.14344 90000163000000512 90000163000000511 90000163000000524 4.99593346816
9.17729 90000163000000511 90000163000000510 90000163000000524 4.93938066349
9.58723 90000163000000510 90000163000000509 90000163000000524 4.66451770247
9.626 90000163000000509 90000163000000508 90000163000000524 4.42803373661
9.74958 90000163000000508 90000163000000507 90000163000000524 4.17683491473
9.79377 90000163000000507 90000163000000506 90000163000000524 4.00794511147
10.4941 90000163000000506 90000163000000500 90000163000000524 2.89578500573
9.04358 90000163000000571 90000163000000570 90000163000000579 5.22758097313
9.14578 90000163000000592 90000163000000591 90000163000000597 4.99593346816
9.14578 90000163000000591 90000163000000590 90000163000000597 4.93938066349
9.17512 90000163000000590 90000163000000589 90000163000000597 4.66451770247
9.17729 90000163000000589 90000163000000585 90000163000000597 3.93726108473
9.00012 90000163000000659 90000163000000658 90000163000000668 4.66451770247
9.04358 90000163000000658 90000163000000652 90000163000000668 3.49086136926
9.17729 90000163000000652 90000163000000650 90000163000000668 3.08482263583
9.23229 90000163000000650 90000163000000649 90000163000000668 3.00813107163
9.29124 90000163000000649 90000163000000646 90000163000000668 2.5772902716
9.12178 90000163000000733 90000163000000732 90000163000000748 3.08482263583
9.13871 90000163000000732 90000163000000731 90000163000000748 3.00813107163
9.16182 90000163000000731 90000163000000730 90000163000000748 2.89578500573
9.21272 90000163000000730 90000163000000729 90000163000000748 2.73314261732
9.00337 90000163000000896 90000163000000895 90000163000000904 7.59510714987
9.10415 90000163000000895 90000163000000894 90000163000000904 7.23627606617
9.12912 90000163000000894 90000163000000893 90000163000000904 7.00541704554
9.13154 90000163000000893 90000163000000889 90000163000000904 6.01075739884
9.17512 90000163000000889 90000163000000888 90000163000000904 5.84661374788
9.24918 90000163000000888 90000163000000887 90000163000000904 5.52976580795
9.29457 90000163000000887 90000163000000886 90000163000000904 5.22758097313
9.31243 90000163000000886 90000163000000882 90000163000000904 4.42803373661
9.33415 90000163000000882 90000163000000881 90000163000000904 4.17683491473
9.38005 90000163000000881 90000163000000880 90000163000000904 4.00794511147
9.38948 90000163000000880 90000163000000878 90000163000000904 3.70877426464
9.41408 90000163000000878 90000163000000877 90000163000000904 3.49086136926
9.46844 90000163000000877 90000163000000876 90000163000000904 3.28303305796
9.53044 90000163000000876 90000163000000875 90000163000000904 3.08482263583
9.56911 90000163000000875 90000163000000872 90000163000000904 2.73314261732
9.60462 90000163000000872 90000163000000871 90000163000000904 2.5772902716
9.6329 90000163000000871 90000163000000870 90000163000000904 2.44422570455
9.64638 90000163000000870 90000163000000869 90000163000000904 2.31611074396
9.66159 90000163000000869 90000163000000868 90000163000000904 2.20792547238
9.68851 90000163000000868 90000163000000867 90000163000000904 2.1032696526
9.70877 90000163000000867 90000163000000866 90000163000000904 2.00202813925
9.71448 90000163000000866 90000163000000865 90000163000000904 1.90408954353
9.74196 90000163000000865 90000163000000864 90000163000000904 1.82268925262
9.75651 90000163000000864 90000163000000859 90000163000000904 1.47197484527
9.76501 90000163000000859 90000163000000858 90000163000000904 1.41409822037
