logMh | fpID | subhaloID | main leaf ID | z
9.08845 90000076900000101 90000076900000100 90000076900000106 9.38877127194
9.17293 90000076900000100 90000076900000097 90000076900000106 8.44947629437
9.17293 90000076900000097 90000076900000096 90000076900000106 8.01217294887
9.17293 90000076900000096 90000076900000095 90000076900000106 7.59510714987
9.19433 90000076900000095 90000076900000094 90000076900000106 7.23627606617
9.23799 90000076900000094 90000076900000090 90000076900000106 6.14490120342
9.83291 90000076900000090 90000076900000085 90000076900000106 4.99593346816
9.84052 90000076900000085 90000076900000084 90000076900000106 4.93938066349
9.88656 90000076900000084 90000076900000082 90000076900000106 4.42803373661
9.88826 90000076900000082 90000076900000080 90000076900000106 4.00794511147
9.90524 90000076900000080 90000076900000079 90000076900000106 3.93726108473
9.93088 90000076900000079 90000076900000076 90000076900000106 3.28303305796
9.98753 90000076900000076 90000076900000075 90000076900000106 3.08482263583
9.98887 90000076900000075 90000076900000074 90000076900000106 3.00813107163
10.1632 90000076900000074 90000076900000072 90000076900000106 2.73314261732
10.2649 90000076900000072 90000076900000071 90000076900000106 2.5772902716
10.3996 90000076900000071 90000076900000070 90000076900000106 2.44422570455
10.4323 90000076900000070 90000076900000069 90000076900000106 2.31611074396
10.4632 90000076900000069 90000076900000068 90000076900000106 2.20792547238
10.5163 90000076900000068 90000076900000067 90000076900000106 2.1032696526
10.5606 90000076900000067 90000076900000066 90000076900000106 2.00202813925
10.5866 90000076900000066 90000076900000065 90000076900000106 1.90408954353
10.6253 90000076900000065 90000076900000064 90000076900000106 1.82268925262
10.6538 90000076900000064 90000076900000063 90000076900000106 1.74357057433
10.6758 90000076900000063 90000076900000062 90000076900000106 1.66666955611
10.7328 90000076900000062 90000076900000061 90000076900000106 1.60423452207
10.9249 90000076900000061 90000076900000060 90000076900000106 1.53123902916
11.0221 90000076900000060 90000076900000059 90000076900000106 1.47197484527
11.06 90000076900000059 90000076900000058 90000076900000106 1.41409822037
11.1218 90000076900000058 90000076900000057 90000076900000106 1.3575766674
11.1367 90000076900000057 90000076900000055 90000076900000106 1.24847261425
11.1458 90000076900000055 90000076900000054 90000076900000106 1.20625808078
11.1555 90000076900000054 90000076900000053 90000076900000106 1.15460271236
11.1632 90000076900000053 90000076900000040 90000076900000106 0.700106353719
11.1663 90000076900000040 90000076900000039 90000076900000106 0.676110411213
11.1859 90000076900000039 90000076900000038 90000076900000106 0.644641840685
11.1866 90000076900000038 90000076900000037 90000076900000106 0.621428745243
11.1999 90000076900000037 90000076900000036 90000076900000106 0.598543288188
11.2036 90000076900000036 90000076900000035 90000076900000106 0.575980845108
11.207 90000076900000035 90000076900000034 90000076900000106 0.546392183141
11.2255 90000076900000034 90000076900000033 90000076900000106 0.524565820434
11.2328 90000076900000033 90000076900000032 90000076900000106 0.503047523245
11.24 90000076900000032 90000076900000029 90000076900000106 0.440297849248
11.2461 90000076900000029 90000076900000028 90000076900000106 0.419968941997
11.2486 90000076900000028 90000076900000027 90000076900000106 0.399926964614
11.2505 90000076900000027 90000076900000026 90000076900000106 0.38016786726
11.2513 90000076900000026 90000076900000025 90000076900000106 0.360687657262
11.2517 90000076900000025 90000076900000024 90000076900000106 0.347853841858
11.2522 90000076900000024 90000076900000023 90000076900000106 0.328829724206
11.2523 90000076900000023 90000076900000022 90000076900000106 0.310074120128
11.2532 90000076900000022 90000076900000021 90000076900000106 0.291583239722
11.255 90000076900000021 90000076900000018 90000076900000106 0.243540181555
11.2579 90000076900000018 90000076900000017 90000076900000106 0.22598838626
11.2641 90000076900000017 90000076900000016 90000076900000106 0.214425035514
11.2657 90000076900000016 90000076900000015 90000076900000106 0.197284182376
11.2697 90000076900000015 90000076900000014 90000076900000106 0.180385261706
11.2757 90000076900000014 90000076900000013 90000076900000106 0.169252033244
11.2774 90000076900000013 90000076900000012 90000076900000106 0.152748768902
11.2832 90000076900000012 90000076900000011 90000076900000106 0.14187620397
11.2891 90000076900000011 90000076900000010 90000076900000106 0.125759332411
11.2908 90000076900000010 90000076900000009 90000076900000106 0.109869940459
11.2972 90000076900000009 90000076900000008 90000076900000106 0.0994018026302
11.298 90000076900000008 90000076900000007 90000076900000106 0.0838844307975
11.3021 90000076900000007 90000076900000006 90000076900000106 0.0736613846564
11.3055 90000076900000006 90000076900000005 90000076900000106 0.0585073227945
11.3066 90000076900000005 90000076900000004 90000076900000106 0.0485236299818
11.3146 90000076900000004 90000076900000003 90000076900000106 0.0337243718735
11.3181 90000076900000003 90000076900000002 90000076900000106 0.0239744283828
11.3234 90000076900000002 90000076900000001 90000076900000106 0.00952166696794
11.3284 90000076900000001 90000076900000000 90000076900000106 2.22044604925e-16
9.07216 90000076900000113 90000076900000112 90000076900000117 6.49159774567
9.2929 90000076900000112 90000076900000111 90000076900000117 6.14490120342
9.42281 90000076900000111 90000076900000110 90000076900000117 6.01075739884
9.48372 90000076900000110 90000076900000109 90000076900000117 5.84661374788
9.65369 90000076900000109 90000076900000108 90000076900000117 5.52976580795
9.74667 90000076900000108 90000076900000107 90000076900000117 5.22758097313
9.0066 90000076900000129 90000076900000128 90000076900000134 6.49159774567
9.10926 90000076900000184 90000076900000183 90000076900000190 7.23627606617
9.22845 90000076900000183 90000076900000182 90000076900000190 7.00541704554
9.25101 90000076900000182 90000076900000181 90000076900000190 6.85511726265
9.2742 90000076900000181 90000076900000180 90000076900000190 6.49159774567
9.29622 90000076900000180 90000076900000179 90000076900000190 6.14490120342
9.31243 90000076900000179 90000076900000178 90000076900000190 6.01075739884
9.33111 90000076900000178 90000076900000177 90000076900000190 5.84661374788
9.35914 90000076900000177 90000076900000176 90000076900000190 5.52976580795
9.4651 90000076900000176 90000076900000175 90000076900000190 5.22758097313
9.57087 90000076900000175 90000076900000174 90000076900000190 4.99593346816
9.65297 90000076900000174 90000076900000171 90000076900000190 4.42803373661
9.68515 90000076900000171 90000076900000170 90000076900000190 4.17683491473
9.72935 90000076900000170 90000076900000169 90000076900000190 4.00794511147
9.76219 90000076900000169 90000076900000168 90000076900000190 3.93726108473
9.79951 90000076900000168 90000076900000167 90000076900000190 3.70877426464
9.878 90000076900000167 90000076900000166 90000076900000190 3.49086136926
9.94408 90000076900000166 90000076900000165 90000076900000190 3.28303305796
9.9612 90000076900000165 90000076900000164 90000076900000190 3.08482263583
9.98143 90000076900000164 90000076900000163 90000076900000190 3.00813107163
10.005 90000076900000163 90000076900000162 90000076900000190 2.89578500573
9.01298 90000076900000227 90000076900000226 90000076900000239 4.17683491473
9.04945 90000076900000226 90000076900000225 90000076900000239 4.00794511147
9.08578 90000076900000225 90000076900000224 90000076900000239 3.93726108473
9.00337 90000076900000297 90000076900000296 90000076900000305 6.85511726265
9.15502 90000076900000296 90000076900000295 90000076900000305 6.49159774567
9.21472 90000076900000295 90000076900000294 90000076900000305 6.14490120342
9.26187 90000076900000294 90000076900000293 90000076900000305 6.01075739884
9.35194 90000076900000293 90000076900000291 90000076900000305 5.52976580795
9.39478 90000076900000291 90000076900000290 90000076900000305 5.22758097313
9.52462 90000076900000290 90000076900000289 90000076900000305 4.99593346816
9.54651 90000076900000289 90000076900000288 90000076900000305 4.93938066349
9.68717 90000076900000288 90000076900000287 90000076900000305 4.66451770247
9.7354 90000076900000287 90000076900000286 90000076900000305 4.42803373661
9.81428 90000076900000286 90000076900000285 90000076900000305 4.17683491473
9.84893 90000076900000285 90000076900000284 90000076900000305 4.00794511147
9.86169 90000076900000284 90000076900000283 90000076900000305 3.93726108473
9.8823 90000076900000283 90000076900000281 90000076900000305 3.49086136926
9.88614 90000076900000281 90000076900000280 90000076900000305 3.28303305796
9.89371 90000076900000280 90000076900000279 90000076900000305 3.08482263583
9.93355 90000076900000279 90000076900000277 90000076900000305 2.89578500573
9.94667 90000076900000277 90000076900000274 90000076900000305 2.44422570455
9.15956 90000076900000520 90000076900000519 90000076900000528 7.00541704554
9.17946 90000076900000519 90000076900000517 90000076900000528 6.49159774567
9.18376 90000076900000517 90000076900000515 90000076900000528 6.01075739884
9.22262 90000076900000515 90000076900000514 90000076900000528 5.84661374788
9.30923 90000076900000514 90000076900000513 90000076900000528 5.52976580795
9.42771 90000076900000513 90000076900000512 90000076900000528 5.22758097313
9.5026 90000076900000512 90000076900000511 90000076900000528 4.99593346816
9.54465 90000076900000511 90000076900000510 90000076900000528 4.93938066349
9.58975 90000076900000510 90000076900000509 90000076900000528 4.66451770247
9.69118 90000076900000509 90000076900000508 90000076900000528 4.42803373661
9.77499 90000076900000508 90000076900000507 90000076900000528 4.17683491473
9.83002 90000076900000507 90000076900000506 90000076900000528 4.00794511147
9.8697 90000076900000506 90000076900000505 90000076900000528 3.93726108473
10.1128 90000076900000505 90000076900000504 90000076900000528 3.70877426464
10.1399 90000076900000504 90000076900000503 90000076900000528 3.49086136926
10.1814 90000076900000503 90000076900000502 90000076900000528 3.28303305796
10.2281 90000076900000502 90000076900000501 90000076900000528 3.08482263583
10.2541 90000076900000501 90000076900000500 90000076900000528 3.00813107163
10.301 90000076900000500 90000076900000499 90000076900000528 2.89578500573
10.3373 90000076900000499 90000076900000498 90000076900000528 2.73314261732
10.3422 90000076900000498 90000076900000497 90000076900000528 2.5772902716
10.3739 90000076900000497 90000076900000496 90000076900000528 2.44422570455
10.395 90000076900000496 90000076900000494 90000076900000528 2.20792547238
10.3961 90000076900000494 90000076900000493 90000076900000528 2.1032696526
10.4152 90000076900000493 90000076900000490 90000076900000528 1.82268925262
9.17729 90000076900000589 90000076900000588 90000076900000596 4.93938066349
9.2087 90000076900000588 90000076900000587 90000076900000596 4.66451770247
9.23229 90000076900000587 90000076900000584 90000076900000596 4.00794511147
9.0098 90000076900000725 90000076900000724 90000076900000739 5.22758097313
9.03463 90000076900000724 90000076900000722 90000076900000739 4.93938066349
9.05524 90000076900000722 90000076900000721 90000076900000739 4.66451770247
9.0666 90000076900000721 90000076900000720 90000076900000739 4.42803373661
9.0666 90000076900000720 90000076900000719 90000076900000739 4.17683491473
9.1193 90000076900000719 90000076900000718 90000076900000739 4.00794511147
9.13634 90000076900000718 90000076900000717 90000076900000739 3.93726108473
9.03463 90000076900000839 90000076900000838 90000076900000845 9.00233985416
9.03763 90000076900000838 90000076900000837 90000076900000845 8.9079991856
9.09898 90000076900000837 90000076900000836 90000076900000845 8.44947629437
9.13394 90000076900000836 90000076900000835 90000076900000845 8.01217294887
9.26365 90000076900000835 90000076900000834 90000076900000845 7.59510714987
9.38005 90000076900000834 90000076900000833 90000076900000845 7.23627606617
9.41408 90000076900000833 90000076900000832 90000076900000845 7.00541704554
9.44797 90000076900000832 90000076900000831 90000076900000845 6.85511726265
9.51675 90000076900000831 90000076900000830 90000076900000845 6.49159774567
9.57956 90000076900000830 90000076900000829 90000076900000845 6.14490120342
9.58723 90000076900000829 90000076900000828 90000076900000845 6.01075739884
9.61899 90000076900000828 90000076900000827 90000076900000845 5.84661374788
9.64193 90000076900000827 90000076900000826 90000076900000845 5.52976580795
9.66866 90000076900000826 90000076900000825 90000076900000845 5.22758097313
9.71762 90000076900000825 90000076900000824 90000076900000845 4.99593346816
9.72322 90000076900000824 90000076900000822 90000076900000845 4.66451770247
9.78098 90000076900000822 90000076900000821 90000076900000845 4.42803373661
9.83387 90000076900000821 90000076900000820 90000076900000845 4.17683491473
9.86169 90000076900000820 90000076900000819 90000076900000845 4.00794511147
9.8719 90000076900000819 90000076900000818 90000076900000845 3.93726108473
9.98143 90000076900000818 90000076900000817 90000076900000845 3.70877426464
10.1962 90000076900000817 90000076900000815 90000076900000845 3.28303305796
10.301 90000076900000815 90000076900000814 90000076900000845 3.08482263583
10.3203 90000076900000814 90000076900000812 90000076900000845 2.89578500573
10.3753 90000076900000812 90000076900000811 90000076900000845 2.73314261732
10.3832 90000076900000811 90000076900000806 90000076900000845 2.1032696526
10.4045 90000076900000806 90000076900000805 90000076900000845 2.00202813925
10.4261 90000076900000805 90000076900000804 90000076900000845 1.90408954353
10.4298 90000076900000804 90000076900000803 90000076900000845 1.82268925262
10.4707 90000076900000803 90000076900000802 90000076900000845 1.74357057433
11.1367 90000076900000802 90000076900000788 90000076900000845 0.987852810816
9.00337 90000076900000910 90000076900000909 90000076900000911 7.59510714987
9.0316 90000076900000909 90000076900000908 90000076900000911 7.23627606617
9.10415 90000076900000908 90000076900000907 90000076900000911 7.00541704554
9.13871 90000076900000907 90000076900000906 90000076900000911 6.85511726265
9.22457 90000076900000906 90000076900000905 90000076900000911 6.49159774567
9.2361 90000076900000905 90000076900000904 90000076900000911 6.14490120342
9.25648 90000076900000904 90000076900000903 90000076900000911 6.01075739884
9.29951 90000076900000903 90000076900000902 90000076900000911 5.84661374788
9.43974 90000076900000902 90000076900000901 90000076900000911 5.52976580795
9.57523 90000076900000901 90000076900000900 90000076900000911 5.22758097313
9.74373 90000076900000900 90000076900000899 90000076900000911 4.99593346816
9.78475 90000076900000899 90000076900000897 90000076900000911 4.66451770247
9.84428 90000076900000897 90000076900000896 90000076900000911 4.42803373661
9.91766 90000076900000896 90000076900000895 90000076900000911 4.17683491473
9.99519 90000076900000895 90000076900000891 90000076900000911 3.49086136926
9.01614 90000076900000964 90000076900000963 90000076900000982 2.44422570455
9.09898 90000076900001162 90000076900001161 90000076900001174 4.66451770247
9.13634 90000076900001161 90000076900001153 90000076900001174 3.08482263583
9.15042 90000076900001153 90000076900001151 90000076900001174 2.89578500573
9.17073 90000076900001151 90000076900001150 90000076900001174 2.73314261732
9.25284 90000076900001150 90000076900001149 90000076900001174 2.5772902716
9.26896 90000076900001149 90000076900001147 90000076900001174 2.31611074396
9.29124 90000076900001147 90000076900001146 90000076900001174 2.20792547238
9.29457 90000076900001146 90000076900001145 90000076900001174 2.1032696526
9.32342 90000076900001145 90000076900001144 90000076900001174 2.00202813925
9.32342 90000076900001144 90000076900001143 90000076900001174 1.90408954353
9.32805 90000076900001143 90000076900001137 90000076900001174 1.47197484527
9.32958 90000076900001137 90000076900001135 90000076900001174 1.3575766674
9.35194 90000076900001135 90000076900001134 90000076900001174 1.30237845991
9.01298 90000076900001362 90000076900001361 90000076900001366 4.99593346816
9.0316 90000076900001361 90000076900001360 90000076900001366 4.93938066349
9.08309 90000076900001360 90000076900001355 90000076900001366 3.93726108473
9.11431 90000076900001355 90000076900001354 90000076900001366 3.70877426464
9.17946 90000076900001354 90000076900001353 90000076900001366 3.49086136926
9.33866 90000076900001353 90000076900001352 90000076900001366 3.28303305796
9.35483 90000076900001352 90000076900001351 90000076900001366 3.08482263583
9.38412 90000076900001351 90000076900001348 90000076900001366 2.73314261732
9.39609 90000076900001348 90000076900001347 90000076900001366 2.5772902716
9.39871 90000076900001347 90000076900001345 90000076900001366 2.31611074396
9.42527 90000076900001345 90000076900001344 90000076900001366 2.20792547238
9.09111 90000076900001450 90000076900001449 90000076900001467 4.17683491473
9.2742 90000076900001449 90000076900001448 90000076900001467 4.00794511147
9.33111 90000076900001448 90000076900001446 90000076900001467 3.70877426464
9.43856 90000076900001446 90000076900001445 90000076900001467 3.49086136926
9.49116 90000076900001445 90000076900001444 90000076900001467 3.28303305796
9.59059 90000076900001444 90000076900001443 90000076900001467 3.08482263583
9.61742 90000076900001443 90000076900001442 90000076900001467 3.00813107163
9.65005 90000076900001442 90000076900001441 90000076900001467 2.89578500573
9.65369 90000076900001441 90000076900001440 90000076900001467 2.73314261732
9.6804 90000076900001440 90000076900001439 90000076900001467 2.5772902716
9.69909 90000076900001439 90000076900001438 90000076900001467 2.44422570455
9.70039 90000076900001438 90000076900001430 90000076900001467 1.66666955611
9.71005 90000076900001430 90000076900001429 90000076900001467 1.60423452207
9.71195 90000076900001429 90000076900001427 90000076900001467 1.47197484527
9.75479 90000076900001427 90000076900001426 90000076900001467 1.41409822037
9.75479 90000076900001426 90000076900001425 90000076900001467 1.3575766674
9.76388 90000076900001425 90000076900001423 90000076900001467 1.24847261425
9.77554 90000076900001423 90000076900001421 90000076900001467 1.15460271236
9.79324 90000076900001421 90000076900001420 90000076900001467 1.11415056377
9.79377 90000076900001420 90000076900001419 90000076900001467 1.07445789455
9.81026 90000076900001419 90000076900001418 90000076900001467 1.03551044566
9.81378 90000076900001418 90000076900001412 90000076900001467 0.851470900625
9.81378 90000076900001412 90000076900001411 90000076900001467 0.816709979012
9.05524 90000076900001633 90000076900001632 90000076900001641 4.00794511147
9.06939 90000076900001632 90000076900001631 90000076900001641 3.93726108473
9.21869 90000076900001631 90000076900001630 90000076900001641 3.70877426464
9.39081 90000076900001630 90000076900001629 90000076900001641 3.49086136926
9.43617 90000076900001629 90000076900001628 90000076900001641 3.28303305796
9.45719 90000076900001628 90000076900001627 90000076900001641 3.08482263583
9.46733 90000076900001627 90000076900001626 90000076900001641 3.00813107163
9.51873 90000076900001626 90000076900001625 90000076900001641 2.89578500573
9.53902 90000076900001625 90000076900001624 90000076900001641 2.73314261732
9.54465 90000076900001624 90000076900001623 90000076900001641 2.5772902716
9.58553 90000076900001623 90000076900001617 90000076900001641 1.90408954353
9.59059 90000076900001617 90000076900001616 90000076900001641 1.82268925262
9.62368 90000076900001616 90000076900001615 90000076900001641 1.74357057433
9.68918 90000076900001615 90000076900001614 90000076900001641 1.66666955611
9.717 90000076900001614 90000076900001612 90000076900001641 1.53123902916
9.74137 90000076900001612 90000076900001611 90000076900001641 1.47197484527
9.76724 90000076900001611 90000076900001608 90000076900001641 1.30237845991
9.7826 90000076900001608 90000076900001607 90000076900001641 1.24847261425
9.82075 90000076900001607 90000076900001606 90000076900001641 1.20625808078
9.82419 90000076900001606 90000076900001605 90000076900001641 1.15460271236
9.84147 90000076900001605 90000076900001600 90000076900001641 0.987852810816
9.85307 90000076900001600 90000076900001599 90000076900001641 0.950531351585
9.85353 90000076900001599 90000076900001597 90000076900001641 0.886896937575
9.05235 90000076900001799 90000076900001798 90000076900001816 0.950531351585
