logMh | fpID | subhaloID | main leaf ID | z
9.02855 25133145 25133144 25133145 9.00233985416
9.06096 25133144 25133143 25133145 8.9079991856
9.11431 25133143 25133142 25133145 8.44947629437
9.53044 25133142 25133139 25133145 7.00541704554
9.68784 25133139 25133133 25133145 5.52976580795
9.76557 25133133 25133132 25133145 5.22758097313
9.88273 25133132 25133131 25133145 4.99593346816
10.0095 25133131 25133130 25133145 4.93938066349
10.0394 25133130 25133129 25133145 4.66451770247
10.1786 25133129 25133128 25133145 4.42803373661
10.2855 25133128 25133127 25133145 4.17683491473
10.3481 25133127 25133126 25133145 4.00794511147
10.4709 25133126 25133125 25133145 3.93726108473
10.6028 25133125 25133124 25133145 3.70877426464
10.7185 25133124 25133123 25133145 3.49086136926
10.9399 25133123 25133122 25133145 3.28303305796
10.9474 25133122 25133119 25133145 2.89578500573
10.9546 25133119 25133118 25133145 2.73314261732
10.9922 25133118 25133111 25133145 1.90408954353
11.0075 25133111 25133110 25133145 1.82268925262
11.0115 25133110 25133109 25133145 1.74357057433
11.0377 25133109 25133108 25133145 1.66666955611
11.046 25133108 25133107 25133145 1.60423452207
11.0623 25133107 25133106 25133145 1.53123902916
11.0703 25133106 25133105 25133145 1.47197484527
11.0986 25133105 25133104 25133145 1.41409822037
11.1104 25133104 25133103 25133145 1.3575766674
11.1322 25133103 25133102 25133145 1.30237845991
11.1586 25133102 25133101 25133145 1.24847261425
11.172 25133101 25133100 25133145 1.20625808078
11.2051 25133100 25133099 25133145 1.15460271236
11.2357 25133099 25133098 25133145 1.11415056377
11.2469 25133098 25133096 25133145 1.03551044566
11.2631 25133096 25133095 25133145 0.997294225782
11.2725 25133095 25133093 25133145 0.950531351585
11.2791 25133093 25133092 25133145 0.923000816178
11.2963 25133092 25133091 25133145 0.886896937575
11.2968 25133091 25133088 25133145 0.791068248946
11.298 25133088 25133087 25133145 0.757441372616
11.3073 25133087 25133086 25133145 0.732636182022
11.3079 25133086 25133073 25133145 0.419968941997
11.3497 25133073 25133072 25133145 0.399926964614
9.12424 25133147 25133146 25133148 7.23627606617
9.14108 25133156 25133155 25133161 7.23627606617
9.15042 25133155 25133154 25133161 6.85511726265
9.22651 25133154 25133152 25133161 6.14490120342
9.12668 25133179 25133178 25133187 7.00541704554
9.20668 25133178 25133177 25133187 6.85511726265
9.21472 25133177 25133173 25133187 5.84661374788
9.14344 25133196 25133195 25133196 6.14490120342
9.01928 25133243 25133242 25133251 5.84661374788
9.21472 25133242 25133241 25133251 5.52976580795
9.2811 25133241 25133240 25133251 5.22758097313
9.35627 25133240 25133239 25133251 4.99593346816
9.11179 25133375 25133374 25133381 8.01217294887
9.20055 25133374 25133371 25133381 7.00541704554
9.29951 25133371 25133369 25133381 6.49159774567
9.33415 25133369 25133367 25133381 6.01075739884
9.40001 25133367 25133366 25133381 5.84661374788
9.41659 25133366 25133365 25133381 5.52976580795
9.52169 25133365 25133364 25133381 5.22758097313
9.56646 25133364 25133363 25133381 4.99593346816
9.57783 25133363 25133362 25133381 4.93938066349
9.63819 25133362 25133360 25133381 4.42803373661
9.67075 25133360 25133359 25133381 4.17683491473
9.17946 25133383 25133382 25133393 6.85511726265
9.13871 25133406 25133405 25133416 5.52976580795
9.20668 25133405 25133404 25133416 5.22758097313
9.20668 25133404 25133402 25133416 4.93938066349
9.29787 25133402 25133401 25133416 4.66451770247
9.0098 25133455 25133454 25133461 4.66451770247
9.02855 25133454 25133453 25133461 4.42803373661
9.03763 25133453 25133452 25133461 4.17683491473
9.0666 25133452 25133451 25133461 4.00794511147
9.08845 25133451 25133450 25133461 3.93726108473
9.11431 25133547 25133546 25133549 8.01217294887
9.19223 25133546 25133545 25133549 7.59510714987
9.53428 25133545 25133544 25133549 7.23627606617
9.56999 25133544 25133543 25133549 7.00541704554
9.59227 25133543 25133542 25133549 6.85511726265
9.6804 25133542 25133541 25133549 6.49159774567
9.69581 25133541 25133540 25133549 6.14490120342
9.69974 25133540 25133539 25133549 6.01075739884
9.79899 25133539 25133538 25133549 5.84661374788
9.90565 25133538 25133536 25133549 5.22758097313
9.93696 25133536 25133534 25133549 4.93938066349
9.98987 25133534 25133533 25133549 4.66451770247
10.061 25133533 25133532 25133549 4.42803373661
10.1654 25133532 25133528 25133549 3.70877426464
9.06378 25133600 25133599 25133610 5.52976580795
9.26365 25133599 25133595 25133610 4.66451770247
9.5931 25133595 25133593 25133610 4.17683491473
9.6182 25133593 25133591 25133610 3.93726108473
9.04653 25133643 25133642 25133646 6.85511726265
9.08309 25133642 25133631 25133646 4.17683491473
9.14108 25133661 25133660 25133667 4.99593346816
9.27938 25133660 25133659 25133667 4.93938066349
9.03463 25133687 25133686 25133689 6.01075739884
9.09111 25133686 25133685 25133689 5.84661374788
9.0066 25133732 25133731 25133740 3.28303305796
9.08845 25134067 25134066 25134072 9.99659046619
9.09111 25134066 25134062 25134072 8.9079991856
9.16182 25134062 25134061 25134072 8.44947629437
9.22651 25134061 25134060 25134072 8.01217294887
9.2342 25134060 25134059 25134072 7.59510714987
9.36622 25134059 25134058 25134072 7.23627606617
9.39346 25134058 25134053 25134072 6.01075739884
9.4606 25134053 25134052 25134072 5.84661374788
9.58638 25134052 25134050 25134072 5.22758097313
9.69449 25134050 25134049 25134072 4.99593346816
9.71825 25134049 25134048 25134072 4.93938066349
9.78044 25134048 25134047 25134072 4.66451770247
9.90443 25134047 25134046 25134072 4.42803373661
10.0412 25134046 25134045 25134072 4.17683491473
10.0906 25134045 25134042 25134072 3.70877426464
10.1432 25134042 25134041 25134072 3.49086136926
10.1893 25134041 25134040 25134072 3.28303305796
10.2561 25134040 25134039 25134072 3.08482263583
10.2735 25134039 25134036 25134072 2.73314261732
10.3137 25134036 25134035 25134072 2.5772902716
10.3461 25134035 25134034 25134072 2.44422570455
10.3811 25134034 25134033 25134072 2.31611074396
10.4013 25134033 25134032 25134072 2.20792547238
9.05811 25134098 25134097 25134103 7.23627606617
9.02239 25134130 25134129 25134132 7.59510714987
9.27246 25134216 25134215 25134217 6.85511726265
9.35194 25134215 25134210 25134217 5.52976580795
9.41029 25134210 25134209 25134217 5.22758097313
9.43737 25134209 25134206 25134217 4.66451770247
9.04358 25134225 25134224 25134227 7.23627606617
9.18802 25134224 25134223 25134227 7.00541704554
9.01928 25134297 25134296 25134306 4.17683491473
9.03763 25134296 25134295 25134306 4.00794511147
9.04945 25134295 25134294 25134306 3.93726108473
9.07492 25134294 25134293 25134306 3.70877426464
9.08578 25134293 25134292 25134306 3.49086136926
9.0098 25134383 25134382 25134386 6.14490120342
9.03463 25134382 25134378 25134386 5.22758097313
9.19223 25134378 25134377 25134386 4.99593346816
9.23229 25134377 25134373 25134386 4.17683491473
9.2361 25134373 25134371 25134386 3.93726108473
9.3156 25134371 25134370 25134386 3.70877426464
9.34016 25134370 25134369 25134386 3.49086136926
9.36199 25134369 25134368 25134386 3.28303305796
9.38547 25134368 25134362 25134386 2.44422570455
9.02548 25134483 25134482 25134492 5.52976580795
9.0316 25134482 25134481 25134492 5.22758097313
9.09637 25134481 25134480 25134492 4.99593346816
9.10926 25134480 25134479 25134492 4.93938066349
9.17946 25134479 25134478 25134492 4.66451770247
9.19223 25134478 25134476 25134492 4.17683491473
9.19433 25134476 25134472 25134492 3.49086136926
9.19641 25134472 25134465 25134492 2.44422570455
