logMh | fpID | subhaloID | main leaf ID | z
9.10671 90000120200000097 90000120200000096 90000120200000105 7.59510714987
9.14344 90000120200000096 90000120200000094 90000120200000105 7.00541704554
9.26896 90000120200000094 90000120200000093 90000120200000105 6.85511726265
9.31401 90000120200000093 90000120200000092 90000120200000105 6.49159774567
9.39871 90000120200000092 90000120200000091 90000120200000105 6.14490120342
9.50771 90000120200000091 90000120200000090 90000120200000105 6.01075739884
9.58807 90000120200000090 90000120200000089 90000120200000105 5.84661374788
9.64044 90000120200000089 90000120200000088 90000120200000105 5.52976580795
9.68447 90000120200000088 90000120200000087 90000120200000105 5.22758097313
9.68582 90000120200000087 90000120200000086 90000120200000105 4.99593346816
9.71132 90000120200000086 90000120200000085 90000120200000105 4.93938066349
9.72198 90000120200000085 90000120200000084 90000120200000105 4.66451770247
9.78314 90000120200000084 90000120200000083 90000120200000105 4.42803373661
9.78742 90000120200000083 90000120200000082 90000120200000105 4.17683491473
9.94296 90000120200000082 90000120200000081 90000120200000105 4.00794511147
9.9932 90000120200000081 90000120200000080 90000120200000105 3.93726108473
10.061 90000120200000080 90000120200000079 90000120200000105 3.70877426464
10.1425 90000120200000079 90000120200000078 90000120200000105 3.49086136926
10.2321 90000120200000078 90000120200000077 90000120200000105 3.28303305796
10.3666 90000120200000077 90000120200000076 90000120200000105 3.08482263583
10.4013 90000120200000076 90000120200000075 90000120200000105 3.00813107163
10.4147 90000120200000075 90000120200000074 90000120200000105 2.89578500573
10.44 90000120200000074 90000120200000073 90000120200000105 2.73314261732
10.5002 90000120200000073 90000120200000072 90000120200000105 2.5772902716
10.5343 90000120200000072 90000120200000071 90000120200000105 2.44422570455
10.5672 90000120200000071 90000120200000070 90000120200000105 2.31611074396
10.578 90000120200000070 90000120200000069 90000120200000105 2.20792547238
10.6008 90000120200000069 90000120200000068 90000120200000105 2.1032696526
10.6119 90000120200000068 90000120200000067 90000120200000105 2.00202813925
10.6476 90000120200000067 90000120200000066 90000120200000105 1.90408954353
10.6843 90000120200000066 90000120200000065 90000120200000105 1.82268925262
10.7215 90000120200000065 90000120200000064 90000120200000105 1.74357057433
10.753 90000120200000064 90000120200000063 90000120200000105 1.66666955611
10.7655 90000120200000063 90000120200000062 90000120200000105 1.60423452207
10.7912 90000120200000062 90000120200000061 90000120200000105 1.53123902916
10.8068 90000120200000061 90000120200000059 90000120200000105 1.41409822037
10.8225 90000120200000059 90000120200000058 90000120200000105 1.3575766674
10.8404 90000120200000058 90000120200000057 90000120200000105 1.30237845991
10.8621 90000120200000057 90000120200000056 90000120200000105 1.24847261425
10.8848 90000120200000056 90000120200000054 90000120200000105 1.15460271236
10.8939 90000120200000054 90000120200000053 90000120200000105 1.11415056377
10.8985 90000120200000053 90000120200000052 90000120200000105 1.07445789455
10.9044 90000120200000052 90000120200000051 90000120200000105 1.03551044566
10.9195 90000120200000051 90000120200000050 90000120200000105 0.997294225782
10.9238 90000120200000050 90000120200000049 90000120200000105 0.987852810816
10.9309 90000120200000049 90000120200000048 90000120200000105 0.950531351585
10.9576 90000120200000048 90000120200000047 90000120200000105 0.923000816178
10.9675 90000120200000047 90000120200000045 90000120200000105 0.851470900625
10.9836 90000120200000045 90000120200000044 90000120200000105 0.816709979012
10.9924 90000120200000044 90000120200000043 90000120200000105 0.791068248946
11.0033 90000120200000043 90000120200000039 90000120200000105 0.676110411213
11.0277 90000120200000039 90000120200000038 90000120200000105 0.644641840685
11.0335 90000120200000038 90000120200000036 90000120200000105 0.598543288188
11.0338 90000120200000036 90000120200000035 90000120200000105 0.575980845108
11.0395 90000120200000035 90000120200000034 90000120200000105 0.546392183141
11.0402 90000120200000034 90000120200000032 90000120200000105 0.503047523245
11.0405 90000120200000032 90000120200000031 90000120200000105 0.481832943421
11.0529 90000120200000031 90000120200000030 90000120200000105 0.460917794181
11.0572 90000120200000030 90000120200000029 90000120200000105 0.440297849248
11.0834 90000120200000029 90000120200000028 90000120200000105 0.419968941997
11.096 90000120200000028 90000120200000027 90000120200000105 0.399926964614
11.1032 90000120200000027 90000120200000026 90000120200000105 0.38016786726
11.1172 90000120200000026 90000120200000025 90000120200000105 0.360687657262
11.138 90000120200000025 90000120200000024 90000120200000105 0.347853841858
11.1582 90000120200000024 90000120200000023 90000120200000105 0.328829724206
11.1585 90000120200000023 90000120200000018 90000120200000105 0.243540181555
11.1664 90000120200000018 90000120200000017 90000120200000105 0.22598838626
11.1806 90000120200000017 90000120200000016 90000120200000105 0.214425035514
11.181 90000120200000016 90000120200000015 90000120200000105 0.197284182376
11.1858 90000120200000015 90000120200000010 90000120200000105 0.125759332411
11.1898 90000120200000010 90000120200000008 90000120200000105 0.0994018026302
11.1915 90000120200000008 90000120200000006 90000120200000105 0.0736613846564
11.1919 90000120200000006 90000120200000005 90000120200000105 0.0585073227945
11.2037 90000120200000005 90000120200000003 90000120200000105 0.0337243718735
11.2135 90000120200000003 90000120200000001 90000120200000105 0.00952166696794
11.223 90000120200000001 90000120200000000 90000120200000105 2.22044604925e-16
9.00012 90000120200000134 90000120200000133 90000120200000140 6.14490120342
9.02548 90000120200000133 90000120200000131 90000120200000140 5.84661374788
9.30278 90000120200000131 90000120200000130 90000120200000140 5.52976580795
9.32805 90000120200000130 90000120200000129 90000120200000140 5.22758097313
9.33866 90000120200000129 90000120200000128 90000120200000140 4.99593346816
9.34313 90000120200000128 90000120200000127 90000120200000140 4.93938066349
9.38681 90000120200000127 90000120200000126 90000120200000140 4.66451770247
9.01928 90000120200000163 90000120200000162 90000120200000173 4.66451770247
9.09637 90000120200000162 90000120200000160 90000120200000173 4.17683491473
9.33415 90000120200000247 90000120200000246 90000120200000257 5.22758097313
9.35627 90000120200000246 90000120200000245 90000120200000257 4.99593346816
9.36763 90000120200000245 90000120200000244 90000120200000257 4.93938066349
9.38948 90000120200000244 90000120200000243 90000120200000257 4.66451770247
9.47176 90000120200000243 90000120200000242 90000120200000257 4.42803373661
9.5026 90000120200000242 90000120200000241 90000120200000257 4.17683491473
9.53713 90000120200000241 90000120200000240 90000120200000257 4.00794511147
9.54465 90000120200000240 90000120200000239 90000120200000257 3.93726108473
9.59059 90000120200000239 90000120200000238 90000120200000257 3.70877426464
9.01298 90000120200000306 90000120200000305 90000120200000314 6.01075739884
9.02855 90000120200000305 90000120200000303 90000120200000314 5.52976580795
9.10415 90000120200000303 90000120200000302 90000120200000314 5.22758097313
9.10926 90000120200000302 90000120200000301 90000120200000314 4.99593346816
9.11179 90000120200000301 90000120200000300 90000120200000314 4.93938066349
9.12668 90000120200000300 90000120200000299 90000120200000314 4.66451770247
9.17946 90000120200000299 90000120200000298 90000120200000314 4.42803373661
9.20668 90000120200000298 90000120200000296 90000120200000314 4.00794511147
9.21671 90000120200000296 90000120200000295 90000120200000314 3.93726108473
9.25466 90000120200000295 90000120200000294 90000120200000314 3.70877426464
9.39214 90000120200000294 90000120200000293 90000120200000314 3.49086136926
9.07492 90000120200000400 90000120200000399 90000120200000413 3.70877426464
9.11179 90000120200000399 90000120200000398 90000120200000413 3.49086136926
9.12668 90000120200000398 90000120200000397 90000120200000413 3.28303305796
9.16182 90000120200000397 90000120200000396 90000120200000413 3.08482263583
9.18802 90000120200000396 90000120200000395 90000120200000413 3.00813107163
9.19641 90000120200000395 90000120200000390 90000120200000413 2.31611074396
9.2087 90000120200000390 90000120200000389 90000120200000413 2.20792547238
9.21671 90000120200000389 90000120200000388 90000120200000413 2.1032696526
9.02548 90000120200000432 90000120200000431 90000120200000442 3.00813107163
9.09637 90000120200000431 90000120200000428 90000120200000442 2.5772902716
9.16407 90000120200000428 90000120200000423 90000120200000442 2.00202813925
9.00012 90000120200000507 90000120200000506 90000120200000525 2.20792547238
9.0098 90000120200000583 90000120200000582 90000120200000595 4.00794511147
9.02239 90000120200000582 90000120200000581 90000120200000595 3.93726108473
9.05524 90000120200000581 90000120200000580 90000120200000595 3.70877426464
9.08845 90000120200000580 90000120200000579 90000120200000595 3.49086136926
9.17512 90000120200000579 90000120200000578 90000120200000595 3.28303305796
9.04358 90000120200000700 90000120200000699 90000120200000710 3.70877426464
9.06378 90000120200000699 90000120200000698 90000120200000710 3.49086136926
9.07766 90000120200000698 90000120200000697 90000120200000710 3.28303305796
9.09111 90000120200000697 90000120200000696 90000120200000710 3.08482263583
9.11179 90000120200000696 90000120200000694 90000120200000710 2.89578500573
9.12668 90000120200000694 90000120200000692 90000120200000710 2.5772902716
9.19848 90000120200000692 90000120200000691 90000120200000710 2.44422570455
9.19848 90000120200000691 90000120200000689 90000120200000710 2.20792547238
9.00337 90000120200000733 90000120200000732 90000120200000756 1.3575766674
9.05235 90000120200000789 90000120200000788 90000120200000803 2.89578500573
9.07766 90000120200000788 90000120200000785 90000120200000803 2.44422570455
9.08309 90000120200001037 90000120200001036 90000120200001046 5.52976580795
9.09898 90000120200001036 90000120200001034 90000120200001046 4.99593346816
9.13394 90000120200001034 90000120200001033 90000120200001046 4.93938066349
9.25284 90000120200001033 90000120200001032 90000120200001046 4.66451770247
9.30602 90000120200001032 90000120200001031 90000120200001046 4.42803373661
9.35627 90000120200001031 90000120200001030 90000120200001046 4.17683491473
9.40518 90000120200001030 90000120200001029 90000120200001046 4.00794511147
9.45145 90000120200001029 90000120200001027 90000120200001046 3.70877426464
9.49011 90000120200001027 90000120200001026 90000120200001046 3.49086136926
9.56111 90000120200001026 90000120200001025 90000120200001046 3.28303305796
9.58638 90000120200001025 90000120200001024 90000120200001046 3.08482263583
9.61504 90000120200001024 90000120200001023 90000120200001046 3.00813107163
9.63894 90000120200001023 90000120200001022 90000120200001046 2.89578500573
9.64712 90000120200001022 90000120200001021 90000120200001046 2.73314261732
9.67491 90000120200001021 90000120200001020 90000120200001046 2.5772902716
9.78152 90000120200001020 90000120200001019 90000120200001046 2.44422570455
9.80209 90000120200001019 90000120200001018 90000120200001046 2.31611074396
9.90929 90000120200001018 90000120200001017 90000120200001046 2.20792547238
9.91607 90000120200001017 90000120200001016 90000120200001046 2.1032696526
9.94851 90000120200001016 90000120200001015 90000120200001046 2.00202813925
9.97422 90000120200001015 90000120200001013 90000120200001046 1.82268925262
9.04062 90000120200001080 90000120200001079 90000120200001092 4.17683491473
9.09898 90000120200001079 90000120200001078 90000120200001092 4.00794511147
9.13154 90000120200001078 90000120200001077 90000120200001092 3.93726108473
9.14811 90000120200001077 90000120200001076 90000120200001092 3.70877426464
9.17073 90000120200001076 90000120200001075 90000120200001092 3.49086136926
9.17293 90000120200001075 90000120200001074 90000120200001092 3.28303305796
9.20055 90000120200001074 90000120200001073 90000120200001092 3.08482263583
9.21272 90000120200001073 90000120200001069 90000120200001092 2.5772902716
9.07492 90000120200001197 90000120200001196 90000120200001205 5.84661374788
9.10157 90000120200001196 90000120200001195 90000120200001205 5.52976580795
9.15042 90000120200001195 90000120200001194 90000120200001205 5.22758097313
9.20668 90000120200001194 90000120200001193 90000120200001205 4.99593346816
9.21671 90000120200001193 90000120200001192 90000120200001205 4.93938066349
9.22457 90000120200001192 90000120200001191 90000120200001205 4.66451770247
9.2742 90000120200001191 90000120200001190 90000120200001205 4.42803373661
9.30278 90000120200001190 90000120200001188 90000120200001205 4.00794511147
9.32651 90000120200001188 90000120200001178 90000120200001205 2.44422570455
9.37319 90000120200001178 90000120200001177 90000120200001205 2.31611074396
9.39346 90000120200001177 90000120200001171 90000120200001205 1.74357057433
9.40518 90000120200001171 90000120200001170 90000120200001205 1.66666955611
9.41408 90000120200001170 90000120200001169 90000120200001205 1.60423452207
9.04062 90000120200001420 90000120200001419 90000120200001435 3.70877426464
9.08845 90000120200001419 90000120200001418 90000120200001435 3.49086136926
9.1193 90000120200001418 90000120200001417 90000120200001435 3.28303305796
9.15273 90000120200001417 90000120200001415 90000120200001435 3.00813107163
9.2087 90000120200001415 90000120200001414 90000120200001435 2.89578500573
9.22845 90000120200001414 90000120200001413 90000120200001435 2.73314261732
9.22845 90000120200001413 90000120200001411 90000120200001435 2.44422570455
9.25284 90000120200001411 90000120200001410 90000120200001435 2.31611074396
9.3156 90000120200001410 90000120200001409 90000120200001435 2.20792547238
9.32651 90000120200001409 90000120200001408 90000120200001435 2.1032696526
9.35627 90000120200001408 90000120200001406 90000120200001435 1.90408954353
9.3634 90000120200001406 90000120200001402 90000120200001435 1.60423452207
9.4026 90000120200001402 90000120200001398 90000120200001435 1.3575766674
