logMh | fpID | subhaloID | main leaf ID | z
9.00337 90000072100000099 90000072100000098 90000072100000104 8.44947629437
9.14108 90000072100000098 90000072100000097 90000072100000104 8.01217294887
9.32497 90000072100000097 90000072100000096 90000072100000104 7.59510714987
9.4503 90000072100000096 90000072100000095 90000072100000104 7.23627606617
9.47832 90000072100000095 90000072100000094 90000072100000104 7.00541704554
9.50363 90000072100000094 90000072100000093 90000072100000104 6.85511726265
9.51774 90000072100000093 90000072100000092 90000072100000104 6.49159774567
9.59725 90000072100000092 90000072100000091 90000072100000104 6.14490120342
9.63819 90000072100000091 90000072100000090 90000072100000104 6.01075739884
9.69449 90000072100000090 90000072100000089 90000072100000104 5.84661374788
9.77058 90000072100000089 90000072100000088 90000072100000104 5.52976580795
9.84615 90000072100000088 90000072100000087 90000072100000104 5.22758097313
9.89704 90000072100000087 90000072100000086 90000072100000104 4.99593346816
9.92315 90000072100000086 90000072100000084 90000072100000104 4.66451770247
9.96863 90000072100000084 90000072100000083 90000072100000104 4.42803373661
10.006 90000072100000083 90000072100000081 90000072100000104 4.00794511147
10.0224 90000072100000081 90000072100000080 90000072100000104 3.93726108473
10.037 90000072100000080 90000072100000079 90000072100000104 3.70877426464
10.048 90000072100000079 90000072100000078 90000072100000104 3.49086136926
10.1301 90000072100000078 90000072100000077 90000072100000104 3.28303305796
10.2135 90000072100000077 90000072100000076 90000072100000104 3.08482263583
10.2311 90000072100000076 90000072100000075 90000072100000104 3.00813107163
10.3094 90000072100000075 90000072100000074 90000072100000104 2.89578500573
10.3805 90000072100000074 90000072100000073 90000072100000104 2.73314261732
10.4439 90000072100000073 90000072100000072 90000072100000104 2.5772902716
10.4731 90000072100000072 90000072100000071 90000072100000104 2.44422570455
10.5362 90000072100000071 90000072100000070 90000072100000104 2.31611074396
10.6132 90000072100000070 90000072100000069 90000072100000104 2.20792547238
10.6721 90000072100000069 90000072100000068 90000072100000104 2.1032696526
10.7334 90000072100000068 90000072100000067 90000072100000104 2.00202813925
10.7598 90000072100000067 90000072100000066 90000072100000104 1.90408954353
10.799 90000072100000066 90000072100000065 90000072100000104 1.82268925262
10.8165 90000072100000065 90000072100000064 90000072100000104 1.74357057433
10.8226 90000072100000064 90000072100000063 90000072100000104 1.66666955611
10.8358 90000072100000063 90000072100000062 90000072100000104 1.60423452207
10.8527 90000072100000062 90000072100000061 90000072100000104 1.53123902916
10.8574 90000072100000061 90000072100000060 90000072100000104 1.47197484527
10.8657 90000072100000060 90000072100000058 90000072100000104 1.3575766674
10.8945 90000072100000058 90000072100000057 90000072100000104 1.30237845991
10.911 90000072100000057 90000072100000056 90000072100000104 1.24847261425
10.9194 90000072100000056 90000072100000055 90000072100000104 1.20625808078
10.9411 90000072100000055 90000072100000054 90000072100000104 1.15460271236
10.9587 90000072100000054 90000072100000053 90000072100000104 1.11415056377
10.9749 90000072100000053 90000072100000052 90000072100000104 1.07445789455
10.9826 90000072100000052 90000072100000051 90000072100000104 1.03551044566
10.9855 90000072100000051 90000072100000050 90000072100000104 0.997294225782
10.9926 90000072100000050 90000072100000049 90000072100000104 0.987852810816
10.9963 90000072100000049 90000072100000048 90000072100000104 0.950531351585
11.0126 90000072100000048 90000072100000047 90000072100000104 0.923000816178
11.0346 90000072100000047 90000072100000046 90000072100000104 0.886896937575
11.0564 90000072100000046 90000072100000044 90000072100000104 0.816709979012
11.0643 90000072100000044 90000072100000043 90000072100000104 0.791068248946
11.0699 90000072100000043 90000072100000042 90000072100000104 0.757441372616
11.0785 90000072100000042 90000072100000041 90000072100000104 0.732636182022
11.0892 90000072100000041 90000072100000040 90000072100000104 0.700106353719
11.0907 90000072100000040 90000072100000039 90000072100000104 0.676110411213
11.1125 90000072100000039 90000072100000038 90000072100000104 0.644641840685
11.1287 90000072100000038 90000072100000037 90000072100000104 0.621428745243
11.1505 90000072100000037 90000072100000036 90000072100000104 0.598543288188
11.1653 90000072100000036 90000072100000035 90000072100000104 0.575980845108
11.1765 90000072100000035 90000072100000034 90000072100000104 0.546392183141
11.1783 90000072100000034 90000072100000033 90000072100000104 0.524565820434
11.1932 90000072100000033 90000072100000032 90000072100000104 0.503047523245
11.1958 90000072100000032 90000072100000031 90000072100000104 0.481832943421
11.2085 90000072100000031 90000072100000030 90000072100000104 0.460917794181
11.2128 90000072100000030 90000072100000029 90000072100000104 0.440297849248
11.2294 90000072100000029 90000072100000028 90000072100000104 0.419968941997
11.2309 90000072100000028 90000072100000027 90000072100000104 0.399926964614
11.2378 90000072100000027 90000072100000026 90000072100000104 0.38016786726
11.2487 90000072100000026 90000072100000025 90000072100000104 0.360687657262
11.2549 90000072100000025 90000072100000023 90000072100000104 0.328829724206
11.2571 90000072100000023 90000072100000022 90000072100000104 0.310074120128
11.2575 90000072100000022 90000072100000021 90000072100000104 0.291583239722
11.2643 90000072100000021 90000072100000020 90000072100000104 0.273353346578
11.2658 90000072100000020 90000072100000019 90000072100000104 0.261343256161
11.2662 90000072100000019 90000072100000018 90000072100000104 0.243540181555
11.2686 90000072100000018 90000072100000017 90000072100000104 0.22598838626
11.2741 90000072100000017 90000072100000015 90000072100000104 0.197284182376
11.2742 90000072100000015 90000072100000014 90000072100000104 0.180385261706
11.275 90000072100000014 90000072100000013 90000072100000104 0.169252033244
11.2797 90000072100000013 90000072100000012 90000072100000104 0.152748768902
11.2854 90000072100000012 90000072100000009 90000072100000104 0.109869940459
9.06939 90000072100000253 90000072100000252 90000072100000269 4.66451770247
9.11179 90000072100000252 90000072100000250 90000072100000269 4.17683491473
9.1573 90000072100000250 90000072100000249 90000072100000269 4.00794511147
9.2026 90000072100000249 90000072100000248 90000072100000269 3.93726108473
9.2742 90000072100000248 90000072100000247 90000072100000269 3.70877426464
9.31717 90000072100000247 90000072100000246 90000072100000269 3.49086136926
9.01298 90000072100000301 90000072100000300 90000072100000308 4.42803373661
9.01614 90000072100000300 90000072100000298 90000072100000308 4.00794511147
9.08578 90000072100000298 90000072100000296 90000072100000308 3.70877426464
9.14108 90000072100000296 90000072100000295 90000072100000308 3.49086136926
9.02855 90000072100000326 90000072100000325 90000072100000333 4.42803373661
9.07766 90000072100000325 90000072100000324 90000072100000333 4.17683491473
9.12178 90000072100000324 90000072100000323 90000072100000333 4.00794511147
9.13154 90000072100000323 90000072100000322 90000072100000333 3.93726108473
9.35914 90000072100000322 90000072100000321 90000072100000333 3.70877426464
9.15042 90000072100000480 90000072100000479 90000072100000486 7.00541704554
9.2026 90000072100000479 90000072100000477 90000072100000486 6.49159774567
9.22066 90000072100000477 90000072100000476 90000072100000486 6.14490120342
9.24175 90000072100000476 90000072100000475 90000072100000486 6.01075739884
9.29457 90000072100000475 90000072100000474 90000072100000486 5.84661374788
9.32958 90000072100000474 90000072100000473 90000072100000486 5.52976580795
9.38948 90000072100000473 90000072100000472 90000072100000486 5.22758097313
9.43856 90000072100000472 90000072100000471 90000072100000486 4.99593346816
9.4606 90000072100000471 90000072100000469 90000072100000486 4.66451770247
9.46733 90000072100000469 90000072100000468 90000072100000486 4.42803373661
9.55296 90000072100000468 90000072100000467 90000072100000486 4.17683491473
9.57262 90000072100000467 90000072100000466 90000072100000486 4.00794511147
9.64193 90000072100000466 90000072100000465 90000072100000486 3.93726108473
9.64712 90000072100000465 90000072100000463 90000072100000486 3.49086136926
9.69843 90000072100000463 90000072100000462 90000072100000486 3.28303305796
9.75306 90000072100000462 90000072100000461 90000072100000486 3.08482263583
9.78795 90000072100000461 90000072100000460 90000072100000486 3.00813107163
9.10671 90000072100000573 90000072100000572 90000072100000584 5.52976580795
9.17512 90000072100000572 90000072100000571 90000072100000584 5.22758097313
9.24918 90000072100000571 90000072100000570 90000072100000584 4.99593346816
9.27072 90000072100000570 90000072100000569 90000072100000584 4.93938066349
9.36622 90000072100000569 90000072100000568 90000072100000584 4.66451770247
9.39478 90000072100000568 90000072100000567 90000072100000584 4.42803373661
9.47615 90000072100000567 90000072100000566 90000072100000584 4.17683491473
9.49951 90000072100000566 90000072100000565 90000072100000584 4.00794511147
9.52169 90000072100000565 90000072100000564 90000072100000584 3.93726108473
9.54091 90000072100000564 90000072100000563 90000072100000584 3.70877426464
9.626 90000072100000563 90000072100000562 90000072100000584 3.49086136926
9.64859 90000072100000562 90000072100000561 90000072100000584 3.28303305796
9.79847 90000072100000561 90000072100000560 90000072100000584 3.08482263583
9.80721 90000072100000560 90000072100000559 90000072100000584 3.00813107163
9.82614 90000072100000559 90000072100000558 90000072100000584 2.89578500573
9.83147 90000072100000558 90000072100000555 90000072100000584 2.44422570455
9.01298 90000072100000661 90000072100000660 90000072100000677 3.49086136926
9.01928 90000072100000660 90000072100000659 90000072100000677 3.28303305796
9.06096 90000072100000659 90000072100000658 90000072100000677 3.08482263583
9.08578 90000072100000658 90000072100000657 90000072100000677 3.00813107163
9.0098 90000072100000809 90000072100000808 90000072100000820 4.99593346816
9.0098 90000072100000808 90000072100000807 90000072100000820 4.93938066349
9.09637 90000072100000807 90000072100000805 90000072100000820 4.42803373661
9.19848 90000072100000805 90000072100000803 90000072100000820 4.00794511147
9.21472 90000072100000803 90000072100000801 90000072100000820 3.70877426464
9.24362 90000072100000801 90000072100000800 90000072100000820 3.49086136926
9.26896 90000072100000800 90000072100000798 90000072100000820 3.08482263583
9.27072 90000072100000798 90000072100000797 90000072100000820 3.00813107163
9.29951 90000072100000797 90000072100000796 90000072100000820 2.89578500573
9.32342 90000072100000796 90000072100000795 90000072100000820 2.73314261732
9.36763 90000072100000795 90000072100000793 90000072100000820 2.44422570455
9.38005 90000072100000793 90000072100000792 90000072100000820 2.31611074396
9.0098 90000072100000995 90000072100000994 90000072100001003 5.52976580795
9.04653 90000072100000994 90000072100000993 90000072100001003 5.22758097313
9.14578 90000072100000993 90000072100000992 90000072100001003 4.99593346816
9.17073 90000072100000992 90000072100000991 90000072100001003 4.93938066349
9.23229 90000072100000991 90000072100000990 90000072100001003 4.66451770247
9.26365 90000072100000990 90000072100000989 90000072100001003 4.42803373661
9.30278 90000072100000989 90000072100000988 90000072100001003 4.17683491473
9.34313 90000072100000988 90000072100000987 90000072100001003 4.00794511147
9.34313 90000072100000987 90000072100000986 90000072100001003 3.93726108473
9.36056 90000072100000986 90000072100000985 90000072100001003 3.70877426464
9.40774 90000072100000985 90000072100000984 90000072100001003 3.49086136926
9.44093 90000072100000984 90000072100000983 90000072100001003 3.28303305796
9.53523 90000072100000983 90000072100000982 90000072100001003 3.08482263583
9.54465 90000072100000982 90000072100000981 90000072100001003 3.00813107163
9.58127 90000072100000981 90000072100000979 90000072100001003 2.73314261732
9.61346 90000072100000979 90000072100000978 90000072100001003 2.5772902716
9.61742 90000072100000978 90000072100000976 90000072100001003 2.31611074396
9.65151 90000072100000976 90000072100000975 90000072100001003 2.20792547238
9.65874 90000072100000975 90000072100000974 90000072100001003 2.1032696526
9.68176 90000072100000974 90000072100000973 90000072100001003 2.00202813925
9.6838 90000072100000973 90000072100000971 90000072100001003 1.82268925262
9.69449 90000072100000971 90000072100000970 90000072100001003 1.74357057433
9.72935 90000072100000970 90000072100000969 90000072100001003 1.66666955611
9.19223 90000072100001105 90000072100001104 90000072100001121 1.15460271236
9.20668 90000072100001104 90000072100001103 90000072100001121 1.11415056377
9.21671 90000072100001103 90000072100001099 90000072100001121 0.987852810816
9.08578 90000072100001123 90000072100001122 90000072100001140 1.20625808078
9.1573 90000072100001381 90000072100001380 90000072100001386 6.14490120342
9.18162 90000072100001380 90000072100001379 90000072100001386 6.01075739884
9.21072 90000072100001379 90000072100001378 90000072100001386 5.84661374788
9.23988 90000072100001378 90000072100001377 90000072100001386 5.52976580795
9.37595 90000072100001377 90000072100001376 90000072100001386 5.22758097313
9.4026 90000072100001376 90000072100001375 90000072100001386 4.99593346816
9.40518 90000072100001375 90000072100001373 90000072100001386 4.66451770247
9.44329 90000072100001373 90000072100001372 90000072100001386 4.42803373661
9.44681 90000072100001372 90000072100001371 90000072100001386 4.17683491473
9.53808 90000072100001371 90000072100001370 90000072100001386 4.00794511147
9.56646 90000072100001370 90000072100001369 90000072100001386 3.93726108473
9.59477 90000072100001369 90000072100001368 90000072100001386 3.70877426464
9.61742 90000072100001368 90000072100001367 90000072100001386 3.49086136926
9.64342 90000072100001367 90000072100001366 90000072100001386 3.28303305796
9.67353 90000072100001366 90000072100001365 90000072100001386 3.08482263583
9.68582 90000072100001365 90000072100001364 90000072100001386 3.00813107163
9.7378 90000072100001364 90000072100001363 90000072100001386 2.89578500573
9.75879 90000072100001363 90000072100001361 90000072100001386 2.5772902716
9.78582 90000072100001361 90000072100001359 90000072100001386 2.31611074396
9.88656 90000072100001359 90000072100001357 90000072100001386 2.1032696526
9.92041 90000072100001357 90000072100001354 90000072100001386 1.82268925262
9.92276 90000072100001354 90000072100001353 90000072100001386 1.74357057433
9.93164 90000072100001353 90000072100001352 90000072100001386 1.66666955611
9.94147 90000072100001352 90000072100001350 90000072100001386 1.53123902916
9.94815 90000072100001350 90000072100001346 90000072100001386 1.30237845991
9.9612 90000072100001346 90000072100001343 90000072100001386 1.15460271236
9.01928 90000072100001470 90000072100001469 90000072100001485 3.08482263583
9.01614 90000072100001659 90000072100001658 90000072100001678 2.31611074396
9.07492 90000072100001658 90000072100001657 90000072100001678 2.20792547238
9.10415 90000072100001657 90000072100001656 90000072100001678 2.1032696526
9.11179 90000072100001656 90000072100001655 90000072100001678 2.00202813925
9.11179 90000072100001655 90000072100001654 90000072100001678 1.90408954353
9.11431 90000072100001654 90000072100001653 90000072100001678 1.82268925262
9.12912 90000072100001653 90000072100001652 90000072100001678 1.74357057433
9.00337 90000072100001806 90000072100001805 90000072100001814 2.89578500573
9.01928 90000072100001805 90000072100001804 90000072100001814 2.73314261732
9.05235 90000072100001804 90000072100001803 90000072100001814 2.5772902716
9.08845 90000072100001803 90000072100001801 90000072100001814 2.31611074396
