logMh | fpID | subhaloID | main leaf ID | z
9.0098 90000164700000095 90000164700000094 90000164700000106 7.00541704554
9.10415 90000164700000094 90000164700000093 90000164700000106 6.85511726265
9.36199 90000164700000093 90000164700000092 90000164700000106 6.49159774567
9.40001 90000164700000092 90000164700000091 90000164700000106 6.14490120342
9.41659 90000164700000091 90000164700000090 90000164700000106 6.01075739884
9.46397 90000164700000090 90000164700000088 90000164700000106 5.52976580795
9.53713 90000164700000088 90000164700000087 90000164700000106 5.22758097313
9.61742 90000164700000087 90000164700000086 90000164700000106 4.99593346816
9.61742 90000164700000086 90000164700000085 90000164700000106 4.93938066349
9.67214 90000164700000085 90000164700000084 90000164700000106 4.66451770247
9.7226 90000164700000084 90000164700000083 90000164700000106 4.42803373661
9.74018 90000164700000083 90000164700000082 90000164700000106 4.17683491473
9.93469 90000164700000082 90000164700000081 90000164700000106 4.00794511147
10.0072 90000164700000081 90000164700000079 90000164700000106 3.70877426464
10.1264 90000164700000079 90000164700000078 90000164700000106 3.49086136926
10.364 90000164700000078 90000164700000075 90000164700000106 3.00813107163
10.4004 90000164700000075 90000164700000074 90000164700000106 2.89578500573
10.4441 90000164700000074 90000164700000073 90000164700000106 2.73314261732
10.5189 90000164700000073 90000164700000072 90000164700000106 2.5772902716
10.5613 90000164700000072 90000164700000071 90000164700000106 2.44422570455
10.5763 90000164700000071 90000164700000070 90000164700000106 2.31611074396
10.5764 90000164700000070 90000164700000069 90000164700000106 2.20792547238
10.6002 90000164700000069 90000164700000068 90000164700000106 2.1032696526
10.6038 90000164700000068 90000164700000062 90000164700000106 1.60423452207
10.616 90000164700000062 90000164700000061 90000164700000106 1.53123902916
10.6301 90000164700000061 90000164700000060 90000164700000106 1.47197484527
10.6431 90000164700000060 90000164700000059 90000164700000106 1.41409822037
10.6508 90000164700000059 90000164700000057 90000164700000106 1.30237845991
10.6918 90000164700000057 90000164700000056 90000164700000106 1.24847261425
10.7432 90000164700000056 90000164700000055 90000164700000106 1.20625808078
10.7907 90000164700000055 90000164700000054 90000164700000106 1.15460271236
10.8297 90000164700000054 90000164700000053 90000164700000106 1.11415056377
10.8833 90000164700000053 90000164700000052 90000164700000106 1.07445789455
10.9145 90000164700000052 90000164700000051 90000164700000106 1.03551044566
10.9744 90000164700000051 90000164700000050 90000164700000106 0.997294225782
11.0026 90000164700000050 90000164700000048 90000164700000106 0.950531351585
11.0446 90000164700000048 90000164700000047 90000164700000106 0.923000816178
11.0859 90000164700000047 90000164700000046 90000164700000106 0.886896937575
11.11 90000164700000046 90000164700000045 90000164700000106 0.851470900625
11.1515 90000164700000045 90000164700000044 90000164700000106 0.816709979012
11.1885 90000164700000044 90000164700000043 90000164700000106 0.791068248946
11.2238 90000164700000043 90000164700000042 90000164700000106 0.757441372616
11.229 90000164700000042 90000164700000040 90000164700000106 0.700106353719
11.2338 90000164700000040 90000164700000039 90000164700000106 0.676110411213
11.2478 90000164700000039 90000164700000038 90000164700000106 0.644641840685
11.2572 90000164700000038 90000164700000037 90000164700000106 0.621428745243
11.2708 90000164700000037 90000164700000036 90000164700000106 0.598543288188
11.2728 90000164700000036 90000164700000035 90000164700000106 0.575980845108
11.2761 90000164700000035 90000164700000001 90000164700000106 0.00952166696794
11.2782 90000164700000001 90000164700000000 90000164700000106 2.22044604925e-16
9.12912 90000164700000138 90000164700000137 90000164700000150 4.42803373661
9.18589 90000164700000137 90000164700000136 90000164700000150 4.17683491473
9.40131 90000164700000136 90000164700000135 90000164700000150 4.00794511147
10.162 90000164700000135 90000164700000131 90000164700000150 3.28303305796
10.2601 90000164700000131 90000164700000130 90000164700000150 3.08482263583
9.03763 90000164700000210 90000164700000209 90000164700000218 5.52976580795
9.04653 90000164700000209 90000164700000208 90000164700000218 5.22758097313
9.09637 90000164700000208 90000164700000207 90000164700000218 4.99593346816
9.09637 90000164700000207 90000164700000206 90000164700000218 4.93938066349
9.1573 90000164700000206 90000164700000205 90000164700000218 4.66451770247
9.19848 90000164700000205 90000164700000204 90000164700000218 4.42803373661
9.2026 90000164700000204 90000164700000203 90000164700000218 4.17683491473
9.15956 90000164700000266 90000164700000265 90000164700000275 5.22758097313
9.19641 90000164700000265 90000164700000263 90000164700000275 4.93938066349
9.25648 90000164700000263 90000164700000262 90000164700000275 4.66451770247
9.29124 90000164700000262 90000164700000261 90000164700000275 4.42803373661
9.01928 90000164700000297 90000164700000296 90000164700000306 4.00794511147
9.05811 90000164700000296 90000164700000295 90000164700000306 3.93726108473
9.06096 90000164700000295 90000164700000294 90000164700000306 3.70877426464
9.2342 90000164700000294 90000164700000293 90000164700000306 3.49086136926
9.01614 90000164700000348 90000164700000347 90000164700000354 6.01075739884
9.05811 90000164700000347 90000164700000345 90000164700000354 5.52976580795
9.20055 90000164700000345 90000164700000344 90000164700000354 5.22758097313
9.26365 90000164700000344 90000164700000343 90000164700000354 4.99593346816
9.37595 90000164700000343 90000164700000342 90000164700000354 4.93938066349
9.52267 90000164700000342 90000164700000339 90000164700000354 4.17683491473
9.54185 90000164700000339 90000164700000337 90000164700000354 3.93726108473
9.55113 90000164700000337 90000164700000336 90000164700000354 3.70877426464
9.01298 90000164700000392 90000164700000391 90000164700000398 3.93726108473
9.1663 90000164700000391 90000164700000390 90000164700000398 3.70877426464
9.19013 90000164700000390 90000164700000389 90000164700000398 3.49086136926
9.25101 90000164700000389 90000164700000387 90000164700000398 3.08482263583
9.2672 90000164700000387 90000164700000386 90000164700000398 3.00813107163
9.01298 90000164700000435 90000164700000434 90000164700000452 4.17683491473
9.02239 90000164700000434 90000164700000432 90000164700000452 3.93726108473
9.04358 90000164700000432 90000164700000431 90000164700000452 3.70877426464
9.10415 90000164700000431 90000164700000430 90000164700000452 3.49086136926
9.10415 90000164700000430 90000164700000427 90000164700000452 3.00813107163
9.11179 90000164700000427 90000164700000423 90000164700000452 2.44422570455
9.19848 90000164700000484 90000164700000483 90000164700000508 2.73314261732
9.28788 90000164700000483 90000164700000482 90000164700000508 2.5772902716
9.35627 90000164700000482 90000164700000481 90000164700000508 2.44422570455
9.0316 90000164700000635 90000164700000634 90000164700000648 4.17683491473
9.09375 90000164700000634 90000164700000633 90000164700000648 4.00794511147
9.14811 90000164700000633 90000164700000631 90000164700000648 3.70877426464
9.15273 90000164700000631 90000164700000630 90000164700000648 3.49086136926
9.3156 90000164700000750 90000164700000749 90000164700000767 5.22758097313
9.36056 90000164700000749 90000164700000748 90000164700000767 4.99593346816
9.90767 90000164700000748 90000164700000745 90000164700000767 4.42803373661
9.99946 90000164700000745 90000164700000744 90000164700000767 4.17683491473
10.1131 90000164700000744 90000164700000743 90000164700000767 4.00794511147
10.1411 90000164700000743 90000164700000742 90000164700000767 3.93726108473
10.2257 90000164700000742 90000164700000741 90000164700000767 3.49086136926
10.2567 90000164700000741 90000164700000740 90000164700000767 3.28303305796
10.2975 90000164700000740 90000164700000739 90000164700000767 3.08482263583
10.3126 90000164700000739 90000164700000738 90000164700000767 3.00813107163
10.315 90000164700000738 90000164700000733 90000164700000767 2.31611074396
10.3576 90000164700000733 90000164700000732 90000164700000767 2.20792547238
10.3937 90000164700000732 90000164700000731 90000164700000767 2.1032696526
10.4213 90000164700000731 90000164700000730 90000164700000767 2.00202813925
10.4486 90000164700000730 90000164700000728 90000164700000767 1.82268925262
10.466 90000164700000728 90000164700000727 90000164700000767 1.74357057433
10.4773 90000164700000727 90000164700000726 90000164700000767 1.66666955611
10.4838 90000164700000726 90000164700000725 90000164700000767 1.60423452207
10.4863 90000164700000725 90000164700000724 90000164700000767 1.53123902916
10.5097 90000164700000724 90000164700000723 90000164700000767 1.47197484527
10.5166 90000164700000723 90000164700000722 90000164700000767 1.41409822037
10.5379 90000164700000722 90000164700000720 90000164700000767 1.30237845991
10.5436 90000164700000720 90000164700000718 90000164700000767 1.20625808078
9.09637 90000164700000769 90000164700000768 90000164700000777 5.52976580795
9.0098 90000164700000800 90000164700000799 90000164700000805 7.00541704554
9.04062 90000164700000799 90000164700000798 90000164700000805 6.85511726265
9.12178 90000164700000798 90000164700000797 90000164700000805 6.49159774567
9.2026 90000164700000797 90000164700000796 90000164700000805 6.14490120342
9.21869 90000164700000796 90000164700000794 90000164700000805 5.84661374788
9.39346 90000164700000794 90000164700000793 90000164700000805 5.52976580795
9.48905 90000164700000793 90000164700000792 90000164700000805 5.22758097313
9.5207 90000164700000792 90000164700000791 90000164700000805 4.99593346816
9.54744 90000164700000791 90000164700000790 90000164700000805 4.93938066349
9.63969 90000164700000790 90000164700000789 90000164700000805 4.66451770247
9.00337 90000164700000836 90000164700000835 90000164700000839 6.85511726265
9.05235 90000164700000835 90000164700000834 90000164700000839 6.49159774567
9.20055 90000164700000834 90000164700000833 90000164700000839 6.14490120342
9.26187 90000164700000833 90000164700000832 90000164700000839 6.01075739884
9.34165 90000164700000832 90000164700000831 90000164700000839 5.84661374788
9.40774 90000164700000831 90000164700000830 90000164700000839 5.52976580795
9.43257 90000164700000830 90000164700000829 90000164700000839 5.22758097313
9.46844 90000164700000829 90000164700000828 90000164700000839 4.99593346816
9.49431 90000164700000828 90000164700000827 90000164700000839 4.93938066349
9.02239 90000164700001037 90000164700001036 90000164700001041 7.59510714987
9.16182 90000164700001036 90000164700001035 90000164700001041 7.23627606617
9.17946 90000164700001035 90000164700001034 90000164700001041 7.00541704554
9.26008 90000164700001034 90000164700001033 90000164700001041 6.85511726265
9.26365 90000164700001033 90000164700001031 90000164700001041 6.14490120342
9.27766 90000164700001031 90000164700001030 90000164700001041 6.01075739884
9.29622 90000164700001030 90000164700001029 90000164700001041 5.84661374788
9.34313 90000164700001029 90000164700001028 90000164700001041 5.52976580795
9.37869 90000164700001028 90000164700001027 90000164700001041 5.22758097313
9.45605 90000164700001027 90000164700001026 90000164700001041 4.99593346816
9.45833 90000164700001026 90000164700001025 90000164700001041 4.93938066349
9.50771 90000164700001025 90000164700001024 90000164700001041 4.66451770247
9.59725 90000164700001024 90000164700001023 90000164700001041 4.42803373661
9.69051 90000164700001023 90000164700001022 90000164700001041 4.17683491473
9.76275 90000164700001022 90000164700001021 90000164700001041 4.00794511147
9.84147 90000164700001021 90000164700001020 90000164700001041 3.93726108473
9.95689 90000164700001020 90000164700001018 90000164700001041 3.49086136926
10.1052 90000164700001018 90000164700001017 90000164700001041 3.28303305796
10.2711 90000164700001017 90000164700001013 90000164700001041 2.73314261732
10.3708 90000164700001013 90000164700001011 90000164700001041 2.44422570455
10.4435 90000164700001011 90000164700001010 90000164700001041 2.31611074396
10.4636 90000164700001010 90000164700001009 90000164700001041 2.20792547238
10.5132 90000164700001009 90000164700001008 90000164700001041 2.1032696526
10.5199 90000164700001008 90000164700001006 90000164700001041 1.90408954353
10.5394 90000164700001006 90000164700001005 90000164700001041 1.82268925262
10.5415 90000164700001005 90000164700001003 90000164700001041 1.66666955611
9.08578 90000164700001081 90000164700001080 90000164700001087 5.84661374788
9.24918 90000164700001080 90000164700001079 90000164700001087 5.52976580795
9.35338 90000164700001079 90000164700001078 90000164700001087 5.22758097313
9.43737 90000164700001078 90000164700001077 90000164700001087 4.99593346816
9.45833 90000164700001077 90000164700001076 90000164700001087 4.93938066349
9.51074 90000164700001076 90000164700001075 90000164700001087 4.66451770247
9.52169 90000164700001075 90000164700001073 90000164700001087 4.17683491473
9.60866 90000164700001073 90000164700001071 90000164700001087 3.93726108473
9.66088 90000164700001071 90000164700001070 90000164700001087 3.70877426464
9.96828 90000164700001070 90000164700001066 90000164700001087 3.00813107163
10.1138 90000164700001066 90000164700001065 90000164700001087 2.89578500573
10.2944 90000164700001065 90000164700001064 90000164700001087 2.5772902716
9.01928 90000164700001117 90000164700001116 90000164700001123 6.01075739884
9.04653 90000164700001116 90000164700001115 90000164700001123 5.84661374788
9.08309 90000164700001115 90000164700001114 90000164700001123 5.52976580795
9.10926 90000164700001114 90000164700001112 90000164700001123 4.99593346816
9.12912 90000164700001135 90000164700001134 90000164700001150 4.42803373661
9.05524 90000164700001252 90000164700001251 90000164700001261 4.17683491473
9.07766 90000164700001251 90000164700001249 90000164700001261 3.93726108473
9.38277 90000164700001249 90000164700001247 90000164700001261 3.49086136926
9.55751 90000164700001247 90000164700001246 90000164700001261 3.28303305796
9.59972 90000164700001246 90000164700001245 90000164700001261 3.08482263583
9.64044 90000164700001245 90000164700001244 90000164700001261 3.00813107163
9.41784 90000164700001263 90000164700001262 90000164700001265 3.70877426464
9.04653 90000164700001313 90000164700001312 90000164700001317 5.52976580795
9.07492 90000164700001312 90000164700001311 90000164700001317 5.22758097313
9.09637 90000164700001311 90000164700001310 90000164700001317 4.99593346816
9.13394 90000164700001310 90000164700001306 90000164700001317 4.17683491473
9.15502 90000164700001306 90000164700001303 90000164700001317 3.70877426464
9.1663 90000164700001303 90000164700001301 90000164700001317 3.28303305796
9.15273 90000164700001409 90000164700001408 90000164700001417 3.49086136926
9.19433 90000164700001408 90000164700001407 90000164700001417 3.28303305796
9.24548 90000164700001407 90000164700001406 90000164700001417 3.08482263583
9.26543 90000164700001406 90000164700001405 90000164700001417 3.00813107163
9.36481 90000164700001405 90000164700001404 90000164700001417 2.89578500573
9.50363 90000164700001404 90000164700001403 90000164700001417 2.73314261732
9.62212 90000164700001403 90000164700001402 90000164700001417 2.5772902716
9.72074 90000164700001402 90000164700001400 90000164700001417 2.31611074396
9.63061 90000164700001433 90000164700001432 90000164700001451 2.1032696526
