logMh | fpID | subhaloID | main leaf ID | z
9.12424 90000112600000104 90000112600000103 90000112600000106 9.99659046619
9.19433 90000112600000103 90000112600000102 90000112600000106 9.84138043947
9.24918 90000112600000102 90000112600000101 90000112600000106 9.38877127194
9.28956 90000112600000101 90000112600000100 90000112600000106 9.00233985416
9.38681 90000112600000100 90000112600000099 90000112600000106 8.9079991856
9.4964 90000112600000099 90000112600000098 90000112600000106 8.44947629437
9.61977 90000112600000098 90000112600000097 90000112600000106 8.01217294887
9.68176 90000112600000097 90000112600000096 90000112600000106 7.59510714987
9.81378 90000112600000096 90000112600000095 90000112600000106 7.23627606617
9.82321 90000112600000095 90000112600000093 90000112600000106 6.85511726265
9.92742 90000112600000093 90000112600000092 90000112600000106 6.49159774567
10.0101 90000112600000092 90000112600000091 90000112600000106 6.14490120342
10.0346 90000112600000091 90000112600000086 90000112600000106 4.99593346816
10.061 90000112600000086 90000112600000084 90000112600000106 4.66451770247
10.0674 90000112600000084 90000112600000083 90000112600000106 4.42803373661
10.1191 90000112600000083 90000112600000082 90000112600000106 4.17683491473
10.4219 90000112600000082 90000112600000078 90000112600000106 3.49086136926
10.503 90000112600000078 90000112600000076 90000112600000106 3.08482263583
10.5148 90000112600000076 90000112600000075 90000112600000106 3.00813107163
10.5151 90000112600000075 90000112600000074 90000112600000106 2.89578500573
10.5447 90000112600000074 90000112600000073 90000112600000106 2.73314261732
10.5678 90000112600000073 90000112600000072 90000112600000106 2.5772902716
10.5932 90000112600000072 90000112600000071 90000112600000106 2.44422570455
10.6227 90000112600000071 90000112600000070 90000112600000106 2.31611074396
10.6448 90000112600000070 90000112600000069 90000112600000106 2.20792547238
10.6595 90000112600000069 90000112600000068 90000112600000106 2.1032696526
10.6743 90000112600000068 90000112600000067 90000112600000106 2.00202813925
10.6775 90000112600000067 90000112600000066 90000112600000106 1.90408954353
10.6827 90000112600000066 90000112600000065 90000112600000106 1.82268925262
10.6878 90000112600000065 90000112600000064 90000112600000106 1.74357057433
10.6938 90000112600000064 90000112600000063 90000112600000106 1.66666955611
10.7006 90000112600000063 90000112600000062 90000112600000106 1.60423452207
10.7128 90000112600000062 90000112600000061 90000112600000106 1.53123902916
10.7129 90000112600000061 90000112600000060 90000112600000106 1.47197484527
10.7149 90000112600000060 90000112600000059 90000112600000106 1.41409822037
10.7207 90000112600000059 90000112600000058 90000112600000106 1.3575766674
10.7281 90000112600000058 90000112600000057 90000112600000106 1.30237845991
10.7332 90000112600000057 90000112600000056 90000112600000106 1.24847261425
10.7402 90000112600000056 90000112600000055 90000112600000106 1.20625808078
10.7481 90000112600000055 90000112600000054 90000112600000106 1.15460271236
10.7556 90000112600000054 90000112600000053 90000112600000106 1.11415056377
10.7595 90000112600000053 90000112600000052 90000112600000106 1.07445789455
10.7651 90000112600000052 90000112600000051 90000112600000106 1.03551044566
10.7716 90000112600000051 90000112600000050 90000112600000106 0.997294225782
10.773 90000112600000050 90000112600000049 90000112600000106 0.987852810816
10.7799 90000112600000049 90000112600000048 90000112600000106 0.950531351585
10.7985 90000112600000048 90000112600000045 90000112600000106 0.851470900625
10.802 90000112600000045 90000112600000042 90000112600000106 0.757441372616
10.81 90000112600000042 90000112600000041 90000112600000106 0.732636182022
10.8126 90000112600000041 90000112600000040 90000112600000106 0.700106353719
10.8139 90000112600000040 90000112600000039 90000112600000106 0.676110411213
10.8208 90000112600000039 90000112600000038 90000112600000106 0.644641840685
10.8212 90000112600000038 90000112600000036 90000112600000106 0.598543288188
10.8286 90000112600000036 90000112600000035 90000112600000106 0.575980845108
10.8355 90000112600000035 90000112600000034 90000112600000106 0.546392183141
10.8362 90000112600000034 90000112600000032 90000112600000106 0.503047523245
10.8401 90000112600000032 90000112600000031 90000112600000106 0.481832943421
11.2082 90000112600000031 90000112600000017 90000112600000106 0.22598838626
11.2351 90000112600000017 90000112600000016 90000112600000106 0.214425035514
11.2406 90000112600000016 90000112600000015 90000112600000106 0.197284182376
11.2521 90000112600000015 90000112600000008 90000112600000106 0.0994018026302
11.2774 90000112600000008 90000112600000007 90000112600000106 0.0838844307975
9.19848 90000112600000182 90000112600000181 90000112600000183 10.9190331982
9.31401 90000112600000181 90000112600000180 90000112600000183 10.3674435724
9.36056 90000112600000180 90000112600000178 90000112600000183 9.84138043947
9.51575 90000112600000178 90000112600000177 90000112600000183 9.38877127194
9.60785 90000112600000177 90000112600000174 90000112600000183 8.44947629437
9.82517 90000112600000174 90000112600000172 90000112600000183 7.59510714987
9.92896 90000112600000172 90000112600000170 90000112600000183 7.00541704554
10.1559 90000112600000170 90000112600000157 90000112600000183 4.00794511147
10.1779 90000112600000157 90000112600000156 90000112600000183 3.93726108473
10.4582 90000112600000156 90000112600000154 90000112600000183 3.28303305796
9.6804 90000112600000186 90000112600000185 90000112600000194 8.01217294887
10.3062 90000112600000203 90000112600000202 90000112600000221 3.70877426464
9.1193 90000112600000367 90000112600000366 90000112600000370 7.23627606617
9.31717 90000112600000366 90000112600000365 90000112600000370 7.00541704554
9.35627 90000112600000365 90000112600000361 90000112600000370 6.01075739884
9.36902 90000112600000361 90000112600000352 90000112600000370 4.00794511147
9.39214 90000112600000352 90000112600000350 90000112600000370 3.70877426464
9.04653 90000112600000451 90000112600000450 90000112600000472 1.53123902916
9.22457 90000112600000585 90000112600000584 90000112600000595 7.59510714987
9.34461 90000112600000584 90000112600000583 90000112600000595 7.23627606617
9.38005 90000112600000583 90000112600000582 90000112600000595 7.00541704554
9.39081 90000112600000582 90000112600000581 90000112600000595 6.85511726265
9.42033 90000112600000581 90000112600000580 90000112600000595 6.49159774567
9.43257 90000112600000580 90000112600000579 90000112600000595 6.14490120342
9.44093 90000112600000579 90000112600000578 90000112600000595 6.01075739884
9.46285 90000112600000578 90000112600000577 90000112600000595 5.84661374788
9.51275 90000112600000577 90000112600000576 90000112600000595 5.52976580795
9.71385 90000112600000576 90000112600000575 90000112600000595 5.22758097313
9.77003 90000112600000575 90000112600000574 90000112600000595 4.99593346816
9.82614 90000112600000574 90000112600000572 90000112600000595 4.66451770247
9.85215 90000112600000572 90000112600000571 90000112600000595 4.42803373661
9.96546 90000112600000571 90000112600000570 90000112600000595 4.17683491473
10.1277 90000112600000570 90000112600000569 90000112600000595 4.00794511147
10.1534 90000112600000569 90000112600000568 90000112600000595 3.93726108473
10.5383 90000112600000568 90000112600000565 90000112600000595 3.08482263583
10.5617 90000112600000565 90000112600000564 90000112600000595 3.00813107163
10.5902 90000112600000564 90000112600000563 90000112600000595 2.89578500573
10.6248 90000112600000563 90000112600000562 90000112600000595 2.73314261732
10.6524 90000112600000562 90000112600000561 90000112600000595 2.5772902716
10.6651 90000112600000561 90000112600000560 90000112600000595 2.44422570455
10.6695 90000112600000560 90000112600000559 90000112600000595 2.31611074396
10.6835 90000112600000559 90000112600000558 90000112600000595 2.20792547238
10.6971 90000112600000558 90000112600000557 90000112600000595 2.1032696526
10.7103 90000112600000557 90000112600000554 90000112600000595 1.82268925262
10.7235 90000112600000554 90000112600000553 90000112600000595 1.74357057433
10.7344 90000112600000553 90000112600000552 90000112600000595 1.66666955611
10.7562 90000112600000552 90000112600000551 90000112600000595 1.60423452207
10.7741 90000112600000551 90000112600000549 90000112600000595 1.47197484527
10.7771 90000112600000549 90000112600000547 90000112600000595 1.3575766674
10.7919 90000112600000547 90000112600000546 90000112600000595 1.30237845991
10.7942 90000112600000546 90000112600000545 90000112600000595 1.24847261425
10.7997 90000112600000545 90000112600000544 90000112600000595 1.20625808078
10.8087 90000112600000544 90000112600000543 90000112600000595 1.15460271236
10.8234 90000112600000543 90000112600000542 90000112600000595 1.11415056377
10.8287 90000112600000542 90000112600000541 90000112600000595 1.07445789455
10.8392 90000112600000541 90000112600000540 90000112600000595 1.03551044566
10.8424 90000112600000540 90000112600000539 90000112600000595 0.997294225782
10.8498 90000112600000539 90000112600000538 90000112600000595 0.987852810816
10.8559 90000112600000538 90000112600000536 90000112600000595 0.923000816178
10.8607 90000112600000536 90000112600000535 90000112600000595 0.886896937575
10.8702 90000112600000535 90000112600000534 90000112600000595 0.851470900625
10.8772 90000112600000534 90000112600000533 90000112600000595 0.816709979012
10.8795 90000112600000533 90000112600000532 90000112600000595 0.791068248946
10.8926 90000112600000532 90000112600000531 90000112600000595 0.757441372616
10.8974 90000112600000531 90000112600000529 90000112600000595 0.700106353719
10.9037 90000112600000529 90000112600000528 90000112600000595 0.676110411213
10.9111 90000112600000528 90000112600000527 90000112600000595 0.644641840685
10.9119 90000112600000527 90000112600000526 90000112600000595 0.621428745243
10.9144 90000112600000526 90000112600000524 90000112600000595 0.575980845108
10.9192 90000112600000524 90000112600000523 90000112600000595 0.546392183141
10.9263 90000112600000523 90000112600000522 90000112600000595 0.524565820434
10.9318 90000112600000522 90000112600000521 90000112600000595 0.503047523245
10.9479 90000112600000521 90000112600000519 90000112600000595 0.460917794181
10.9564 90000112600000519 90000112600000518 90000112600000595 0.440297849248
10.9668 90000112600000518 90000112600000517 90000112600000595 0.419968941997
10.9751 90000112600000517 90000112600000516 90000112600000595 0.399926964614
10.9923 90000112600000516 90000112600000515 90000112600000595 0.38016786726
10.9965 90000112600000515 90000112600000514 90000112600000595 0.360687657262
10.9968 90000112600000514 90000112600000513 90000112600000595 0.347853841858
11.0053 90000112600000513 90000112600000512 90000112600000595 0.328829724206
11.0246 90000112600000512 90000112600000511 90000112600000595 0.310074120128
11.0363 90000112600000511 90000112600000510 90000112600000595 0.291583239722
11.0612 90000112600000510 90000112600000509 90000112600000595 0.273353346578
11.0942 90000112600000509 90000112600000508 90000112600000595 0.261343256161
11.1449 90000112600000508 90000112600000507 90000112600000595 0.243540181555
9.01298 90000112600000609 90000112600000608 90000112600000618 5.84661374788
9.04945 90000112600000642 90000112600000641 90000112600000649 8.01217294887
9.09111 90000112600000641 90000112600000639 90000112600000649 7.23627606617
9.11179 90000112600000639 90000112600000638 90000112600000649 7.00541704554
9.13871 90000112600000638 90000112600000637 90000112600000649 6.85511726265
9.19848 90000112600000637 90000112600000636 90000112600000649 6.49159774567
9.24175 90000112600000636 90000112600000635 90000112600000649 6.14490120342
9.37595 90000112600000635 90000112600000632 90000112600000649 5.52976580795
9.45145 90000112600000632 90000112600000631 90000112600000649 5.22758097313
9.52365 90000112600000631 90000112600000630 90000112600000649 4.99593346816
9.56735 90000112600000630 90000112600000629 90000112600000649 4.93938066349
9.63819 90000112600000629 90000112600000628 90000112600000649 4.66451770247
9.65802 90000112600000628 90000112600000627 90000112600000649 4.42803373661
10.2242 90000112600000627 90000112600000623 90000112600000649 3.70877426464
10.4416 90000112600000623 90000112600000621 90000112600000649 3.28303305796
9.02855 90000112600000706 90000112600000705 90000112600000716 5.84661374788
10.2635 90000112600000705 90000112600000697 90000112600000716 3.49086136926
9.00337 90000112600000761 90000112600000760 90000112600000768 6.85511726265
9.0098 90000112600000760 90000112600000759 90000112600000768 6.49159774567
9.06939 90000112600000759 90000112600000758 90000112600000768 6.14490120342
9.15273 90000112600000758 90000112600000757 90000112600000768 6.01075739884
9.21671 90000112600000757 90000112600000754 90000112600000768 5.22758097313
9.31717 90000112600000754 90000112600000750 90000112600000768 4.42803373661
9.33263 90000112600000750 90000112600000749 90000112600000768 4.17683491473
9.44211 90000112600000749 90000112600000748 90000112600000768 4.00794511147
9.49536 90000112600000748 90000112600000747 90000112600000768 3.93726108473
9.49744 90000112600000747 90000112600000746 90000112600000768 3.70877426464
9.55569 90000112600000746 90000112600000745 90000112600000768 3.49086136926
9.0098 90000112600000802 90000112600000801 90000112600000822 4.42803373661
9.05811 90000112600000801 90000112600000800 90000112600000822 4.17683491473
9.08578 90000112600000800 90000112600000799 90000112600000822 4.00794511147
9.09111 90000112600000799 90000112600000798 90000112600000822 3.93726108473
9.07766 90000112600000849 90000112600000848 90000112600000857 7.59510714987
9.13154 90000112600000848 90000112600000846 90000112600000857 7.00541704554
9.16182 90000112600000846 90000112600000844 90000112600000857 6.49159774567
9.18376 90000112600000844 90000112600000843 90000112600000857 6.14490120342
9.21472 90000112600000843 90000112600000842 90000112600000857 6.01075739884
9.2361 90000112600000842 90000112600000841 90000112600000857 5.84661374788
9.26187 90000112600000841 90000112600000840 90000112600000857 5.52976580795
9.2742 90000112600000840 90000112600000839 90000112600000857 5.22758097313
9.32805 90000112600000839 90000112600000838 90000112600000857 4.99593346816
9.37181 90000112600000838 90000112600000837 90000112600000857 4.93938066349
9.41659 90000112600000837 90000112600000836 90000112600000857 4.66451770247
9.43974 90000112600000836 90000112600000835 90000112600000857 4.42803373661
9.57869 90000112600000835 90000112600000834 90000112600000857 4.17683491473
9.60785 90000112600000834 90000112600000833 90000112600000857 4.00794511147
9.65874 90000112600000833 90000112600000832 90000112600000857 3.93726108473
9.72198 90000112600000832 90000112600000831 90000112600000857 3.70877426464
9.0666 90000112600000870 90000112600000869 90000112600000880 6.49159774567
9.08038 90000112600000869 90000112600000868 90000112600000880 6.14490120342
9.09375 90000112600000868 90000112600000866 90000112600000880 5.84661374788
9.09898 90000112600000866 90000112600000865 90000112600000880 5.52976580795
9.19223 90000112600000865 90000112600000864 90000112600000880 5.22758097313
9.19848 90000112600000864 90000112600000863 90000112600000880 4.99593346816
9.02548 90000112600001006 90000112600001005 90000112600001011 8.01217294887
9.10671 90000112600001005 90000112600001002 90000112600001011 7.00541704554
9.13394 90000112600001002 90000112600001001 90000112600001011 6.85511726265
9.15042 90000112600001001 90000112600001000 90000112600001011 6.49159774567
9.1573 90000112600001000 90000112600000999 90000112600001011 6.14490120342
9.15956 90000112600000999 90000112600000997 90000112600001011 5.84661374788
9.18376 90000112600000997 90000112600000994 90000112600001011 4.99593346816
9.18376 90000112600000994 90000112600000993 90000112600001011 4.93938066349
9.18376 90000112600000993 90000112600000992 90000112600001011 4.66451770247
9.23988 90000112600000992 90000112600000991 90000112600001011 4.42803373661
9.26187 90000112600000991 90000112600000990 90000112600001011 4.17683491473
9.29622 90000112600000990 90000112600000987 90000112600001011 3.70877426464
9.31874 90000112600000987 90000112600000986 90000112600001011 3.49086136926
9.10415 90000112600001109 90000112600001108 90000112600001111 7.00541704554
9.24548 90000112600001108 90000112600001106 90000112600001111 6.49159774567
9.27766 90000112600001106 90000112600001093 90000112600001111 3.70877426464
9.3044 90000112600001093 90000112600001092 90000112600001111 3.49086136926
9.31083 90000112600001092 90000112600001090 90000112600001111 3.08482263583
9.32187 90000112600001090 90000112600001088 90000112600001111 2.89578500573
9.32805 90000112600001088 90000112600001085 90000112600001111 2.44422570455
9.15502 90000112600001123 90000112600001122 90000112600001132 6.01075739884
9.0098 90000112600001179 90000112600001178 90000112600001196 3.28303305796
9.04358 90000112600001178 90000112600001177 90000112600001196 3.08482263583
