logMh | fpID | subhaloID | main leaf ID | z
9.01298 80000018000008563 80000018000008562 80000018000008570 9.38877127194
9.02239 80000018000008562 80000018000008561 80000018000008570 9.00233985416
9.02855 80000018000008561 80000018000008560 80000018000008570 8.9079991856
9.09898 80000018000008560 80000018000008559 80000018000008570 8.44947629437
9.20464 80000018000008559 80000018000008558 80000018000008570 8.01217294887
9.2342 80000018000008558 80000018000008557 80000018000008570 7.59510714987
9.25828 80000018000008557 80000018000008556 80000018000008570 7.23627606617
9.31083 80000018000008556 80000018000008555 80000018000008570 7.00541704554
9.36902 80000018000008555 80000018000008554 80000018000008570 6.85511726265
9.41659 80000018000008554 80000018000008553 80000018000008570 6.49159774567
9.43617 80000018000008553 80000018000008552 80000018000008570 6.14490120342
9.4549 80000018000008552 80000018000008550 80000018000008570 5.84661374788
9.51675 80000018000008550 80000018000008549 80000018000008570 5.52976580795
9.5956 80000018000008549 80000018000008548 80000018000008570 5.22758097313
9.66088 80000018000008548 80000018000008547 80000018000008570 4.99593346816
9.67629 80000018000008547 80000018000008546 80000018000008570 4.93938066349
9.87234 80000018000008546 80000018000008544 80000018000008570 4.42803373661
9.95363 80000018000008544 80000018000008543 80000018000008570 4.17683491473
10.0615 80000018000008543 80000018000008542 80000018000008570 4.00794511147
10.0924 80000018000008542 80000018000008541 80000018000008570 3.93726108473
10.1397 80000018000008541 80000018000008540 80000018000008570 3.70877426464
10.5033 80000018000008540 80000018000008538 80000018000008570 3.28303305796
10.5099 80000018000008538 80000018000008536 80000018000008570 3.00813107163
10.534 80000018000008536 80000018000008535 80000018000008570 2.89578500573
10.6177 80000018000008535 80000018000008534 80000018000008570 2.73314261732
10.6262 80000018000008534 80000018000008533 80000018000008570 2.5772902716
10.6671 80000018000008533 80000018000008532 80000018000008570 2.44422570455
10.6911 80000018000008532 80000018000008531 80000018000008570 2.31611074396
10.7131 80000018000008531 80000018000008530 80000018000008570 2.20792547238
10.7238 80000018000008530 80000018000008528 80000018000008570 2.00202813925
10.7366 80000018000008528 80000018000008526 80000018000008570 1.82268925262
10.7373 80000018000008526 80000018000008525 80000018000008570 1.74357057433
10.7641 80000018000008525 80000018000008523 80000018000008570 1.60423452207
10.7719 80000018000008523 80000018000008520 80000018000008570 1.41409822037
10.7864 80000018000008520 80000018000008519 80000018000008570 1.3575766674
10.7995 80000018000008519 80000018000008518 80000018000008570 1.30237845991
10.8107 80000018000008518 80000018000008517 80000018000008570 1.24847261425
10.8226 80000018000008517 80000018000008516 80000018000008570 1.20625808078
10.851 80000018000008516 80000018000008515 80000018000008570 1.15460271236
10.8587 80000018000008515 80000018000008514 80000018000008570 1.11415056377
10.8715 80000018000008514 80000018000008513 80000018000008570 1.07445789455
10.8727 80000018000008513 80000018000008512 80000018000008570 1.03551044566
10.8776 80000018000008512 80000018000008511 80000018000008570 0.997294225782
10.8904 80000018000008511 80000018000008509 80000018000008570 0.950531351585
10.8922 80000018000008509 80000018000008508 80000018000008570 0.923000816178
10.9005 80000018000008508 80000018000008507 80000018000008570 0.886896937575
10.9194 80000018000008507 80000018000008506 80000018000008570 0.851470900625
10.935 80000018000008506 80000018000008503 80000018000008570 0.757441372616
10.939 80000018000008503 80000018000008502 80000018000008570 0.732636182022
10.9508 80000018000008502 80000018000008501 80000018000008570 0.700106353719
10.9536 80000018000008501 80000018000008500 80000018000008570 0.676110411213
10.9539 80000018000008500 80000018000008499 80000018000008570 0.644641840685
10.9609 80000018000008499 80000018000008498 80000018000008570 0.621428745243
10.9735 80000018000008498 80000018000008497 80000018000008570 0.598543288188
10.9768 80000018000008497 80000018000008496 80000018000008570 0.575980845108
10.9895 80000018000008496 80000018000008495 80000018000008570 0.546392183141
10.9961 80000018000008495 80000018000008494 80000018000008570 0.524565820434
11.01 80000018000008494 80000018000008493 80000018000008570 0.503047523245
11.0234 80000018000008493 80000018000008492 80000018000008570 0.481832943421
11.0302 80000018000008492 80000018000008491 80000018000008570 0.460917794181
11.0399 80000018000008491 80000018000008490 80000018000008570 0.440297849248
11.0583 80000018000008490 80000018000008489 80000018000008570 0.419968941997
11.0617 80000018000008489 80000018000008488 80000018000008570 0.399926964614
11.0792 80000018000008488 80000018000008487 80000018000008570 0.38016786726
11.1027 80000018000008487 80000018000008486 80000018000008570 0.360687657262
11.1093 80000018000008486 80000018000008485 80000018000008570 0.347853841858
11.115 80000018000008485 80000018000008484 80000018000008570 0.328829724206
11.1193 80000018000008484 80000018000008483 80000018000008570 0.310074120128
11.1273 80000018000008483 80000018000008482 80000018000008570 0.291583239722
11.1406 80000018000008482 80000018000008481 80000018000008570 0.273353346578
11.1683 80000018000008481 80000018000008480 80000018000008570 0.261343256161
11.1771 80000018000008480 80000018000008475 80000018000008570 0.180385261706
11.1819 80000018000008475 80000018000008473 80000018000008570 0.152748768902
11.1819 80000018000008473 80000018000008472 80000018000008570 0.14187620397
11.1855 80000018000008472 80000018000008471 80000018000008570 0.125759332411
11.1856 80000018000008471 80000018000008469 80000018000008570 0.0994018026302
11.1892 80000018000008469 80000018000008468 80000018000008570 0.0838844307975
11.1916 80000018000008468 80000018000008467 80000018000008570 0.0736613846564
11.192 80000018000008467 80000018000008465 80000018000008570 0.0485236299818
11.1945 80000018000008465 80000018000008461 80000018000008570 2.22044604925e-16
9.00012 80000018000008603 80000018000008602 80000018000008616 5.84661374788
9.02855 80000018000008602 80000018000008600 80000018000008616 5.22758097313
10.2931 80000018000008600 80000018000008592 80000018000008616 3.49086136926
9.10671 80000018000008652 80000018000008651 80000018000008658 6.01075739884
9.23037 80000018000008651 80000018000008649 80000018000008658 5.52976580795
9.41659 80000018000008649 80000018000008648 80000018000008658 5.22758097313
9.69184 80000018000008648 80000018000008645 80000018000008658 4.66451770247
9.49011 80000018000008661 80000018000008660 80000018000008672 4.99593346816
9.55387 80000018000008660 80000018000008659 80000018000008672 4.93938066349
9.0316 80000018000008697 80000018000008696 80000018000008706 6.01075739884
9.10157 80000018000008696 80000018000008694 80000018000008706 5.52976580795
9.16407 80000018000008694 80000018000008692 80000018000008706 4.99593346816
9.24918 80000018000008692 80000018000008690 80000018000008706 4.66451770247
9.05811 80000018000008766 80000018000008765 80000018000008772 8.01217294887
9.07492 80000018000008765 80000018000008763 80000018000008772 7.23627606617
9.09375 80000018000008763 80000018000008762 80000018000008772 7.00541704554
9.12668 80000018000008762 80000018000008761 80000018000008772 6.85511726265
9.18376 80000018000008761 80000018000008760 80000018000008772 6.49159774567
9.19641 80000018000008760 80000018000008759 80000018000008772 6.14490120342
9.21671 80000018000008759 80000018000008757 80000018000008772 5.84661374788
9.40646 80000018000008757 80000018000008756 80000018000008772 5.52976580795
9.46172 80000018000008756 80000018000008755 80000018000008772 5.22758097313
9.49011 80000018000008755 80000018000008754 80000018000008772 4.99593346816
9.55296 80000018000008754 80000018000008753 80000018000008772 4.93938066349
9.61346 80000018000008753 80000018000008752 80000018000008772 4.66451770247
9.66443 80000018000008752 80000018000008751 80000018000008772 4.42803373661
9.85124 80000018000008751 80000018000008750 80000018000008772 4.17683491473
9.8891 80000018000008750 80000018000008749 80000018000008772 4.00794511147
9.8912 80000018000008749 80000018000008748 80000018000008772 3.93726108473
9.89162 80000018000008748 80000018000008747 80000018000008772 3.70877426464
9.08578 80000018000008797 80000018000008796 80000018000008805 5.52976580795
9.20464 80000018000008796 80000018000008795 80000018000008805 5.22758097313
9.01614 80000018000008808 80000018000008807 80000018000008816 4.99593346816
9.05235 80000018000008907 80000018000008906 80000018000008915 7.23627606617
9.06378 80000018000008906 80000018000008904 80000018000008915 6.85511726265
9.08038 80000018000008904 80000018000008903 80000018000008915 6.49159774567
9.12178 80000018000008903 80000018000008902 80000018000008915 6.14490120342
9.15956 80000018000008902 80000018000008900 80000018000008915 5.84661374788
9.18589 80000018000008900 80000018000008899 80000018000008915 5.52976580795
9.2342 80000018000008899 80000018000008898 80000018000008915 5.22758097313
9.24362 80000018000008898 80000018000008897 80000018000008915 4.99593346816
9.26543 80000018000008897 80000018000008896 80000018000008915 4.93938066349
9.29787 80000018000008896 80000018000008895 80000018000008915 4.66451770247
9.33415 80000018000008895 80000018000008893 80000018000008915 4.17683491473
9.38948 80000018000008893 80000018000008892 80000018000008915 4.00794511147
9.39346 80000018000008892 80000018000008887 80000018000008915 3.08482263583
9.40001 80000018000008887 80000018000008886 80000018000008915 3.00813107163
9.0066 80000018000009211 80000018000009210 80000018000009224 5.84661374788
9.12178 80000018000009210 80000018000009208 80000018000009224 5.22758097313
9.12668 80000018000009208 80000018000009206 80000018000009224 4.93938066349
9.34313 80000018000009206 80000018000009205 80000018000009224 4.66451770247
9.35771 80000018000009205 80000018000009204 80000018000009224 4.42803373661
9.41659 80000018000009204 80000018000009203 80000018000009224 4.17683491473
9.45719 80000018000009203 80000018000009202 80000018000009224 4.00794511147
9.46285 80000018000009202 80000018000009201 80000018000009224 3.93726108473
9.48157 80000018000009201 80000018000009200 80000018000009224 3.70877426464
9.54465 80000018000009200 80000018000009199 80000018000009224 3.49086136926
9.56201 80000018000009199 80000018000009194 80000018000009224 2.73314261732
9.57436 80000018000009194 80000018000009193 80000018000009224 2.5772902716
9.59059 80000018000009193 80000018000009192 80000018000009224 2.44422570455
9.65151 80000018000009192 80000018000009191 80000018000009224 2.31611074396
9.67005 80000018000009191 80000018000009190 80000018000009224 2.20792547238
9.68717 80000018000009190 80000018000009189 80000018000009224 2.1032696526
9.01298 80000018000009305 80000018000009304 80000018000009329 1.82268925262
9.04653 80000018000009304 80000018000009303 80000018000009329 1.74357057433
9.06939 80000018000009552 80000018000009551 80000018000009562 7.59510714987
9.08038 80000018000009551 80000018000009550 80000018000009562 7.23627606617
9.17073 80000018000009550 80000018000009549 80000018000009562 7.00541704554
9.19013 80000018000009549 80000018000009548 80000018000009562 6.85511726265
9.21869 80000018000009548 80000018000009547 80000018000009562 6.49159774567
9.26896 80000018000009547 80000018000009546 80000018000009562 6.14490120342
9.31083 80000018000009546 80000018000009545 80000018000009562 6.01075739884
9.39346 80000018000009545 80000018000009543 80000018000009562 5.52976580795
9.45145 80000018000009543 80000018000009542 80000018000009562 5.22758097313
9.49744 80000018000009542 80000018000009541 80000018000009562 4.99593346816
9.5256 80000018000009541 80000018000009540 80000018000009562 4.93938066349
9.66866 80000018000009540 80000018000009539 80000018000009562 4.66451770247
9.76613 80000018000009539 80000018000009538 80000018000009562 4.42803373661
9.87102 80000018000009538 80000018000009537 80000018000009562 4.17683491473
9.90484 80000018000009537 80000018000009534 80000018000009562 3.70877426464
9.93809 80000018000009534 80000018000009533 80000018000009562 3.49086136926
9.96863 80000018000009533 80000018000009532 80000018000009562 3.28303305796
9.9756 80000018000009532 80000018000009531 80000018000009562 3.08482263583
9.97767 80000018000009531 80000018000009530 80000018000009562 3.00813107163
10.006 80000018000009530 80000018000009528 80000018000009562 2.73314261732
10.0199 80000018000009528 80000018000009527 80000018000009562 2.5772902716
10.0343 80000018000009527 80000018000009523 80000018000009562 2.1032696526
10.0506 80000018000009523 80000018000009522 80000018000009562 2.00202813925
10.0561 80000018000009522 80000018000009520 80000018000009562 1.82268925262
10.0705 80000018000009520 80000018000009519 80000018000009562 1.74357057433
10.0828 80000018000009519 80000018000009518 80000018000009562 1.66666955611
10.0932 80000018000009518 80000018000009517 80000018000009562 1.60423452207
10.0972 80000018000009517 80000018000009516 80000018000009562 1.53123902916
10.1049 80000018000009516 80000018000009515 80000018000009562 1.47197484527
10.1205 80000018000009515 80000018000009513 80000018000009562 1.3575766674
10.1303 80000018000009513 80000018000009512 80000018000009562 1.30237845991
10.1366 80000018000009512 80000018000009511 80000018000009562 1.24847261425
10.152 80000018000009511 80000018000009510 80000018000009562 1.20625808078
10.1568 80000018000009510 80000018000009509 80000018000009562 1.15460271236
10.1589 80000018000009509 80000018000009506 80000018000009562 1.03551044566
10.169 80000018000009506 80000018000009505 80000018000009562 0.997294225782
10.1694 80000018000009505 80000018000009504 80000018000009562 0.987852810816
10.1773 80000018000009504 80000018000009503 80000018000009562 0.950531351585
10.1827 80000018000009503 80000018000009502 80000018000009562 0.923000816178
10.1829 80000018000009502 80000018000009500 80000018000009562 0.851470900625
10.192 80000018000009500 80000018000009499 80000018000009562 0.816709979012
10.1964 80000018000009499 80000018000009497 80000018000009562 0.757441372616
10.2022 80000018000009497 80000018000009496 80000018000009562 0.732636182022
10.2053 80000018000009496 80000018000009493 80000018000009562 0.644641840685
10.2121 80000018000009493 80000018000009492 80000018000009562 0.621428745243
10.2226 80000018000009492 80000018000009491 80000018000009562 0.598543288188
10.2327 80000018000009491 80000018000009489 80000018000009562 0.546392183141
10.2369 80000018000009489 80000018000009485 80000018000009562 0.460917794181
9.07492 80000018000009587 80000018000009586 80000018000009597 5.52976580795
9.08845 80000018000009586 80000018000009585 80000018000009597 5.22758097313
