logMh | fpID | subhaloID | main leaf ID | z
9.04062 80000312100000092 80000312100000091 80000312100000097 6.14490120342
9.14108 80000312100000091 80000312100000090 80000312100000097 6.01075739884
9.16407 80000312100000090 80000312100000088 80000312100000097 5.52976580795
9.24175 80000312100000088 80000312100000087 80000312100000097 5.22758097313
9.43015 80000312100000087 80000312100000086 80000312100000097 4.99593346816
9.43974 80000312100000086 80000312100000085 80000312100000097 4.93938066349
9.66584 80000312100000085 80000312100000084 80000312100000097 4.66451770247
9.74018 80000312100000084 80000312100000083 80000312100000097 4.42803373661
9.83673 80000312100000083 80000312100000082 80000312100000097 4.17683491473
9.95472 80000312100000082 80000312100000081 80000312100000097 4.00794511147
10.1021 80000312100000081 80000312100000080 80000312100000097 3.93726108473
10.2363 80000312100000080 80000312100000079 80000312100000097 3.70877426464
10.3343 80000312100000079 80000312100000078 80000312100000097 3.49086136926
10.3719 80000312100000078 80000312100000077 80000312100000097 3.28303305796
10.3742 80000312100000077 80000312100000075 80000312100000097 3.00813107163
10.3913 80000312100000075 80000312100000074 80000312100000097 2.89578500573
10.4191 80000312100000074 80000312100000073 80000312100000097 2.73314261732
10.4622 80000312100000073 80000312100000072 80000312100000097 2.5772902716
10.4747 80000312100000072 80000312100000068 80000312100000097 2.1032696526
10.5052 80000312100000068 80000312100000067 80000312100000097 2.00202813925
10.519 80000312100000067 80000312100000066 80000312100000097 1.90408954353
10.5588 80000312100000066 80000312100000065 80000312100000097 1.82268925262
10.5629 80000312100000065 80000312100000064 80000312100000097 1.74357057433
10.6241 80000312100000064 80000312100000063 80000312100000097 1.66666955611
10.627 80000312100000063 80000312100000062 80000312100000097 1.60423452207
10.6876 80000312100000062 80000312100000061 80000312100000097 1.53123902916
10.7177 80000312100000061 80000312100000060 80000312100000097 1.47197484527
10.7178 80000312100000060 80000312100000059 80000312100000097 1.41409822037
10.7548 80000312100000059 80000312100000058 80000312100000097 1.3575766674
10.7748 80000312100000058 80000312100000057 80000312100000097 1.30237845991
10.7968 80000312100000057 80000312100000056 80000312100000097 1.24847261425
10.8357 80000312100000056 80000312100000053 80000312100000097 1.11415056377
10.8381 80000312100000053 80000312100000052 80000312100000097 1.07445789455
10.8538 80000312100000052 80000312100000051 80000312100000097 1.03551044566
10.9235 80000312100000051 80000312100000050 80000312100000097 0.997294225782
10.9622 80000312100000050 80000312100000048 80000312100000097 0.950531351585
10.9653 80000312100000048 80000312100000046 80000312100000097 0.886896937575
10.9813 80000312100000046 80000312100000045 80000312100000097 0.851470900625
10.9827 80000312100000045 80000312100000043 80000312100000097 0.791068248946
11.0242 80000312100000043 80000312100000042 80000312100000097 0.757441372616
11.0356 80000312100000042 80000312100000041 80000312100000097 0.732636182022
11.0867 80000312100000041 80000312100000040 80000312100000097 0.700106353719
11.091 80000312100000040 80000312100000039 80000312100000097 0.676110411213
11.1003 80000312100000039 80000312100000037 80000312100000097 0.621428745243
11.1158 80000312100000037 80000312100000036 80000312100000097 0.598543288188
11.1257 80000312100000036 80000312100000035 80000312100000097 0.575980845108
11.1291 80000312100000035 80000312100000034 80000312100000097 0.546392183141
11.1369 80000312100000034 80000312100000033 80000312100000097 0.524565820434
11.1415 80000312100000033 80000312100000032 80000312100000097 0.503047523245
11.1499 80000312100000032 80000312100000031 80000312100000097 0.481832943421
11.162 80000312100000031 80000312100000030 80000312100000097 0.460917794181
11.1623 80000312100000030 80000312100000029 80000312100000097 0.440297849248
11.1769 80000312100000029 80000312100000028 80000312100000097 0.419968941997
11.1794 80000312100000028 80000312100000027 80000312100000097 0.399926964614
11.1833 80000312100000027 80000312100000026 80000312100000097 0.38016786726
11.1941 80000312100000026 80000312100000021 80000312100000097 0.291583239722
11.1957 80000312100000021 80000312100000020 80000312100000097 0.273353346578
11.1985 80000312100000020 80000312100000019 80000312100000097 0.261343256161
11.203 80000312100000019 80000312100000018 80000312100000097 0.243540181555
11.2057 80000312100000018 80000312100000017 80000312100000097 0.22598838626
11.2073 80000312100000017 80000312100000016 80000312100000097 0.214425035514
11.2101 80000312100000016 80000312100000015 80000312100000097 0.197284182376
11.2104 80000312100000015 80000312100000007 80000312100000097 0.0838844307975
11.2106 80000312100000007 80000312100000005 80000312100000097 0.0585073227945
11.2148 80000312100000005 80000312100000004 80000312100000097 0.0485236299818
11.2201 80000312100000004 80000312100000002 80000312100000097 0.0239744283828
11.222 80000312100000002 80000312100000001 80000312100000097 0.00952166696794
11.2293 80000312100000001 80000312100000000 80000312100000097 2.22044604925e-16
9.08309 80000312100000107 80000312100000106 80000312100000115 5.84661374788
9.08578 80000312100000106 80000312100000105 80000312100000115 5.52976580795
9.12424 80000312100000105 80000312100000104 80000312100000115 5.22758097313
9.26008 80000312100000191 80000312100000190 80000312100000204 4.42803373661
10.3599 80000312100000190 80000312100000184 80000312100000204 3.08482263583
9.0098 80000312100000276 80000312100000275 80000312100000284 7.23627606617
9.04062 80000312100000275 80000312100000274 80000312100000284 7.00541704554
9.08845 80000312100000274 80000312100000273 80000312100000284 6.85511726265
9.2342 80000312100000273 80000312100000272 80000312100000284 6.49159774567
9.25466 80000312100000272 80000312100000271 80000312100000284 6.14490120342
9.32497 80000312100000271 80000312100000270 80000312100000284 6.01075739884
9.37457 80000312100000270 80000312100000269 80000312100000284 5.84661374788
9.40131 80000312100000269 80000312100000268 80000312100000284 5.52976580795
9.45719 80000312100000268 80000312100000267 80000312100000284 5.22758097313
9.46621 80000312100000267 80000312100000266 80000312100000284 4.99593346816
9.52462 80000312100000266 80000312100000265 80000312100000284 4.93938066349
9.52851 80000312100000265 80000312100000263 80000312100000284 4.42803373661
9.60866 80000312100000263 80000312100000262 80000312100000284 4.17683491473
9.63593 80000312100000262 80000312100000261 80000312100000284 4.00794511147
9.02548 80000312100000319 80000312100000318 80000312100000331 2.31611074396
9.02855 80000312100000373 80000312100000372 80000312100000384 3.08482263583
9.05235 80000312100000372 80000312100000371 80000312100000384 3.00813107163
9.05811 80000312100000371 80000312100000370 80000312100000384 2.89578500573
9.1193 80000312100000370 80000312100000369 80000312100000384 2.73314261732
9.18802 80000312100000369 80000312100000366 80000312100000384 2.31611074396
9.04653 80000312100000518 80000312100000517 80000312100000527 3.49086136926
9.09898 80000312100000517 80000312100000516 80000312100000527 3.28303305796
9.25466 80000312100000516 80000312100000515 80000312100000527 3.08482263583
9.2828 80000312100000515 80000312100000514 80000312100000527 3.00813107163
9.2929 80000312100000514 80000312100000513 80000312100000527 2.89578500573
9.36199 80000312100000513 80000312100000511 80000312100000527 2.5772902716
9.36902 80000312100000511 80000312100000510 80000312100000527 2.44422570455
9.37319 80000312100000510 80000312100000508 80000312100000527 2.20792547238
9.43974 80000312100000508 80000312100000503 80000312100000527 1.74357057433
9.0066 80000312100000567 80000312100000566 80000312100000575 4.42803373661
9.08845 80000312100000566 80000312100000561 80000312100000575 3.49086136926
9.08845 80000312100000561 80000312100000556 80000312100000575 2.73314261732
9.12668 80000312100000556 80000312100000555 80000312100000575 2.5772902716
9.12668 80000312100000555 80000312100000554 80000312100000575 2.44422570455
9.13154 80000312100000554 80000312100000553 80000312100000575 2.31611074396
9.14344 80000312100000553 80000312100000552 80000312100000575 2.20792547238
9.07492 80000312100000660 80000312100000659 80000312100000672 4.66451770247
9.11681 80000312100000659 80000312100000658 80000312100000672 4.42803373661
9.2026 80000312100000658 80000312100000657 80000312100000672 4.17683491473
9.23037 80000312100000657 80000312100000656 80000312100000672 4.00794511147
9.24733 80000312100000656 80000312100000654 80000312100000672 3.70877426464
9.26543 80000312100000654 80000312100000653 80000312100000672 3.49086136926
9.27246 80000312100000653 80000312100000652 80000312100000672 3.28303305796
9.27938 80000312100000652 80000312100000651 80000312100000672 3.08482263583
9.32497 80000312100000651 80000312100000648 80000312100000672 2.73314261732
9.37042 80000312100000648 80000312100000647 80000312100000672 2.5772902716
9.39871 80000312100000647 80000312100000646 80000312100000672 2.44422570455
9.42527 80000312100000646 80000312100000644 80000312100000672 2.20792547238
9.42527 80000312100000644 80000312100000643 80000312100000672 2.1032696526
9.43136 80000312100000643 80000312100000641 80000312100000672 1.90408954353
9.43257 80000312100000641 80000312100000638 80000312100000672 1.66666955611
9.4503 80000312100000638 80000312100000635 80000312100000672 1.47197484527
9.48265 80000312100000635 80000312100000634 80000312100000672 1.41409822037
9.49536 80000312100000634 80000312100000633 80000312100000672 1.3575766674
9.03763 80000312100000723 80000312100000722 80000312100000738 3.70877426464
9.14344 80000312100000722 80000312100000720 80000312100000738 3.28303305796
9.18802 80000312100000720 80000312100000713 80000312100000738 2.31611074396
9.21869 80000312100000713 80000312100000712 80000312100000738 2.20792547238
9.24175 80000312100000712 80000312100000711 80000312100000738 2.1032696526
9.03463 80000312100000899 80000312100000898 80000312100000909 1.90408954353
9.04945 80000312100000898 80000312100000897 80000312100000909 1.82268925262
9.00012 80000312100001041 80000312100001040 80000312100001052 4.93938066349
9.04062 80000312100001040 80000312100001039 80000312100001052 4.66451770247
9.0666 80000312100001039 80000312100001038 80000312100001052 4.42803373661
9.16852 80000312100001038 80000312100001037 80000312100001052 4.17683491473
9.23799 80000312100001037 80000312100001036 80000312100001052 4.00794511147
9.31717 80000312100001036 80000312100001034 80000312100001052 3.70877426464
9.4606 80000312100001034 80000312100001033 80000312100001052 3.49086136926
9.55204 80000312100001033 80000312100001032 80000312100001052 3.28303305796
9.72935 80000312100001032 80000312100001031 80000312100001052 3.08482263583
9.80619 80000312100001031 80000312100001028 80000312100001052 2.73314261732
9.81926 80000312100001028 80000312100001017 80000312100001052 1.60423452207
9.83099 80000312100001017 80000312100001013 80000312100001052 1.3575766674
9.83958 80000312100001013 80000312100001012 80000312100001052 1.30237845991
9.84893 80000312100001012 80000312100001010 80000312100001052 1.20625808078
9.02239 80000312100001108 80000312100001107 80000312100001117 4.93938066349
9.05811 80000312100001107 80000312100001106 80000312100001117 4.66451770247
9.0666 80000312100001106 80000312100001105 80000312100001117 4.42803373661
9.08845 80000312100001105 80000312100001101 80000312100001117 3.70877426464
9.0066 80000312100001182 80000312100001181 80000312100001200 2.73314261732
9.02548 80000312100001181 80000312100001180 80000312100001200 2.5772902716
9.09375 80000312100001180 80000312100001179 80000312100001200 2.44422570455
9.10671 80000312100001179 80000312100001178 80000312100001200 2.31611074396
9.01614 80000312100001338 80000312100001337 80000312100001357 4.00794511147
9.14811 80000312100001337 80000312100001335 80000312100001357 3.70877426464
9.18802 80000312100001335 80000312100001334 80000312100001357 3.49086136926
9.48799 80000312100001334 80000312100001332 80000312100001357 3.08482263583
9.6925 80000312100001332 80000312100001330 80000312100001357 2.89578500573
9.99088 80000312100001330 80000312100001328 80000312100001357 2.44422570455
10.073 80000312100001328 80000312100001327 80000312100001357 2.31611074396
10.1368 80000312100001327 80000312100001326 80000312100001357 2.20792547238
10.1552 80000312100001326 80000312100001325 80000312100001357 2.1032696526
10.2157 80000312100001325 80000312100001323 80000312100001357 1.90408954353
10.2561 80000312100001323 80000312100001322 80000312100001357 1.82268925262
10.2847 80000312100001322 80000312100001319 80000312100001357 1.60423452207
10.3005 80000312100001319 80000312100001318 80000312100001357 1.53123902916
9.07216 80000312100001406 80000312100001405 80000312100001411 4.99593346816
9.30278 80000312100001405 80000312100001401 80000312100001411 4.00794511147
9.34756 80000312100001401 80000312100001400 80000312100001411 3.93726108473
9.43377 80000312100001400 80000312100001399 80000312100001411 3.70877426464
9.56646 80000312100001399 80000312100001398 80000312100001411 3.49086136926
10.0255 80000312100001398 80000312100001392 80000312100001411 2.5772902716
9.21272 80000312100001419 80000312100001418 80000312100001419 4.42803373661
9.0098 80000312100001455 80000312100001454 80000312100001471 3.93726108473
9.01298 80000312100001454 80000312100001453 80000312100001471 3.70877426464
9.26008 80000312100001453 80000312100001451 80000312100001471 3.28303305796
9.67767 80000312100001451 80000312100001449 80000312100001471 3.00813107163
9.01614 80000312100001503 80000312100001502 80000312100001515 3.28303305796
9.0316 80000312100001502 80000312100001501 80000312100001515 3.08482263583
9.08038 80000312100001501 80000312100001498 80000312100001515 2.73314261732
9.10926 80000312100001498 80000312100001497 80000312100001515 2.5772902716
9.15502 80000312100001497 80000312100001496 80000312100001515 2.44422570455
9.0098 80000312100001626 80000312100001625 80000312100001646 2.31611074396
9.02855 80000312100001625 80000312100001622 80000312100001646 2.00202813925
9.06096 80000312100001867 80000312100001866 80000312100001875 3.70877426464
9.11431 80000312100001866 80000312100001865 80000312100001875 3.49086136926
