logMh | fpID | subhaloID | main leaf ID | z
9.04653 90000200900000098 90000200900000097 90000200900000102 8.01217294887
9.18162 90000200900000097 90000200900000096 90000200900000102 7.59510714987
9.25648 90000200900000096 90000200900000095 90000200900000102 7.23627606617
9.2845 90000200900000095 90000200900000094 90000200900000102 7.00541704554
9.30278 90000200900000094 90000200900000093 90000200900000102 6.85511726265
9.32187 90000200900000093 90000200900000092 90000200900000102 6.49159774567
9.38815 90000200900000092 90000200900000091 90000200900000102 6.14490120342
9.44564 90000200900000091 90000200900000089 90000200900000102 5.84661374788
9.47941 90000200900000089 90000200900000088 90000200900000102 5.52976580795
9.61106 90000200900000088 90000200900000087 90000200900000102 5.22758097313
9.69647 90000200900000087 90000200900000086 90000200900000102 4.99593346816
9.69843 90000200900000086 90000200900000085 90000200900000102 4.93938066349
9.76106 90000200900000085 90000200900000084 90000200900000102 4.66451770247
9.80209 90000200900000084 90000200900000083 90000200900000102 4.42803373661
9.87539 90000200900000083 90000200900000082 90000200900000102 4.17683491473
9.90034 90000200900000082 90000200900000081 90000200900000102 4.00794511147
9.91369 90000200900000081 90000200900000080 90000200900000102 3.93726108473
9.95508 90000200900000080 90000200900000079 90000200900000102 3.70877426464
9.98887 90000200900000079 90000200900000078 90000200900000102 3.49086136926
10.0037 90000200900000078 90000200900000077 90000200900000102 3.28303305796
10.027 90000200900000077 90000200900000076 90000200900000102 3.08482263583
10.034 90000200900000076 90000200900000074 90000200900000102 2.89578500573
10.089 90000200900000074 90000200900000073 90000200900000102 2.73314261732
10.1773 90000200900000073 90000200900000072 90000200900000102 2.5772902716
10.2353 90000200900000072 90000200900000071 90000200900000102 2.44422570455
10.3089 90000200900000071 90000200900000070 90000200900000102 2.31611074396
10.368 90000200900000070 90000200900000069 90000200900000102 2.20792547238
10.3979 90000200900000069 90000200900000068 90000200900000102 2.1032696526
10.4389 90000200900000068 90000200900000067 90000200900000102 2.00202813925
10.4598 90000200900000067 90000200900000066 90000200900000102 1.90408954353
10.4888 90000200900000066 90000200900000064 90000200900000102 1.74357057433
10.8301 90000200900000064 90000200900000058 90000200900000102 1.3575766674
10.8738 90000200900000058 90000200900000057 90000200900000102 1.30237845991
10.901 90000200900000057 90000200900000056 90000200900000102 1.24847261425
10.9129 90000200900000056 90000200900000055 90000200900000102 1.20625808078
10.9162 90000200900000055 90000200900000054 90000200900000102 1.15460271236
10.9451 90000200900000054 90000200900000052 90000200900000102 1.07445789455
10.9589 90000200900000052 90000200900000051 90000200900000102 1.03551044566
10.9776 90000200900000051 90000200900000050 90000200900000102 0.997294225782
10.9815 90000200900000050 90000200900000049 90000200900000102 0.987852810816
10.9821 90000200900000049 90000200900000048 90000200900000102 0.950531351585
10.9984 90000200900000048 90000200900000046 90000200900000102 0.886896937575
11.0049 90000200900000046 90000200900000045 90000200900000102 0.851470900625
11.0145 90000200900000045 90000200900000042 90000200900000102 0.757441372616
11.0249 90000200900000042 90000200900000040 90000200900000102 0.700106353719
11.0478 90000200900000040 90000200900000039 90000200900000102 0.676110411213
11.0555 90000200900000039 90000200900000038 90000200900000102 0.644641840685
11.0592 90000200900000038 90000200900000036 90000200900000102 0.598543288188
11.0713 90000200900000036 90000200900000035 90000200900000102 0.575980845108
11.0856 90000200900000035 90000200900000034 90000200900000102 0.546392183141
11.0863 90000200900000034 90000200900000033 90000200900000102 0.524565820434
11.093 90000200900000033 90000200900000032 90000200900000102 0.503047523245
11.1099 90000200900000032 90000200900000031 90000200900000102 0.481832943421
11.1212 90000200900000031 90000200900000030 90000200900000102 0.460917794181
11.1253 90000200900000030 90000200900000029 90000200900000102 0.440297849248
11.1328 90000200900000029 90000200900000028 90000200900000102 0.419968941997
11.1455 90000200900000028 90000200900000027 90000200900000102 0.399926964614
11.1515 90000200900000027 90000200900000026 90000200900000102 0.38016786726
11.1568 90000200900000026 90000200900000025 90000200900000102 0.360687657262
11.163 90000200900000025 90000200900000022 90000200900000102 0.310074120128
11.1716 90000200900000022 90000200900000021 90000200900000102 0.291583239722
11.1802 90000200900000021 90000200900000020 90000200900000102 0.273353346578
11.1886 90000200900000020 90000200900000019 90000200900000102 0.261343256161
11.1999 90000200900000019 90000200900000018 90000200900000102 0.243540181555
11.202 90000200900000018 90000200900000017 90000200900000102 0.22598838626
11.2119 90000200900000017 90000200900000016 90000200900000102 0.214425035514
11.2137 90000200900000016 90000200900000005 90000200900000102 0.0585073227945
11.2168 90000200900000005 90000200900000003 90000200900000102 0.0337243718735
11.2216 90000200900000003 90000200900000001 90000200900000102 0.00952166696794
11.2221 90000200900000001 90000200900000000 90000200900000102 2.22044604925e-16
9.12912 90000200900000212 90000200900000211 90000200900000216 5.22758097313
9.54278 90000200900000211 90000200900000210 90000200900000216 4.99593346816
9.66936 90000200900000210 90000200900000208 90000200900000216 4.66451770247
9.67629 90000200900000208 90000200900000200 90000200900000216 3.00813107163
9.67767 90000200900000200 90000200900000199 90000200900000216 2.89578500573
9.02239 90000200900000229 90000200900000228 90000200900000236 6.49159774567
9.11431 90000200900000228 90000200900000227 90000200900000236 6.14490120342
9.14811 90000200900000227 90000200900000226 90000200900000236 6.01075739884
9.15273 90000200900000226 90000200900000225 90000200900000236 5.84661374788
9.23037 90000200900000225 90000200900000224 90000200900000236 5.52976580795
9.24548 90000200900000224 90000200900000223 90000200900000236 5.22758097313
9.02855 90000200900000275 90000200900000274 90000200900000284 3.08482263583
9.04358 90000200900000274 90000200900000273 90000200900000284 3.00813107163
9.04653 90000200900000273 90000200900000272 90000200900000284 2.89578500573
9.0066 90000200900000305 90000200900000304 90000200900000312 3.70877426464
9.09898 90000200900000304 90000200900000302 90000200900000312 3.28303305796
9.23229 90000200900000302 90000200900000298 90000200900000312 2.73314261732
9.38005 90000200900000298 90000200900000296 90000200900000312 2.44422570455
9.42527 90000200900000296 90000200900000295 90000200900000312 2.31611074396
9.55296 90000200900000295 90000200900000294 90000200900000312 2.20792547238
9.61106 90000200900000294 90000200900000293 90000200900000312 2.1032696526
9.72935 90000200900000293 90000200900000292 90000200900000312 2.00202813925
9.7354 90000200900000292 90000200900000289 90000200900000312 1.74357057433
9.04945 90000200900000365 90000200900000364 90000200900000379 3.08482263583
9.10671 90000200900000364 90000200900000363 90000200900000379 3.00813107163
9.12178 90000200900000363 90000200900000361 90000200900000379 2.73314261732
9.12912 90000200900000361 90000200900000360 90000200900000379 2.5772902716
9.05524 90000200900000434 90000200900000433 90000200900000445 4.66451770247
9.07216 90000200900000433 90000200900000432 90000200900000445 4.42803373661
9.12912 90000200900000432 90000200900000431 90000200900000445 4.17683491473
9.16407 90000200900000431 90000200900000429 90000200900000445 3.93726108473
9.17729 90000200900000429 90000200900000428 90000200900000445 3.70877426464
9.21272 90000200900000428 90000200900000427 90000200900000445 3.49086136926
9.21869 90000200900000427 90000200900000426 90000200900000445 3.28303305796
9.25648 90000200900000426 90000200900000424 90000200900000445 3.00813107163
9.32805 90000200900000424 90000200900000422 90000200900000445 2.73314261732
9.37595 90000200900000422 90000200900000419 90000200900000445 2.31611074396
9.01614 90000200900000448 90000200900000447 90000200900000461 2.5772902716
9.01928 90000200900000542 90000200900000541 90000200900000553 4.66451770247
9.06378 90000200900000541 90000200900000540 90000200900000553 4.42803373661
9.06939 90000200900000540 90000200900000538 90000200900000553 4.00794511147
9.09898 90000200900000538 90000200900000537 90000200900000553 3.93726108473
9.24918 90000200900000537 90000200900000535 90000200900000553 3.49086136926
9.29457 90000200900000535 90000200900000533 90000200900000553 3.08482263583
9.35338 90000200900000533 90000200900000532 90000200900000553 3.00813107163
9.43015 90000200900000532 90000200900000531 90000200900000553 2.89578500573
9.53044 90000200900000531 90000200900000530 90000200900000553 2.73314261732
9.60136 90000200900000530 90000200900000529 90000200900000553 2.5772902716
9.78314 90000200900000529 90000200900000528 90000200900000553 2.44422570455
9.96262 90000200900000528 90000200900000526 90000200900000553 2.20792547238
10.0483 90000200900000526 90000200900000525 90000200900000553 2.1032696526
10.0836 90000200900000525 90000200900000524 90000200900000553 2.00202813925
10.1281 90000200900000524 90000200900000523 90000200900000553 1.90408954353
10.2003 90000200900000523 90000200900000522 90000200900000553 1.82268925262
10.3593 90000200900000522 90000200900000520 90000200900000553 1.66666955611
10.3863 90000200900000520 90000200900000519 90000200900000553 1.60423452207
10.7356 90000200900000519 90000200900000516 90000200900000553 1.41409822037
10.8931 90000200900000516 90000200900000510 90000200900000553 1.11415056377
9.0066 90000200900000578 90000200900000577 90000200900000595 2.89578500573
9.06378 90000200900000747 90000200900000746 90000200900000750 7.00541704554
9.18802 90000200900000746 90000200900000744 90000200900000750 6.49159774567
9.25828 90000200900000744 90000200900000743 90000200900000750 6.14490120342
9.2811 90000200900000743 90000200900000742 90000200900000750 6.01075739884
9.3156 90000200900000742 90000200900000741 90000200900000750 5.84661374788
9.38277 90000200900000741 90000200900000740 90000200900000750 5.52976580795
9.40001 90000200900000740 90000200900000739 90000200900000750 5.22758097313
9.4549 90000200900000739 90000200900000738 90000200900000750 4.99593346816
9.4549 90000200900000738 90000200900000737 90000200900000750 4.93938066349
9.54928 90000200900000737 90000200900000736 90000200900000750 4.66451770247
9.57349 90000200900000736 90000200900000735 90000200900000750 4.42803373661
9.63969 90000200900000735 90000200900000734 90000200900000750 4.17683491473
9.67698 90000200900000734 90000200900000733 90000200900000750 4.00794511147
9.70169 90000200900000733 90000200900000732 90000200900000750 3.93726108473
9.7226 90000200900000732 90000200900000731 90000200900000750 3.70877426464
9.75017 90000200900000731 90000200900000730 90000200900000750 3.49086136926
9.76049 90000200900000730 90000200900000729 90000200900000750 3.28303305796
9.77935 90000200900000729 90000200900000728 90000200900000750 3.08482263583
9.79534 90000200900000728 90000200900000727 90000200900000750 3.00813107163
9.85124 90000200900000727 90000200900000726 90000200900000750 2.89578500573
9.86793 90000200900000726 90000200900000725 90000200900000750 2.73314261732
9.86838 90000200900000725 90000200900000724 90000200900000750 2.5772902716
9.91845 90000200900000724 90000200900000723 90000200900000750 2.44422570455
9.94888 90000200900000723 90000200900000722 90000200900000750 2.31611074396
10.4721 90000200900000722 90000200900000713 90000200900000750 1.53123902916
10.5397 90000200900000713 90000200900000712 90000200900000750 1.47197484527
9.0066 90000200900000936 90000200900000935 90000200900000949 2.00202813925
9.0316 90000200900000935 90000200900000934 90000200900000949 1.90408954353
9.03763 90000200900000934 90000200900000933 90000200900000949 1.82268925262
9.01928 90000200900001090 90000200900001089 90000200900001099 7.23627606617
9.02548 90000200900001089 90000200900001088 90000200900001099 7.00541704554
9.02548 90000200900001088 90000200900001087 90000200900001099 6.85511726265
9.04358 90000200900001087 90000200900001086 90000200900001099 6.49159774567
9.07216 90000200900001086 90000200900001085 90000200900001099 6.14490120342
9.10926 90000200900001085 90000200900001082 90000200900001099 5.52976580795
9.16407 90000200900001082 90000200900001081 90000200900001099 5.22758097313
9.18589 90000200900001081 90000200900001080 90000200900001099 4.99593346816
9.19433 90000200900001080 90000200900001079 90000200900001099 4.93938066349
9.26008 90000200900001079 90000200900001078 90000200900001099 4.66451770247
9.32497 90000200900001078 90000200900001077 90000200900001099 4.42803373661
9.34609 90000200900001077 90000200900001076 90000200900001099 4.17683491473
9.37181 90000200900001076 90000200900001075 90000200900001099 4.00794511147
9.4026 90000200900001075 90000200900001074 90000200900001099 3.93726108473
9.49116 90000200900001074 90000200900001073 90000200900001099 3.70877426464
9.50771 90000200900001073 90000200900001072 90000200900001099 3.49086136926
9.57523 90000200900001072 90000200900001071 90000200900001099 3.28303305796
9.68985 90000200900001071 90000200900001070 90000200900001099 3.08482263583
9.7348 90000200900001070 90000200900001068 90000200900001099 2.89578500573
9.76332 90000200900001068 90000200900001066 90000200900001099 2.5772902716
9.78902 90000200900001066 90000200900001065 90000200900001099 2.44422570455
9.80415 90000200900001065 90000200900001064 90000200900001099 2.31611074396
9.81827 90000200900001064 90000200900001055 90000200900001099 1.53123902916
9.81877 90000200900001055 90000200900001053 90000200900001099 1.41409822037
9.82321 90000200900001053 90000200900001052 90000200900001099 1.3575766674
9.83673 90000200900001052 90000200900001051 90000200900001099 1.30237845991
9.01614 90000200900001128 90000200900001127 90000200900001137 4.17683491473
9.10157 90000200900001127 90000200900001126 90000200900001137 4.00794511147
9.15273 90000200900001126 90000200900001124 90000200900001137 3.70877426464
9.10926 90000200900001224 90000200900001223 90000200900001232 4.66451770247
9.12668 90000200900001223 90000200900001220 90000200900001232 4.00794511147
9.1573 90000200900001220 90000200900001219 90000200900001232 3.93726108473
9.17729 90000200900001219 90000200900001218 90000200900001232 3.70877426464
9.21272 90000200900001218 90000200900001217 90000200900001232 3.49086136926
9.22457 90000200900001217 90000200900001216 90000200900001232 3.28303305796
9.23988 90000200900001216 90000200900001215 90000200900001232 3.08482263583
9.26008 90000200900001215 90000200900001214 90000200900001232 3.00813107163
9.27938 90000200900001214 90000200900001213 90000200900001232 2.89578500573
9.35627 90000200900001213 90000200900001209 90000200900001232 2.31611074396
9.36763 90000200900001209 90000200900001208 90000200900001232 2.20792547238
9.37457 90000200900001208 90000200900001207 90000200900001232 2.1032696526
9.38547 90000200900001207 90000200900001206 90000200900001232 2.00202813925
9.3974 90000200900001206 90000200900001196 90000200900001232 1.30237845991
9.42771 90000200900001196 90000200900001195 90000200900001232 1.24847261425
