logMh | fpID | subhaloID | main leaf ID | z
9.03463 90000293900000093 90000293900000092 90000293900000103 6.49159774567
9.05811 90000293900000092 90000293900000091 90000293900000103 6.14490120342
9.06939 90000293900000091 90000293900000090 90000293900000103 6.01075739884
9.09898 90000293900000090 90000293900000089 90000293900000103 5.84661374788
9.17293 90000293900000089 90000293900000088 90000293900000103 5.52976580795
9.19433 90000293900000088 90000293900000087 90000293900000103 5.22758097313
9.56911 90000293900000087 90000293900000082 90000293900000103 4.17683491473
9.61504 90000293900000082 90000293900000081 90000293900000103 4.00794511147
9.63894 90000293900000081 90000293900000080 90000293900000103 3.93726108473
9.69051 90000293900000080 90000293900000079 90000293900000103 3.70877426464
9.81278 90000293900000079 90000293900000078 90000293900000103 3.49086136926
9.88868 90000293900000078 90000293900000077 90000293900000103 3.28303305796
9.94925 90000293900000077 90000293900000076 90000293900000103 3.08482263583
9.96652 90000293900000076 90000293900000075 90000293900000103 3.00813107163
9.99121 90000293900000075 90000293900000074 90000293900000103 2.89578500573
10.0439 90000293900000074 90000293900000073 90000293900000103 2.73314261732
10.0711 90000293900000073 90000293900000072 90000293900000103 2.5772902716
10.0985 90000293900000072 90000293900000071 90000293900000103 2.44422570455
10.1366 90000293900000071 90000293900000070 90000293900000103 2.31611074396
10.1602 90000293900000070 90000293900000069 90000293900000103 2.20792547238
10.1782 90000293900000069 90000293900000068 90000293900000103 2.1032696526
10.2462 90000293900000068 90000293900000067 90000293900000103 2.00202813925
10.2947 90000293900000067 90000293900000066 90000293900000103 1.90408954353
10.3358 90000293900000066 90000293900000065 90000293900000103 1.82268925262
10.3708 90000293900000065 90000293900000064 90000293900000103 1.74357057433
10.4314 90000293900000064 90000293900000063 90000293900000103 1.66666955611
10.4736 90000293900000063 90000293900000062 90000293900000103 1.60423452207
10.4818 90000293900000062 90000293900000061 90000293900000103 1.53123902916
10.4831 90000293900000061 90000293900000060 90000293900000103 1.47197484527
10.494 90000293900000060 90000293900000059 90000293900000103 1.41409822037
10.5433 90000293900000059 90000293900000058 90000293900000103 1.3575766674
10.585 90000293900000058 90000293900000057 90000293900000103 1.30237845991
10.6112 90000293900000057 90000293900000056 90000293900000103 1.24847261425
10.6282 90000293900000056 90000293900000053 90000293900000103 1.11415056377
10.659 90000293900000053 90000293900000052 90000293900000103 1.07445789455
10.6592 90000293900000052 90000293900000050 90000293900000103 0.997294225782
10.6684 90000293900000050 90000293900000049 90000293900000103 0.987852810816
10.6949 90000293900000049 90000293900000048 90000293900000103 0.950531351585
10.7089 90000293900000048 90000293900000047 90000293900000103 0.923000816178
10.734 90000293900000047 90000293900000046 90000293900000103 0.886896937575
10.7502 90000293900000046 90000293900000042 90000293900000103 0.757441372616
10.7555 90000293900000042 90000293900000041 90000293900000103 0.732636182022
10.7709 90000293900000041 90000293900000040 90000293900000103 0.700106353719
10.7853 90000293900000040 90000293900000038 90000293900000103 0.644641840685
10.7857 90000293900000038 90000293900000037 90000293900000103 0.621428745243
10.7865 90000293900000037 90000293900000036 90000293900000103 0.598543288188
10.7917 90000293900000036 90000293900000035 90000293900000103 0.575980845108
10.7997 90000293900000035 90000293900000034 90000293900000103 0.546392183141
10.8107 90000293900000034 90000293900000033 90000293900000103 0.524565820434
10.8165 90000293900000033 90000293900000032 90000293900000103 0.503047523245
10.8248 90000293900000032 90000293900000031 90000293900000103 0.481832943421
10.8483 90000293900000031 90000293900000030 90000293900000103 0.460917794181
10.8487 90000293900000030 90000293900000029 90000293900000103 0.440297849248
10.8708 90000293900000029 90000293900000028 90000293900000103 0.419968941997
10.8813 90000293900000028 90000293900000027 90000293900000103 0.399926964614
10.8947 90000293900000027 90000293900000026 90000293900000103 0.38016786726
10.9209 90000293900000026 90000293900000025 90000293900000103 0.360687657262
10.9249 90000293900000025 90000293900000024 90000293900000103 0.347853841858
10.9303 90000293900000024 90000293900000023 90000293900000103 0.328829724206
10.9481 90000293900000023 90000293900000022 90000293900000103 0.310074120128
10.9578 90000293900000022 90000293900000021 90000293900000103 0.291583239722
10.9806 90000293900000021 90000293900000020 90000293900000103 0.273353346578
10.998 90000293900000020 90000293900000019 90000293900000103 0.261343256161
11.0232 90000293900000019 90000293900000018 90000293900000103 0.243540181555
11.0404 90000293900000018 90000293900000017 90000293900000103 0.22598838626
11.0461 90000293900000017 90000293900000016 90000293900000103 0.214425035514
11.0731 90000293900000016 90000293900000014 90000293900000103 0.180385261706
11.085 90000293900000014 90000293900000013 90000293900000103 0.169252033244
11.092 90000293900000013 90000293900000007 90000293900000103 0.0838844307975
11.0925 90000293900000007 90000293900000006 90000293900000103 0.0736613846564
11.0974 90000293900000006 90000293900000003 90000293900000103 0.0337243718735
9.02855 90000293900000111 90000293900000110 90000293900000116 5.84661374788
9.29951 90000293900000110 90000293900000107 90000293900000116 4.99593346816
9.32651 90000293900000107 90000293900000105 90000293900000116 4.66451770247
9.46397 90000293900000105 90000293900000104 90000293900000116 4.42803373661
9.01614 90000293900000140 90000293900000139 90000293900000145 4.66451770247
9.10926 90000293900000139 90000293900000137 90000293900000145 4.17683491473
9.17293 90000293900000137 90000293900000136 90000293900000145 4.00794511147
9.10157 90000293900000196 90000293900000195 90000293900000209 2.44422570455
9.15273 90000293900000195 90000293900000193 90000293900000209 2.20792547238
9.00337 90000293900000295 90000293900000294 90000293900000301 6.01075739884
9.04062 90000293900000294 90000293900000293 90000293900000301 5.84661374788
9.13634 90000293900000293 90000293900000292 90000293900000301 5.52976580795
9.2087 90000293900000292 90000293900000291 90000293900000301 5.22758097313
9.29787 90000293900000291 90000293900000290 90000293900000301 4.99593346816
9.3044 90000293900000290 90000293900000289 90000293900000301 4.93938066349
9.38141 90000293900000289 90000293900000288 90000293900000301 4.66451770247
9.39214 90000293900000288 90000293900000287 90000293900000301 4.42803373661
9.4606 90000293900000287 90000293900000286 90000293900000301 4.17683491473
9.48049 90000293900000286 90000293900000285 90000293900000301 4.00794511147
9.48586 90000293900000285 90000293900000284 90000293900000301 3.93726108473
9.52657 90000293900000284 90000293900000282 90000293900000301 3.49086136926
9.54278 90000293900000282 90000293900000281 90000293900000301 3.28303305796
9.57869 90000293900000281 90000293900000279 90000293900000301 3.00813107163
9.59807 90000293900000279 90000293900000277 90000293900000301 2.73314261732
9.63442 90000293900000277 90000293900000275 90000293900000301 2.44422570455
9.02548 90000293900000464 90000293900000463 90000293900000482 2.1032696526
9.02855 90000293900000463 90000293900000461 90000293900000482 1.90408954353
9.07216 90000293900000461 90000293900000460 90000293900000482 1.82268925262
9.21869 90000293900000525 90000293900000524 90000293900000530 3.49086136926
9.25648 90000293900000524 90000293900000522 90000293900000530 3.08482263583
9.27594 90000293900000522 90000293900000521 90000293900000530 3.00813107163
9.32651 90000293900000521 90000293900000520 90000293900000530 2.89578500573
9.32805 90000293900000520 90000293900000519 90000293900000530 2.73314261732
9.40518 90000293900000519 90000293900000518 90000293900000530 2.5772902716
9.43497 90000293900000518 90000293900000516 90000293900000530 2.31611074396
9.47176 90000293900000516 90000293900000515 90000293900000530 2.20792547238
9.4964 90000293900000515 90000293900000513 90000293900000530 2.00202813925
9.82809 90000293900000513 90000293900000511 90000293900000530 1.82268925262
9.0316 90000293900000607 90000293900000606 90000293900000610 4.42803373661
9.03463 90000293900000606 90000293900000605 90000293900000610 4.17683491473
9.04062 90000293900000605 90000293900000604 90000293900000610 4.00794511147
9.04062 90000293900000604 90000293900000603 90000293900000610 3.93726108473
9.05235 90000293900000603 90000293900000602 90000293900000610 3.70877426464
9.10926 90000293900000602 90000293900000601 90000293900000610 3.49086136926
9.11179 90000293900000601 90000293900000600 90000293900000610 3.28303305796
9.14811 90000293900000600 90000293900000599 90000293900000610 3.08482263583
9.17512 90000293900000599 90000293900000598 90000293900000610 3.00813107163
9.19641 90000293900000598 90000293900000596 90000293900000610 2.73314261732
9.23229 90000293900000596 90000293900000595 90000293900000610 2.5772902716
9.41909 90000293900000595 90000293900000589 90000293900000610 1.90408954353
9.60381 90000293900000589 90000293900000582 90000293900000610 1.3575766674
11.072 90000293900000680 90000293900000679 90000293900000746 0.197284182376
9.07492 90000293900000858 90000293900000857 90000293900000865 7.59510714987
9.09898 90000293900000857 90000293900000856 90000293900000865 7.23627606617
9.18376 90000293900000856 90000293900000855 90000293900000865 7.00541704554
9.20464 90000293900000855 90000293900000853 90000293900000865 6.49159774567
9.29951 90000293900000853 90000293900000852 90000293900000865 6.14490120342
9.33866 90000293900000852 90000293900000851 90000293900000865 6.01075739884
9.42404 90000293900000851 90000293900000850 90000293900000865 5.84661374788
9.51275 90000293900000850 90000293900000849 90000293900000865 5.52976580795
9.55841 90000293900000849 90000293900000848 90000293900000865 5.22758097313
9.58298 90000293900000848 90000293900000847 90000293900000865 4.99593346816
9.60543 90000293900000847 90000293900000846 90000293900000865 4.93938066349
9.63969 90000293900000846 90000293900000845 90000293900000865 4.66451770247
9.64342 90000293900000845 90000293900000844 90000293900000865 4.42803373661
9.64416 90000293900000844 90000293900000843 90000293900000865 4.17683491473
9.69974 90000293900000843 90000293900000842 90000293900000865 4.00794511147
9.70299 90000293900000842 90000293900000841 90000293900000865 3.93726108473
9.7348 90000293900000841 90000293900000839 90000293900000865 3.49086136926
9.7678 90000293900000839 90000293900000836 90000293900000865 3.00813107163
9.7678 90000293900000836 90000293900000835 90000293900000865 2.89578500573
9.80363 90000293900000835 90000293900000834 90000293900000865 2.73314261732
9.84521 90000293900000834 90000293900000833 90000293900000865 2.5772902716
9.8666 90000293900000833 90000293900000832 90000293900000865 2.44422570455
9.88144 90000293900000832 90000293900000831 90000293900000865 2.31611074396
9.8891 90000293900000831 90000293900000830 90000293900000865 2.20792547238
9.89246 90000293900000830 90000293900000829 90000293900000865 2.1032696526
9.90888 90000293900000829 90000293900000828 90000293900000865 2.00202813925
9.92159 90000293900000828 90000293900000827 90000293900000865 1.90408954353
9.93772 90000293900000827 90000293900000826 90000293900000865 1.82268925262
9.94593 90000293900000826 90000293900000825 90000293900000865 1.74357057433
9.97422 90000293900000825 90000293900000824 90000293900000865 1.66666955611
9.98075 90000293900000824 90000293900000823 90000293900000865 1.60423452207
9.98483 90000293900000823 90000293900000822 90000293900000865 1.53123902916
10.0152 90000293900000822 90000293900000821 90000293900000865 1.47197484527
10.0155 90000293900000821 90000293900000820 90000293900000865 1.41409822037
10.0292 90000293900000820 90000293900000819 90000293900000865 1.3575766674
10.037 90000293900000819 90000293900000818 90000293900000865 1.30237845991
10.0558 90000293900000818 90000293900000817 90000293900000865 1.24847261425
10.0643 90000293900000817 90000293900000816 90000293900000865 1.20625808078
10.0844 90000293900000816 90000293900000815 90000293900000865 1.15460271236
10.1003 90000293900000815 90000293900000814 90000293900000865 1.11415056377
10.1054 90000293900000814 90000293900000813 90000293900000865 1.07445789455
10.111 90000293900000813 90000293900000812 90000293900000865 1.03551044566
10.1115 90000293900000812 90000293900000811 90000293900000865 0.997294225782
10.1218 90000293900000811 90000293900000810 90000293900000865 0.987852810816
10.1311 90000293900000810 90000293900000808 90000293900000865 0.923000816178
10.1335 90000293900000808 90000293900000807 90000293900000865 0.886896937575
10.149 90000293900000807 90000293900000806 90000293900000865 0.851470900625
10.1532 90000293900000806 90000293900000805 90000293900000865 0.816709979012
10.1536 90000293900000805 90000293900000803 90000293900000865 0.757441372616
10.1562 90000293900000803 90000293900000802 90000293900000865 0.732636182022
10.1587 90000293900000802 90000293900000801 90000293900000865 0.700106353719
10.1712 90000293900000801 90000293900000800 90000293900000865 0.676110411213
11.0854 90000293900000800 90000293900000774 90000293900000865 0.152748768902
9.01614 90000293900001024 90000293900001023 90000293900001030 4.93938066349
9.05524 90000293900001023 90000293900001021 90000293900001030 4.42803373661
9.10415 90000293900001021 90000293900001020 90000293900001030 4.17683491473
9.16407 90000293900001020 90000293900001017 90000293900001030 3.70877426464
9.24548 90000293900001017 90000293900001016 90000293900001030 3.49086136926
9.25648 90000293900001016 90000293900001015 90000293900001030 3.28303305796
9.32342 90000293900001015 90000293900001014 90000293900001030 3.08482263583
9.33111 90000293900001014 90000293900001013 90000293900001030 3.00813107163
9.33566 90000293900001013 90000293900001012 90000293900001030 2.89578500573
9.36902 90000293900001012 90000293900001011 90000293900001030 2.73314261732
9.38277 90000293900001011 90000293900001010 90000293900001030 2.5772902716
9.40518 90000293900001010 90000293900001007 90000293900001030 2.20792547238
9.42281 90000293900001007 90000293900001005 90000293900001030 2.00202813925
9.44681 90000293900001005 90000293900001004 90000293900001030 1.90408954353
9.66514 90000293900001004 90000293900001003 90000293900001030 1.82268925262
9.73239 90000293900001003 90000293900000998 90000293900001030 1.47197484527
9.7348 90000293900000998 90000293900000995 90000293900001030 1.30237845991
9.7455 90000293900000995 90000293900000994 90000293900001030 1.24847261425
9.78475 90000293900000994 90000293900000993 90000293900001030 1.20625808078
9.78849 90000293900000993 90000293900000992 90000293900001030 1.15460271236
9.00012 90000293900001064 90000293900001063 90000293900001076 4.66451770247
9.01298 90000293900001063 90000293900001059 90000293900001076 3.93726108473
9.03463 90000293900001059 90000293900001057 90000293900001076 3.49086136926
9.05811 90000293900001057 90000293900001056 90000293900001076 3.28303305796
9.10157 90000293900001056 90000293900001055 90000293900001076 3.08482263583
9.12178 90000293900001055 90000293900001054 90000293900001076 3.00813107163
9.13634 90000293900001054 90000293900001053 90000293900001076 2.89578500573
9.13634 90000293900001053 90000293900001052 90000293900001076 2.73314261732
9.14811 90000293900001052 90000293900001051 90000293900001076 2.5772902716
9.16182 90000293900001051 90000293900001050 90000293900001076 2.44422570455
9.17073 90000293900001050 90000293900001049 90000293900001076 2.31611074396
9.19641 90000293900001049 90000293900001048 90000293900001076 2.20792547238
9.22066 90000293900001048 90000293900001047 90000293900001076 2.1032696526
9.27938 90000293900001078 90000293900001077 90000293900001078 0.125759332411
9.02548 90000293900001139 90000293900001138 90000293900001152 1.74357057433
9.04945 90000293900001138 90000293900001137 90000293900001152 1.66666955611
9.07766 90000293900001137 90000293900001135 90000293900001152 1.53123902916
9.13154 90000293900001135 90000293900001134 90000293900001152 1.47197484527
9.15956 90000293900001134 90000293900001133 90000293900001152 1.41409822037
9.17293 90000293900001133 90000293900001132 90000293900001152 1.3575766674
9.17946 90000293900001132 90000293900001130 90000293900001152 1.24847261425
9.18589 90000293900001130 90000293900001129 90000293900001152 1.20625808078
9.19641 90000293900001129 90000293900001128 90000293900001152 1.15460271236
9.21072 90000293900001128 90000293900001127 90000293900001152 1.11415056377
