logMh | fpID | subhaloID | main leaf ID | z
9.0066 20000000010854153 20000000010854152 20000000010854161 6.49159774567
9.12668 20000000010854152 20000000010854151 20000000010854161 6.14490120342
9.13634 20000000010854151 20000000010854150 20000000010854161 6.01075739884
9.21671 20000000010854150 20000000010854149 20000000010854161 5.84661374788
9.41534 20000000010854149 20000000010854148 20000000010854161 5.52976580795
9.42033 20000000010854148 20000000010854145 20000000010854161 4.93938066349
9.68717 20000000010854145 20000000010854144 20000000010854161 4.66451770247
9.87583 20000000010854144 20000000010854143 20000000010854161 4.42803373661
9.91884 20000000010854143 20000000010854142 20000000010854161 4.17683491473
9.91963 20000000010854142 20000000010854141 20000000010854161 4.00794511147
9.96828 20000000010854141 20000000010854140 20000000010854161 3.93726108473
9.9882 20000000010854140 20000000010854139 20000000010854161 3.70877426464
10.0801 20000000010854139 20000000010854138 20000000010854161 3.49086136926
10.1509 20000000010854138 20000000010854137 20000000010854161 3.28303305796
10.2095 20000000010854137 20000000010854136 20000000010854161 3.08482263583
10.2311 20000000010854136 20000000010854132 20000000010854161 2.5772902716
10.2442 20000000010854132 20000000010854131 20000000010854161 2.44422570455
10.2521 20000000010854131 20000000010854130 20000000010854161 2.31611074396
10.2645 20000000010854130 20000000010854129 20000000010854161 2.20792547238
10.2785 20000000010854129 20000000010854128 20000000010854161 2.1032696526
10.3135 20000000010854128 20000000010854127 20000000010854161 2.00202813925
10.3448 20000000010854127 20000000010854126 20000000010854161 1.90408954353
10.3883 20000000010854126 20000000010854125 20000000010854161 1.82268925262
10.4016 20000000010854125 20000000010854124 20000000010854161 1.74357057433
10.4755 20000000010854124 20000000010854123 20000000010854161 1.66666955611
10.5039 20000000010854123 20000000010854122 20000000010854161 1.60423452207
10.5594 20000000010854122 20000000010854121 20000000010854161 1.53123902916
10.5737 20000000010854121 20000000010854120 20000000010854161 1.47197484527
10.6221 20000000010854120 20000000010854118 20000000010854161 1.3575766674
10.6297 20000000010854118 20000000010854116 20000000010854161 1.24847261425
10.6644 20000000010854116 20000000010854115 20000000010854161 1.20625808078
10.6978 20000000010854115 20000000010854110 20000000010854161 0.997294225782
10.7081 20000000010854110 20000000010854109 20000000010854161 0.987852810816
10.7734 20000000010854109 20000000010854108 20000000010854161 0.950531351585
10.8304 20000000010854108 20000000010854107 20000000010854161 0.923000816178
10.8574 20000000010854107 20000000010854106 20000000010854161 0.886896937575
10.8768 20000000010854106 20000000010854104 20000000010854161 0.816709979012
10.9153 20000000010854104 20000000010854102 20000000010854161 0.757441372616
10.9331 20000000010854102 20000000010854101 20000000010854161 0.732636182022
10.9476 20000000010854101 20000000010854099 20000000010854161 0.676110411213
10.9531 20000000010854099 20000000010854090 20000000010854161 0.460917794181
10.9572 20000000010854090 20000000010854089 20000000010854161 0.440297849248
10.9592 20000000010854089 20000000010854085 20000000010854161 0.360687657262
10.9627 20000000010854085 20000000010854082 20000000010854161 0.310074120128
10.9642 20000000010854082 20000000010854081 20000000010854161 0.291583239722
10.9819 20000000010854081 20000000010854080 20000000010854161 0.273353346578
10.9943 20000000010854080 20000000010854078 20000000010854161 0.243540181555
11.0046 20000000010854078 20000000010854077 20000000010854161 0.22598838626
11.0139 20000000010854077 20000000010854074 20000000010854161 0.180385261706
11.0247 20000000010854074 20000000010854072 20000000010854161 0.152748768902
11.0252 20000000010854072 20000000010854070 20000000010854161 0.125759332411
11.0397 20000000010854070 20000000010854069 20000000010854161 0.109869940459
11.0566 20000000010854069 20000000010854068 20000000010854161 0.0994018026302
11.0566 20000000010854068 20000000010854067 20000000010854161 0.0838844307975
11.0623 20000000010854067 20000000010854066 20000000010854161 0.0736613846564
11.063 20000000010854066 20000000010854065 20000000010854161 0.0585073227945
11.0654 20000000010854065 20000000010854064 20000000010854161 0.0485236299818
11.0665 20000000010854064 20000000010854063 20000000010854161 0.0337243718735
11.0744 20000000010854063 20000000010854062 20000000010854161 0.0239744283828
11.082 20000000010854062 20000000010854060 20000000010854161 2.22044604925e-16
9.00337 20000000010854198 20000000010854197 20000000010854206 6.14490120342
9.02548 20000000010854197 20000000010854196 20000000010854206 6.01075739884
9.56646 20000000010854196 20000000010854193 20000000010854206 5.22758097313
9.02855 20000000010854254 20000000010854253 20000000010854263 8.01217294887
9.05524 20000000010854253 20000000010854252 20000000010854263 7.59510714987
9.0666 20000000010854252 20000000010854251 20000000010854263 7.23627606617
9.11681 20000000010854251 20000000010854250 20000000010854263 7.00541704554
9.18802 20000000010854250 20000000010854248 20000000010854263 6.49159774567
9.21869 20000000010854248 20000000010854247 20000000010854263 6.14490120342
9.22845 20000000010854247 20000000010854246 20000000010854263 6.01075739884
9.2672 20000000010854246 20000000010854245 20000000010854263 5.84661374788
9.51774 20000000010854245 20000000010854242 20000000010854263 4.99593346816
9.08578 20000000010854413 20000000010854412 20000000010854419 4.17683491473
9.14108 20000000010854412 20000000010854411 20000000010854419 4.00794511147
9.14578 20000000010854411 20000000010854409 20000000010854419 3.70877426464
9.23229 20000000010854409 20000000010854408 20000000010854419 3.49086136926
9.25101 20000000010854408 20000000010854407 20000000010854419 3.28303305796
9.2828 20000000010854407 20000000010854406 20000000010854419 3.08482263583
9.2845 20000000010854406 20000000010854405 20000000010854419 3.00813107163
9.30602 20000000010854405 20000000010854404 20000000010854419 2.89578500573
9.33566 20000000010854404 20000000010854402 20000000010854419 2.5772902716
9.0066 20000000010854468 20000000010854467 20000000010854475 5.52976580795
9.11681 20000000010854467 20000000010854463 20000000010854475 4.66451770247
9.12912 20000000010854463 20000000010854462 20000000010854475 4.42803373661
9.26543 20000000010854462 20000000010854461 20000000010854475 4.17683491473
9.28956 20000000010854461 20000000010854460 20000000010854475 4.00794511147
9.32187 20000000010854460 20000000010854459 20000000010854475 3.93726108473
9.3634 20000000010854459 20000000010854458 20000000010854475 3.70877426464
9.74018 20000000010854458 20000000010854455 20000000010854475 3.08482263583
9.9644 20000000010854455 20000000010854454 20000000010854475 3.00813107163
10.0215 20000000010854454 20000000010854453 20000000010854475 2.73314261732
10.139 20000000010854453 20000000010854452 20000000010854475 2.5772902716
10.2319 20000000010854452 20000000010854451 20000000010854475 2.44422570455
10.251 20000000010854451 20000000010854449 20000000010854475 2.20792547238
10.2884 20000000010854449 20000000010854448 20000000010854475 2.1032696526
9.05811 20000000010854526 20000000010854525 20000000010854539 5.22758097313
9.0666 20000000010854525 20000000010854524 20000000010854539 4.99593346816
9.10157 20000000010854524 20000000010854523 20000000010854539 4.93938066349
9.1193 20000000010854523 20000000010854522 20000000010854539 4.66451770247
9.20668 20000000010854522 20000000010854521 20000000010854539 4.42803373661
9.23988 20000000010854521 20000000010854520 20000000010854539 4.17683491473
9.39081 20000000010854520 20000000010854519 20000000010854539 4.00794511147
9.42033 20000000010854519 20000000010854518 20000000010854539 3.93726108473
9.68176 20000000010854518 20000000010854516 20000000010854539 3.49086136926
9.03763 20000000010854565 20000000010854564 20000000010854578 4.17683491473
9.21272 20000000010854564 20000000010854561 20000000010854578 3.70877426464
9.09898 20000000010854638 20000000010854637 20000000010854645 5.52976580795
9.17512 20000000010854637 20000000010854636 20000000010854645 5.22758097313
9.28788 20000000010854636 20000000010854635 20000000010854645 4.99593346816
9.30763 20000000010854635 20000000010854634 20000000010854645 4.93938066349
9.42893 20000000010854634 20000000010854633 20000000010854645 4.66451770247
9.44329 20000000010854633 20000000010854630 20000000010854645 4.00794511147
9.47505 20000000010854630 20000000010854629 20000000010854645 3.93726108473
9.47615 20000000010854629 20000000010854627 20000000010854645 3.49086136926
9.48586 20000000010854627 20000000010854626 20000000010854645 3.28303305796
9.05235 20000000010854668 20000000010854667 20000000010854668 2.73314261732
9.08845 20000000010854772 20000000010854771 20000000010854782 4.99593346816
9.16852 20000000010854771 20000000010854770 20000000010854782 4.93938066349
9.2811 20000000010854770 20000000010854769 20000000010854782 4.66451770247
9.35338 20000000010854769 20000000010854768 20000000010854782 4.42803373661
9.3634 20000000010854768 20000000010854766 20000000010854782 4.00794511147
9.37732 20000000010854766 20000000010854765 20000000010854782 3.93726108473
9.40131 20000000010854765 20000000010854764 20000000010854782 3.70877426464
9.42527 20000000010854764 20000000010854763 20000000010854782 3.49086136926
