logMh | fpID | subhaloID | main leaf ID | z
9.08038 21278485 21278484 21278489 10.3674435724
9.17293 21278484 21278483 21278489 9.99659046619
9.22845 21278483 21278482 21278489 9.84138043947
9.27072 21278482 21278481 21278489 9.38877127194
9.31874 21278481 21278480 21278489 9.00233985416
9.34461 21278480 21278479 21278489 8.9079991856
9.43617 21278479 21278478 21278489 8.44947629437
9.43974 21278478 21278477 21278489 8.01217294887
9.51275 21278477 21278476 21278489 7.59510714987
9.66936 21278476 21278475 21278489 7.23627606617
9.74137 21278475 21278474 21278489 7.00541704554
9.78044 21278474 21278473 21278489 6.85511726265
9.83816 21278473 21278472 21278489 6.49159774567
9.97525 21278472 21278471 21278489 6.14490120342
10.0276 21278471 21278470 21278489 6.01075739884
10.0836 21278470 21278469 21278489 5.84661374788
10.1446 21278469 21278468 21278489 5.52976580795
10.2547 21278468 21278467 21278489 5.22758097313
10.2959 21278467 21278466 21278489 4.99593346816
10.2972 21278466 21278465 21278489 4.93938066349
10.3986 21278465 21278464 21278489 4.66451770247
10.4185 21278464 21278463 21278489 4.42803373661
10.473 21278463 21278462 21278489 4.17683491473
10.4975 21278462 21278461 21278489 4.00794511147
10.5054 21278461 21278460 21278489 3.93726108473
10.549 21278460 21278459 21278489 3.70877426464
10.6036 21278459 21278458 21278489 3.49086136926
10.6296 21278458 21278457 21278489 3.28303305796
10.6347 21278457 21278456 21278489 3.08482263583
10.6453 21278456 21278455 21278489 3.00813107163
10.6522 21278455 21278454 21278489 2.89578500573
10.6556 21278454 21278453 21278489 2.73314261732
10.6717 21278453 21278452 21278489 2.5772902716
10.7092 21278452 21278451 21278489 2.44422570455
10.7245 21278451 21278450 21278489 2.31611074396
10.738 21278450 21278449 21278489 2.20792547238
10.7493 21278449 21278448 21278489 2.1032696526
10.7901 21278448 21278444 21278489 1.74357057433
10.8157 21278444 21278443 21278489 1.66666955611
10.8277 21278443 21278442 21278489 1.60423452207
10.8534 21278442 21278441 21278489 1.53123902916
10.8681 21278441 21278440 21278489 1.47197484527
10.8712 21278440 21278439 21278489 1.41409822037
10.8814 21278439 21278438 21278489 1.3575766674
10.8868 21278438 21278437 21278489 1.30237845991
10.8933 21278437 21278436 21278489 1.24847261425
10.908 21278436 21278435 21278489 1.20625808078
10.9217 21278435 21278434 21278489 1.15460271236
10.9335 21278434 21278433 21278489 1.11415056377
10.9455 21278433 21278432 21278489 1.07445789455
10.9481 21278432 21278431 21278489 1.03551044566
10.9634 21278431 21278430 21278489 0.997294225782
10.9684 21278430 21278428 21278489 0.950531351585
10.9703 21278428 21278427 21278489 0.923000816178
10.9795 21278427 21278425 21278489 0.851470900625
10.9828 21278425 21278424 21278489 0.816709979012
10.9874 21278424 21278420 21278489 0.700106353719
10.9892 21278420 21278419 21278489 0.676110411213
10.9937 21278419 21278418 21278489 0.644641840685
10.9981 21278418 21278417 21278489 0.621428745243
11.0041 21278417 21278416 21278489 0.598543288188
11.0062 21278416 21278415 21278489 0.575980845108
11.0143 21278415 21278414 21278489 0.546392183141
11.0185 21278414 21278413 21278489 0.524565820434
11.0259 21278413 21278412 21278489 0.503047523245
11.0265 21278412 21278409 21278489 0.440297849248
11.0329 21278409 21278408 21278489 0.419968941997
11.0364 21278408 21278407 21278489 0.399926964614
11.04 21278407 21278406 21278489 0.38016786726
11.0445 21278406 21278405 21278489 0.360687657262
11.0457 21278405 21278404 21278489 0.347853841858
11.0532 21278404 21278402 21278489 0.310074120128
11.0627 21278402 21278399 21278489 0.261343256161
11.0692 21278399 21278396 21278489 0.214425035514
11.0699 21278396 21278393 21278489 0.169252033244
11.0718 21278393 21278390 21278489 0.125759332411
11.0734 21278390 21278389 21278489 0.109869940459
11.0755 21278389 21278388 21278489 0.0994018026302
11.082 21278388 21278387 21278489 0.0838844307975
11.0858 21278387 21278386 21278489 0.0736613846564
11.0885 21278386 21278380 21278489 2.22044604925e-16
9.24548 21278639 21278638 21278648 5.52976580795
9.39346 21278638 21278637 21278648 5.22758097313
9.42649 21278637 21278636 21278648 4.99593346816
9.43015 21278636 21278635 21278648 4.93938066349
9.22066 21278652 21278651 21278661 6.14490120342
9.0098 21278695 21278694 21278704 7.00541704554
9.07216 21278694 21278693 21278704 6.85511726265
9.11431 21278693 21278692 21278704 6.49159774567
9.18162 21278692 21278691 21278704 6.14490120342
9.19223 21278691 21278690 21278704 6.01075739884
9.21869 21278690 21278689 21278704 5.84661374788
9.2672 21278689 21278688 21278704 5.52976580795
9.03763 21278826 21278825 21278838 4.66451770247
9.18589 21278825 21278822 21278838 4.00794511147
9.34902 21278822 21278819 21278838 3.49086136926
9.37181 21278819 21278818 21278838 3.28303305796
9.46285 21278818 21278816 21278838 3.00813107163
9.51074 21278816 21278815 21278838 2.89578500573
9.53332 21278815 21278814 21278838 2.73314261732
9.56823 21278814 21278812 21278838 2.44422570455
9.60381 21278812 21278810 21278838 2.20792547238
9.61504 21278810 21278809 21278838 2.1032696526
9.66584 21278809 21278808 21278838 2.00202813925
9.66936 21278808 21278807 21278838 1.90408954353
9.72012 21278807 21278806 21278838 1.82268925262
9.08845 21279005 21279004 21279013 3.28303305796
9.19433 21279004 21278999 21279013 2.5772902716
9.21472 21278999 21278990 21279013 1.66666955611
9.01298 21279172 21279171 21279187 3.00813107163
9.02855 21279171 21279170 21279187 2.89578500573
9.05235 21279170 21279169 21279187 2.73314261732
9.11681 21279169 21279167 21279187 2.44422570455
9.13154 21279167 21279164 21279187 2.1032696526
9.14344 21279164 21279153 21279187 1.30237845991
