logMh | fpID | subhaloID | main leaf ID | z
9.0666 40000000701203650 40000000701203649 40000000701203654 9.38877127194
9.29457 40000000701203649 40000000701203648 40000000701203654 9.00233985416
9.31083 40000000701203648 40000000701203647 40000000701203654 8.9079991856
9.33566 40000000701203647 40000000701203646 40000000701203654 8.44947629437
9.36902 40000000701203646 40000000701203645 40000000701203654 8.01217294887
9.50567 40000000701203645 40000000701203644 40000000701203654 7.59510714987
9.64785 40000000701203644 40000000701203643 40000000701203654 7.23627606617
9.75765 40000000701203643 40000000701203642 40000000701203654 7.00541704554
9.76557 40000000701203642 40000000701203641 40000000701203654 6.85511726265
9.84708 40000000701203641 40000000701203640 40000000701203654 6.49159774567
9.95545 40000000701203640 40000000701203639 40000000701203654 6.14490120342
9.98753 40000000701203639 40000000701203638 40000000701203654 6.01075739884
10.0155 40000000701203638 40000000701203637 40000000701203654 5.84661374788
10.0882 40000000701203637 40000000701203636 40000000701203654 5.52976580795
10.125 40000000701203636 40000000701203630 40000000701203654 4.17683491473
10.1687 40000000701203630 40000000701203629 40000000701203654 4.00794511147
10.2147 40000000701203629 40000000701203628 40000000701203654 3.93726108473
10.2348 40000000701203628 40000000701203627 40000000701203654 3.70877426464
10.2951 40000000701203627 40000000701203626 40000000701203654 3.49086136926
10.3521 40000000701203626 40000000701203625 40000000701203654 3.28303305796
10.403 40000000701203625 40000000701203624 40000000701203654 3.08482263583
10.4222 40000000701203624 40000000701203623 40000000701203654 3.00813107163
10.4426 40000000701203623 40000000701203622 40000000701203654 2.89578500573
10.4846 40000000701203622 40000000701203621 40000000701203654 2.73314261732
10.5003 40000000701203621 40000000701203620 40000000701203654 2.5772902716
10.5922 40000000701203620 40000000701203619 40000000701203654 2.44422570455
10.694 40000000701203619 40000000701203618 40000000701203654 2.31611074396
10.706 40000000701203618 40000000701203617 40000000701203654 2.20792547238
10.7295 40000000701203617 40000000701203613 40000000701203654 1.82268925262
10.762 40000000701203613 40000000701203612 40000000701203654 1.74357057433
10.7999 40000000701203612 40000000701203609 40000000701203654 1.53123902916
10.8178 40000000701203609 40000000701203608 40000000701203654 1.47197484527
10.8242 40000000701203608 40000000701203607 40000000701203654 1.41409822037
10.8423 40000000701203607 40000000701203606 40000000701203654 1.3575766674
10.8542 40000000701203606 40000000701203605 40000000701203654 1.30237845991
10.8607 40000000701203605 40000000701203604 40000000701203654 1.24847261425
10.8664 40000000701203604 40000000701203603 40000000701203654 1.20625808078
10.8824 40000000701203603 40000000701203602 40000000701203654 1.15460271236
10.8969 40000000701203602 40000000701203601 40000000701203654 1.11415056377
10.8976 40000000701203601 40000000701203600 40000000701203654 1.07445789455
10.9036 40000000701203600 40000000701203598 40000000701203654 0.997294225782
10.9131 40000000701203598 40000000701203596 40000000701203654 0.950531351585
10.9242 40000000701203596 40000000701203595 40000000701203654 0.923000816178
10.9271 40000000701203595 40000000701203594 40000000701203654 0.886896937575
10.9308 40000000701203594 40000000701203593 40000000701203654 0.851470900625
10.9384 40000000701203593 40000000701203592 40000000701203654 0.816709979012
10.9404 40000000701203592 40000000701203591 40000000701203654 0.791068248946
10.9477 40000000701203591 40000000701203590 40000000701203654 0.757441372616
10.9578 40000000701203590 40000000701203589 40000000701203654 0.732636182022
10.9736 40000000701203589 40000000701203588 40000000701203654 0.700106353719
10.9877 40000000701203588 40000000701203587 40000000701203654 0.676110411213
10.991 40000000701203587 40000000701203586 40000000701203654 0.644641840685
10.9936 40000000701203586 40000000701203570 40000000701203654 0.310074120128
11.0054 40000000701203570 40000000701203568 40000000701203654 0.273353346578
11.0057 40000000701203568 40000000701203567 40000000701203654 0.261343256161
11.0097 40000000701203567 40000000701203565 40000000701203654 0.22598838626
11.0127 40000000701203565 40000000701203564 40000000701203654 0.214425035514
11.0186 40000000701203564 40000000701203563 40000000701203654 0.197284182376
11.0257 40000000701203563 40000000701203562 40000000701203654 0.180385261706
11.0284 40000000701203562 40000000701203561 40000000701203654 0.169252033244
11.0353 40000000701203561 40000000701203560 40000000701203654 0.152748768902
11.0392 40000000701203560 40000000701203559 40000000701203654 0.14187620397
11.0465 40000000701203559 40000000701203558 40000000701203654 0.125759332411
11.048 40000000701203558 40000000701203557 40000000701203654 0.109869940459
11.0561 40000000701203557 40000000701203556 40000000701203654 0.0994018026302
9.01298 40000000701203690 40000000701203689 40000000701203694 8.9079991856
9.17729 40000000701203689 40000000701203684 40000000701203694 7.00541704554
9.21072 40000000701203684 40000000701203683 40000000701203694 6.85511726265
9.22845 40000000701203683 40000000701203682 40000000701203694 6.49159774567
9.24733 40000000701203682 40000000701203681 40000000701203694 6.14490120342
9.26365 40000000701203681 40000000701203679 40000000701203694 5.84661374788
9.26543 40000000701203679 40000000701203677 40000000701203694 5.22758097313
9.00012 40000000701203729 40000000701203728 40000000701203740 6.01075739884
9.13871 40000000701203728 40000000701203726 40000000701203740 5.52976580795
9.1663 40000000701203726 40000000701203725 40000000701203740 5.22758097313
9.17729 40000000701203725 40000000701203724 40000000701203740 4.99593346816
9.30602 40000000701203724 40000000701203723 40000000701203740 4.93938066349
9.45833 40000000701203723 40000000701203721 40000000701203740 4.42803373661
9.02855 40000000701203832 40000000701203831 40000000701203837 9.00233985416
9.04062 40000000701203831 40000000701203830 40000000701203837 8.9079991856
9.11431 40000000701203830 40000000701203829 40000000701203837 8.44947629437
9.37869 40000000701203829 40000000701203828 40000000701203837 8.01217294887
9.46733 40000000701203828 40000000701203827 40000000701203837 7.59510714987
9.50567 40000000701203827 40000000701203826 40000000701203837 7.23627606617
9.54744 40000000701203826 40000000701203825 40000000701203837 7.00541704554
9.55478 40000000701203825 40000000701203824 40000000701203837 6.85511726265
9.66372 40000000701203824 40000000701203823 40000000701203837 6.49159774567
9.72813 40000000701203823 40000000701203822 40000000701203837 6.14490120342
9.72874 40000000701203822 40000000701203821 40000000701203837 6.01075739884
9.80975 40000000701203821 40000000701203820 40000000701203837 5.84661374788
9.8719 40000000701203820 40000000701203819 40000000701203837 5.52976580795
9.92159 40000000701203819 40000000701203818 40000000701203837 5.22758097313
9.94222 40000000701203818 40000000701203817 40000000701203837 4.99593346816
9.99552 40000000701203817 40000000701203815 40000000701203837 4.66451770247
10.0361 40000000701203815 40000000701203814 40000000701203837 4.42803373661
10.0995 40000000701203814 40000000701203813 40000000701203837 4.17683491473
10.1183 40000000701203813 40000000701203812 40000000701203837 4.00794511147
10.1602 40000000701203812 40000000701203810 40000000701203837 3.70877426464
10.2069 40000000701203810 40000000701203809 40000000701203837 3.49086136926
10.2477 40000000701203809 40000000701203808 40000000701203837 3.28303305796
10.2558 40000000701203808 40000000701203807 40000000701203837 3.08482263583
10.2959 40000000701203807 40000000701203806 40000000701203837 3.00813107163
10.6982 40000000701203806 40000000701203799 40000000701203837 2.1032696526
9.01298 40000000701203891 40000000701203890 40000000701203903 6.49159774567
9.01928 40000000701203890 40000000701203889 40000000701203903 6.14490120342
9.0316 40000000701203889 40000000701203888 40000000701203903 6.01075739884
9.03463 40000000701203888 40000000701203885 40000000701203903 5.22758097313
9.04358 40000000701203885 40000000701203884 40000000701203903 4.99593346816
9.36902 40000000701204015 40000000701204014 40000000701204035 5.22758097313
9.42157 40000000701204014 40000000701204012 40000000701204035 4.93938066349
9.56468 40000000701204012 40000000701204011 40000000701204035 4.66451770247
9.5931 40000000701204011 40000000701204010 40000000701204035 4.42803373661
9.71322 40000000701204010 40000000701204009 40000000701204035 4.17683491473
9.77718 40000000701204009 40000000701204008 40000000701204035 4.00794511147
9.81428 40000000701204008 40000000701204005 40000000701204035 3.49086136926
9.81578 40000000701204005 40000000701204004 40000000701204035 3.28303305796
9.82419 40000000701204004 40000000701204000 40000000701204035 2.73314261732
9.86482 40000000701204000 40000000701203999 40000000701204035 2.5772902716
9.04945 40000000701204042 40000000701204041 40000000701204050 5.84661374788
9.25101 40000000701204041 40000000701204040 40000000701204050 5.52976580795
9.40646 40000000701204040 40000000701204038 40000000701204050 4.99593346816
