logMh | fpID | subhaloID | main leaf ID | z
9.02548 90000476600000092 90000476600000091 90000476600000098 6.14490120342
9.05524 90000476600000091 90000476600000090 90000476600000098 6.01075739884
9.06096 90000476600000090 90000476600000089 90000476600000098 5.84661374788
9.11431 90000476600000089 90000476600000087 90000476600000098 5.22758097313
9.13154 90000476600000087 90000476600000085 90000476600000098 4.93938066349
9.14578 90000476600000085 90000476600000084 90000476600000098 4.66451770247
9.17073 90000476600000084 90000476600000083 90000476600000098 4.42803373661
9.37319 90000476600000083 90000476600000082 90000476600000098 4.17683491473
9.43136 90000476600000082 90000476600000081 90000476600000098 4.00794511147
9.5026 90000476600000081 90000476600000078 90000476600000098 3.49086136926
9.52948 90000476600000078 90000476600000077 90000476600000098 3.28303305796
9.7342 90000476600000077 90000476600000076 90000476600000098 3.08482263583
9.85124 90000476600000076 90000476600000075 90000476600000098 3.00813107163
9.99881 90000476600000075 90000476600000073 90000476600000098 2.73314261732
10.0826 90000476600000073 90000476600000072 90000476600000098 2.5772902716
10.1344 90000476600000072 90000476600000071 90000476600000098 2.44422570455
10.2091 90000476600000071 90000476600000070 90000476600000098 2.31611074396
10.2393 90000476600000070 90000476600000069 90000476600000098 2.20792547238
10.2455 90000476600000069 90000476600000068 90000476600000098 2.1032696526
10.253 90000476600000068 90000476600000064 90000476600000098 1.74357057433
10.2558 90000476600000064 90000476600000063 90000476600000098 1.66666955611
10.2561 90000476600000063 90000476600000062 90000476600000098 1.60423452207
10.2698 90000476600000062 90000476600000061 90000476600000098 1.53123902916
10.2702 90000476600000061 90000476600000058 90000476600000098 1.3575766674
10.3183 90000476600000058 90000476600000057 90000476600000098 1.30237845991
10.3545 90000476600000057 90000476600000055 90000476600000098 1.20625808078
10.3637 90000476600000055 90000476600000054 90000476600000098 1.15460271236
10.364 90000476600000054 90000476600000053 90000476600000098 1.11415056377
10.4016 90000476600000053 90000476600000052 90000476600000098 1.07445789455
10.4303 90000476600000052 90000476600000051 90000476600000098 1.03551044566
10.4702 90000476600000051 90000476600000050 90000476600000098 0.997294225782
10.4803 90000476600000050 90000476600000049 90000476600000098 0.987852810816
10.5001 90000476600000049 90000476600000048 90000476600000098 0.950531351585
10.567 90000476600000048 90000476600000047 90000476600000098 0.923000816178
10.6322 90000476600000047 90000476600000046 90000476600000098 0.886896937575
10.6728 90000476600000046 90000476600000045 90000476600000098 0.851470900625
10.7087 90000476600000045 90000476600000043 90000476600000098 0.791068248946
10.7191 90000476600000043 90000476600000042 90000476600000098 0.757441372616
10.7219 90000476600000042 90000476600000041 90000476600000098 0.732636182022
10.751 90000476600000041 90000476600000040 90000476600000098 0.700106353719
10.768 90000476600000040 90000476600000039 90000476600000098 0.676110411213
10.7807 90000476600000039 90000476600000038 90000476600000098 0.644641840685
10.7907 90000476600000038 90000476600000035 90000476600000098 0.575980845108
10.7987 90000476600000035 90000476600000034 90000476600000098 0.546392183141
10.8 90000476600000034 90000476600000030 90000476600000098 0.460917794181
10.8036 90000476600000030 90000476600000029 90000476600000098 0.440297849248
10.8095 90000476600000029 90000476600000028 90000476600000098 0.419968941997
10.8167 90000476600000028 90000476600000026 90000476600000098 0.38016786726
10.8387 90000476600000026 90000476600000025 90000476600000098 0.360687657262
10.8404 90000476600000025 90000476600000019 90000476600000098 0.261343256161
10.8496 90000476600000019 90000476600000018 90000476600000098 0.243540181555
10.8553 90000476600000018 90000476600000016 90000476600000098 0.214425035514
10.8802 90000476600000016 90000476600000014 90000476600000098 0.180385261706
10.8838 90000476600000014 90000476600000013 90000476600000098 0.169252033244
10.886 90000476600000013 90000476600000012 90000476600000098 0.152748768902
10.8957 90000476600000012 90000476600000011 90000476600000098 0.14187620397
10.9046 90000476600000011 90000476600000010 90000476600000098 0.125759332411
10.9047 90000476600000010 90000476600000009 90000476600000098 0.109869940459
10.9154 90000476600000009 90000476600000007 90000476600000098 0.0838844307975
10.9166 90000476600000007 90000476600000006 90000476600000098 0.0736613846564
10.922 90000476600000006 90000476600000005 90000476600000098 0.0585073227945
10.9291 90000476600000005 90000476600000004 90000476600000098 0.0485236299818
10.9361 90000476600000004 90000476600000003 90000476600000098 0.0337243718735
10.9379 90000476600000003 90000476600000000 90000476600000098 2.22044604925e-16
9.0098 90000476600000176 90000476600000175 90000476600000189 5.84661374788
9.06096 90000476600000175 90000476600000174 90000476600000189 5.52976580795
9.09375 90000476600000174 90000476600000173 90000476600000189 5.22758097313
9.14344 90000476600000173 90000476600000172 90000476600000189 4.99593346816
9.15042 90000476600000172 90000476600000171 90000476600000189 4.93938066349
9.1663 90000476600000171 90000476600000168 90000476600000189 4.17683491473
9.19223 90000476600000168 90000476600000167 90000476600000189 4.00794511147
9.32958 90000476600000167 90000476600000165 90000476600000189 3.70877426464
9.38141 90000476600000165 90000476600000164 90000476600000189 3.49086136926
9.40001 90000476600000164 90000476600000163 90000476600000189 3.28303305796
9.01614 90000476600000282 90000476600000281 90000476600000289 4.17683491473
9.09898 90000476600000281 90000476600000280 90000476600000289 4.00794511147
9.13154 90000476600000280 90000476600000278 90000476600000289 3.70877426464
9.2672 90000476600000278 90000476600000277 90000476600000289 3.49086136926
9.29124 90000476600000277 90000476600000276 90000476600000289 3.28303305796
9.07766 90000476600000480 90000476600000479 90000476600000486 7.00541704554
9.11179 90000476600000479 90000476600000478 90000476600000486 6.85511726265
9.21671 90000476600000478 90000476600000477 90000476600000486 6.49159774567
9.30763 90000476600000477 90000476600000476 90000476600000486 6.14490120342
9.32805 90000476600000476 90000476600000475 90000476600000486 6.01075739884
9.35194 90000476600000475 90000476600000474 90000476600000486 5.84661374788
9.41534 90000476600000474 90000476600000473 90000476600000486 5.52976580795
9.43737 90000476600000473 90000476600000472 90000476600000486 5.22758097313
9.47724 90000476600000472 90000476600000471 90000476600000486 4.99593346816
9.49536 90000476600000471 90000476600000470 90000476600000486 4.93938066349
9.52267 90000476600000470 90000476600000469 90000476600000486 4.66451770247
9.52948 90000476600000469 90000476600000468 90000476600000486 4.42803373661
9.56379 90000476600000468 90000476600000467 90000476600000486 4.17683491473
9.62212 90000476600000467 90000476600000466 90000476600000486 4.00794511147
9.63061 90000476600000466 90000476600000465 90000476600000486 3.93726108473
9.70169 90000476600000465 90000476600000464 90000476600000486 3.70877426464
9.76669 90000476600000464 90000476600000463 90000476600000486 3.49086136926
9.78528 90000476600000463 90000476600000462 90000476600000486 3.28303305796
9.81628 90000476600000462 90000476600000461 90000476600000486 3.08482263583
9.83243 90000476600000461 90000476600000459 90000476600000486 2.89578500573
9.88571 90000476600000459 90000476600000458 90000476600000486 2.73314261732
9.95653 90000476600000458 90000476600000457 90000476600000486 2.5772902716
10.005 90000476600000457 90000476600000456 90000476600000486 2.44422570455
10.0442 90000476600000456 90000476600000455 90000476600000486 2.31611074396
10.082 90000476600000455 90000476600000454 90000476600000486 2.20792547238
10.1247 90000476600000454 90000476600000453 90000476600000486 2.1032696526
10.1532 90000476600000453 90000476600000452 90000476600000486 2.00202813925
10.2055 90000476600000452 90000476600000451 90000476600000486 1.90408954353
10.2165 90000476600000451 90000476600000450 90000476600000486 1.82268925262
10.2444 90000476600000450 90000476600000449 90000476600000486 1.74357057433
10.2484 90000476600000449 90000476600000448 90000476600000486 1.66666955611
10.257 90000476600000448 90000476600000446 90000476600000486 1.53123902916
10.2814 90000476600000446 90000476600000445 90000476600000486 1.47197484527
10.2869 90000476600000445 90000476600000444 90000476600000486 1.41409822037
10.2906 90000476600000444 90000476600000443 90000476600000486 1.3575766674
10.2997 90000476600000443 90000476600000441 90000476600000486 1.24847261425
9.0066 90000476600000611 90000476600000610 90000476600000628 2.44422570455
9.03763 90000476600000610 90000476600000609 90000476600000628 2.31611074396
9.04062 90000476600000609 90000476600000608 90000476600000628 2.20792547238
9.0066 90000476600000735 90000476600000734 90000476600000739 3.08482263583
9.09898 90000476600000734 90000476600000731 90000476600000739 2.73314261732
9.14108 90000476600000731 90000476600000730 90000476600000739 2.5772902716
9.19433 90000476600000730 90000476600000729 90000476600000739 2.44422570455
9.25101 90000476600000729 90000476600000728 90000476600000739 2.31611074396
9.26543 90000476600000728 90000476600000727 90000476600000739 2.20792547238
9.2862 90000476600000727 90000476600000726 90000476600000739 2.1032696526
9.30115 90000476600000726 90000476600000725 90000476600000739 2.00202813925
9.34756 90000476600000725 90000476600000724 90000476600000739 1.90408954353
9.35194 90000476600000724 90000476600000722 90000476600000739 1.74357057433
9.37869 90000476600000722 90000476600000721 90000476600000739 1.66666955611
9.41156 90000476600000721 90000476600000720 90000476600000739 1.60423452207
9.45719 90000476600000720 90000476600000719 90000476600000739 1.53123902916
9.48265 90000476600000719 90000476600000718 90000476600000739 1.47197484527
9.5629 90000476600000718 90000476600000717 90000476600000739 1.41409822037
9.5956 90000476600000717 90000476600000713 90000476600000739 1.20625808078
9.61584 90000476600000713 90000476600000711 90000476600000739 1.11415056377
9.03463 90000476600000773 90000476600000772 90000476600000790 2.73314261732
9.09375 90000476600000772 90000476600000770 90000476600000790 2.44422570455
9.10926 90000476600000770 90000476600000767 90000476600000790 2.1032696526
9.13871 90000476600000767 90000476600000766 90000476600000790 2.00202813925
9.63518 90000476600000766 90000476600000752 90000476600000790 1.07445789455
