logMh | fpID | subhaloID | main leaf ID | z
9.09637 40000000900204972 40000000900204971 40000000900204976 9.38877127194
9.13634 40000000900204971 40000000900204970 40000000900204976 9.00233985416
9.20668 40000000900204970 40000000900204969 40000000900204976 8.9079991856
9.30602 40000000900204969 40000000900204968 40000000900204976 8.44947629437
9.41156 40000000900204968 40000000900204967 40000000900204976 8.01217294887
9.78849 40000000900204967 40000000900204966 40000000900204976 7.59510714987
9.80415 40000000900204966 40000000900204965 40000000900204976 7.23627606617
9.85399 40000000900204965 40000000900204964 40000000900204976 7.00541704554
9.98517 40000000900204964 40000000900204963 40000000900204976 6.85511726265
10.1714 40000000900204963 40000000900204962 40000000900204976 6.49159774567
10.2681 40000000900204962 40000000900204961 40000000900204976 6.14490120342
10.3364 40000000900204961 40000000900204960 40000000900204976 6.01075739884
10.3779 40000000900204960 40000000900204959 40000000900204976 5.84661374788
10.4364 40000000900204959 40000000900204958 40000000900204976 5.52976580795
10.4907 40000000900204958 40000000900204957 40000000900204976 5.22758097313
10.4996 40000000900204957 40000000900204956 40000000900204976 4.99593346816
10.5364 40000000900204956 40000000900204955 40000000900204976 4.93938066349
10.5573 40000000900204955 40000000900204954 40000000900204976 4.66451770247
10.5808 40000000900204954 40000000900204953 40000000900204976 4.42803373661
10.5874 40000000900204953 40000000900204952 40000000900204976 4.17683491473
10.6054 40000000900204952 40000000900204950 40000000900204976 3.93726108473
10.6311 40000000900204950 40000000900204949 40000000900204976 3.70877426464
10.6453 40000000900204949 40000000900204948 40000000900204976 3.49086136926
10.6679 40000000900204948 40000000900204947 40000000900204976 3.28303305796
10.7234 40000000900204947 40000000900204946 40000000900204976 3.08482263583
10.7395 40000000900204946 40000000900204944 40000000900204976 2.89578500573
10.9602 40000000900204944 40000000900204942 40000000900204976 2.5772902716
11.0879 40000000900204942 40000000900204941 40000000900204976 2.44422570455
11.1413 40000000900204941 40000000900204940 40000000900204976 2.31611074396
11.1685 40000000900204940 40000000900204939 40000000900204976 2.20792547238
11.2242 40000000900204939 40000000900204938 40000000900204976 2.1032696526
11.2604 40000000900204938 40000000900204937 40000000900204976 2.00202813925
11.2889 40000000900204937 40000000900204936 40000000900204976 1.90408954353
11.2984 40000000900204936 40000000900204935 40000000900204976 1.82268925262
11.3076 40000000900204935 40000000900204934 40000000900204976 1.74357057433
11.3132 40000000900204934 40000000900204933 40000000900204976 1.66666955611
11.3168 40000000900204933 40000000900204932 40000000900204976 1.60423452207
11.3188 40000000900204932 40000000900204931 40000000900204976 1.53123902916
11.322 40000000900204931 40000000900204930 40000000900204976 1.47197484527
11.3319 40000000900204930 40000000900204929 40000000900204976 1.41409822037
11.3403 40000000900204929 40000000900204927 40000000900204976 1.30237845991
11.3516 40000000900204927 40000000900204926 40000000900204976 1.24847261425
11.3565 40000000900204926 40000000900204924 40000000900204976 1.15460271236
11.3598 40000000900204924 40000000900204923 40000000900204976 1.11415056377
11.3667 40000000900204923 40000000900204922 40000000900204976 1.07445789455
11.3667 40000000900204922 40000000900204921 40000000900204976 1.03551044566
11.371 40000000900204921 40000000900204920 40000000900204976 0.997294225782
11.4116 40000000900204920 40000000900204919 40000000900204976 0.987852810816
11.4247 40000000900204919 40000000900204913 40000000900204976 0.791068248946
11.4458 40000000900204913 40000000900204912 40000000900204976 0.757441372616
11.4651 40000000900204912 40000000900204911 40000000900204976 0.732636182022
11.4799 40000000900204911 40000000900204910 40000000900204976 0.700106353719
11.4909 40000000900204910 40000000900204909 40000000900204976 0.676110411213
11.5159 40000000900204909 40000000900204908 40000000900204976 0.644641840685
11.5354 40000000900204908 40000000900204907 40000000900204976 0.621428745243
11.5569 40000000900204907 40000000900204906 40000000900204976 0.598543288188
11.577 40000000900204906 40000000900204905 40000000900204976 0.575980845108
11.6162 40000000900204905 40000000900204904 40000000900204976 0.546392183141
11.6212 40000000900204904 40000000900204894 40000000900204976 0.347853841858
11.6427 40000000900204894 40000000900204891 40000000900204976 0.291583239722
11.6537 40000000900204891 40000000900204890 40000000900204976 0.273353346578
11.662 40000000900204890 40000000900204889 40000000900204976 0.261343256161
11.6718 40000000900204889 40000000900204887 40000000900204976 0.22598838626
9.02239 40000000900205013 40000000900205012 40000000900205016 9.00233985416
9.10671 40000000900205012 40000000900205010 40000000900205016 8.44947629437
9.30763 40000000900205010 40000000900205009 40000000900205016 8.01217294887
9.36056 40000000900205009 40000000900205008 40000000900205016 7.59510714987
9.39609 40000000900205008 40000000900205007 40000000900205016 7.23627606617
9.5314 40000000900205007 40000000900205006 40000000900205016 7.00541704554
9.12424 40000000900205054 40000000900205053 40000000900205059 9.00233985416
9.14811 40000000900205053 40000000900205051 40000000900205059 8.44947629437
9.19433 40000000900205051 40000000900205050 40000000900205059 8.01217294887
9.0666 40000000900205077 40000000900205076 40000000900205088 7.00541704554
9.04358 40000000900205162 40000000900205161 40000000900205166 8.9079991856
9.10157 40000000900205161 40000000900205159 40000000900205166 8.01217294887
9.21272 40000000900205159 40000000900205158 40000000900205166 7.59510714987
9.30115 40000000900205158 40000000900205157 40000000900205166 7.23627606617
9.16407 40000000900205388 40000000900205387 40000000900205393 8.44947629437
9.21671 40000000900205387 40000000900205386 40000000900205393 8.01217294887
9.27072 40000000900205386 40000000900205385 40000000900205393 7.59510714987
9.34313 40000000900205385 40000000900205384 40000000900205393 7.23627606617
9.51074 40000000900205384 40000000900205383 40000000900205393 7.00541704554
9.52657 40000000900205383 40000000900205381 40000000900205393 6.49159774567
9.66655 40000000900205381 40000000900205380 40000000900205393 6.14490120342
9.71574 40000000900205380 40000000900205379 40000000900205393 6.01075739884
10.1213 40000000900205379 40000000900205371 40000000900205393 4.17683491473
10.1846 40000000900205371 40000000900205369 40000000900205393 3.93726108473
10.2097 40000000900205369 40000000900205368 40000000900205393 3.70877426464
10.2726 40000000900205368 40000000900205367 40000000900205393 3.49086136926
10.318 40000000900205367 40000000900205366 40000000900205393 3.28303305796
10.4202 40000000900205366 40000000900205364 40000000900205393 3.00813107163
10.1373 40000000900205402 40000000900205401 40000000900205418 4.00794511147
9.01614 40000000900205438 40000000900205437 40000000900205442 8.01217294887
9.03763 40000000900205437 40000000900205436 40000000900205442 7.59510714987
9.21671 40000000900205436 40000000900205435 40000000900205442 7.23627606617
9.22651 40000000900205435 40000000900205433 40000000900205442 6.85511726265
9.37042 40000000900205433 40000000900205432 40000000900205442 6.49159774567
9.48157 40000000900205432 40000000900205431 40000000900205442 6.14490120342
9.49116 40000000900205431 40000000900205430 40000000900205442 6.01075739884
9.5207 40000000900205430 40000000900205429 40000000900205442 5.84661374788
9.65369 40000000900205429 40000000900205428 40000000900205442 5.52976580795
9.88401 40000000900205428 40000000900205427 40000000900205442 5.22758097313
9.96828 40000000900205427 40000000900205426 40000000900205442 4.99593346816
10.0445 40000000900205426 40000000900205425 40000000900205442 4.93938066349
10.1361 40000000900205425 40000000900205424 40000000900205442 4.66451770247
10.138 40000000900205424 40000000900205423 40000000900205442 4.42803373661
9.08578 40000000900205469 40000000900205468 40000000900205481 6.49159774567
9.10415 40000000900205468 40000000900205463 40000000900205481 5.22758097313
9.0098 40000000900205547 40000000900205546 40000000900205551 6.85511726265
9.10671 40000000900205546 40000000900205545 40000000900205551 6.49159774567
9.22262 40000000900205545 40000000900205544 40000000900205551 6.14490120342
9.35338 40000000900205544 40000000900205543 40000000900205551 6.01075739884
9.37319 40000000900205543 40000000900205542 40000000900205551 5.84661374788
9.41534 40000000900205542 40000000900205541 40000000900205551 5.52976580795
9.49536 40000000900205541 40000000900205540 40000000900205551 5.22758097313
9.51575 40000000900205540 40000000900205539 40000000900205551 4.99593346816
9.5256 40000000900205539 40000000900205538 40000000900205551 4.93938066349
9.0098 40000000900205701 40000000900205700 40000000900205718 2.73314261732
9.01298 40000000900205700 40000000900205699 40000000900205718 2.5772902716
9.00337 40000000900205786 40000000900205785 40000000900205792 7.00541704554
9.02855 40000000900205785 40000000900205772 40000000900205792 4.00794511147
9.05235 40000000900205772 40000000900205771 40000000900205792 3.93726108473
9.00337 40000000900205844 40000000900205843 40000000900205849 9.38877127194
9.06378 40000000900205843 40000000900205842 40000000900205849 9.00233985416
9.12668 40000000900205842 40000000900205841 40000000900205849 8.9079991856
9.21272 40000000900205841 40000000900205840 40000000900205849 8.44947629437
9.34313 40000000900205840 40000000900205839 40000000900205849 8.01217294887
9.35048 40000000900205839 40000000900205838 40000000900205849 7.59510714987
9.41534 40000000900205838 40000000900205837 40000000900205849 7.23627606617
9.45261 40000000900205837 40000000900205836 40000000900205849 7.00541704554
9.51675 40000000900205836 40000000900205835 40000000900205849 6.85511726265
9.5931 40000000900205835 40000000900205834 40000000900205849 6.49159774567
9.70877 40000000900205834 40000000900205833 40000000900205849 6.14490120342
9.74608 40000000900205833 40000000900205832 40000000900205849 6.01075739884
9.81678 40000000900205832 40000000900205830 40000000900205849 5.52976580795
9.85536 40000000900205830 40000000900205829 40000000900205849 5.22758097313
9.91289 40000000900205829 40000000900205828 40000000900205849 4.99593346816
9.94333 40000000900205828 40000000900205826 40000000900205849 4.66451770247
9.95941 40000000900205826 40000000900205825 40000000900205849 4.42803373661
10.0098 40000000900205825 40000000900205824 40000000900205849 4.17683491473
10.0313 40000000900205824 40000000900205823 40000000900205849 4.00794511147
10.0575 40000000900205823 40000000900205822 40000000900205849 3.93726108473
10.085 40000000900205822 40000000900205821 40000000900205849 3.70877426464
10.4264 40000000900205821 40000000900205816 40000000900205849 2.89578500573
10.6913 40000000900205816 40000000900205815 40000000900205849 2.73314261732
9.01614 40000000900205929 40000000900205928 40000000900205936 4.00794511147
9.04358 40000000900205928 40000000900205927 40000000900205936 3.93726108473
9.04358 40000000900205969 40000000900205968 40000000900205979 4.99593346816
9.14811 40000000900205968 40000000900205966 40000000900205979 4.66451770247
9.2342 40000000900205966 40000000900205964 40000000900205979 4.17683491473
9.27072 40000000900205964 40000000900205963 40000000900205979 4.00794511147
9.2862 40000000900205963 40000000900205962 40000000900205979 3.93726108473
9.30602 40000000900205962 40000000900205961 40000000900205979 3.70877426464
9.32958 40000000900205961 40000000900205960 40000000900205979 3.49086136926
9.32958 40000000900205960 40000000900205957 40000000900205979 3.00813107163
9.32958 40000000900205957 40000000900205956 40000000900205979 2.89578500573
9.0098 40000000900206019 40000000900206018 40000000900206027 5.84661374788
9.14108 40000000900206018 40000000900206017 40000000900206027 5.52976580795
9.22262 40000000900206017 40000000900206016 40000000900206027 5.22758097313
9.44914 40000000900206016 40000000900206015 40000000900206027 4.99593346816
9.01928 40000000900206034 40000000900206033 40000000900206044 5.84661374788
9.13154 40000000900206128 40000000900206127 40000000900206135 8.44947629437
9.13634 40000000900206127 40000000900206125 40000000900206135 7.59510714987
9.19223 40000000900206125 40000000900206124 40000000900206135 7.23627606617
9.2361 40000000900206124 40000000900206123 40000000900206135 7.00541704554
9.25648 40000000900206123 40000000900206122 40000000900206135 6.85511726265
9.29951 40000000900206122 40000000900206121 40000000900206135 6.49159774567
9.36481 40000000900206121 40000000900206120 40000000900206135 6.14490120342
9.38547 40000000900206120 40000000900206119 40000000900206135 6.01075739884
9.43737 40000000900206119 40000000900206118 40000000900206135 5.84661374788
9.43856 40000000900206118 40000000900206117 40000000900206135 5.52976580795
9.53902 40000000900206117 40000000900206116 40000000900206135 5.22758097313
9.56823 40000000900206116 40000000900206115 40000000900206135 4.99593346816
9.63969 40000000900206115 40000000900206113 40000000900206135 4.66451770247
9.67972 40000000900206113 40000000900206112 40000000900206135 4.42803373661
9.72198 40000000900206112 40000000900206111 40000000900206135 4.17683491473
9.74491 40000000900206111 40000000900206110 40000000900206135 4.00794511147
9.75421 40000000900206110 40000000900206109 40000000900206135 3.93726108473
9.78368 40000000900206109 40000000900206107 40000000900206135 3.49086136926
9.79743 40000000900206107 40000000900206106 40000000900206135 3.28303305796
9.8276 40000000900206106 40000000900206105 40000000900206135 3.08482263583
9.84939 40000000900206105 40000000900206102 40000000900206135 2.73314261732
9.86124 40000000900206102 40000000900206100 40000000900206135 2.44422570455
9.06096 40000000900206217 40000000900206216 40000000900206227 5.52976580795
9.06378 40000000900206216 40000000900206215 40000000900206227 5.22758097313
9.08578 40000000900206215 40000000900206214 40000000900206227 4.99593346816
9.1193 40000000900206214 40000000900206212 40000000900206227 4.66451770247
9.12668 40000000900206212 40000000900206210 40000000900206227 4.17683491473
9.12912 40000000900206210 40000000900206208 40000000900206227 3.93726108473
9.19223 40000000900206208 40000000900206207 40000000900206227 3.70877426464
9.19433 40000000900206207 40000000900206203 40000000900206227 3.00813107163
9.5256 40000000900206203 40000000900206195 40000000900206227 2.00202813925
9.05235 40000000900206424 40000000900206423 40000000900206431 9.38877127194
9.15042 40000000900206423 40000000900206422 40000000900206431 9.00233985416
9.19433 40000000900206422 40000000900206420 40000000900206431 8.44947629437
9.33415 40000000900206420 40000000900206419 40000000900206431 8.01217294887
9.37595 40000000900206419 40000000900206418 40000000900206431 7.59510714987
9.38005 40000000900206418 40000000900206417 40000000900206431 7.23627606617
9.41784 40000000900206417 40000000900206416 40000000900206431 7.00541704554
9.41909 40000000900206416 40000000900206415 40000000900206431 6.85511726265
9.51475 40000000900206415 40000000900206414 40000000900206431 6.49159774567
9.51774 40000000900206414 40000000900206413 40000000900206431 6.14490120342
9.52754 40000000900206413 40000000900206412 40000000900206431 6.01075739884
9.54465 40000000900206412 40000000900206411 40000000900206431 5.84661374788
9.54558 40000000900206411 40000000900206410 40000000900206431 5.52976580795
9.67767 40000000900206410 40000000900206409 40000000900206431 5.22758097313
9.68918 40000000900206409 40000000900206405 40000000900206431 4.42803373661
9.717 40000000900206405 40000000900206404 40000000900206431 4.17683491473
9.72507 40000000900206404 40000000900206403 40000000900206431 4.00794511147
9.73299 40000000900206403 40000000900206401 40000000900206431 3.70877426464
9.77003 40000000900206401 40000000900206400 40000000900206431 3.49086136926
9.78314 40000000900206400 40000000900206399 40000000900206431 3.28303305796
9.78636 40000000900206399 40000000900206393 40000000900206431 2.44422570455
9.78795 40000000900206393 40000000900206391 40000000900206431 2.20792547238
9.78902 40000000900206391 40000000900206390 40000000900206431 2.1032696526
9.02239 40000000900206778 40000000900206777 40000000900206781 7.59510714987
9.13871 40000000900206777 40000000900206776 40000000900206781 7.23627606617
9.15502 40000000900206776 40000000900206775 40000000900206781 7.00541704554
9.22066 40000000900206775 40000000900206774 40000000900206781 6.85511726265
9.26008 40000000900206774 40000000900206772 40000000900206781 6.14490120342
9.2862 40000000900206772 40000000900206771 40000000900206781 6.01075739884
9.28956 40000000900206771 40000000900206770 40000000900206781 5.84661374788
9.37042 40000000900206770 40000000900206769 40000000900206781 5.52976580795
9.50567 40000000900206769 40000000900206768 40000000900206781 5.22758097313
9.71637 40000000900206768 40000000900206766 40000000900206781 4.93938066349
9.7348 40000000900206766 40000000900206765 40000000900206781 4.66451770247
9.7366 40000000900206765 40000000900206764 40000000900206781 4.42803373661
9.83339 40000000900206764 40000000900206763 40000000900206781 4.17683491473
9.85353 40000000900206763 40000000900206762 40000000900206781 4.00794511147
9.85853 40000000900206762 40000000900206760 40000000900206781 3.70877426464
10.0724 40000000900206760 40000000900206757 40000000900206781 3.08482263583
10.1233 40000000900206757 40000000900206756 40000000900206781 3.00813107163
10.1692 40000000900206756 40000000900206755 40000000900206781 2.89578500573
10.2218 40000000900206755 40000000900206754 40000000900206781 2.73314261732
10.286 40000000900206754 40000000900206753 40000000900206781 2.5772902716
10.3036 40000000900206753 40000000900206752 40000000900206781 2.44422570455
10.3254 40000000900206752 40000000900206751 40000000900206781 2.31611074396
10.3486 40000000900206751 40000000900206750 40000000900206781 2.20792547238
10.3624 40000000900206750 40000000900206749 40000000900206781 2.1032696526
10.3624 40000000900206749 40000000900206748 40000000900206781 2.00202813925
10.3773 40000000900206748 40000000900206747 40000000900206781 1.90408954353
10.378 40000000900206747 40000000900206744 40000000900206781 1.66666955611
10.3958 40000000900206744 40000000900206742 40000000900206781 1.53123902916
10.4166 40000000900206742 40000000900206741 40000000900206781 1.47197484527
10.4341 40000000900206741 40000000900206739 40000000900206781 1.3575766674
10.4717 40000000900206739 40000000900206738 40000000900206781 1.30237845991
9.13154 40000000900206792 40000000900206791 40000000900206802 5.52976580795
9.65151 40000000900206791 40000000900206789 40000000900206802 4.99593346816
9.01928 40000000900206885 40000000900206884 40000000900206893 5.52976580795
9.08309 40000000900206884 40000000900206883 40000000900206893 5.22758097313
9.13634 40000000900206883 40000000900206882 40000000900206893 4.99593346816
9.14811 40000000900206882 40000000900206881 40000000900206893 4.93938066349
9.18162 40000000900206881 40000000900206879 40000000900206893 4.42803373661
9.34902 40000000900206879 40000000900206878 40000000900206893 4.17683491473
9.41909 40000000900206878 40000000900206877 40000000900206893 4.00794511147
9.44797 40000000900206877 40000000900206876 40000000900206893 3.93726108473
9.45145 40000000900206876 40000000900206875 40000000900206893 3.70877426464
9.13394 40000000900206965 40000000900206964 40000000900206969 7.23627606617
9.13871 40000000900206964 40000000900206962 40000000900206969 6.85511726265
9.23037 40000000900206962 40000000900206961 40000000900206969 6.49159774567
9.26365 40000000900206961 40000000900206958 40000000900206969 5.84661374788
9.43136 40000000900206958 40000000900206956 40000000900206969 5.22758097313
9.53428 40000000900206956 40000000900206952 40000000900206969 4.42803373661
9.59059 40000000900206952 40000000900206951 40000000900206969 4.17683491473
9.61584 40000000900206951 40000000900206948 40000000900206969 3.70877426464
9.68244 40000000900206948 40000000900206946 40000000900206969 3.28303305796
9.70813 40000000900206946 40000000900206945 40000000900206969 3.08482263583
9.717 40000000900206945 40000000900206944 40000000900206969 3.00813107163
9.74958 40000000900206944 40000000900206943 40000000900206969 2.89578500573
9.75075 40000000900206943 40000000900206942 40000000900206969 2.73314261732
9.15502 40000000900207043 40000000900207042 40000000900207055 6.49159774567
9.1573 40000000900207042 40000000900207036 40000000900207055 4.99593346816
9.18376 40000000900207036 40000000900207035 40000000900207055 4.93938066349
9.22845 40000000900207035 40000000900207034 40000000900207055 4.66451770247
9.23799 40000000900207034 40000000900207033 40000000900207055 4.42803373661
9.25648 40000000900207033 40000000900207032 40000000900207055 4.17683491473
9.26187 40000000900207032 40000000900207031 40000000900207055 4.00794511147
9.30602 40000000900207031 40000000900207030 40000000900207055 3.93726108473
9.33866 40000000900207030 40000000900207029 40000000900207055 3.70877426464
9.53044 40000000900207029 40000000900207027 40000000900207055 3.08482263583
9.55113 40000000900207027 40000000900207026 40000000900207055 3.00813107163
9.13154 40000000900207071 40000000900207070 40000000900207078 6.01075739884
9.16407 40000000900207070 40000000900207069 40000000900207078 5.84661374788
9.18376 40000000900207069 40000000900207057 40000000900207078 3.28303305796
9.00337 40000000900207263 40000000900207262 40000000900207268 7.59510714987
9.09375 40000000900207262 40000000900207260 40000000900207268 7.00541704554
9.13634 40000000900207260 40000000900207259 40000000900207268 6.85511726265
9.2672 40000000900207259 40000000900207258 40000000900207268 6.49159774567
9.45261 40000000900207258 40000000900207257 40000000900207268 6.14490120342
9.71574 40000000900207257 40000000900207254 40000000900207268 5.52976580795
9.77608 40000000900207254 40000000900207253 40000000900207268 5.22758097313
9.81127 40000000900207253 40000000900207252 40000000900207268 4.99593346816
9.85124 40000000900207252 40000000900207251 40000000900207268 4.93938066349
9.92857 40000000900207251 40000000900207250 40000000900207268 4.66451770247
9.93507 40000000900207250 40000000900207249 40000000900207268 4.42803373661
9.97629 40000000900207249 40000000900207248 40000000900207268 4.17683491473
9.99287 40000000900207248 40000000900207247 40000000900207268 4.00794511147
10.0104 40000000900207247 40000000900207246 40000000900207268 3.93726108473
10.0555 40000000900207246 40000000900207245 40000000900207268 3.70877426464
10.1245 40000000900207245 40000000900207244 40000000900207268 3.49086136926
10.1267 40000000900207244 40000000900207243 40000000900207268 3.28303305796
10.1672 40000000900207243 40000000900207242 40000000900207268 3.08482263583
10.1707 40000000900207242 40000000900207241 40000000900207268 3.00813107163
10.1792 40000000900207241 40000000900207240 40000000900207268 2.89578500573
10.204 40000000900207240 40000000900207239 40000000900207268 2.73314261732
10.2071 40000000900207239 40000000900207238 40000000900207268 2.5772902716
10.2306 40000000900207238 40000000900207237 40000000900207268 2.44422570455
10.2429 40000000900207237 40000000900207236 40000000900207268 2.31611074396
10.2617 40000000900207236 40000000900207235 40000000900207268 2.20792547238
10.2982 40000000900207235 40000000900207234 40000000900207268 2.1032696526
10.3078 40000000900207234 40000000900207233 40000000900207268 2.00202813925
10.3135 40000000900207233 40000000900207232 40000000900207268 1.90408954353
10.3516 40000000900207232 40000000900207231 40000000900207268 1.82268925262
10.3802 40000000900207231 40000000900207230 40000000900207268 1.74357057433
10.397 40000000900207230 40000000900207229 40000000900207268 1.66666955611
10.4397 40000000900207229 40000000900207228 40000000900207268 1.60423452207
10.4513 40000000900207228 40000000900207227 40000000900207268 1.53123902916
10.4676 40000000900207227 40000000900207226 40000000900207268 1.47197484527
10.4725 40000000900207226 40000000900207225 40000000900207268 1.41409822037
10.4811 40000000900207225 40000000900207224 40000000900207268 1.3575766674
10.4976 40000000900207224 40000000900207222 40000000900207268 1.24847261425
10.5232 40000000900207222 40000000900207221 40000000900207268 1.20625808078
10.5751 40000000900207221 40000000900207218 40000000900207268 1.07445789455
10.6063 40000000900207218 40000000900207217 40000000900207268 1.03551044566
10.6404 40000000900207217 40000000900207214 40000000900207268 0.950531351585
10.6506 40000000900207214 40000000900207212 40000000900207268 0.886896937575
10.6874 40000000900207212 40000000900207211 40000000900207268 0.851470900625
10.717 40000000900207211 40000000900207210 40000000900207268 0.816709979012
9.00337 40000000900207323 40000000900207322 40000000900207332 7.23627606617
9.03763 40000000900207322 40000000900207321 40000000900207332 7.00541704554
9.0666 40000000900207321 40000000900207320 40000000900207332 6.85511726265
9.13394 40000000900207320 40000000900207319 40000000900207332 6.49159774567
9.15042 40000000900207319 40000000900207318 40000000900207332 6.14490120342
9.15502 40000000900207318 40000000900207314 40000000900207332 5.22758097313
9.19641 40000000900207314 40000000900207313 40000000900207332 4.99593346816
9.01614 40000000900207427 40000000900207426 40000000900207438 4.99593346816
9.0666 40000000900207426 40000000900207424 40000000900207438 4.66451770247
9.09898 40000000900207424 40000000900207423 40000000900207438 4.42803373661
9.13154 40000000900207423 40000000900207422 40000000900207438 4.17683491473
9.16852 40000000900207422 40000000900207419 40000000900207438 3.70877426464
9.22262 40000000900207419 40000000900207418 40000000900207438 3.49086136926
9.27072 40000000900207418 40000000900207415 40000000900207438 3.00813107163
9.27938 40000000900207415 40000000900207410 40000000900207438 2.31611074396
9.16852 40000000900207544 40000000900207543 40000000900207557 4.66451770247
9.2026 40000000900207543 40000000900207542 40000000900207557 4.42803373661
9.24918 40000000900207542 40000000900207541 40000000900207557 4.17683491473
9.26365 40000000900207541 40000000900207540 40000000900207557 4.00794511147
9.27072 40000000900207540 40000000900207539 40000000900207557 3.93726108473
9.34165 40000000900207539 40000000900207538 40000000900207557 3.70877426464
9.53044 40000000900207538 40000000900207537 40000000900207557 3.49086136926
9.58298 40000000900207537 40000000900207533 40000000900207557 2.89578500573
9.5931 40000000900207533 40000000900207532 40000000900207557 2.73314261732
9.72996 40000000900207532 40000000900207531 40000000900207557 2.5772902716
9.84428 40000000900207531 40000000900207530 40000000900207557 2.44422570455
9.90646 40000000900207530 40000000900207529 40000000900207557 2.31611074396
9.92934 40000000900207529 40000000900207528 40000000900207557 2.20792547238
10.0024 40000000900207528 40000000900207527 40000000900207557 2.1032696526
10.0702 40000000900207527 40000000900207526 40000000900207557 2.00202813925
10.085 40000000900207526 40000000900207524 40000000900207557 1.82268925262
9.49221 40000000900207572 40000000900207571 40000000900207591 3.08482263583
9.08038 40000000900207618 40000000900207617 40000000900207630 3.49086136926
9.25648 40000000900207617 40000000900207616 40000000900207630 3.28303305796
9.2929 40000000900207616 40000000900207615 40000000900207630 3.08482263583
9.01928 40000000900207653 40000000900207652 40000000900207671 2.31611074396
9.04358 40000000900207740 40000000900207739 40000000900207758 4.17683491473
9.06378 40000000900207739 40000000900207738 40000000900207758 4.00794511147
9.13871 40000000900207738 40000000900207736 40000000900207758 3.70877426464
9.14578 40000000900207736 40000000900207735 40000000900207758 3.49086136926
9.17293 40000000900207735 40000000900207734 40000000900207758 3.28303305796
9.21272 40000000900207734 40000000900207733 40000000900207758 3.08482263583
9.30923 40000000900207733 40000000900207731 40000000900207758 2.89578500573
9.31083 40000000900207731 40000000900207730 40000000900207758 2.73314261732
9.18802 40000000900207931 40000000900207930 40000000900207936 5.22758097313
9.2361 40000000900207930 40000000900207929 40000000900207936 4.99593346816
9.37732 40000000900207929 40000000900207925 40000000900207936 4.17683491473
9.40001 40000000900207925 40000000900207924 40000000900207936 4.00794511147
9.4651 40000000900207924 40000000900207922 40000000900207936 3.70877426464
9.50465 40000000900207922 40000000900207921 40000000900207936 3.49086136926
9.5207 40000000900207921 40000000900207920 40000000900207936 3.28303305796
9.52754 40000000900207920 40000000900207917 40000000900207936 2.89578500573
9.54091 40000000900207917 40000000900207916 40000000900207936 2.73314261732
9.6573 40000000900207916 40000000900207915 40000000900207936 2.5772902716
9.67075 40000000900207915 40000000900207913 40000000900207936 2.31611074396
9.72136 40000000900207913 40000000900207910 40000000900207936 2.00202813925
9.75421 40000000900207910 40000000900207909 40000000900207936 1.90408954353
9.76444 40000000900207909 40000000900207908 40000000900207936 1.82268925262
9.09375 40000000900208124 40000000900208123 40000000900208128 7.59510714987
9.12668 40000000900208123 40000000900208122 40000000900208128 7.23627606617
9.20055 40000000900208122 40000000900208121 40000000900208128 7.00541704554
9.23037 40000000900208121 40000000900208120 40000000900208128 6.85511726265
9.39081 40000000900208120 40000000900208119 40000000900208128 6.49159774567
9.51175 40000000900208119 40000000900208118 40000000900208128 6.14490120342
9.55204 40000000900208118 40000000900208117 40000000900208128 6.01075739884
9.56111 40000000900208117 40000000900208116 40000000900208128 5.84661374788
9.59059 40000000900208116 40000000900208115 40000000900208128 5.52976580795
9.64638 40000000900208115 40000000900208114 40000000900208128 5.22758097313
9.70813 40000000900208114 40000000900208113 40000000900208128 4.99593346816
9.72813 40000000900208113 40000000900208112 40000000900208128 4.93938066349
9.75822 40000000900208112 40000000900208110 40000000900208128 4.42803373661
9.79377 40000000900208110 40000000900208108 40000000900208128 4.00794511147
9.84194 40000000900208108 40000000900208106 40000000900208128 3.70877426464
9.96475 40000000900208106 40000000900208105 40000000900208128 3.49086136926
9.96898 40000000900208105 40000000900208095 40000000900208128 2.1032696526
