logMh | fpID | subhaloID | main leaf ID | z
9.21072 50000000900219450 50000000900219449 50000000900219454 15.4502666289
9.2845 50000000900219449 50000000900219448 50000000900219454 14.7634960164
9.38547 50000000900219448 50000000900219447 50000000900219454 14.0339921445
9.54091 50000000900219447 50000000900219446 50000000900219454 13.3382482898
9.66017 50000000900219446 50000000900219445 50000000900219454 12.6747021048
9.77935 50000000900219445 50000000900219444 50000000900219454 12.0418635439
9.8666 50000000900219444 50000000900219443 50000000900219454 11.4973879548
9.94445 50000000900219443 50000000900219442 50000000900219454 10.9190331982
10.0477 50000000900219442 50000000900219441 50000000900219454 10.3674435724
10.1031 50000000900219441 50000000900219440 50000000900219454 9.99659046619
10.1054 50000000900219440 50000000900219439 50000000900219454 9.84138043947
10.1486 50000000900219439 50000000900219438 50000000900219454 9.38877127194
10.2459 50000000900219438 50000000900219437 50000000900219454 9.00233985416
10.2581 50000000900219437 50000000900219436 50000000900219454 8.9079991856
10.3206 50000000900219436 50000000900219435 50000000900219454 8.44947629437
10.4114 50000000900219435 50000000900219434 50000000900219454 8.01217294887
10.4717 50000000900219434 50000000900219433 50000000900219454 7.59510714987
10.5186 50000000900219433 50000000900219432 50000000900219454 7.23627606617
10.5435 50000000900219432 50000000900219431 50000000900219454 7.00541704554
10.562 50000000900219431 50000000900219430 50000000900219454 6.85511726265
10.6127 50000000900219430 50000000900219429 50000000900219454 6.49159774567
10.6693 50000000900219429 50000000900219428 50000000900219454 6.14490120342
10.6876 50000000900219428 50000000900219427 50000000900219454 6.01075739884
10.7284 50000000900219427 50000000900219426 50000000900219454 5.84661374788
10.8297 50000000900219426 50000000900219425 50000000900219454 5.52976580795
10.9154 50000000900219425 50000000900219424 50000000900219454 5.22758097313
10.9672 50000000900219424 50000000900219423 50000000900219454 4.99593346816
10.9828 50000000900219423 50000000900219422 50000000900219454 4.93938066349
11.0377 50000000900219422 50000000900219421 50000000900219454 4.66451770247
11.0504 50000000900219421 50000000900219420 50000000900219454 4.42803373661
11.1028 50000000900219420 50000000900219419 50000000900219454 4.17683491473
11.1389 50000000900219419 50000000900219418 50000000900219454 4.00794511147
11.1555 50000000900219418 50000000900219417 50000000900219454 3.93726108473
11.2002 50000000900219417 50000000900219416 50000000900219454 3.70877426464
11.2035 50000000900219416 50000000900219413 50000000900219454 3.08482263583
11.2161 50000000900219413 50000000900219412 50000000900219454 3.00813107163
11.2209 50000000900219412 50000000900219411 50000000900219454 2.89578500573
11.2599 50000000900219411 50000000900219410 50000000900219454 2.73314261732
11.3032 50000000900219410 50000000900219409 50000000900219454 2.5772902716
11.3313 50000000900219409 50000000900219408 50000000900219454 2.44422570455
11.3429 50000000900219408 50000000900219407 50000000900219454 2.31611074396
11.3609 50000000900219407 50000000900219406 50000000900219454 2.20792547238
11.4013 50000000900219406 50000000900219405 50000000900219454 2.1032696526
11.4563 50000000900219405 50000000900219404 50000000900219454 2.00202813925
11.5659 50000000900219404 50000000900219403 50000000900219454 1.90408954353
11.7552 50000000900219403 50000000900219402 50000000900219454 1.82268925262
11.8356 50000000900219402 50000000900219401 50000000900219454 1.74357057433
11.845 50000000900219401 50000000900219400 50000000900219454 1.66666955611
11.9473 50000000900219400 50000000900219399 50000000900219454 1.60423452207
12.0194 50000000900219399 50000000900219398 50000000900219454 1.53123902916
12.0317 50000000900219398 50000000900219396 50000000900219454 1.41409822037
12.045 50000000900219396 50000000900219395 50000000900219454 1.3575766674
12.0613 50000000900219395 50000000900219394 50000000900219454 1.30237845991
12.0623 50000000900219394 50000000900219392 50000000900219454 1.20625808078
12.063 50000000900219392 50000000900219391 50000000900219454 1.15460271236
12.0711 50000000900219391 50000000900219390 50000000900219454 1.11415056377
12.0775 50000000900219390 50000000900219387 50000000900219454 0.997294225782
12.0788 50000000900219387 50000000900219386 50000000900219454 0.987852810816
12.0901 50000000900219386 50000000900219385 50000000900219454 0.950531351585
12.0929 50000000900219385 50000000900219384 50000000900219454 0.923000816178
12.1038 50000000900219384 50000000900219383 50000000900219454 0.886896937575
12.1179 50000000900219383 50000000900219382 50000000900219454 0.851470900625
12.135 50000000900219382 50000000900219381 50000000900219454 0.816709979012
12.1478 50000000900219381 50000000900219380 50000000900219454 0.791068248946
12.1724 50000000900219380 50000000900219379 50000000900219454 0.757441372616
12.1815 50000000900219379 50000000900219378 50000000900219454 0.732636182022
12.1953 50000000900219378 50000000900219377 50000000900219454 0.700106353719
12.2061 50000000900219377 50000000900219376 50000000900219454 0.676110411213
12.2084 50000000900219376 50000000900219375 50000000900219454 0.644641840685
12.2138 50000000900219375 50000000900219374 50000000900219454 0.621428745243
12.2176 50000000900219374 50000000900219373 50000000900219454 0.598543288188
12.2188 50000000900219373 50000000900219367 50000000900219454 0.460917794181
12.222 50000000900219367 50000000900219366 50000000900219454 0.440297849248
12.2278 50000000900219366 50000000900219365 50000000900219454 0.419968941997
12.2301 50000000900219365 50000000900219364 50000000900219454 0.399926964614
12.2351 50000000900219364 50000000900219363 50000000900219454 0.38016786726
12.2373 50000000900219363 50000000900219362 50000000900219454 0.360687657262
12.2385 50000000900219362 50000000900219361 50000000900219454 0.347853841858
12.2388 50000000900219361 50000000900219360 50000000900219454 0.328829724206
12.2397 50000000900219360 50000000900219359 50000000900219454 0.310074120128
12.2405 50000000900219359 50000000900219357 50000000900219454 0.273353346578
12.2421 50000000900219357 50000000900219356 50000000900219454 0.261343256161
12.2451 50000000900219356 50000000900219355 50000000900219454 0.243540181555
12.2462 50000000900219355 50000000900219354 50000000900219454 0.22598838626
12.2471 50000000900219354 50000000900219353 50000000900219454 0.214425035514
12.2504 50000000900219353 50000000900219352 50000000900219454 0.197284182376
12.2521 50000000900219352 50000000900219351 50000000900219454 0.180385261706
12.2522 50000000900219351 50000000900219350 50000000900219454 0.169252033244
12.2566 50000000900219350 50000000900219349 50000000900219454 0.152748768902
12.2599 50000000900219349 50000000900219348 50000000900219454 0.14187620397
12.2635 50000000900219348 50000000900219347 50000000900219454 0.125759332411
12.2668 50000000900219347 50000000900219346 50000000900219454 0.109869940459
12.2694 50000000900219346 50000000900219345 50000000900219454 0.0994018026302
12.2729 50000000900219345 50000000900219344 50000000900219454 0.0838844307975
12.2769 50000000900219344 50000000900219343 50000000900219454 0.0736613846564
12.2791 50000000900219343 50000000900219342 50000000900219454 0.0585073227945
9.07216 50000000900219475 50000000900219474 50000000900219484 9.00233985416
9.17946 50000000900219495 50000000900219494 50000000900219498 10.9190331982
9.28788 50000000900219494 50000000900219493 50000000900219498 10.3674435724
9.30278 50000000900219493 50000000900219492 50000000900219498 9.99659046619
9.32497 50000000900219492 50000000900219491 50000000900219498 9.84138043947
9.35627 50000000900219491 50000000900219490 50000000900219498 9.38877127194
9.32805 50000000900219635 50000000900219634 50000000900219642 7.23627606617
9.03463 50000000900219664 50000000900219663 50000000900219668 6.85511726265
9.0316 50000000900219706 50000000900219705 50000000900219710 9.38877127194
9.03463 50000000900219705 50000000900219704 50000000900219710 9.00233985416
9.04062 50000000900219704 50000000900219703 50000000900219710 8.9079991856
9.05235 50000000900219703 50000000900219702 50000000900219710 8.44947629437
9.16407 50000000900219702 50000000900219701 50000000900219710 8.01217294887
9.31401 50000000900219701 50000000900219699 50000000900219710 7.23627606617
9.35338 50000000900219699 50000000900219697 50000000900219710 6.85511726265
9.36622 50000000900219697 50000000900219696 50000000900219710 6.49159774567
9.07766 50000000900219771 50000000900219770 50000000900219774 9.00233985416
9.13394 50000000900219770 50000000900219767 50000000900219774 8.01217294887
9.30115 50000000900219767 50000000900219766 50000000900219774 7.59510714987
9.43617 50000000900219766 50000000900219765 50000000900219774 7.23627606617
9.48479 50000000900219765 50000000900219764 50000000900219774 7.00541704554
9.50567 50000000900219764 50000000900219763 50000000900219774 6.85511726265
9.57523 50000000900219763 50000000900219762 50000000900219774 6.49159774567
9.68312 50000000900219762 50000000900219761 50000000900219774 6.14490120342
9.72691 50000000900219761 50000000900219760 50000000900219774 6.01075739884
9.03763 50000000900219894 50000000900219893 50000000900219905 6.49159774567
9.03763 50000000900219893 50000000900219892 50000000900219905 6.14490120342
9.04945 50000000900219929 50000000900219928 50000000900219936 8.01217294887
9.21272 50000000900219928 50000000900219927 50000000900219936 7.59510714987
9.25466 50000000900219927 50000000900219926 50000000900219936 7.23627606617
9.27938 50000000900219926 50000000900219925 50000000900219936 7.00541704554
9.28956 50000000900219925 50000000900219924 50000000900219936 6.85511726265
9.37181 50000000900219924 50000000900219923 50000000900219936 6.49159774567
9.43617 50000000900219923 50000000900219922 50000000900219936 6.14490120342
9.45145 50000000900219922 50000000900219921 50000000900219936 6.01075739884
9.45376 50000000900219921 50000000900219920 50000000900219936 5.84661374788
9.29951 50000000900219960 50000000900219959 50000000900219966 6.85511726265
9.51074 50000000900219959 50000000900219957 50000000900219966 6.14490120342
9.51675 50000000900219957 50000000900219956 50000000900219966 6.01075739884
9.55569 50000000900219956 50000000900219955 50000000900219966 5.84661374788
9.61266 50000000900219955 50000000900219954 50000000900219966 5.52976580795
9.13154 50000000900219976 50000000900219975 50000000900219976 7.59510714987
9.14578 50000000900219975 50000000900219973 50000000900219976 7.00541704554
9.10157 50000000900220071 50000000900220070 50000000900220081 7.59510714987
9.12912 50000000900220070 50000000900220069 50000000900220081 7.23627606617
9.13634 50000000900220069 50000000900220068 50000000900220081 7.00541704554
9.13871 50000000900220068 50000000900220065 50000000900220081 6.14490120342
9.13634 50000000900220237 50000000900220236 50000000900220252 4.17683491473
9.06096 50000000900220285 50000000900220284 50000000900220299 4.42803373661
9.12424 50000000900220542 50000000900220541 50000000900220556 3.70877426464
9.14108 50000000900220541 50000000900220539 50000000900220556 3.28303305796
9.01614 50000000900220646 50000000900220645 50000000900220653 5.22758097313
9.05811 50000000900220645 50000000900220644 50000000900220653 4.99593346816
9.08038 50000000900220644 50000000900220643 50000000900220653 4.93938066349
9.3156 50000000900220643 50000000900220642 50000000900220653 4.66451770247
9.39214 50000000900220642 50000000900220640 50000000900220653 4.17683491473
9.06939 50000000900220663 50000000900220662 50000000900220674 4.93938066349
9.19013 50000000900220662 50000000900220660 50000000900220674 4.42803373661
9.02855 50000000900220697 50000000900220696 50000000900220710 4.00794511147
9.03763 50000000900220696 50000000900220695 50000000900220710 3.93726108473
9.08845 50000000900220695 50000000900220693 50000000900220710 3.49086136926
9.10926 50000000900220693 50000000900220691 50000000900220710 3.08482263583
9.05524 50000000900220731 50000000900220730 50000000900220738 4.17683491473
9.06378 50000000900220730 50000000900220728 50000000900220738 3.93726108473
9.0666 50000000900220728 50000000900220727 50000000900220738 3.70877426464
9.07216 50000000900220727 50000000900220726 50000000900220738 3.49086136926
9.04945 50000000900220857 50000000900220856 50000000900220874 4.93938066349
9.43136 50000000900220856 50000000900220855 50000000900220874 4.66451770247
9.05811 50000000900220914 50000000900220913 50000000900220925 7.00541704554
9.13394 50000000900220913 50000000900220908 50000000900220925 5.84661374788
9.23799 50000000900220908 50000000900220907 50000000900220925 5.52976580795
9.27246 50000000900220907 50000000900220901 50000000900220925 4.00794511147
9.44797 50000000900220901 50000000900220896 50000000900220925 3.08482263583
9.50669 50000000900220896 50000000900220895 50000000900220925 3.00813107163
9.53428 50000000900220895 50000000900220894 50000000900220925 2.89578500573
9.08845 50000000900220986 50000000900220985 50000000900220996 4.42803373661
9.11681 50000000900220985 50000000900220984 50000000900220996 4.17683491473
9.13154 50000000900220984 50000000900220983 50000000900220996 4.00794511147
9.13871 50000000900220983 50000000900220980 50000000900220996 3.49086136926
9.18802 50000000900220980 50000000900220979 50000000900220996 3.28303305796
9.33866 50000000900220979 50000000900220978 50000000900220996 3.08482263583
9.31401 50000000900221025 50000000900221024 50000000900221030 4.42803373661
9.36199 50000000900221024 50000000900221022 50000000900221030 4.00794511147
9.10415 50000000900221041 50000000900221040 50000000900221048 4.99593346816
9.19433 50000000900221040 50000000900221038 50000000900221048 4.66451770247
9.00337 50000000900221073 50000000900221072 50000000900221086 4.42803373661
9.0316 50000000900221413 50000000900221412 50000000900221419 8.01217294887
9.14811 50000000900221412 50000000900221411 50000000900221419 7.59510714987
9.25284 50000000900221411 50000000900221410 50000000900221419 7.23627606617
9.30278 50000000900221410 50000000900221409 50000000900221419 7.00541704554
9.40902 50000000900221409 50000000900221408 50000000900221419 6.85511726265
9.51475 50000000900221408 50000000900221407 50000000900221419 6.49159774567
9.55569 50000000900221407 50000000900221402 50000000900221419 5.22758097313
9.57436 50000000900221402 50000000900221400 50000000900221419 4.93938066349
9.57783 50000000900221400 50000000900221399 50000000900221419 4.66451770247
9.60381 50000000900221399 50000000900221398 50000000900221419 4.42803373661
9.66725 50000000900221398 50000000900221397 50000000900221419 4.17683491473
9.72568 50000000900221397 50000000900221396 50000000900221419 4.00794511147
9.0066 50000000900221462 50000000900221461 50000000900221478 3.49086136926
9.07492 50000000900221461 50000000900221458 50000000900221478 3.00813107163
9.08038 50000000900221458 50000000900221456 50000000900221478 2.73314261732
9.08578 50000000900221456 50000000900221455 50000000900221478 2.5772902716
9.08578 50000000900221455 50000000900221453 50000000900221478 2.31611074396
9.04358 50000000900221692 50000000900221691 50000000900221697 10.3674435724
9.11431 50000000900221691 50000000900221690 50000000900221697 9.99659046619
9.13634 50000000900221690 50000000900221689 50000000900221697 9.84138043947
9.32805 50000000900221689 50000000900221688 50000000900221697 9.38877127194
9.48586 50000000900221688 50000000900221687 50000000900221697 9.00233985416
9.51175 50000000900221687 50000000900221686 50000000900221697 8.9079991856
9.61266 50000000900221686 50000000900221685 50000000900221697 8.44947629437
9.65514 50000000900221685 50000000900221684 50000000900221697 8.01217294887
9.7826 50000000900221684 50000000900221683 50000000900221697 7.59510714987
9.91488 50000000900221683 50000000900221682 50000000900221697 7.23627606617
10.0456 50000000900221682 50000000900221681 50000000900221697 7.00541704554
10.1136 50000000900221681 50000000900221680 50000000900221697 6.85511726265
10.2952 50000000900221680 50000000900221679 50000000900221697 6.49159774567
10.3924 50000000900221679 50000000900221678 50000000900221697 6.14490120342
10.417 50000000900221678 50000000900221677 50000000900221697 6.01075739884
10.4513 50000000900221677 50000000900221676 50000000900221697 5.84661374788
10.5241 50000000900221676 50000000900221675 50000000900221697 5.52976580795
10.583 50000000900221675 50000000900221674 50000000900221697 5.22758097313
10.615 50000000900221674 50000000900221673 50000000900221697 4.99593346816
10.6365 50000000900221673 50000000900221672 50000000900221697 4.93938066349
10.6579 50000000900221672 50000000900221671 50000000900221697 4.66451770247
10.6807 50000000900221671 50000000900221670 50000000900221697 4.42803373661
10.8131 50000000900221670 50000000900221669 50000000900221697 4.17683491473
10.8943 50000000900221669 50000000900221668 50000000900221697 4.00794511147
10.9103 50000000900221668 50000000900221667 50000000900221697 3.93726108473
11.0708 50000000900221667 50000000900221666 50000000900221697 3.70877426464
11.1334 50000000900221666 50000000900221665 50000000900221697 3.49086136926
11.1717 50000000900221665 50000000900221664 50000000900221697 3.28303305796
11.2097 50000000900221664 50000000900221663 50000000900221697 3.08482263583
11.2419 50000000900221663 50000000900221662 50000000900221697 3.00813107163
11.2916 50000000900221662 50000000900221661 50000000900221697 2.89578500573
11.3449 50000000900221661 50000000900221660 50000000900221697 2.73314261732
11.3925 50000000900221660 50000000900221659 50000000900221697 2.5772902716
11.4146 50000000900221659 50000000900221658 50000000900221697 2.44422570455
11.4286 50000000900221658 50000000900221657 50000000900221697 2.31611074396
11.4534 50000000900221657 50000000900221656 50000000900221697 2.20792547238
11.4678 50000000900221656 50000000900221655 50000000900221697 2.1032696526
11.4811 50000000900221655 50000000900221654 50000000900221697 2.00202813925
12.0155 50000000900221654 50000000900221648 50000000900221697 1.47197484527
9.07492 50000000900221759 50000000900221758 50000000900221764 9.99659046619
9.2087 50000000900221758 50000000900221757 50000000900221764 9.84138043947
9.43377 50000000900221757 50000000900221756 50000000900221764 9.38877127194
9.48586 50000000900221756 50000000900221755 50000000900221764 9.00233985416
9.51074 50000000900221755 50000000900221754 50000000900221764 8.9079991856
9.5956 50000000900221754 50000000900221753 50000000900221764 8.44947629437
9.66514 50000000900221753 50000000900221752 50000000900221764 8.01217294887
9.7378 50000000900221752 50000000900221751 50000000900221764 7.59510714987
9.77224 50000000900221751 50000000900221750 50000000900221764 7.23627606617
9.0066 50000000900221787 50000000900221786 50000000900221797 6.85511726265
9.26187 50000000900221786 50000000900221784 50000000900221797 6.14490120342
9.30763 50000000900221784 50000000900221783 50000000900221797 6.01075739884
9.15273 50000000900221799 50000000900221798 50000000900221811 6.49159774567
9.04653 50000000900221841 50000000900221840 50000000900221849 8.44947629437
9.27072 50000000900221840 50000000900221839 50000000900221849 8.01217294887
9.30923 50000000900221839 50000000900221838 50000000900221849 7.59510714987
9.33716 50000000900221838 50000000900221837 50000000900221849 7.23627606617
9.54744 50000000900221988 50000000900221987 50000000900221998 5.84661374788
9.65078 50000000900221987 50000000900221986 50000000900221998 5.52976580795
9.75248 50000000900221986 50000000900221985 50000000900221998 5.22758097313
9.77224 50000000900221985 50000000900221982 50000000900221998 4.66451770247
9.31083 50000000900222031 50000000900222030 50000000900222038 6.49159774567
9.36481 50000000900222030 50000000900222029 50000000900222038 6.14490120342
9.37181 50000000900222029 50000000900222028 50000000900222038 6.01075739884
9.01614 50000000900222097 50000000900222096 50000000900222110 5.22758097313
9.04358 50000000900222096 50000000900222091 50000000900222110 4.17683491473
9.05235 50000000900222091 50000000900222090 50000000900222110 4.00794511147
9.05524 50000000900222090 50000000900222089 50000000900222110 3.93726108473
9.05235 50000000900222181 50000000900222180 50000000900222185 9.00233985416
9.1663 50000000900222180 50000000900222179 50000000900222185 8.9079991856
9.19433 50000000900222179 50000000900222178 50000000900222185 8.44947629437
9.40518 50000000900222178 50000000900222177 50000000900222185 8.01217294887
9.63442 50000000900222177 50000000900222176 50000000900222185 7.59510714987
9.86259 50000000900222176 50000000900222175 50000000900222185 7.23627606617
9.97248 50000000900222175 50000000900222174 50000000900222185 7.00541704554
10.0716 50000000900222174 50000000900222172 50000000900222185 6.49159774567
10.1272 50000000900222172 50000000900222171 50000000900222185 6.14490120342
10.1337 50000000900222171 50000000900222170 50000000900222185 6.01075739884
10.2018 50000000900222170 50000000900222169 50000000900222185 5.84661374788
10.2376 50000000900222169 50000000900222168 50000000900222185 5.52976580795
10.3102 50000000900222168 50000000900222167 50000000900222185 5.22758097313
10.3187 50000000900222167 50000000900222166 50000000900222185 4.99593346816
10.3223 50000000900222166 50000000900222165 50000000900222185 4.93938066349
10.3583 50000000900222165 50000000900222164 50000000900222185 4.66451770247
10.4289 50000000900222164 50000000900222163 50000000900222185 4.42803373661
9.81328 50000000900222193 50000000900222192 50000000900222199 6.85511726265
9.02548 50000000900222207 50000000900222206 50000000900222209 9.00233985416
9.14811 50000000900222206 50000000900222205 50000000900222209 8.9079991856
9.39478 50000000900222205 50000000900222204 50000000900222209 8.44947629437
9.09898 50000000900222229 50000000900222228 50000000900222233 8.9079991856
9.27246 50000000900222228 50000000900222227 50000000900222233 8.44947629437
9.01614 50000000900222261 50000000900222260 50000000900222264 10.3674435724
9.05811 50000000900222260 50000000900222259 50000000900222264 9.99659046619
9.06378 50000000900222259 50000000900222258 50000000900222264 9.84138043947
9.16852 50000000900222258 50000000900222257 50000000900222264 9.38877127194
9.22457 50000000900222257 50000000900222256 50000000900222264 9.00233985416
9.22457 50000000900222256 50000000900222255 50000000900222264 8.9079991856
9.26896 50000000900222255 50000000900222254 50000000900222264 8.44947629437
9.31874 50000000900222254 50000000900222253 50000000900222264 8.01217294887
9.4606 50000000900222253 50000000900222252 50000000900222264 7.59510714987
9.55387 50000000900222252 50000000900222251 50000000900222264 7.23627606617
9.00012 50000000900222356 50000000900222355 50000000900222367 4.93938066349
9.00337 50000000900222355 50000000900222354 50000000900222367 4.66451770247
9.00337 50000000900222439 50000000900222438 50000000900222445 7.23627606617
9.05235 50000000900222438 50000000900222437 50000000900222445 7.00541704554
9.07766 50000000900222437 50000000900222436 50000000900222445 6.85511726265
9.17946 50000000900222436 50000000900222435 50000000900222445 6.49159774567
9.33415 50000000900222435 50000000900222434 50000000900222445 6.14490120342
9.39871 50000000900222434 50000000900222433 50000000900222445 6.01075739884
9.48799 50000000900222433 50000000900222432 50000000900222445 5.84661374788
9.57869 50000000900222432 50000000900222431 50000000900222445 5.52976580795
9.59477 50000000900222431 50000000900222430 50000000900222445 5.22758097313
9.77444 50000000900222430 50000000900222429 50000000900222445 4.99593346816
9.7826 50000000900222429 50000000900222428 50000000900222445 4.93938066349
9.83578 50000000900222428 50000000900222427 50000000900222445 4.66451770247
9.21671 50000000900222489 50000000900222488 50000000900222500 4.42803373661
9.11681 50000000900222511 50000000900222510 50000000900222523 3.93726108473
9.07766 50000000900222545 50000000900222544 50000000900222553 5.52976580795
9.11431 50000000900222544 50000000900222543 50000000900222553 5.22758097313
9.32187 50000000900222543 50000000900222542 50000000900222553 4.99593346816
9.54836 50000000900222542 50000000900222540 50000000900222553 4.66451770247
9.57087 50000000900222569 50000000900222568 50000000900222575 4.00794511147
9.0066 50000000900222730 50000000900222729 50000000900222743 4.66451770247
9.0316 50000000900222729 50000000900222728 50000000900222743 4.42803373661
9.08845 50000000900222728 50000000900222727 50000000900222743 4.17683491473
9.50465 50000000900222727 50000000900222724 50000000900222743 3.70877426464
9.07492 50000000900222961 50000000900222960 50000000900222963 9.84138043947
9.15956 50000000900222960 50000000900222954 50000000900222963 7.59510714987
9.21671 50000000900222954 50000000900222953 50000000900222963 7.23627606617
9.22845 50000000900222953 50000000900222951 50000000900222963 6.85511726265
9.32497 50000000900222951 50000000900222950 50000000900222963 6.49159774567
9.50158 50000000900222950 50000000900222949 50000000900222963 6.14490120342
9.52851 50000000900222949 50000000900222948 50000000900222963 6.01075739884
9.60543 50000000900222948 50000000900222946 50000000900222963 5.52976580795
9.61504 50000000900222946 50000000900222945 50000000900222963 5.22758097313
9.64564 50000000900222945 50000000900222944 50000000900222963 4.99593346816
9.6804 50000000900222944 50000000900222943 50000000900222963 4.93938066349
9.85124 50000000900222943 50000000900222942 50000000900222963 4.66451770247
9.97352 50000000900222942 50000000900222941 50000000900222963 4.42803373661
10.0567 50000000900222941 50000000900222940 50000000900222963 4.17683491473
10.184 50000000900222940 50000000900222939 50000000900222963 4.00794511147
10.2253 50000000900222939 50000000900222938 50000000900222963 3.93726108473
10.4381 50000000900222938 50000000900222937 50000000900222963 3.70877426464
10.5646 50000000900222937 50000000900222936 50000000900222963 3.49086136926
10.6309 50000000900222936 50000000900222935 50000000900222963 3.28303305796
9.17512 50000000900223013 50000000900223012 50000000900223020 7.59510714987
9.27594 50000000900223012 50000000900223011 50000000900223020 7.23627606617
9.35048 50000000900223011 50000000900223009 50000000900223020 6.85511726265
9.37042 50000000900223009 50000000900223007 50000000900223020 6.14490120342
9.46733 50000000900223007 50000000900223004 50000000900223020 5.52976580795
9.51375 50000000900223004 50000000900223003 50000000900223020 5.22758097313
9.58213 50000000900223003 50000000900223002 50000000900223020 4.99593346816
9.17073 50000000900223063 50000000900223062 50000000900223083 4.42803373661
9.48479 50000000900223062 50000000900223061 50000000900223083 4.17683491473
9.54278 50000000900223061 50000000900223059 50000000900223083 3.93726108473
9.06939 50000000900223107 50000000900223106 50000000900223116 4.66451770247
9.05524 50000000900223168 50000000900223167 50000000900223179 6.14490120342
9.11681 50000000900223167 50000000900223165 50000000900223179 5.84661374788
9.17073 50000000900223165 50000000900223164 50000000900223179 5.52976580795
9.19433 50000000900223164 50000000900223163 50000000900223179 5.22758097313
9.1193 50000000900223211 50000000900223210 50000000900223215 8.01217294887
9.23988 50000000900223210 50000000900223209 50000000900223215 7.59510714987
9.25648 50000000900223209 50000000900223208 50000000900223215 7.23627606617
9.2828 50000000900223208 50000000900223207 50000000900223215 7.00541704554
9.31083 50000000900223207 50000000900223206 50000000900223215 6.85511726265
9.41156 50000000900223206 50000000900223205 50000000900223215 6.49159774567
9.55204 50000000900223205 50000000900223204 50000000900223215 6.14490120342
9.61977 50000000900223204 50000000900223203 50000000900223215 6.01075739884
9.6756 50000000900223203 50000000900223202 50000000900223215 5.84661374788
9.81728 50000000900223202 50000000900223198 50000000900223215 4.66451770247
9.93241 50000000900223198 50000000900223197 50000000900223215 4.42803373661
9.70941 50000000900223218 50000000900223217 50000000900223218 5.52976580795
9.10926 50000000900223231 50000000900223230 50000000900223239 7.23627606617
9.11431 50000000900223230 50000000900223229 50000000900223239 7.00541704554
9.16182 50000000900223229 50000000900223228 50000000900223239 6.85511726265
9.75879 50000000900223228 50000000900223223 50000000900223239 5.22758097313
9.06378 50000000900223248 50000000900223247 50000000900223252 5.22758097313
9.32031 50000000900223247 50000000900223246 50000000900223252 4.99593346816
9.01614 50000000900223285 50000000900223284 50000000900223291 6.01075739884
9.06939 50000000900223284 50000000900223283 50000000900223291 5.84661374788
9.15042 50000000900223283 50000000900223282 50000000900223291 5.52976580795
9.17073 50000000900223282 50000000900223281 50000000900223291 5.22758097313
9.23037 50000000900223281 50000000900223280 50000000900223291 4.99593346816
9.25466 50000000900223280 50000000900223278 50000000900223291 4.66451770247
9.35914 50000000900223278 50000000900223276 50000000900223291 4.17683491473
9.11431 50000000900223315 50000000900223314 50000000900223330 4.66451770247
9.04945 50000000900223374 50000000900223373 50000000900223382 8.44947629437
9.21272 50000000900223373 50000000900223372 50000000900223382 8.01217294887
9.22066 50000000900223372 50000000900223371 50000000900223382 7.59510714987
9.34165 50000000900223371 50000000900223370 50000000900223382 7.23627606617
9.3974 50000000900223370 50000000900223368 50000000900223382 6.85511726265
9.4503 50000000900223368 50000000900223367 50000000900223382 6.49159774567
9.52169 50000000900223367 50000000900223366 50000000900223382 6.14490120342
9.54744 50000000900223366 50000000900223365 50000000900223382 6.01075739884
9.61106 50000000900223365 50000000900223363 50000000900223382 5.52976580795
9.66514 50000000900223363 50000000900223362 50000000900223382 5.22758097313
9.71385 50000000900223362 50000000900223361 50000000900223382 4.99593346816
9.74784 50000000900223361 50000000900223359 50000000900223382 4.66451770247
9.77499 50000000900223359 50000000900223358 50000000900223382 4.42803373661
9.77827 50000000900223358 50000000900223357 50000000900223382 4.17683491473
10.0804 50000000900223357 50000000900223353 50000000900223382 3.49086136926
9.02548 50000000900223446 50000000900223445 50000000900223454 4.66451770247
9.07492 50000000900223445 50000000900223443 50000000900223454 4.17683491473
9.12424 50000000900223443 50000000900223442 50000000900223454 4.00794511147
9.02855 50000000900223869 50000000900223868 50000000900223870 7.59510714987
9.12668 50000000900223868 50000000900223867 50000000900223870 7.23627606617
9.31243 50000000900223867 50000000900223863 50000000900223870 6.14490120342
9.37457 50000000900223863 50000000900223858 50000000900223870 4.99593346816
9.5956 50000000900223858 50000000900223857 50000000900223870 4.93938066349
9.65078 50000000900223857 50000000900223856 50000000900223870 4.66451770247
9.79166 50000000900223856 50000000900223855 50000000900223870 4.42803373661
9.94815 50000000900223855 50000000900223854 50000000900223870 4.17683491473
9.95833 50000000900223854 50000000900223853 50000000900223870 4.00794511147
9.96084 50000000900223853 50000000900223850 50000000900223870 3.49086136926
9.09637 50000000900223923 50000000900223922 50000000900223934 7.23627606617
9.11681 50000000900223922 50000000900223921 50000000900223934 7.00541704554
9.11681 50000000900223921 50000000900223920 50000000900223934 6.85511726265
9.19848 50000000900223920 50000000900223919 50000000900223934 6.49159774567
9.22457 50000000900223919 50000000900223918 50000000900223934 6.14490120342
9.24548 50000000900223918 50000000900223917 50000000900223934 6.01075739884
9.27072 50000000900223917 50000000900223915 50000000900223934 5.52976580795
9.31243 50000000900223915 50000000900223914 50000000900223934 5.22758097313
9.03463 50000000900223986 50000000900223985 50000000900224005 4.66451770247
9.30602 50000000900224016 50000000900224015 50000000900224017 1.24847261425
9.09375 50000000900224041 50000000900224040 50000000900224054 3.49086136926
9.02548 50000000900224105 50000000900224104 50000000900224116 3.28303305796
9.20055 50000000900224104 50000000900224103 50000000900224116 3.08482263583
9.24548 50000000900224103 50000000900224102 50000000900224116 3.00813107163
9.25101 50000000900224102 50000000900224100 50000000900224116 2.73314261732
9.2862 50000000900224100 50000000900224097 50000000900224116 2.20792547238
9.25828 50000000900224136 50000000900224135 50000000900224136 2.44422570455
9.25828 50000000900224135 50000000900224134 50000000900224136 2.31611074396
9.00012 50000000900224165 50000000900224164 50000000900224174 4.17683491473
9.01614 50000000900224239 50000000900224238 50000000900224253 4.00794511147
9.08309 50000000900224238 50000000900224237 50000000900224253 3.93726108473
9.10671 50000000900224237 50000000900224235 50000000900224253 3.49086136926
9.14344 50000000900224235 50000000900224234 50000000900224253 3.28303305796
9.14578 50000000900224234 50000000900224233 50000000900224253 3.08482263583
9.18376 50000000900224233 50000000900224232 50000000900224253 3.00813107163
9.01298 50000000900224281 50000000900224280 50000000900224289 3.70877426464
9.05811 50000000900224280 50000000900224279 50000000900224289 3.49086136926
9.09898 50000000900224279 50000000900224278 50000000900224289 3.28303305796
9.10415 50000000900224278 50000000900224277 50000000900224289 3.08482263583
9.16852 50000000900224277 50000000900224276 50000000900224289 3.00813107163
9.17946 50000000900224276 50000000900224269 50000000900224289 2.1032696526
9.06939 50000000900224393 50000000900224392 50000000900224405 6.14490120342
9.09637 50000000900224392 50000000900224390 50000000900224405 5.84661374788
9.23037 50000000900224390 50000000900224389 50000000900224405 5.52976580795
9.32497 50000000900224389 50000000900224387 50000000900224405 4.99593346816
9.34016 50000000900224387 50000000900224385 50000000900224405 4.66451770247
9.37181 50000000900224385 50000000900224384 50000000900224405 4.42803373661
9.0098 50000000900224493 50000000900224492 50000000900224499 9.00233985416
9.05524 50000000900224492 50000000900224491 50000000900224499 8.9079991856
9.33111 50000000900224491 50000000900224490 50000000900224499 8.44947629437
9.3974 50000000900224490 50000000900224489 50000000900224499 8.01217294887
9.5026 50000000900224489 50000000900224488 50000000900224499 7.59510714987
9.64044 50000000900224488 50000000900224487 50000000900224499 7.23627606617
9.71385 50000000900224487 50000000900224485 50000000900224499 6.85511726265
9.81528 50000000900224485 50000000900224483 50000000900224499 6.01075739884
9.85718 50000000900224483 50000000900224482 50000000900224499 5.84661374788
9.87843 50000000900224482 50000000900224481 50000000900224499 5.52976580795
9.92041 50000000900224481 50000000900224480 50000000900224499 5.22758097313
9.98381 50000000900224480 50000000900224479 50000000900224499 4.99593346816
9.99519 50000000900224479 50000000900224478 50000000900224499 4.93938066349
10.1267 50000000900224478 50000000900224477 50000000900224499 4.66451770247
10.2177 50000000900224477 50000000900224475 50000000900224499 4.17683491473
10.2681 50000000900224475 50000000900224474 50000000900224499 4.00794511147
10.2959 50000000900224474 50000000900224473 50000000900224499 3.93726108473
10.6454 50000000900224473 50000000900224471 50000000900224499 3.49086136926
10.8777 50000000900224471 50000000900224470 50000000900224499 3.28303305796
10.984 50000000900224470 50000000900224469 50000000900224499 3.08482263583
11.0128 50000000900224469 50000000900224468 50000000900224499 3.00813107163
11.0366 50000000900224468 50000000900224467 50000000900224499 2.89578500573
11.0849 50000000900224467 50000000900224466 50000000900224499 2.73314261732
11.1014 50000000900224466 50000000900224465 50000000900224499 2.5772902716
11.1588 50000000900224465 50000000900224463 50000000900224499 2.31611074396
9.66088 50000000900224501 50000000900224500 50000000900224512 7.00541704554
9.76106 50000000900224520 50000000900224519 50000000900224530 6.49159774567
9.76219 50000000900224519 50000000900224518 50000000900224530 6.14490120342
9.21072 50000000900224532 50000000900224531 50000000900224538 4.99593346816
9.01298 50000000900224567 50000000900224566 50000000900224569 7.23627606617
9.01298 50000000900224566 50000000900224565 50000000900224569 7.00541704554
9.04358 50000000900224565 50000000900224564 50000000900224569 6.85511726265
9.19641 50000000900224564 50000000900224563 50000000900224569 6.49159774567
9.10671 50000000900224589 50000000900224588 50000000900224592 7.00541704554
9.30763 50000000900224588 50000000900224582 50000000900224592 5.52976580795
9.00012 50000000900224669 50000000900224668 50000000900224677 6.49159774567
9.13394 50000000900224668 50000000900224667 50000000900224677 6.14490120342
9.29787 50000000900224667 50000000900224666 50000000900224677 6.01075739884
9.30923 50000000900224666 50000000900224663 50000000900224677 5.22758097313
9.33866 50000000900224663 50000000900224660 50000000900224677 4.66451770247
9.04062 50000000900224707 50000000900224706 50000000900224711 4.00794511147
9.07216 50000000900224874 50000000900224873 50000000900224881 6.85511726265
9.15502 50000000900224873 50000000900224872 50000000900224881 6.49159774567
9.24175 50000000900224872 50000000900224871 50000000900224881 6.14490120342
9.26187 50000000900224871 50000000900224870 50000000900224881 6.01075739884
9.47505 50000000900224870 50000000900224868 50000000900224881 5.52976580795
9.55478 50000000900224868 50000000900224867 50000000900224881 5.22758097313
9.62445 50000000900224867 50000000900224866 50000000900224881 4.99593346816
9.63366 50000000900224866 50000000900224865 50000000900224881 4.93938066349
9.70557 50000000900224865 50000000900224864 50000000900224881 4.66451770247
9.71448 50000000900224864 50000000900224863 50000000900224881 4.42803373661
9.72507 50000000900224863 50000000900224862 50000000900224881 4.17683491473
9.76836 50000000900224862 50000000900224859 50000000900224881 3.70877426464
9.0316 50000000900224964 50000000900224963 50000000900224973 6.01075739884
9.09637 50000000900224963 50000000900224962 50000000900224973 5.84661374788
9.13394 50000000900224962 50000000900224961 50000000900224973 5.52976580795
9.2026 50000000900224961 50000000900224960 50000000900224973 5.22758097313
9.27594 50000000900224960 50000000900224959 50000000900224973 4.99593346816
9.45376 50000000900224959 50000000900224957 50000000900224973 4.66451770247
9.50465 50000000900224957 50000000900224956 50000000900224973 4.42803373661
9.54185 50000000900224956 50000000900224955 50000000900224973 4.17683491473
9.00337 50000000900224982 50000000900224981 50000000900224992 6.01075739884
9.02239 50000000900224981 50000000900224980 50000000900224992 5.84661374788
9.03763 50000000900224980 50000000900224979 50000000900224992 5.52976580795
9.02239 50000000900225077 50000000900225076 50000000900225085 8.01217294887
9.10926 50000000900225076 50000000900225075 50000000900225085 7.59510714987
9.15502 50000000900225075 50000000900225074 50000000900225085 7.23627606617
9.1663 50000000900225074 50000000900225073 50000000900225085 7.00541704554
9.21472 50000000900225073 50000000900225072 50000000900225085 6.85511726265
9.26008 50000000900225072 50000000900225071 50000000900225085 6.49159774567
9.37595 50000000900225071 50000000900225070 50000000900225085 6.14490120342
9.40131 50000000900225070 50000000900225069 50000000900225085 6.01075739884
9.43856 50000000900225069 50000000900225068 50000000900225085 5.84661374788
9.50872 50000000900225068 50000000900225067 50000000900225085 5.52976580795
9.51275 50000000900225067 50000000900225066 50000000900225085 5.22758097313
9.52657 50000000900225066 50000000900225064 50000000900225085 4.93938066349
9.55751 50000000900225064 50000000900225062 50000000900225085 4.42803373661
9.7366 50000000900225062 50000000900225061 50000000900225085 4.17683491473
9.78152 50000000900225061 50000000900225060 50000000900225085 4.00794511147
9.05811 50000000900225138 50000000900225137 50000000900225141 9.00233985416
9.21072 50000000900225137 50000000900225136 50000000900225141 8.9079991856
9.34756 50000000900225136 50000000900225134 50000000900225141 8.01217294887
9.40001 50000000900225134 50000000900225132 50000000900225141 7.23627606617
9.41282 50000000900225132 50000000900225130 50000000900225141 6.85511726265
9.44914 50000000900225130 50000000900225126 50000000900225141 5.84661374788
9.64932 50000000900225126 50000000900225122 50000000900225141 4.93938066349
9.70234 50000000900225122 50000000900225121 50000000900225141 4.66451770247
10.1183 50000000900225121 50000000900225119 50000000900225141 4.17683491473
10.2823 50000000900225119 50000000900225118 50000000900225141 4.00794511147
10.3382 50000000900225118 50000000900225117 50000000900225141 3.93726108473
10.4729 50000000900225117 50000000900225116 50000000900225141 3.70877426464
9.02239 50000000900225157 50000000900225156 50000000900225167 6.85511726265
9.13394 50000000900225156 50000000900225153 50000000900225167 6.01075739884
9.05235 50000000900225198 50000000900225197 50000000900225203 9.00233985416
9.07216 50000000900225197 50000000900225196 50000000900225203 8.9079991856
9.09898 50000000900225196 50000000900225195 50000000900225203 8.44947629437
9.11179 50000000900225195 50000000900225194 50000000900225203 8.01217294887
9.18589 50000000900225194 50000000900225193 50000000900225203 7.59510714987
9.21272 50000000900225193 50000000900225192 50000000900225203 7.23627606617
9.2845 50000000900225192 50000000900225191 50000000900225203 7.00541704554
9.2862 50000000900225191 50000000900225190 50000000900225203 6.85511726265
9.34609 50000000900225190 50000000900225189 50000000900225203 6.49159774567
9.39081 50000000900225189 50000000900225188 50000000900225203 6.14490120342
9.39081 50000000900225188 50000000900225187 50000000900225203 6.01075739884
9.43136 50000000900225187 50000000900225186 50000000900225203 5.84661374788
9.4503 50000000900225186 50000000900225185 50000000900225203 5.52976580795
9.48905 50000000900225185 50000000900225184 50000000900225203 5.22758097313
9.54278 50000000900225184 50000000900225183 50000000900225203 4.99593346816
9.95327 50000000900225183 50000000900225180 50000000900225203 4.42803373661
9.07492 50000000900225256 50000000900225255 50000000900225262 7.59510714987
9.10415 50000000900225255 50000000900225254 50000000900225262 7.23627606617
9.10671 50000000900225254 50000000900225253 50000000900225262 7.00541704554
9.13394 50000000900225253 50000000900225252 50000000900225262 6.85511726265
9.16182 50000000900225252 50000000900225251 50000000900225262 6.49159774567
9.19433 50000000900225251 50000000900225250 50000000900225262 6.14490120342
9.23037 50000000900225250 50000000900225248 50000000900225262 5.84661374788
9.2342 50000000900225248 50000000900225247 50000000900225262 5.52976580795
9.30115 50000000900225247 50000000900225246 50000000900225262 5.22758097313
9.37732 50000000900225246 50000000900225245 50000000900225262 4.99593346816
9.42649 50000000900225245 50000000900225244 50000000900225262 4.93938066349
9.47615 50000000900225244 50000000900225243 50000000900225262 4.66451770247
9.06939 50000000900225366 50000000900225365 50000000900225377 7.59510714987
9.09898 50000000900225365 50000000900225364 50000000900225377 7.23627606617
9.12912 50000000900225364 50000000900225363 50000000900225377 7.00541704554
9.22651 50000000900225363 50000000900225362 50000000900225377 6.85511726265
9.33415 50000000900225362 50000000900225361 50000000900225377 6.49159774567
9.48905 50000000900225361 50000000900225360 50000000900225377 6.14490120342
9.51972 50000000900225360 50000000900225359 50000000900225377 6.01075739884
9.56111 50000000900225359 50000000900225358 50000000900225377 5.84661374788
9.60946 50000000900225358 50000000900225357 50000000900225377 5.52976580795
9.66584 50000000900225357 50000000900225356 50000000900225377 5.22758097313
10.1962 50000000900225356 50000000900225353 50000000900225377 4.66451770247
10.324 50000000900225353 50000000900225352 50000000900225377 4.42803373661
10.3885 50000000900225352 50000000900225351 50000000900225377 4.17683491473
10.3996 50000000900225351 50000000900225350 50000000900225377 4.00794511147
10.4043 50000000900225350 50000000900225349 50000000900225377 3.93726108473
10.4238 50000000900225349 50000000900225348 50000000900225377 3.70877426464
10.4431 50000000900225348 50000000900225347 50000000900225377 3.49086136926
9.16852 50000000900225449 50000000900225448 50000000900225452 9.84138043947
9.24733 50000000900225448 50000000900225446 50000000900225452 9.00233985416
9.29622 50000000900225446 50000000900225443 50000000900225452 8.01217294887
9.43136 50000000900225443 50000000900225442 50000000900225452 7.59510714987
9.44329 50000000900225442 50000000900225441 50000000900225452 7.23627606617
9.47286 50000000900225441 50000000900225440 50000000900225452 7.00541704554
9.50363 50000000900225440 50000000900225439 50000000900225452 6.85511726265
9.54744 50000000900225439 50000000900225438 50000000900225452 6.49159774567
9.59143 50000000900225438 50000000900225437 50000000900225452 6.14490120342
9.60462 50000000900225437 50000000900225436 50000000900225452 6.01075739884
9.60462 50000000900225436 50000000900225435 50000000900225452 5.84661374788
9.6865 50000000900225435 50000000900225434 50000000900225452 5.52976580795
9.82124 50000000900225434 50000000900225433 50000000900225452 5.22758097313
9.04653 50000000900225468 50000000900225467 50000000900225472 4.42803373661
9.01298 50000000900225501 50000000900225500 50000000900225504 9.38877127194
9.0316 50000000900225500 50000000900225499 50000000900225504 9.00233985416
9.11681 50000000900225499 50000000900225497 50000000900225504 8.44947629437
9.14344 50000000900225497 50000000900225496 50000000900225504 8.01217294887
9.20055 50000000900225496 50000000900225495 50000000900225504 7.59510714987
9.2361 50000000900225495 50000000900225494 50000000900225504 7.23627606617
9.26543 50000000900225494 50000000900225493 50000000900225504 7.00541704554
9.3044 50000000900225493 50000000900225492 50000000900225504 6.85511726265
9.34016 50000000900225492 50000000900225491 50000000900225504 6.49159774567
9.55478 50000000900225491 50000000900225490 50000000900225504 6.14490120342
9.60866 50000000900225490 50000000900225488 50000000900225504 5.84661374788
9.87409 50000000900225488 50000000900225485 50000000900225504 4.99593346816
9.89993 50000000900225485 50000000900225484 50000000900225504 4.93938066349
9.0316 50000000900225575 50000000900225574 50000000900225575 3.70877426464
9.02239 50000000900225642 50000000900225641 50000000900225651 5.52976580795
9.08845 50000000900225641 50000000900225637 50000000900225651 4.66451770247
9.13154 50000000900225637 50000000900225635 50000000900225651 4.17683491473
9.18162 50000000900225635 50000000900225632 50000000900225651 3.70877426464
9.22262 50000000900225632 50000000900225631 50000000900225651 3.49086136926
9.25828 50000000900225631 50000000900225629 50000000900225651 3.08482263583
9.05524 50000000900226498 50000000900226497 50000000900226504 7.59510714987
9.11179 50000000900226497 50000000900226496 50000000900226504 7.23627606617
9.17512 50000000900226496 50000000900226493 50000000900226504 6.49159774567
9.24548 50000000900226493 50000000900226492 50000000900226504 6.14490120342
9.29951 50000000900226492 50000000900226491 50000000900226504 6.01075739884
9.34461 50000000900226491 50000000900226490 50000000900226504 5.84661374788
9.41282 50000000900226490 50000000900226489 50000000900226504 5.52976580795
9.43737 50000000900226489 50000000900226488 50000000900226504 5.22758097313
9.46844 50000000900226488 50000000900226487 50000000900226504 4.99593346816
9.5207 50000000900226487 50000000900226486 50000000900226504 4.93938066349
9.0098 50000000900226659 50000000900226658 50000000900226671 4.17683491473
9.04358 50000000900226658 50000000900226657 50000000900226671 4.00794511147
9.1193 50000000900226657 50000000900226656 50000000900226671 3.93726108473
9.13154 50000000900226656 50000000900226654 50000000900226671 3.49086136926
9.2026 50000000900226654 50000000900226653 50000000900226671 3.28303305796
9.29622 50000000900226653 50000000900226652 50000000900226671 3.08482263583
9.3044 50000000900226652 50000000900226650 50000000900226671 2.89578500573
9.32805 50000000900226650 50000000900226649 50000000900226671 2.73314261732
9.35338 50000000900226649 50000000900226648 50000000900226671 2.5772902716
9.36763 50000000900226648 50000000900226645 50000000900226671 2.20792547238
9.39214 50000000900226645 50000000900226644 50000000900226671 2.1032696526
9.4026 50000000900226644 50000000900226642 50000000900226671 1.90408954353
9.44797 50000000900226642 50000000900226641 50000000900226671 1.82268925262
9.45833 50000000900226641 50000000900226639 50000000900226671 1.66666955611
9.02548 50000000900226836 50000000900226835 50000000900226842 4.00794511147
9.10926 50000000900226835 50000000900226833 50000000900226842 3.70877426464
9.11431 50000000900226833 50000000900226832 50000000900226842 3.49086136926
9.17729 50000000900226832 50000000900226831 50000000900226842 3.28303305796
9.26543 50000000900226831 50000000900226830 50000000900226842 3.08482263583
9.30602 50000000900226830 50000000900226829 50000000900226842 3.00813107163
9.30763 50000000900226829 50000000900226827 50000000900226842 2.73314261732
9.34756 50000000900226827 50000000900226825 50000000900226842 2.44422570455
9.36763 50000000900226825 50000000900226824 50000000900226842 2.31611074396
9.00337 50000000900227256 50000000900227255 50000000900227265 9.84138043947
9.06096 50000000900227255 50000000900227254 50000000900227265 9.38877127194
9.09375 50000000900227254 50000000900227253 50000000900227265 9.00233985416
9.10671 50000000900227253 50000000900227252 50000000900227265 8.9079991856
9.40646 50000000900227252 50000000900227251 50000000900227265 8.44947629437
9.45719 50000000900227251 50000000900227249 50000000900227265 7.59510714987
9.46844 50000000900227249 50000000900227248 50000000900227265 7.23627606617
9.49221 50000000900227248 50000000900227246 50000000900227265 6.85511726265
9.58975 50000000900227246 50000000900227245 50000000900227265 6.49159774567
9.6329 50000000900227245 50000000900227244 50000000900227265 6.14490120342
9.6573 50000000900227244 50000000900227243 50000000900227265 6.01075739884
9.66302 50000000900227243 50000000900227242 50000000900227265 5.84661374788
9.77935 50000000900227242 50000000900227241 50000000900227265 5.52976580795
9.83243 50000000900227241 50000000900227240 50000000900227265 5.22758097313
9.86705 50000000900227240 50000000900227239 50000000900227265 4.99593346816
9.87146 50000000900227239 50000000900227238 50000000900227265 4.93938066349
9.9278 50000000900227238 50000000900227237 50000000900227265 4.66451770247
9.96191 50000000900227237 50000000900227236 50000000900227265 4.42803373661
10.0069 50000000900227236 50000000900227235 50000000900227265 4.17683491473
10.0415 50000000900227235 50000000900227234 50000000900227265 4.00794511147
10.0749 50000000900227234 50000000900227233 50000000900227265 3.93726108473
10.1527 50000000900227233 50000000900227232 50000000900227265 3.70877426464
10.2141 50000000900227232 50000000900227231 50000000900227265 3.49086136926
10.234 50000000900227231 50000000900227230 50000000900227265 3.28303305796
10.2763 50000000900227230 50000000900227229 50000000900227265 3.08482263583
10.279 50000000900227229 50000000900227226 50000000900227265 2.73314261732
9.07216 50000000900227314 50000000900227313 50000000900227324 7.00541704554
9.07216 50000000900227313 50000000900227312 50000000900227324 6.85511726265
9.10415 50000000900227312 50000000900227311 50000000900227324 6.49159774567
9.18162 50000000900227311 50000000900227308 50000000900227324 5.84661374788
9.09111 50000000900227383 50000000900227382 50000000900227391 8.01217294887
9.25101 50000000900227382 50000000900227381 50000000900227391 7.59510714987
9.25466 50000000900227381 50000000900227379 50000000900227391 7.00541704554
9.28956 50000000900227379 50000000900227378 50000000900227391 6.85511726265
9.34461 50000000900227378 50000000900227377 50000000900227391 6.49159774567
9.3634 50000000900227377 50000000900227376 50000000900227391 6.14490120342
9.37042 50000000900227376 50000000900227373 50000000900227391 5.52976580795
9.38277 50000000900227373 50000000900227370 50000000900227391 4.93938066349
9.41784 50000000900227370 50000000900227368 50000000900227391 4.42803373661
9.03763 50000000900227396 50000000900227395 50000000900227401 9.00233985416
9.03763 50000000900227456 50000000900227455 50000000900227466 4.66451770247
9.05235 50000000900227455 50000000900227454 50000000900227466 4.42803373661
9.05235 50000000900227454 50000000900227453 50000000900227466 4.17683491473
9.06096 50000000900227453 50000000900227452 50000000900227466 4.00794511147
9.07766 50000000900227452 50000000900227451 50000000900227466 3.93726108473
9.08038 50000000900227451 50000000900227449 50000000900227466 3.49086136926
9.08038 50000000900227449 50000000900227448 50000000900227466 3.28303305796
9.08578 50000000900227448 50000000900227447 50000000900227466 3.08482263583
9.10157 50000000900227447 50000000900227443 50000000900227466 2.5772902716
9.10671 50000000900227443 50000000900227442 50000000900227466 2.44422570455
9.00337 50000000900227539 50000000900227538 50000000900227553 6.14490120342
9.0666 50000000900227538 50000000900227537 50000000900227553 6.01075739884
9.0666 50000000900227537 50000000900227536 50000000900227553 5.84661374788
9.12912 50000000900227536 50000000900227535 50000000900227553 5.52976580795
9.13871 50000000900227535 50000000900227533 50000000900227553 4.99593346816
9.19223 50000000900227533 50000000900227531 50000000900227553 4.66451770247
9.21472 50000000900227531 50000000900227530 50000000900227553 4.42803373661
9.21472 50000000900227530 50000000900227528 50000000900227553 4.00794511147
9.22066 50000000900227528 50000000900227526 50000000900227553 3.70877426464
9.22651 50000000900227526 50000000900227523 50000000900227553 3.08482263583
9.23799 50000000900227523 50000000900227522 50000000900227553 3.00813107163
9.33111 50000000900227522 50000000900227521 50000000900227553 2.89578500573
9.06378 50000000900227776 50000000900227775 50000000900227792 4.00794511147
9.09111 50000000900227775 50000000900227774 50000000900227792 3.93726108473
9.17073 50000000900227774 50000000900227773 50000000900227792 3.70877426464
9.21072 50000000900227773 50000000900227772 50000000900227792 3.49086136926
9.21072 50000000900227772 50000000900227769 50000000900227792 3.00813107163
9.06096 50000000900227895 50000000900227894 50000000900227906 4.66451770247
9.11179 50000000900227894 50000000900227893 50000000900227906 4.42803373661
9.1193 50000000900227893 50000000900227892 50000000900227906 4.17683491473
9.13154 50000000900227892 50000000900227891 50000000900227906 4.00794511147
9.17512 50000000900227891 50000000900227889 50000000900227906 3.70877426464
9.18376 50000000900227889 50000000900227888 50000000900227906 3.49086136926
9.19433 50000000900227888 50000000900227883 50000000900227906 2.73314261732
9.00012 50000000900228317 50000000900228316 50000000900228326 5.84661374788
9.04945 50000000900228316 50000000900228315 50000000900228326 5.52976580795
9.06939 50000000900228315 50000000900228313 50000000900228326 4.99593346816
9.13154 50000000900228313 50000000900228311 50000000900228326 4.66451770247
9.16852 50000000900228311 50000000900228310 50000000900228326 4.42803373661
9.20668 50000000900228310 50000000900228309 50000000900228326 4.17683491473
9.20668 50000000900228309 50000000900228289 50000000900228326 1.60423452207
9.31717 50000000900228383 50000000900228382 50000000900228398 2.44422570455
9.32031 50000000900228382 50000000900228381 50000000900228398 2.31611074396
9.32958 50000000900228381 50000000900228380 50000000900228398 2.20792547238
9.37042 50000000900228380 50000000900228378 50000000900228398 2.00202813925
9.38681 50000000900228378 50000000900228377 50000000900228398 1.90408954353
9.38681 50000000900228377 50000000900228376 50000000900228398 1.82268925262
9.04358 50000000900228594 50000000900228593 50000000900228615 4.17683491473
9.06378 50000000900228593 50000000900228592 50000000900228615 4.00794511147
9.08038 50000000900228592 50000000900228591 50000000900228615 3.93726108473
9.15042 50000000900228591 50000000900228590 50000000900228615 3.70877426464
9.17729 50000000900228590 50000000900228589 50000000900228615 3.49086136926
9.18162 50000000900228589 50000000900228588 50000000900228615 3.28303305796
9.13871 50000000900229068 50000000900229067 50000000900229079 4.99593346816
9.24175 50000000900229067 50000000900229065 50000000900229079 4.66451770247
9.32497 50000000900229065 50000000900229064 50000000900229079 4.42803373661
9.48586 50000000900229064 50000000900229063 50000000900229079 4.17683491473
9.63969 50000000900229063 50000000900229062 50000000900229079 4.00794511147
9.72691 50000000900229062 50000000900229061 50000000900229079 3.93726108473
9.78742 50000000900229061 50000000900229060 50000000900229079 3.70877426464
9.79272 50000000900229060 50000000900229059 50000000900229079 3.49086136926
9.90888 50000000900229059 50000000900229058 50000000900229079 3.28303305796
9.91726 50000000900229058 50000000900229057 50000000900229079 3.08482263583
9.92934 50000000900229057 50000000900229056 50000000900229079 3.00813107163
9.07766 50000000900229106 50000000900229105 50000000900229113 6.14490120342
9.09375 50000000900229105 50000000900229104 50000000900229113 6.01075739884
9.13871 50000000900229104 50000000900229103 50000000900229113 5.84661374788
9.14108 50000000900229103 50000000900229102 50000000900229113 5.52976580795
9.19223 50000000900229102 50000000900229101 50000000900229113 5.22758097313
9.2087 50000000900229101 50000000900229100 50000000900229113 4.99593346816
9.22651 50000000900229100 50000000900229099 50000000900229113 4.93938066349
9.27766 50000000900229099 50000000900229098 50000000900229113 4.66451770247
9.31083 50000000900229098 50000000900229097 50000000900229113 4.42803373661
9.0066 50000000900229431 50000000900229430 50000000900229449 2.89578500573
9.01298 50000000900229430 50000000900229415 50000000900229449 1.41409822037
9.01928 50000000900229415 50000000900229414 50000000900229449 1.3575766674
9.06939 50000000900229542 50000000900229541 50000000900229545 7.00541704554
9.10415 50000000900229541 50000000900229540 50000000900229545 6.85511726265
9.11431 50000000900229540 50000000900229539 50000000900229545 6.49159774567
9.33566 50000000900229539 50000000900229538 50000000900229545 6.14490120342
9.48692 50000000900229538 50000000900229535 50000000900229545 5.52976580795
9.61026 50000000900229535 50000000900229534 50000000900229545 5.22758097313
9.64119 50000000900229534 50000000900229533 50000000900229545 4.99593346816
9.66655 50000000900229533 50000000900229530 50000000900229545 4.42803373661
9.70685 50000000900229530 50000000900229529 50000000900229545 4.17683491473
9.73899 50000000900229529 50000000900229528 50000000900229545 4.00794511147
9.74784 50000000900229528 50000000900229527 50000000900229545 3.93726108473
9.78044 50000000900229527 50000000900229526 50000000900229545 3.70877426464
9.7826 50000000900229526 50000000900229525 50000000900229545 3.49086136926
9.83002 50000000900229525 50000000900229524 50000000900229545 3.28303305796
9.87886 50000000900229524 50000000900229523 50000000900229545 3.08482263583
9.89078 50000000900229523 50000000900229522 50000000900229545 3.00813107163
9.91449 50000000900229522 50000000900229521 50000000900229545 2.89578500573
9.93393 50000000900229521 50000000900229520 50000000900229545 2.73314261732
9.9463 50000000900229520 50000000900229519 50000000900229545 2.5772902716
9.97039 50000000900229519 50000000900229518 50000000900229545 2.44422570455
10.0168 50000000900229518 50000000900229517 50000000900229545 2.31611074396
10.018 50000000900229517 50000000900229516 50000000900229545 2.20792547238
10.0462 50000000900229516 50000000900229515 50000000900229545 2.1032696526
10.0494 50000000900229515 50000000900229513 50000000900229545 1.90408954353
10.0658 50000000900229513 50000000900229512 50000000900229545 1.82268925262
10.068 50000000900229512 50000000900229510 50000000900229545 1.66666955611
9.26543 50000000900229681 50000000900229680 50000000900229697 3.49086136926
9.30278 50000000900229680 50000000900229679 50000000900229697 3.28303305796
9.34016 50000000900229679 50000000900229678 50000000900229697 3.08482263583
9.34609 50000000900229678 50000000900229676 50000000900229697 2.89578500573
9.36622 50000000900229676 50000000900229670 50000000900229697 2.1032696526
9.4026 50000000900229670 50000000900229668 50000000900229697 1.90408954353
9.08845 50000000900229700 50000000900229699 50000000900229705 3.93726108473
9.1663 50000000900229699 50000000900229698 50000000900229705 3.70877426464
9.04653 50000000900229780 50000000900229779 50000000900229788 2.89578500573
9.08309 50000000900229779 50000000900229778 50000000900229788 2.73314261732
9.12424 50000000900229778 50000000900229777 50000000900229788 2.5772902716
9.16407 50000000900229777 50000000900229776 50000000900229788 2.44422570455
9.19013 50000000900229776 50000000900229774 50000000900229788 2.20792547238
9.19013 50000000900229774 50000000900229773 50000000900229788 2.1032696526
9.19223 50000000900229773 50000000900229742 50000000900229788 0.621428745243
9.20055 50000000900229742 50000000900229740 50000000900229788 0.575980845108
9.2026 50000000900229740 50000000900229736 50000000900229788 0.481832943421
9.22651 50000000900229736 50000000900229735 50000000900229788 0.460917794181
9.22651 50000000900229735 50000000900229731 50000000900229788 0.38016786726
9.22651 50000000900229731 50000000900229730 50000000900229788 0.360687657262
9.24175 50000000900229730 50000000900229727 50000000900229788 0.310074120128
9.24548 50000000900229727 50000000900229726 50000000900229788 0.291583239722
9.24548 50000000900229726 50000000900229719 50000000900229788 0.180385261706
9.10926 50000000900229895 50000000900229894 50000000900229906 8.01217294887
9.18802 50000000900229894 50000000900229893 50000000900229906 7.59510714987
9.22262 50000000900229893 50000000900229892 50000000900229906 7.23627606617
9.24918 50000000900229892 50000000900229891 50000000900229906 7.00541704554
9.33415 50000000900229891 50000000900229889 50000000900229906 6.49159774567
9.33415 50000000900229889 50000000900229888 50000000900229906 6.14490120342
9.40131 50000000900229888 50000000900229887 50000000900229906 6.01075739884
9.48586 50000000900229887 50000000900229884 50000000900229906 5.22758097313
9.50771 50000000900229884 50000000900229883 50000000900229906 4.99593346816
9.52754 50000000900229883 50000000900229881 50000000900229906 4.66451770247
9.55569 50000000900229881 50000000900229880 50000000900229906 4.42803373661
9.56379 50000000900229880 50000000900229879 50000000900229906 4.17683491473
9.56468 50000000900229879 50000000900229878 50000000900229906 4.00794511147
9.59642 50000000900229878 50000000900229877 50000000900229906 3.93726108473
9.60136 50000000900229877 50000000900229875 50000000900229906 3.49086136926
9.66725 50000000900229875 50000000900229873 50000000900229906 3.08482263583
9.67698 50000000900229873 50000000900229872 50000000900229906 3.00813107163
9.71887 50000000900229872 50000000900229871 50000000900229906 2.89578500573
9.7342 50000000900229871 50000000900229870 50000000900229906 2.73314261732
9.74314 50000000900229870 50000000900229869 50000000900229906 2.5772902716
9.79847 50000000900229869 50000000900229868 50000000900229906 2.44422570455
9.82025 50000000900229868 50000000900229867 50000000900229906 2.31611074396
9.83958 50000000900229867 50000000900229866 50000000900229906 2.20792547238
9.85215 50000000900229866 50000000900229864 50000000900229906 2.00202813925
9.85261 50000000900229864 50000000900229863 50000000900229906 1.90408954353
9.86259 50000000900229863 50000000900229860 50000000900229906 1.66666955611
9.87058 50000000900229860 50000000900229859 50000000900229906 1.60423452207
9.87365 50000000900229859 50000000900229858 50000000900229906 1.53123902916
9.87539 50000000900229858 50000000900229857 50000000900229906 1.47197484527
9.8767 50000000900229857 50000000900229856 50000000900229906 1.41409822037
9.88101 50000000900229856 50000000900229855 50000000900229906 1.3575766674
9.8823 50000000900229855 50000000900229853 50000000900229906 1.24847261425
