logMh | fpID | subhaloID | main leaf ID | z
9.0098 30000000011040886 30000000011040885 30000000011040887 11.4973879548
9.11179 30000000011040885 30000000011040884 30000000011040887 10.9190331982
9.22845 30000000011040884 30000000011040883 30000000011040887 10.3674435724
9.30923 30000000011040883 30000000011040882 30000000011040887 9.99659046619
9.35194 30000000011040882 30000000011040881 30000000011040887 9.84138043947
9.41534 30000000011040881 30000000011040880 30000000011040887 9.38877127194
9.46397 30000000011040880 30000000011040879 30000000011040887 9.00233985416
9.47724 30000000011040879 30000000011040878 30000000011040887 8.9079991856
9.55387 30000000011040878 30000000011040877 30000000011040887 8.44947629437
9.58298 30000000011040877 30000000011040876 30000000011040887 8.01217294887
9.67629 30000000011040876 30000000011040875 30000000011040887 7.59510714987
9.78636 30000000011040875 30000000011040874 30000000011040887 7.23627606617
9.84381 30000000011040874 30000000011040873 30000000011040887 7.00541704554
9.8549 30000000011040873 30000000011040872 30000000011040887 6.85511726265
9.98449 30000000011040872 30000000011040871 30000000011040887 6.49159774567
10.0024 30000000011040871 30000000011040870 30000000011040887 6.14490120342
10.0538 30000000011040870 30000000011040869 30000000011040887 6.01075739884
10.0552 30000000011040869 30000000011040868 30000000011040887 5.84661374788
10.1313 30000000011040868 30000000011040867 30000000011040887 5.52976580795
10.2209 30000000011040867 30000000011040866 30000000011040887 5.22758097313
10.2622 30000000011040866 30000000011040865 30000000011040887 4.99593346816
10.2775 30000000011040865 30000000011040864 30000000011040887 4.93938066349
10.3104 30000000011040864 30000000011040863 30000000011040887 4.66451770247
10.3352 30000000011040863 30000000011040862 30000000011040887 4.42803373661
10.3787 30000000011040862 30000000011040861 30000000011040887 4.17683491473
10.4122 30000000011040861 30000000011040860 30000000011040887 4.00794511147
10.4399 30000000011040860 30000000011040859 30000000011040887 3.93726108473
10.5199 30000000011040859 30000000011040858 30000000011040887 3.70877426464
10.6018 30000000011040858 30000000011040857 30000000011040887 3.49086136926
10.6619 30000000011040857 30000000011040856 30000000011040887 3.28303305796
10.7469 30000000011040856 30000000011040855 30000000011040887 3.08482263583
10.7487 30000000011040855 30000000011040854 30000000011040887 3.00813107163
10.8362 30000000011040854 30000000011040852 30000000011040887 2.73314261732
10.9429 30000000011040852 30000000011040851 30000000011040887 2.5772902716
11.0016 30000000011040851 30000000011040850 30000000011040887 2.44422570455
11.0481 30000000011040850 30000000011040849 30000000011040887 2.31611074396
11.0945 30000000011040849 30000000011040848 30000000011040887 2.20792547238
11.1232 30000000011040848 30000000011040846 30000000011040887 2.00202813925
11.142 30000000011040846 30000000011040845 30000000011040887 1.90408954353
11.1677 30000000011040845 30000000011040844 30000000011040887 1.82268925262
11.2061 30000000011040844 30000000011040843 30000000011040887 1.74357057433
11.227 30000000011040843 30000000011040842 30000000011040887 1.66666955611
11.3142 30000000011040842 30000000011040841 30000000011040887 1.60423452207
11.3866 30000000011040841 30000000011040840 30000000011040887 1.53123902916
11.4098 30000000011040840 30000000011040839 30000000011040887 1.47197484527
11.439 30000000011040839 30000000011040838 30000000011040887 1.41409822037
11.5452 30000000011040838 30000000011040837 30000000011040887 1.3575766674
11.5802 30000000011040837 30000000011040836 30000000011040887 1.30237845991
11.59 30000000011040836 30000000011040835 30000000011040887 1.24847261425
11.6087 30000000011040835 30000000011040834 30000000011040887 1.20625808078
11.6519 30000000011040834 30000000011040833 30000000011040887 1.15460271236
11.6558 30000000011040833 30000000011040831 30000000011040887 1.07445789455
11.6669 30000000011040831 30000000011040830 30000000011040887 1.03551044566
11.6813 30000000011040830 30000000011040829 30000000011040887 0.997294225782
11.6833 30000000011040829 30000000011040828 30000000011040887 0.987852810816
11.6989 30000000011040828 30000000011040827 30000000011040887 0.950531351585
11.7128 30000000011040827 30000000011040826 30000000011040887 0.923000816178
11.7324 30000000011040826 30000000011040825 30000000011040887 0.886896937575
11.7467 30000000011040825 30000000011040824 30000000011040887 0.851470900625
11.7539 30000000011040824 30000000011040823 30000000011040887 0.816709979012
11.7643 30000000011040823 30000000011040822 30000000011040887 0.791068248946
11.7844 30000000011040822 30000000011040821 30000000011040887 0.757441372616
11.7944 30000000011040821 30000000011040820 30000000011040887 0.732636182022
11.8022 30000000011040820 30000000011040819 30000000011040887 0.700106353719
11.8113 30000000011040819 30000000011040818 30000000011040887 0.676110411213
11.812 30000000011040818 30000000011040817 30000000011040887 0.644641840685
11.8221 30000000011040817 30000000011040816 30000000011040887 0.621428745243
11.8393 30000000011040816 30000000011040815 30000000011040887 0.598543288188
11.8656 30000000011040815 30000000011040814 30000000011040887 0.575980845108
11.8726 30000000011040814 30000000011040813 30000000011040887 0.546392183141
11.8809 30000000011040813 30000000011040810 30000000011040887 0.481832943421
11.8866 30000000011040810 30000000011040809 30000000011040887 0.460917794181
11.8944 30000000011040809 30000000011040808 30000000011040887 0.440297849248
11.9048 30000000011040808 30000000011040807 30000000011040887 0.419968941997
11.9092 30000000011040807 30000000011040806 30000000011040887 0.399926964614
11.9124 30000000011040806 30000000011040803 30000000011040887 0.347853841858
11.9165 30000000011040803 30000000011040787 30000000011040887 0.0994018026302
11.9287 30000000011040787 30000000011040786 30000000011040887 0.0838844307975
9.01298 30000000011040913 30000000011040912 30000000011040919 8.44947629437
9.04358 30000000011040912 30000000011040911 30000000011040919 8.01217294887
9.18589 30000000011040911 30000000011040910 30000000011040919 7.59510714987
9.23988 30000000011040910 30000000011040909 30000000011040919 7.23627606617
9.04358 30000000011040925 30000000011040924 30000000011040933 6.49159774567
9.10671 30000000011040924 30000000011040923 30000000011040933 6.14490120342
9.14344 30000000011040923 30000000011040922 30000000011040933 6.01075739884
9.24362 30000000011040938 30000000011040937 30000000011040943 6.14490120342
9.09375 30000000011040954 30000000011040953 30000000011040956 7.00541704554
9.16182 30000000011040953 30000000011040952 30000000011040956 6.85511726265
9.31717 30000000011040952 30000000011040951 30000000011040956 6.49159774567
9.32187 30000000011040951 30000000011040949 30000000011040956 6.01075739884
9.39214 30000000011040949 30000000011040947 30000000011040956 5.52976580795
9.02548 30000000011041012 30000000011041011 30000000011041021 5.84661374788
9.15502 30000000011041011 30000000011041010 30000000011041021 5.22758097313
9.23988 30000000011041010 30000000011041009 30000000011041021 4.99593346816
9.24175 30000000011041009 30000000011041008 30000000011041021 4.93938066349
9.31083 30000000011041008 30000000011041007 30000000011041021 4.66451770247
9.31243 30000000011041007 30000000011041006 30000000011041021 4.42803373661
9.10671 30000000011041023 30000000011041022 30000000011041030 5.52976580795
9.04653 30000000011041056 30000000011041055 30000000011041071 3.70877426464
9.04358 30000000011041124 30000000011041123 30000000011041134 6.85511726265
9.11179 30000000011041123 30000000011041122 30000000011041134 6.49159774567
9.17073 30000000011041122 30000000011041121 30000000011041134 6.14490120342
9.17073 30000000011041121 30000000011041120 30000000011041134 6.01075739884
9.19848 30000000011041120 30000000011041119 30000000011041134 5.84661374788
9.31717 30000000011041119 30000000011041118 30000000011041134 5.52976580795
9.41909 30000000011041118 30000000011041117 30000000011041134 5.22758097313
9.43257 30000000011041117 30000000011041116 30000000011041134 4.99593346816
9.44797 30000000011041116 30000000011041115 30000000011041134 4.93938066349
9.46844 30000000011041115 30000000011041114 30000000011041134 4.66451770247
9.47505 30000000011041114 30000000011041113 30000000011041134 4.42803373661
9.48049 30000000011041113 30000000011041112 30000000011041134 4.17683491473
9.18589 30000000011041253 30000000011041252 30000000011041255 7.23627606617
9.23037 30000000011041252 30000000011041251 30000000011041255 7.00541704554
9.26365 30000000011041251 30000000011041250 30000000011041255 6.85511726265
9.30763 30000000011041250 30000000011041249 30000000011041255 6.49159774567
9.42404 30000000011041249 30000000011041248 30000000011041255 6.14490120342
9.50669 30000000011041248 30000000011041247 30000000011041255 6.01075739884
9.50771 30000000011041247 30000000011041246 30000000011041255 5.84661374788
9.6838 30000000011041246 30000000011041245 30000000011041255 5.52976580795
9.80261 30000000011041245 30000000011041244 30000000011041255 5.22758097313
9.84708 30000000011041244 30000000011041243 30000000011041255 4.99593346816
9.86259 30000000011041243 30000000011041241 30000000011041255 4.66451770247
9.96652 30000000011041241 30000000011041238 30000000011041255 4.00794511147
9.00337 30000000011041359 30000000011041358 30000000011041382 2.00202813925
9.01614 30000000011041440 30000000011041439 30000000011041451 6.49159774567
9.04358 30000000011041439 30000000011041438 30000000011041451 6.14490120342
9.09375 30000000011041438 30000000011041436 30000000011041451 5.84661374788
9.1663 30000000011041436 30000000011041435 30000000011041451 5.52976580795
9.19641 30000000011041435 30000000011041434 30000000011041451 5.22758097313
9.27072 30000000011041434 30000000011041433 30000000011041451 4.99593346816
9.29622 30000000011041433 30000000011041431 30000000011041451 4.66451770247
9.3044 30000000011041431 30000000011041429 30000000011041451 4.17683491473
9.30763 30000000011041429 30000000011041428 30000000011041451 4.00794511147
9.32187 30000000011041428 30000000011041427 30000000011041451 3.93726108473
9.34313 30000000011041427 30000000011041425 30000000011041451 3.49086136926
9.08038 30000000011041501 30000000011041500 30000000011041504 10.3674435724
9.09637 30000000011041500 30000000011041498 30000000011041504 9.84138043947
9.22066 30000000011041498 30000000011041497 30000000011041504 9.38877127194
9.22457 30000000011041497 30000000011041496 30000000011041504 9.00233985416
9.2929 30000000011041496 30000000011041495 30000000011041504 8.9079991856
9.35194 30000000011041495 30000000011041494 30000000011041504 8.44947629437
9.41408 30000000011041494 30000000011041493 30000000011041504 8.01217294887
9.48479 30000000011041493 30000000011041492 30000000011041504 7.59510714987
9.52267 30000000011041492 30000000011041491 30000000011041504 7.23627606617
9.54185 30000000011041491 30000000011041490 30000000011041504 7.00541704554
9.57262 30000000011041490 30000000011041489 30000000011041504 6.85511726265
9.64268 30000000011041489 30000000011041488 30000000011041504 6.49159774567
9.6804 30000000011041488 30000000011041487 30000000011041504 6.14490120342
9.68717 30000000011041487 30000000011041486 30000000011041504 6.01075739884
9.76332 30000000011041486 30000000011041484 30000000011041504 5.52976580795
9.80209 30000000011041484 30000000011041483 30000000011041504 5.22758097313
9.81578 30000000011041483 30000000011041482 30000000011041504 4.99593346816
9.85989 30000000011041482 30000000011041480 30000000011041504 4.66451770247
9.86527 30000000011041480 30000000011041479 30000000011041504 4.42803373661
9.90075 30000000011041479 30000000011041478 30000000011041504 4.17683491473
9.91488 30000000011041478 30000000011041477 30000000011041504 4.00794511147
9.94704 30000000011041477 30000000011041476 30000000011041504 3.93726108473
10.1176 30000000011041476 30000000011041475 30000000011041504 3.70877426464
10.2992 30000000011041475 30000000011041474 30000000011041504 3.49086136926
10.3451 30000000011041474 30000000011041473 30000000011041504 3.28303305796
10.4291 30000000011041473 30000000011041472 30000000011041504 3.08482263583
10.4612 30000000011041472 30000000011041470 30000000011041504 2.89578500573
9.04062 30000000011041526 30000000011041525 30000000011041532 6.01075739884
9.19848 30000000011041525 30000000011041524 30000000011041532 5.84661374788
9.29622 30000000011041524 30000000011041523 30000000011041532 5.52976580795
9.35914 30000000011041523 30000000011041522 30000000011041532 5.22758097313
9.3974 30000000011041522 30000000011041521 30000000011041532 4.99593346816
9.41408 30000000011041521 30000000011041520 30000000011041532 4.93938066349
9.48586 30000000011041520 30000000011041519 30000000011041532 4.66451770247
9.53618 30000000011041519 30000000011041518 30000000011041532 4.42803373661
9.59972 30000000011041518 30000000011041517 30000000011041532 4.17683491473
9.64638 30000000011041517 30000000011041516 30000000011041532 4.00794511147
9.67284 30000000011041516 30000000011041515 30000000011041532 3.93726108473
9.00337 30000000011041577 30000000011041576 30000000011041581 6.14490120342
9.04945 30000000011041576 30000000011041575 30000000011041581 6.01075739884
9.07216 30000000011041575 30000000011041574 30000000011041581 5.84661374788
9.17729 30000000011041574 30000000011041573 30000000011041581 5.52976580795
9.2811 30000000011041573 30000000011041572 30000000011041581 5.22758097313
9.43617 30000000011041572 30000000011041571 30000000011041581 4.99593346816
9.46733 30000000011041571 30000000011041570 30000000011041581 4.93938066349
9.47176 30000000011041570 30000000011041567 30000000011041581 4.17683491473
9.47396 30000000011041567 30000000011041566 30000000011041581 4.00794511147
9.14344 30000000011041771 30000000011041770 30000000011041791 2.20792547238
9.17293 30000000011041770 30000000011041767 30000000011041791 1.82268925262
9.17946 30000000011041767 30000000011041766 30000000011041791 1.74357057433
9.06378 30000000011041859 30000000011041858 30000000011041872 3.49086136926
9.04653 30000000011041899 30000000011041898 30000000011041912 3.28303305796
9.0098 30000000011041927 30000000011041926 30000000011041936 2.1032696526
9.04062 30000000011042100 30000000011042099 30000000011042105 7.59510714987
9.17946 30000000011042099 30000000011042098 30000000011042105 7.23627606617
9.19223 30000000011042098 30000000011042097 30000000011042105 7.00541704554
9.24733 30000000011042097 30000000011042096 30000000011042105 6.85511726265
9.27766 30000000011042096 30000000011042094 30000000011042105 6.14490120342
9.48905 30000000011042094 30000000011042093 30000000011042105 6.01075739884
9.70363 30000000011042093 30000000011042092 30000000011042105 5.84661374788
9.83863 30000000011042092 30000000011042090 30000000011042105 5.22758097313
9.96262 30000000011042090 30000000011042089 30000000011042105 4.99593346816
10.0072 30000000011042089 30000000011042086 30000000011042105 4.42803373661
10.094 30000000011042086 30000000011042085 30000000011042105 4.17683491473
10.169 30000000011042085 30000000011042084 30000000011042105 4.00794511147
10.1931 30000000011042084 30000000011042083 30000000011042105 3.93726108473
10.2051 30000000011042083 30000000011042082 30000000011042105 3.70877426464
10.3112 30000000011042082 30000000011042081 30000000011042105 3.49086136926
10.3784 30000000011042081 30000000011042080 30000000011042105 3.28303305796
10.4573 30000000011042080 30000000011042079 30000000011042105 3.08482263583
10.4781 30000000011042079 30000000011042078 30000000011042105 3.00813107163
10.5005 30000000011042078 30000000011042077 30000000011042105 2.89578500573
10.521 30000000011042077 30000000011042076 30000000011042105 2.73314261732
10.5252 30000000011042076 30000000011042075 30000000011042105 2.5772902716
10.5878 30000000011042075 30000000011042074 30000000011042105 2.44422570455
10.6214 30000000011042074 30000000011042072 30000000011042105 2.20792547238
10.6691 30000000011042072 30000000011042071 30000000011042105 2.1032696526
10.6773 30000000011042071 30000000011042070 30000000011042105 2.00202813925
10.7312 30000000011042070 30000000011042069 30000000011042105 1.90408954353
10.7598 30000000011042069 30000000011042068 30000000011042105 1.82268925262
11.0112 30000000011042068 30000000011042067 30000000011042105 1.74357057433
11.0282 30000000011042067 30000000011042066 30000000011042105 1.66666955611
11.0331 30000000011042066 30000000011042064 30000000011042105 1.53123902916
11.0504 30000000011042064 30000000011042063 30000000011042105 1.47197484527
11.6598 30000000011042063 30000000011042056 30000000011042105 1.11415056377
9.01298 30000000011042124 30000000011042123 30000000011042130 8.44947629437
9.13871 30000000011042123 30000000011042122 30000000011042130 8.01217294887
9.30278 30000000011042122 30000000011042121 30000000011042130 7.59510714987
9.46733 30000000011042121 30000000011042120 30000000011042130 7.23627606617
9.48265 30000000011042120 30000000011042119 30000000011042130 7.00541704554
9.52169 30000000011042119 30000000011042118 30000000011042130 6.85511726265
9.02855 30000000011042162 30000000011042161 30000000011042165 6.49159774567
9.04945 30000000011042161 30000000011042160 30000000011042165 6.14490120342
9.06096 30000000011042160 30000000011042159 30000000011042165 6.01075739884
9.0666 30000000011042159 30000000011042157 30000000011042165 5.52976580795
9.0666 30000000011042220 30000000011042219 30000000011042227 6.01075739884
9.13871 30000000011042219 30000000011042218 30000000011042227 5.84661374788
9.2811 30000000011042218 30000000011042216 30000000011042227 5.22758097313
9.30115 30000000011042216 30000000011042215 30000000011042227 4.99593346816
9.34016 30000000011042215 30000000011042214 30000000011042227 4.93938066349
9.38681 30000000011042214 30000000011042213 30000000011042227 4.66451770247
9.44093 30000000011042213 30000000011042212 30000000011042227 4.42803373661
9.11681 30000000011042267 30000000011042266 30000000011042272 7.00541704554
9.12668 30000000011042266 30000000011042265 30000000011042272 6.85511726265
9.23037 30000000011042265 30000000011042264 30000000011042272 6.49159774567
9.27594 30000000011042264 30000000011042263 30000000011042272 6.14490120342
9.30923 30000000011042263 30000000011042262 30000000011042272 6.01075739884
9.32805 30000000011042262 30000000011042261 30000000011042272 5.84661374788
9.35627 30000000011042261 30000000011042260 30000000011042272 5.52976580795
9.42157 30000000011042260 30000000011042259 30000000011042272 5.22758097313
9.42281 30000000011042259 30000000011042257 30000000011042272 4.93938066349
9.43497 30000000011042257 30000000011042256 30000000011042272 4.66451770247
9.47286 30000000011042256 30000000011042254 30000000011042272 4.17683491473
9.1573 30000000011042317 30000000011042316 30000000011042318 7.23627606617
9.18802 30000000011042316 30000000011042305 30000000011042318 4.66451770247
9.19848 30000000011042305 30000000011042304 30000000011042318 4.42803373661
9.38681 30000000011042304 30000000011042303 30000000011042318 4.17683491473
9.44564 30000000011042303 30000000011042300 30000000011042318 3.70877426464
9.52267 30000000011042300 30000000011042299 30000000011042318 3.49086136926
9.07492 30000000011042538 30000000011042537 30000000011042545 8.44947629437
9.07766 30000000011042537 30000000011042536 30000000011042545 8.01217294887
9.1193 30000000011042536 30000000011042535 30000000011042545 7.59510714987
9.14108 30000000011042535 30000000011042534 30000000011042545 7.23627606617
9.18376 30000000011042534 30000000011042533 30000000011042545 7.00541704554
9.21472 30000000011042533 30000000011042532 30000000011042545 6.85511726265
9.38277 30000000011042532 30000000011042531 30000000011042545 6.49159774567
9.42281 30000000011042531 30000000011042530 30000000011042545 6.14490120342
9.54372 30000000011042530 30000000011042527 30000000011042545 5.52976580795
9.57956 30000000011042527 30000000011042526 30000000011042545 5.22758097313
9.63894 30000000011042526 30000000011042525 30000000011042545 4.99593346816
9.67005 30000000011042525 30000000011042524 30000000011042545 4.93938066349
9.78368 30000000011042524 30000000011042523 30000000011042545 4.66451770247
9.84615 30000000011042523 30000000011042522 30000000011042545 4.42803373661
9.97387 30000000011042522 30000000011042521 30000000011042545 4.17683491473
10.0439 30000000011042521 30000000011042520 30000000011042545 4.00794511147
10.0911 30000000011042520 30000000011042519 30000000011042545 3.93726108473
10.202 30000000011042519 30000000011042518 30000000011042545 3.70877426464
10.3326 30000000011042518 30000000011042517 30000000011042545 3.49086136926
10.3616 30000000011042517 30000000011042516 30000000011042545 3.28303305796
10.4012 30000000011042516 30000000011042515 30000000011042545 3.08482263583
10.4254 30000000011042515 30000000011042514 30000000011042545 3.00813107163
10.4401 30000000011042514 30000000011042513 30000000011042545 2.89578500573
10.4604 30000000011042513 30000000011042512 30000000011042545 2.73314261732
10.4692 30000000011042512 30000000011042511 30000000011042545 2.5772902716
9.07766 30000000011042565 30000000011042564 30000000011042574 5.22758097313
9.01298 30000000011042611 30000000011042610 30000000011042620 5.84661374788
9.09898 30000000011042610 30000000011042609 30000000011042620 5.52976580795
9.10926 30000000011042609 30000000011042608 30000000011042620 5.22758097313
9.12424 30000000011042608 30000000011042607 30000000011042620 4.99593346816
9.15042 30000000011042607 30000000011042606 30000000011042620 4.93938066349
9.07216 30000000011042654 30000000011042653 30000000011042661 8.01217294887
9.08038 30000000011042653 30000000011042652 30000000011042661 7.59510714987
9.16852 30000000011042652 30000000011042651 30000000011042661 7.23627606617
9.25828 30000000011042651 30000000011042650 30000000011042661 7.00541704554
9.2811 30000000011042650 30000000011042649 30000000011042661 6.85511726265
9.29787 30000000011042649 30000000011042648 30000000011042661 6.49159774567
9.33415 30000000011042648 30000000011042647 30000000011042661 6.14490120342
9.36199 30000000011042647 30000000011042646 30000000011042661 6.01075739884
9.39871 30000000011042646 30000000011042645 30000000011042661 5.84661374788
9.44681 30000000011042645 30000000011042644 30000000011042661 5.52976580795
9.4964 30000000011042644 30000000011042642 30000000011042661 4.99593346816
9.51175 30000000011042642 30000000011042641 30000000011042661 4.93938066349
9.62523 30000000011042641 30000000011042639 30000000011042661 4.42803373661
9.01614 30000000011042732 30000000011042731 30000000011042747 5.52976580795
9.0666 30000000011042731 30000000011042730 30000000011042747 5.22758097313
9.09637 30000000011042730 30000000011042729 30000000011042747 4.99593346816
9.15273 30000000011042729 30000000011042728 30000000011042747 4.93938066349
9.20668 30000000011042728 30000000011042727 30000000011042747 4.66451770247
9.2361 30000000011042727 30000000011042725 30000000011042747 4.17683491473
9.01298 30000000011042794 30000000011042793 30000000011042799 8.44947629437
9.02548 30000000011042793 30000000011042792 30000000011042799 8.01217294887
9.07766 30000000011042792 30000000011042791 30000000011042799 7.59510714987
9.17293 30000000011042791 30000000011042790 30000000011042799 7.23627606617
9.18376 30000000011042790 30000000011042789 30000000011042799 7.00541704554
9.25648 30000000011042789 30000000011042788 30000000011042799 6.85511726265
9.4026 30000000011042788 30000000011042787 30000000011042799 6.49159774567
9.41909 30000000011042787 30000000011042786 30000000011042799 6.14490120342
9.4651 30000000011042786 30000000011042785 30000000011042799 6.01075739884
9.46955 30000000011042785 30000000011042784 30000000011042799 5.84661374788
9.50771 30000000011042784 30000000011042783 30000000011042799 5.52976580795
9.55113 30000000011042783 30000000011042782 30000000011042799 5.22758097313
9.61977 30000000011042782 30000000011042781 30000000011042799 4.99593346816
9.62677 30000000011042781 30000000011042780 30000000011042799 4.93938066349
9.76557 30000000011042780 30000000011042779 30000000011042799 4.66451770247
9.83721 30000000011042779 30000000011042778 30000000011042799 4.42803373661
9.86482 30000000011042778 30000000011042777 30000000011042799 4.17683491473
9.90321 30000000011042777 30000000011042776 30000000011042799 4.00794511147
9.91449 30000000011042776 30000000011042775 30000000011042799 3.93726108473
9.92664 30000000011042775 30000000011042774 30000000011042799 3.70877426464
9.93847 30000000011042774 30000000011042769 30000000011042799 2.89578500573
9.96298 30000000011042769 30000000011042768 30000000011042799 2.73314261732
9.1193 30000000011042811 30000000011042810 30000000011042820 5.52976580795
9.12424 30000000011042888 30000000011042887 30000000011042900 5.22758097313
9.14578 30000000011042887 30000000011042886 30000000011042900 4.99593346816
9.21072 30000000011042886 30000000011042884 30000000011042900 4.66451770247
9.32651 30000000011042884 30000000011042882 30000000011042900 4.17683491473
9.35194 30000000011042882 30000000011042876 30000000011042900 3.08482263583
9.35914 30000000011042876 30000000011042875 30000000011042900 3.00813107163
9.37319 30000000011042875 30000000011042873 30000000011042900 2.73314261732
9.02855 30000000011042929 30000000011042928 30000000011042945 3.93726108473
9.05235 30000000011042928 30000000011042927 30000000011042945 3.70877426464
9.06378 30000000011042927 30000000011042926 30000000011042945 3.49086136926
9.08845 30000000011042926 30000000011042920 30000000011042945 2.5772902716
9.10415 30000000011043063 30000000011043062 30000000011043086 2.00202813925
9.12424 30000000011043062 30000000011043061 30000000011043086 1.90408954353
9.12424 30000000011043061 30000000011043060 30000000011043086 1.82268925262
9.13154 30000000011043060 30000000011043059 30000000011043086 1.74357057433
9.06939 30000000011043495 30000000011043494 30000000011043498 10.3674435724
9.20055 30000000011043494 30000000011043493 30000000011043498 9.99659046619
9.3156 30000000011043493 30000000011043491 30000000011043498 9.38877127194
9.33716 30000000011043491 30000000011043490 30000000011043498 9.00233985416
9.36902 30000000011043490 30000000011043489 30000000011043498 8.9079991856
9.44447 30000000011043489 30000000011043488 30000000011043498 8.44947629437
9.50669 30000000011043488 30000000011043487 30000000011043498 8.01217294887
9.54744 30000000011043487 30000000011043486 30000000011043498 7.59510714987
9.66159 30000000011043486 30000000011043485 30000000011043498 7.23627606617
9.7378 30000000011043485 30000000011043484 30000000011043498 7.00541704554
9.76613 30000000011043484 30000000011043483 30000000011043498 6.85511726265
9.84985 30000000011043483 30000000011043482 30000000011043498 6.49159774567
9.88101 30000000011043482 30000000011043481 30000000011043498 6.14490120342
9.91884 30000000011043481 30000000011043479 30000000011043498 5.84661374788
9.9612 30000000011043479 30000000011043478 30000000011043498 5.52976580795
9.98415 30000000011043478 30000000011043477 30000000011043498 5.22758097313
10.1432 30000000011043477 30000000011043474 30000000011043498 4.66451770247
10.2541 30000000011043474 30000000011043473 30000000011043498 4.42803373661
10.3643 30000000011043473 30000000011043472 30000000011043498 4.17683491473
10.4095 30000000011043472 30000000011043471 30000000011043498 4.00794511147
10.4247 30000000011043471 30000000011043470 30000000011043498 3.93726108473
10.4951 30000000011043470 30000000011043469 30000000011043498 3.70877426464
10.5204 30000000011043469 30000000011043468 30000000011043498 3.49086136926
10.5655 30000000011043468 30000000011043467 30000000011043498 3.28303305796
10.6127 30000000011043467 30000000011043466 30000000011043498 3.08482263583
10.6162 30000000011043466 30000000011043465 30000000011043498 3.00813107163
10.6311 30000000011043465 30000000011043464 30000000011043498 2.89578500573
10.665 30000000011043464 30000000011043463 30000000011043498 2.73314261732
10.6868 30000000011043463 30000000011043462 30000000011043498 2.5772902716
10.7168 30000000011043462 30000000011043461 30000000011043498 2.44422570455
10.7596 30000000011043461 30000000011043460 30000000011043498 2.31611074396
10.7716 30000000011043460 30000000011043459 30000000011043498 2.20792547238
10.7903 30000000011043459 30000000011043458 30000000011043498 2.1032696526
10.8273 30000000011043458 30000000011043457 30000000011043498 2.00202813925
10.8614 30000000011043457 30000000011043456 30000000011043498 1.90408954353
9.03763 30000000011043507 30000000011043506 30000000011043517 8.44947629437
9.07766 30000000011043506 30000000011043505 30000000011043517 8.01217294887
9.89036 30000000011043520 30000000011043519 30000000011043520 6.01075739884
9.05811 30000000011043529 30000000011043528 30000000011043539 6.85511726265
9.42404 30000000011043569 30000000011043568 30000000011043578 7.00541704554
9.44564 30000000011043568 30000000011043567 30000000011043578 6.85511726265
9.64932 30000000011043567 30000000011043566 30000000011043578 6.49159774567
9.76836 30000000011043566 30000000011043565 30000000011043578 6.14490120342
9.77935 30000000011043565 30000000011043564 30000000011043578 6.01075739884
9.80466 30000000011043564 30000000011043563 30000000011043578 5.84661374788
9.81926 30000000011043563 30000000011043562 30000000011043578 5.52976580795
9.85808 30000000011043562 30000000011043561 30000000011043578 5.22758097313
9.89538 30000000011043561 30000000011043560 30000000011043578 4.99593346816
9.12668 30000000011043580 30000000011043579 30000000011043584 7.23627606617
9.0066 30000000011043627 30000000011043626 30000000011043634 5.22758097313
9.07216 30000000011043626 30000000011043625 30000000011043634 4.99593346816
9.16407 30000000011043625 30000000011043624 30000000011043634 4.93938066349
9.25828 30000000011043624 30000000011043623 30000000011043634 4.66451770247
9.01614 30000000011043681 30000000011043680 30000000011043691 6.85511726265
9.08038 30000000011043680 30000000011043679 30000000011043691 6.49159774567
9.10671 30000000011043679 30000000011043678 30000000011043691 6.14490120342
9.10671 30000000011043678 30000000011043677 30000000011043691 6.01075739884
9.12424 30000000011043677 30000000011043676 30000000011043691 5.84661374788
9.15956 30000000011043676 30000000011043674 30000000011043691 5.22758097313
9.20668 30000000011043674 30000000011043673 30000000011043691 4.99593346816
9.22845 30000000011043673 30000000011043672 30000000011043691 4.93938066349
9.23037 30000000011043672 30000000011043671 30000000011043691 4.66451770247
9.25284 30000000011043671 30000000011043670 30000000011043691 4.42803373661
9.26896 30000000011043670 30000000011043669 30000000011043691 4.17683491473
9.26896 30000000011043669 30000000011043668 30000000011043691 4.00794511147
9.26896 30000000011043668 30000000011043667 30000000011043691 3.93726108473
9.29457 30000000011043667 30000000011043666 30000000011043691 3.70877426464
9.04653 30000000011043769 30000000011043768 30000000011043776 6.01075739884
9.2087 30000000011043768 30000000011043767 30000000011043776 5.84661374788
9.25284 30000000011043767 30000000011043765 30000000011043776 5.22758097313
9.2828 30000000011043765 30000000011043764 30000000011043776 4.99593346816
9.2929 30000000011043764 30000000011043763 30000000011043776 4.93938066349
9.31083 30000000011043763 30000000011043762 30000000011043776 4.66451770247
9.33263 30000000011043762 30000000011043761 30000000011043776 4.42803373661
9.36622 30000000011043761 30000000011043760 30000000011043776 4.17683491473
9.36763 30000000011043760 30000000011043759 30000000011043776 4.00794511147
9.38547 30000000011043759 30000000011043758 30000000011043776 3.93726108473
9.3974 30000000011043758 30000000011043756 30000000011043776 3.49086136926
9.40902 30000000011043756 30000000011043755 30000000011043776 3.28303305796
9.43257 30000000011043755 30000000011043753 30000000011043776 3.00813107163
9.47066 30000000011043753 30000000011043752 30000000011043776 2.89578500573
9.50872 30000000011043752 30000000011043750 30000000011043776 2.5772902716
10.0847 30000000011043790 30000000011043789 30000000011043790 1.03551044566
9.01614 30000000011044424 30000000011044423 30000000011044441 2.73314261732
9.05811 30000000011044423 30000000011044422 30000000011044441 2.5772902716
9.1193 30000000011044615 30000000011044614 30000000011044626 4.17683491473
9.14811 30000000011044614 30000000011044613 30000000011044626 4.00794511147
9.19641 30000000011044613 30000000011044611 30000000011044626 3.70877426464
9.24175 30000000011044611 30000000011044610 30000000011044626 3.49086136926
9.26896 30000000011044610 30000000011044609 30000000011044626 3.28303305796
9.29951 30000000011044609 30000000011044608 30000000011044626 3.08482263583
9.30602 30000000011044608 30000000011044607 30000000011044626 3.00813107163
9.04945 30000000011044709 30000000011044708 30000000011044714 7.23627606617
9.06096 30000000011044708 30000000011044707 30000000011044714 7.00541704554
9.07492 30000000011044707 30000000011044706 30000000011044714 6.85511726265
9.10157 30000000011044706 30000000011044705 30000000011044714 6.49159774567
9.16182 30000000011044705 30000000011044704 30000000011044714 6.14490120342
9.2087 30000000011044704 30000000011044702 30000000011044714 5.84661374788
9.43856 30000000011044702 30000000011044701 30000000011044714 5.52976580795
9.61504 30000000011044701 30000000011044700 30000000011044714 5.22758097313
9.64712 30000000011044700 30000000011044699 30000000011044714 4.99593346816
9.75017 30000000011044699 30000000011044698 30000000011044714 4.93938066349
9.86348 30000000011044698 30000000011044697 30000000011044714 4.66451770247
10.0489 30000000011044697 30000000011044696 30000000011044714 4.42803373661
10.1143 30000000011044696 30000000011044695 30000000011044714 4.17683491473
10.1568 30000000011044695 30000000011044692 30000000011044714 3.70877426464
10.2698 30000000011044692 30000000011044690 30000000011044714 3.28303305796
10.2932 30000000011044690 30000000011044689 30000000011044714 3.08482263583
10.3566 30000000011044689 30000000011044688 30000000011044714 3.00813107163
10.375 30000000011044688 30000000011044687 30000000011044714 2.89578500573
10.4129 30000000011044687 30000000011044686 30000000011044714 2.73314261732
10.503 30000000011044686 30000000011044685 30000000011044714 2.5772902716
10.5538 30000000011044685 30000000011044684 30000000011044714 2.44422570455
10.6261 30000000011044684 30000000011044683 30000000011044714 2.31611074396
10.7156 30000000011044683 30000000011044682 30000000011044714 2.20792547238
10.7563 30000000011044682 30000000011044681 30000000011044714 2.1032696526
10.8199 30000000011044681 30000000011044680 30000000011044714 2.00202813925
10.8358 30000000011044680 30000000011044679 30000000011044714 1.90408954353
10.8902 30000000011044679 30000000011044678 30000000011044714 1.82268925262
10.9003 30000000011044678 30000000011044677 30000000011044714 1.74357057433
10.9182 30000000011044677 30000000011044676 30000000011044714 1.66666955611
10.9354 30000000011044676 30000000011044675 30000000011044714 1.60423452207
10.9373 30000000011044675 30000000011044674 30000000011044714 1.53123902916
10.9544 30000000011044674 30000000011044673 30000000011044714 1.47197484527
10.9643 30000000011044673 30000000011044672 30000000011044714 1.41409822037
10.9895 30000000011044672 30000000011044671 30000000011044714 1.3575766674
10.9901 30000000011044671 30000000011044670 30000000011044714 1.30237845991
11.005 30000000011044670 30000000011044669 30000000011044714 1.24847261425
11.0236 30000000011044669 30000000011044668 30000000011044714 1.20625808078
11.0302 30000000011044668 30000000011044667 30000000011044714 1.15460271236
11.0407 30000000011044667 30000000011044666 30000000011044714 1.11415056377
11.0418 30000000011044666 30000000011044665 30000000011044714 1.07445789455
9.01298 30000000011044789 30000000011044788 30000000011044799 7.59510714987
9.08309 30000000011044788 30000000011044787 30000000011044799 7.23627606617
9.10157 30000000011044787 30000000011044786 30000000011044799 7.00541704554
9.13871 30000000011044786 30000000011044784 30000000011044799 6.49159774567
9.15956 30000000011044784 30000000011044783 30000000011044799 6.14490120342
9.16182 30000000011044783 30000000011044781 30000000011044799 5.84661374788
10.2051 30000000011044781 30000000011044771 30000000011044799 3.49086136926
9.1573 30000000011044832 30000000011044831 30000000011044841 7.00541704554
9.21869 30000000011044831 30000000011044828 30000000011044841 6.14490120342
9.25648 30000000011044828 30000000011044827 30000000011044841 6.01075739884
9.2828 30000000011044827 30000000011044826 30000000011044841 5.84661374788
9.35483 30000000011044826 30000000011044825 30000000011044841 5.52976580795
9.3974 30000000011044825 30000000011044824 30000000011044841 5.22758097313
9.41156 30000000011044824 30000000011044823 30000000011044841 4.99593346816
9.10415 30000000011044982 30000000011044981 30000000011044987 7.23627606617
9.11431 30000000011044981 30000000011044980 30000000011044987 7.00541704554
9.24548 30000000011044980 30000000011044979 30000000011044987 6.85511726265
9.32342 30000000011044979 30000000011044978 30000000011044987 6.49159774567
9.4026 30000000011044978 30000000011044977 30000000011044987 6.14490120342
9.53236 30000000011044977 30000000011044975 30000000011044987 5.84661374788
9.54558 30000000011044975 30000000011044972 30000000011044987 4.99593346816
9.56911 30000000011044972 30000000011044969 30000000011044987 4.42803373661
9.59059 30000000011044969 30000000011044965 30000000011044987 3.70877426464
9.6449 30000000011044965 30000000011044964 30000000011044987 3.49086136926
9.72136 30000000011044964 30000000011044959 30000000011044987 2.73314261732
9.11431 30000000011045007 30000000011045006 30000000011045021 4.17683491473
9.1193 30000000011045006 30000000011045004 30000000011045021 3.93726108473
9.06378 30000000011045026 30000000011045025 30000000011045041 2.44422570455
9.12668 30000000011045094 30000000011045093 30000000011045099 6.01075739884
9.13154 30000000011045093 30000000011045092 30000000011045099 5.84661374788
9.21272 30000000011045092 30000000011045089 30000000011045099 4.99593346816
9.23037 30000000011045089 30000000011045088 30000000011045099 4.93938066349
9.39214 30000000011045088 30000000011045085 30000000011045099 4.17683491473
9.43257 30000000011045085 30000000011045084 30000000011045099 4.00794511147
9.0098 30000000011045126 30000000011045125 30000000011045137 3.70877426464
9.0316 30000000011045125 30000000011045122 30000000011045137 3.08482263583
9.17729 30000000011045178 30000000011045177 30000000011045184 6.14490120342
9.32958 30000000011045177 30000000011045176 30000000011045184 6.01075739884
9.32958 30000000011045176 30000000011045172 30000000011045184 4.99593346816
9.37869 30000000011045172 30000000011045171 30000000011045184 4.93938066349
9.48265 30000000011045171 30000000011045170 30000000011045184 4.66451770247
9.50973 30000000011045170 30000000011045169 30000000011045184 4.42803373661
9.63894 30000000011045169 30000000011045168 30000000011045184 4.17683491473
9.68515 30000000011045168 30000000011045167 30000000011045184 4.00794511147
9.68851 30000000011045167 30000000011045166 30000000011045184 3.93726108473
9.03763 30000000011045248 30000000011045247 30000000011045249 3.08482263583
9.06096 30000000011045275 30000000011045274 30000000011045285 4.66451770247
9.08309 30000000011045274 30000000011045273 30000000011045285 4.42803373661
9.19013 30000000011045273 30000000011045272 30000000011045285 4.17683491473
9.19641 30000000011045272 30000000011045270 30000000011045285 3.93726108473
9.29951 30000000011045270 30000000011045269 30000000011045285 3.70877426464
9.32031 30000000011045269 30000000011045267 30000000011045285 3.28303305796
9.34902 30000000011045267 30000000011045266 30000000011045285 3.08482263583
9.38277 30000000011045266 30000000011045263 30000000011045285 2.73314261732
9.38412 30000000011045263 30000000011045262 30000000011045285 2.5772902716
9.06378 30000000011045426 30000000011045425 30000000011045438 4.42803373661
9.43856 30000000011045425 30000000011045422 30000000011045438 3.70877426464
9.4606 30000000011045422 30000000011045421 30000000011045438 3.49086136926
9.59477 30000000011045421 30000000011045420 30000000011045438 3.28303305796
9.78582 30000000011045420 30000000011045418 30000000011045438 3.00813107163
9.90524 30000000011045418 30000000011045416 30000000011045438 2.73314261732
9.37319 30000000011045470 30000000011045469 30000000011045480 4.66451770247
9.01298 30000000011045504 30000000011045503 30000000011045509 6.14490120342
9.02855 30000000011045503 30000000011045501 30000000011045509 5.84661374788
9.18802 30000000011045501 30000000011045499 30000000011045509 5.22758097313
9.39871 30000000011045499 30000000011045497 30000000011045509 4.93938066349
9.52365 30000000011045497 30000000011045492 30000000011045509 3.93726108473
9.04945 30000000011045533 30000000011045532 30000000011045541 4.93938066349
9.19433 30000000011045532 30000000011045529 30000000011045541 4.00794511147
9.05811 30000000011045583 30000000011045582 30000000011045601 4.17683491473
9.06939 30000000011045582 30000000011045581 30000000011045601 4.00794511147
9.09898 30000000011045581 30000000011045580 30000000011045601 3.93726108473
9.15502 30000000011045580 30000000011045579 30000000011045601 3.70877426464
9.22066 30000000011045579 30000000011045578 30000000011045601 3.49086136926
9.53713 30000000011045578 30000000011045572 30000000011045601 2.5772902716
9.07492 30000000011045693 30000000011045692 30000000011045705 4.66451770247
9.12912 30000000011045692 30000000011045691 30000000011045705 4.42803373661
9.13394 30000000011045691 30000000011045690 30000000011045705 4.17683491473
9.25648 30000000011045690 30000000011045689 30000000011045705 4.00794511147
9.29124 30000000011045689 30000000011045688 30000000011045705 3.93726108473
9.42771 30000000011045688 30000000011045687 30000000011045705 3.70877426464
9.46172 30000000011045687 30000000011045686 30000000011045705 3.49086136926
9.49221 30000000011045686 30000000011045685 30000000011045705 3.28303305796
9.5026 30000000011045685 30000000011045682 30000000011045705 2.89578500573
9.52657 30000000011045682 30000000011045681 30000000011045705 2.73314261732
9.00012 30000000011045808 30000000011045807 30000000011045818 3.08482263583
9.0098 30000000011045807 30000000011045805 30000000011045818 2.89578500573
9.03463 30000000011045805 30000000011045804 30000000011045818 2.73314261732
9.06096 30000000011045804 30000000011045802 30000000011045818 2.44422570455
9.0098 30000000011046072 30000000011046071 30000000011046092 4.66451770247
9.03463 30000000011046071 30000000011046070 30000000011046092 4.42803373661
9.08038 30000000011046070 30000000011046069 30000000011046092 4.17683491473
9.09898 30000000011046069 30000000011046065 30000000011046092 3.49086136926
9.10671 30000000011046065 30000000011046063 30000000011046092 3.08482263583
9.13154 30000000011046063 30000000011046061 30000000011046092 2.89578500573
9.17946 30000000011046061 30000000011046058 30000000011046092 2.44422570455
9.18802 30000000011046058 30000000011046057 30000000011046092 2.31611074396
9.25828 30000000011046057 30000000011046053 30000000011046092 1.90408954353
9.20668 30000000011046413 30000000011046412 30000000011046418 6.14490120342
9.34756 30000000011046412 30000000011046408 30000000011046418 5.22758097313
9.41659 30000000011046408 30000000011046407 30000000011046418 4.99593346816
9.44914 30000000011046407 30000000011046405 30000000011046418 4.66451770247
9.49951 30000000011046405 30000000011046404 30000000011046418 4.42803373661
9.50567 30000000011046404 30000000011046403 30000000011046418 4.17683491473
9.53332 30000000011046403 30000000011046402 30000000011046418 4.00794511147
9.56379 30000000011046402 30000000011046400 30000000011046418 3.70877426464
9.58127 30000000011046400 30000000011046398 30000000011046418 3.28303305796
9.59393 30000000011046398 30000000011046397 30000000011046418 3.08482263583
9.62056 30000000011046397 30000000011046396 30000000011046418 3.00813107163
9.67629 30000000011046396 30000000011046394 30000000011046418 2.73314261732
9.68851 30000000011046394 30000000011046393 30000000011046418 2.5772902716
9.72136 30000000011046393 30000000011046392 30000000011046418 2.44422570455
9.7342 30000000011046392 30000000011046391 30000000011046418 2.31611074396
9.77279 30000000011046391 30000000011046390 30000000011046418 2.20792547238
9.80517 30000000011046390 30000000011046389 30000000011046418 2.1032696526
9.04653 30000000011046513 30000000011046512 30000000011046526 2.31611074396
9.07216 30000000011046512 30000000011046508 30000000011046526 1.90408954353
9.08309 30000000011046508 30000000011046507 30000000011046526 1.82268925262
9.09111 30000000011046507 30000000011046506 30000000011046526 1.74357057433
9.13871 30000000011046506 30000000011046504 30000000011046526 1.60423452207
9.33566 30000000011046504 30000000011046503 30000000011046526 1.53123902916
9.34609 30000000011046503 30000000011046501 30000000011046526 1.41409822037
9.00012 30000000011046663 30000000011046662 30000000011046670 5.84661374788
9.04945 30000000011046662 30000000011046661 30000000011046670 5.52976580795
9.08845 30000000011046661 30000000011046660 30000000011046670 5.22758097313
9.16182 30000000011046660 30000000011046659 30000000011046670 4.99593346816
9.22066 30000000011046659 30000000011046657 30000000011046670 4.66451770247
9.22457 30000000011046657 30000000011046656 30000000011046670 4.42803373661
9.3044 30000000011046656 30000000011046655 30000000011046670 4.17683491473
9.31243 30000000011046655 30000000011046654 30000000011046670 4.00794511147
9.37732 30000000011046654 30000000011046653 30000000011046670 3.93726108473
9.38948 30000000011046653 30000000011046652 30000000011046670 3.70877426464
9.48479 30000000011046652 30000000011046651 30000000011046670 3.49086136926
9.53332 30000000011046651 30000000011046650 30000000011046670 3.28303305796
9.58807 30000000011046650 30000000011046649 30000000011046670 3.08482263583
9.66936 30000000011046649 30000000011046648 30000000011046670 3.00813107163
9.01928 30000000011046675 30000000011046674 30000000011046684 3.70877426464
