logMh | fpID | subhaloID | main leaf ID | z
9.06096 30000000008529185 30000000008529184 30000000008529191 8.01217294887
9.15956 30000000008529184 30000000008529183 30000000008529191 7.59510714987
9.1663 30000000008529183 30000000008529182 30000000008529191 7.23627606617
9.26187 30000000008529182 30000000008529181 30000000008529191 7.00541704554
9.34609 30000000008529181 30000000008529180 30000000008529191 6.85511726265
9.53523 30000000008529180 30000000008529179 30000000008529191 6.49159774567
9.64712 30000000008529179 30000000008529178 30000000008529191 6.14490120342
9.72384 30000000008529178 30000000008529177 30000000008529191 6.01075739884
9.81478 30000000008529177 30000000008529176 30000000008529191 5.84661374788
9.86749 30000000008529176 30000000008529175 30000000008529191 5.52976580795
10.0672 30000000008529175 30000000008529172 30000000008529191 4.66451770247
10.0699 30000000008529172 30000000008529171 30000000008529191 4.42803373661
10.1306 30000000008529171 30000000008529170 30000000008529191 4.17683491473
10.1589 30000000008529170 30000000008529168 30000000008529191 3.93726108473
10.1816 30000000008529168 30000000008529167 30000000008529191 3.70877426464
10.2149 30000000008529167 30000000008529166 30000000008529191 3.49086136926
10.2536 30000000008529166 30000000008529165 30000000008529191 3.28303305796
10.2937 30000000008529165 30000000008529164 30000000008529191 3.08482263583
10.3881 30000000008529164 30000000008529162 30000000008529191 2.89578500573
10.4741 30000000008529162 30000000008529161 30000000008529191 2.73314261732
10.7276 30000000008529161 30000000008529160 30000000008529191 2.5772902716
10.7877 30000000008529160 30000000008529159 30000000008529191 2.44422570455
10.8719 30000000008529159 30000000008529158 30000000008529191 2.31611074396
10.9613 30000000008529158 30000000008529157 30000000008529191 2.20792547238
11.0937 30000000008529157 30000000008529155 30000000008529191 2.00202813925
11.1438 30000000008529155 30000000008529154 30000000008529191 1.90408954353
11.1478 30000000008529154 30000000008529153 30000000008529191 1.82268925262
11.1603 30000000008529153 30000000008529152 30000000008529191 1.74357057433
11.1771 30000000008529152 30000000008529151 30000000008529191 1.66666955611
11.1828 30000000008529151 30000000008529141 30000000008529191 1.11415056377
11.1911 30000000008529141 30000000008529140 30000000008529191 1.07445789455
11.1954 30000000008529140 30000000008529138 30000000008529191 0.997294225782
11.1983 30000000008529138 30000000008529137 30000000008529191 0.987852810816
11.2081 30000000008529137 30000000008529136 30000000008529191 0.950531351585
11.212 30000000008529136 30000000008529135 30000000008529191 0.923000816178
11.2406 30000000008529135 30000000008529134 30000000008529191 0.886896937575
11.2469 30000000008529134 30000000008529132 30000000008529191 0.816709979012
11.2469 30000000008529132 30000000008529131 30000000008529191 0.791068248946
11.2578 30000000008529131 30000000008529130 30000000008529191 0.757441372616
11.2667 30000000008529130 30000000008529129 30000000008529191 0.732636182022
11.2707 30000000008529129 30000000008529128 30000000008529191 0.700106353719
11.2752 30000000008529128 30000000008529127 30000000008529191 0.676110411213
11.284 30000000008529127 30000000008529126 30000000008529191 0.644641840685
9.05524 30000000008529219 30000000008529218 30000000008529224 8.44947629437
9.0666 30000000008529218 30000000008529217 30000000008529224 8.01217294887
9.09637 30000000008529217 30000000008529213 30000000008529224 6.85511726265
9.21869 30000000008529213 30000000008529212 30000000008529224 6.49159774567
9.94851 30000000008529227 30000000008529226 30000000008529227 4.99593346816
9.95689 30000000008529226 30000000008529225 30000000008529227 4.93938066349
9.0066 30000000008529251 30000000008529250 30000000008529254 7.00541704554
9.02855 30000000008529291 30000000008529290 30000000008529300 7.00541704554
9.06939 30000000008529290 30000000008529288 30000000008529300 6.49159774567
9.07492 30000000008529288 30000000008529287 30000000008529300 6.14490120342
9.08845 30000000008529287 30000000008529286 30000000008529300 6.01075739884
9.13394 30000000008529286 30000000008529285 30000000008529300 5.84661374788
9.14344 30000000008529285 30000000008529284 30000000008529300 5.52976580795
9.20055 30000000008529284 30000000008529283 30000000008529300 5.22758097313
9.2342 30000000008529283 30000000008529282 30000000008529300 4.99593346816
9.24918 30000000008529282 30000000008529281 30000000008529300 4.93938066349
9.01614 30000000008529484 30000000008529483 30000000008529494 6.49159774567
9.04358 30000000008529483 30000000008529482 30000000008529494 6.14490120342
9.06096 30000000008529482 30000000008529481 30000000008529494 6.01075739884
9.08578 30000000008529481 30000000008529480 30000000008529494 5.84661374788
9.19641 30000000008529480 30000000008529479 30000000008529494 5.52976580795
9.2929 30000000008529479 30000000008529478 30000000008529494 5.22758097313
9.0066 30000000008529594 30000000008529593 30000000008529603 4.42803373661
9.02548 30000000008529593 30000000008529592 30000000008529603 4.17683491473
9.05811 30000000008529592 30000000008529591 30000000008529603 4.00794511147
9.05811 30000000008529591 30000000008529590 30000000008529603 3.93726108473
9.08578 30000000008529590 30000000008529586 30000000008529603 3.08482263583
9.12424 30000000008529586 30000000008529585 30000000008529603 3.00813107163
9.07492 30000000008529690 30000000008529689 30000000008529695 8.01217294887
9.13634 30000000008529689 30000000008529687 30000000008529695 7.23627606617
9.19433 30000000008529687 30000000008529686 30000000008529695 7.00541704554
9.24362 30000000008529686 30000000008529685 30000000008529695 6.85511726265
9.32958 30000000008529685 30000000008529684 30000000008529695 6.49159774567
9.45145 30000000008529684 30000000008529683 30000000008529695 6.14490120342
9.50158 30000000008529683 30000000008529680 30000000008529695 5.52976580795
9.56379 30000000008529680 30000000008529679 30000000008529695 5.22758097313
9.60462 30000000008529679 30000000008529678 30000000008529695 4.99593346816
9.61186 30000000008529678 30000000008529673 30000000008529695 4.00794511147
9.61584 30000000008529673 30000000008529672 30000000008529695 3.93726108473
9.63744 30000000008529672 30000000008529671 30000000008529695 3.70877426464
9.66302 30000000008529671 30000000008529670 30000000008529695 3.49086136926
9.67422 30000000008529670 30000000008529669 30000000008529695 3.28303305796
9.70621 30000000008529669 30000000008529668 30000000008529695 3.08482263583
9.11681 30000000008529764 30000000008529763 30000000008529772 8.44947629437
9.19641 30000000008529763 30000000008529760 30000000008529772 7.23627606617
9.48586 30000000008529760 30000000008529759 30000000008529772 7.00541704554
9.56468 30000000008529759 30000000008529757 30000000008529772 6.49159774567
9.62368 30000000008529757 30000000008529756 30000000008529772 6.14490120342
9.69974 30000000008529756 30000000008529754 30000000008529772 5.84661374788
9.75822 30000000008529754 30000000008529753 30000000008529772 5.52976580795
9.82712 30000000008529753 30000000008529752 30000000008529772 5.22758097313
9.89204 30000000008529752 30000000008529749 30000000008529772 4.66451770247
9.91209 30000000008529749 30000000008529747 30000000008529772 4.17683491473
10.0085 30000000008529747 30000000008529746 30000000008529772 4.00794511147
10.0276 30000000008529746 30000000008529745 30000000008529772 3.93726108473
10.0774 30000000008529745 30000000008529744 30000000008529772 3.70877426464
10.133 30000000008529744 30000000008529743 30000000008529772 3.49086136926
10.1532 30000000008529743 30000000008529742 30000000008529772 3.28303305796
10.2212 30000000008529742 30000000008529741 30000000008529772 3.08482263583
10.2265 30000000008529741 30000000008529740 30000000008529772 3.00813107163
10.2284 30000000008529740 30000000008529739 30000000008529772 2.89578500573
11.0294 30000000008529739 30000000008529733 30000000008529772 2.1032696526
9.24362 30000000008529777 30000000008529776 30000000008529783 8.01217294887
9.24918 30000000008529776 30000000008529775 30000000008529783 7.59510714987
9.17512 30000000008529797 30000000008529796 30000000008529810 5.22758097313
9.11431 30000000008529936 30000000008529935 30000000008529938 7.23627606617
9.25284 30000000008529935 30000000008529934 30000000008529938 7.00541704554
9.25466 30000000008529934 30000000008529933 30000000008529938 6.85511726265
9.25828 30000000008529933 30000000008529932 30000000008529938 6.49159774567
9.36199 30000000008529932 30000000008529931 30000000008529938 6.14490120342
9.38547 30000000008529931 30000000008529930 30000000008529938 6.01075739884
9.48157 30000000008529930 30000000008529926 30000000008529938 4.99593346816
9.52169 30000000008529926 30000000008529925 30000000008529938 4.93938066349
9.57956 30000000008529925 30000000008529924 30000000008529938 4.66451770247
9.58807 30000000008529924 30000000008529922 30000000008529938 4.17683491473
9.63744 30000000008529922 30000000008529921 30000000008529938 4.00794511147
9.6573 30000000008529921 30000000008529918 30000000008529938 3.49086136926
9.67491 30000000008529918 30000000008529917 30000000008529938 3.28303305796
9.70104 30000000008529917 30000000008529916 30000000008529938 3.08482263583
9.15956 30000000008530042 30000000008530041 30000000008530047 6.14490120342
9.21272 30000000008530041 30000000008530040 30000000008530047 6.01075739884
9.22066 30000000008530040 30000000008530039 30000000008530047 5.84661374788
9.27246 30000000008530039 30000000008530038 30000000008530047 5.52976580795
9.51275 30000000008530038 30000000008530036 30000000008530047 4.99593346816
9.53902 30000000008530036 30000000008530035 30000000008530047 4.93938066349
9.58041 30000000008530035 30000000008530034 30000000008530047 4.66451770247
9.61584 30000000008530034 30000000008530033 30000000008530047 4.42803373661
9.70813 30000000008530033 30000000008530032 30000000008530047 4.17683491473
9.73118 30000000008530032 30000000008530031 30000000008530047 4.00794511147
9.76724 30000000008530031 30000000008530030 30000000008530047 3.93726108473
9.96048 30000000008530030 30000000008530029 30000000008530047 3.70877426464
10.3337 30000000008530029 30000000008530027 30000000008530047 3.28303305796
10.3666 30000000008530027 30000000008530026 30000000008530047 3.08482263583
10.402 30000000008530026 30000000008530025 30000000008530047 3.00813107163
10.4056 30000000008530025 30000000008530024 30000000008530047 2.89578500573
10.4486 30000000008530024 30000000008530023 30000000008530047 2.73314261732
9.38815 30000000008530049 30000000008530048 30000000008530057 5.22758097313
10.192 30000000008530059 30000000008530058 30000000008530071 3.49086136926
9.06939 30000000008530111 30000000008530110 30000000008530119 5.52976580795
9.11681 30000000008530110 30000000008530109 30000000008530119 5.22758097313
9.19433 30000000008530109 30000000008530108 30000000008530119 4.99593346816
9.26543 30000000008530108 30000000008530107 30000000008530119 4.93938066349
9.35627 30000000008530107 30000000008530106 30000000008530119 4.66451770247
9.44093 30000000008530106 30000000008530105 30000000008530119 4.42803373661
9.50158 30000000008530105 30000000008530104 30000000008530119 4.17683491473
9.54558 30000000008530104 30000000008530103 30000000008530119 4.00794511147
9.09375 30000000008530158 30000000008530157 30000000008530165 5.22758097313
9.1663 30000000008530157 30000000008530156 30000000008530165 4.99593346816
9.16852 30000000008530156 30000000008530154 30000000008530165 4.66451770247
9.22651 30000000008530154 30000000008530153 30000000008530165 4.42803373661
9.07216 30000000008530188 30000000008530187 30000000008530196 7.00541704554
9.15956 30000000008530187 30000000008530186 30000000008530196 6.85511726265
9.27246 30000000008530186 30000000008530185 30000000008530196 6.49159774567
9.2742 30000000008530185 30000000008530181 30000000008530196 5.52976580795
9.34016 30000000008530181 30000000008530180 30000000008530196 5.22758097313
9.39214 30000000008530180 30000000008530179 30000000008530196 4.99593346816
9.39478 30000000008530179 30000000008530178 30000000008530196 4.93938066349
9.41156 30000000008530178 30000000008530177 30000000008530196 4.66451770247
9.45605 30000000008530177 30000000008530176 30000000008530196 4.42803373661
9.58383 30000000008530176 30000000008530175 30000000008530196 4.17683491473
9.64859 30000000008530175 30000000008530174 30000000008530196 4.00794511147
9.03463 30000000008530263 30000000008530262 30000000008530268 6.49159774567
9.18802 30000000008530262 30000000008530261 30000000008530268 6.14490120342
9.31083 30000000008530261 30000000008530260 30000000008530268 6.01075739884
9.33566 30000000008530260 30000000008530259 30000000008530268 5.84661374788
9.44093 30000000008530259 30000000008530258 30000000008530268 5.52976580795
9.51972 30000000008530258 30000000008530257 30000000008530268 5.22758097313
9.69051 30000000008530257 30000000008530256 30000000008530268 4.99593346816
9.7226 30000000008530256 30000000008530255 30000000008530268 4.93938066349
9.80209 30000000008530255 30000000008530254 30000000008530268 4.66451770247
9.92198 30000000008530254 30000000008530253 30000000008530268 4.42803373661
9.94962 30000000008530253 30000000008530252 30000000008530268 4.17683491473
9.95869 30000000008530252 30000000008530250 30000000008530268 3.93726108473
10.0295 30000000008530250 30000000008530249 30000000008530268 3.70877426464
10.0842 30000000008530249 30000000008530248 30000000008530268 3.49086136926
10.1011 30000000008530248 30000000008530246 30000000008530268 3.08482263583
10.1044 30000000008530246 30000000008530245 30000000008530268 3.00813107163
10.1467 30000000008530245 30000000008530244 30000000008530268 2.89578500573
10.1964 30000000008530244 30000000008530243 30000000008530268 2.73314261732
10.2412 30000000008530243 30000000008530242 30000000008530268 2.5772902716
10.2931 30000000008530242 30000000008530240 30000000008530268 2.31611074396
9.03763 30000000008530322 30000000008530321 30000000008530334 4.66451770247
9.09637 30000000008530321 30000000008530319 30000000008530334 4.17683491473
9.02548 30000000008530393 30000000008530392 30000000008530396 4.99593346816
9.07766 30000000008530392 30000000008530391 30000000008530396 4.93938066349
9.09375 30000000008530391 30000000008530390 30000000008530396 4.66451770247
9.21472 30000000008530390 30000000008530389 30000000008530396 4.42803373661
9.35914 30000000008530389 30000000008530387 30000000008530396 4.00794511147
9.41659 30000000008530387 30000000008530384 30000000008530396 3.49086136926
9.43974 30000000008530384 30000000008530383 30000000008530396 3.28303305796
9.44797 30000000008530383 30000000008530382 30000000008530396 3.08482263583
9.4549 30000000008530382 30000000008530381 30000000008530396 3.00813107163
9.02548 30000000008530404 30000000008530403 30000000008530405 5.52976580795
9.01614 30000000008530546 30000000008530545 30000000008530554 5.84661374788
9.08845 30000000008530545 30000000008530544 30000000008530554 5.52976580795
9.22457 30000000008530544 30000000008530543 30000000008530554 5.22758097313
9.30115 30000000008530543 30000000008530540 30000000008530554 4.66451770247
9.41029 30000000008530540 30000000008530539 30000000008530554 4.42803373661
9.45833 30000000008530539 30000000008530538 30000000008530554 4.17683491473
9.49011 30000000008530538 30000000008530536 30000000008530554 3.93726108473
9.50872 30000000008530536 30000000008530535 30000000008530554 3.70877426464
9.55751 30000000008530535 30000000008530534 30000000008530554 3.49086136926
9.59807 30000000008530534 30000000008530532 30000000008530554 3.08482263583
9.60705 30000000008530532 30000000008530531 30000000008530554 3.00813107163
9.63969 30000000008530531 30000000008530530 30000000008530554 2.89578500573
9.68851 30000000008530530 30000000008530529 30000000008530554 2.73314261732
9.70234 30000000008530529 30000000008530528 30000000008530554 2.5772902716
