logMh | fpID | subhaloID | main leaf ID | z
9.06096 10000000016735151 10000000016735150 10000000016735158 8.01217294887
9.09375 10000000016735150 10000000016735149 10000000016735158 7.59510714987
9.19013 10000000016735149 10000000016735147 10000000016735158 7.00541704554
9.21869 10000000016735147 10000000016735146 10000000016735158 6.85511726265
9.6449 10000000016735146 10000000016735145 10000000016735158 6.49159774567
9.80721 10000000016735145 10000000016735144 10000000016735158 6.14490120342
9.84334 10000000016735144 10000000016735143 10000000016735158 6.01075739884
9.89162 10000000016735143 10000000016735142 10000000016735158 5.84661374788
9.95833 10000000016735142 10000000016735141 10000000016735158 5.52976580795
10.0258 10000000016735141 10000000016735140 10000000016735158 5.22758097313
10.1039 10000000016735140 10000000016735139 10000000016735158 4.99593346816
10.12 10000000016735139 10000000016735138 10000000016735158 4.93938066349
10.1859 10000000016735138 10000000016735137 10000000016735158 4.66451770247
10.2127 10000000016735137 10000000016735136 10000000016735158 4.42803373661
10.2599 10000000016735136 10000000016735135 10000000016735158 4.17683491473
10.3015 10000000016735135 10000000016735134 10000000016735158 4.00794511147
10.3079 10000000016735134 10000000016735133 10000000016735158 3.93726108473
10.3577 10000000016735133 10000000016735132 10000000016735158 3.70877426464
10.408 10000000016735132 10000000016735131 10000000016735158 3.49086136926
10.4412 10000000016735131 10000000016735130 10000000016735158 3.28303305796
10.4807 10000000016735130 10000000016735129 10000000016735158 3.08482263583
10.5273 10000000016735129 10000000016735125 10000000016735158 2.5772902716
10.5992 10000000016735125 10000000016735124 10000000016735158 2.44422570455
10.6126 10000000016735124 10000000016735123 10000000016735158 2.31611074396
10.6377 10000000016735123 10000000016735122 10000000016735158 2.20792547238
10.6882 10000000016735122 10000000016735121 10000000016735158 2.1032696526
10.8013 10000000016735121 10000000016735120 10000000016735158 2.00202813925
10.8683 10000000016735120 10000000016735119 10000000016735158 1.90408954353
10.892 10000000016735119 10000000016735118 10000000016735158 1.82268925262
10.8977 10000000016735118 10000000016735117 10000000016735158 1.74357057433
10.9358 10000000016735117 10000000016735116 10000000016735158 1.66666955611
10.987 10000000016735116 10000000016735115 10000000016735158 1.60423452207
10.9954 10000000016735115 10000000016735114 10000000016735158 1.53123902916
11.0532 10000000016735114 10000000016735113 10000000016735158 1.47197484527
11.0878 10000000016735113 10000000016735112 10000000016735158 1.41409822037
11.1153 10000000016735112 10000000016735111 10000000016735158 1.3575766674
11.1376 10000000016735111 10000000016735110 10000000016735158 1.30237845991
11.1547 10000000016735110 10000000016735109 10000000016735158 1.24847261425
11.1722 10000000016735109 10000000016735108 10000000016735158 1.20625808078
11.1783 10000000016735108 10000000016735107 10000000016735158 1.15460271236
11.1873 10000000016735107 10000000016735106 10000000016735158 1.11415056377
11.2001 10000000016735106 10000000016735105 10000000016735158 1.07445789455
11.2051 10000000016735105 10000000016735104 10000000016735158 1.03551044566
11.2194 10000000016735104 10000000016735100 10000000016735158 0.923000816178
11.2203 10000000016735100 10000000016735099 10000000016735158 0.886896937575
11.2214 10000000016735099 10000000016735091 10000000016735158 0.644641840685
11.2244 10000000016735091 10000000016735090 10000000016735158 0.621428745243
11.2358 10000000016735090 10000000016735089 10000000016735158 0.598543288188
11.2464 10000000016735089 10000000016735088 10000000016735158 0.575980845108
11.2542 10000000016735088 10000000016735087 10000000016735158 0.546392183141
11.2646 10000000016735087 10000000016735085 10000000016735158 0.503047523245
11.2703 10000000016735085 10000000016735084 10000000016735158 0.481832943421
11.2716 10000000016735084 10000000016735083 10000000016735158 0.460917794181
11.2798 10000000016735083 10000000016735082 10000000016735158 0.440297849248
11.292 10000000016735082 10000000016735081 10000000016735158 0.419968941997
11.2989 10000000016735081 10000000016735080 10000000016735158 0.399926964614
11.3033 10000000016735080 10000000016735075 10000000016735158 0.310074120128
11.3043 10000000016735075 10000000016735074 10000000016735158 0.291583239722
11.3101 10000000016735074 10000000016735073 10000000016735158 0.273353346578
11.3132 10000000016735073 10000000016735072 10000000016735158 0.261343256161
9.01614 10000000016735165 10000000016735164 10000000016735173 7.23627606617
9.07216 10000000016735201 10000000016735200 10000000016735209 7.23627606617
9.10671 10000000016735200 10000000016735199 10000000016735209 7.00541704554
9.10671 10000000016735199 10000000016735198 10000000016735209 6.85511726265
9.14578 10000000016735198 10000000016735197 10000000016735209 6.49159774567
9.0066 10000000016735216 10000000016735215 10000000016735224 5.52976580795
9.1663 10000000016735215 10000000016735214 10000000016735224 5.22758097313
9.08309 10000000016735367 10000000016735366 10000000016735379 5.52976580795
9.11431 10000000016735366 10000000016735362 10000000016735379 4.66451770247
9.19848 10000000016735362 10000000016735361 10000000016735379 4.42803373661
9.22651 10000000016735361 10000000016735360 10000000016735379 4.17683491473
9.25284 10000000016735360 10000000016735359 10000000016735379 4.00794511147
9.25284 10000000016735359 10000000016735358 10000000016735379 3.93726108473
9.2929 10000000016735358 10000000016735357 10000000016735379 3.70877426464
9.33866 10000000016735357 10000000016735356 10000000016735379 3.49086136926
9.37595 10000000016735356 10000000016735355 10000000016735379 3.28303305796
9.46172 10000000016735355 10000000016735351 10000000016735379 2.73314261732
9.00337 10000000016735505 10000000016735504 10000000016735512 8.9079991856
9.37457 10000000016735504 10000000016735503 10000000016735512 8.44947629437
9.49011 10000000016735503 10000000016735502 10000000016735512 8.01217294887
9.62445 10000000016735502 10000000016735501 10000000016735512 7.59510714987
9.63819 10000000016735501 10000000016735500 10000000016735512 7.23627606617
9.71259 10000000016735500 10000000016735499 10000000016735512 7.00541704554
9.76669 10000000016735499 10000000016735498 10000000016735512 6.85511726265
9.84005 10000000016735498 10000000016735497 10000000016735512 6.49159774567
9.86882 10000000016735497 10000000016735496 10000000016735512 6.14490120342
9.90484 10000000016735496 10000000016735495 10000000016735512 6.01075739884
9.93088 10000000016735495 10000000016735494 10000000016735512 5.84661374788
9.96582 10000000016735494 10000000016735493 10000000016735512 5.52976580795
10.0515 10000000016735493 10000000016735492 10000000016735512 5.22758097313
10.0951 10000000016735492 10000000016735491 10000000016735512 4.99593346816
10.0998 10000000016735491 10000000016735490 10000000016735512 4.93938066349
10.1225 10000000016735490 10000000016735489 10000000016735512 4.66451770247
10.1846 10000000016735489 10000000016735488 10000000016735512 4.42803373661
10.2067 10000000016735488 10000000016735487 10000000016735512 4.17683491473
10.2115 10000000016735487 10000000016735486 10000000016735512 4.00794511147
10.2267 10000000016735486 10000000016735484 10000000016735512 3.70877426464
10.2434 10000000016735484 10000000016735483 10000000016735512 3.49086136926
10.2672 10000000016735483 10000000016735482 10000000016735512 3.28303305796
10.2797 10000000016735482 10000000016735480 10000000016735512 3.00813107163
10.3126 10000000016735480 10000000016735479 10000000016735512 2.89578500573
9.06939 10000000016735567 10000000016735566 10000000016735571 6.14490120342
9.13394 10000000016735643 10000000016735642 10000000016735643 2.31611074396
9.12668 10000000016735664 10000000016735663 10000000016735672 3.00813107163
9.16407 10000000016735663 10000000016735662 10000000016735672 2.89578500573
9.17729 10000000016735662 10000000016735661 10000000016735672 2.73314261732
9.08845 10000000016735723 10000000016735722 10000000016735738 3.49086136926
9.10415 10000000016735722 10000000016735721 10000000016735738 3.28303305796
9.36056 10000000016735721 10000000016735716 10000000016735738 2.5772902716
9.03763 10000000016735754 10000000016735753 10000000016735761 3.08482263583
9.0066 10000000016735852 10000000016735851 10000000016735857 6.01075739884
9.02548 10000000016735851 10000000016735850 10000000016735857 5.84661374788
9.44211 10000000016735850 10000000016735849 10000000016735857 5.52976580795
9.53618 10000000016735849 10000000016735848 10000000016735857 5.22758097313
9.7342 10000000016735848 10000000016735845 10000000016735857 4.66451770247
9.77113 10000000016735845 10000000016735844 10000000016735857 4.42803373661
9.83435 10000000016735844 10000000016735843 10000000016735857 4.17683491473
9.85944 10000000016735843 10000000016735842 10000000016735857 4.00794511147
9.88952 10000000016735842 10000000016735841 10000000016735857 3.93726108473
9.92973 10000000016735841 10000000016735840 10000000016735857 3.70877426464
9.94741 10000000016735840 10000000016735835 10000000016735857 2.89578500573
9.99946 10000000016735835 10000000016735834 10000000016735857 2.73314261732
10.0512 10000000016735834 10000000016735833 10000000016735857 2.5772902716
10.0535 10000000016735833 10000000016735831 10000000016735857 2.31611074396
10.1327 10000000016735831 10000000016735830 10000000016735857 2.20792547238
10.1634 10000000016735830 10000000016735829 10000000016735857 2.1032696526
10.1863 10000000016735829 10000000016735828 10000000016735857 2.00202813925
10.2155 10000000016735828 10000000016735827 10000000016735857 1.90408954353
10.305 10000000016735827 10000000016735826 10000000016735857 1.82268925262
10.3626 10000000016735826 10000000016735825 10000000016735857 1.74357057433
10.3803 10000000016735825 10000000016735824 10000000016735857 1.66666955611
9.08578 10000000016735874 10000000016735873 10000000016735879 5.52976580795
9.02855 10000000016735980 10000000016735979 10000000016735987 7.59510714987
9.05811 10000000016735979 10000000016735978 10000000016735987 7.23627606617
9.06939 10000000016735978 10000000016735977 10000000016735987 7.00541704554
9.09111 10000000016735977 10000000016735976 10000000016735987 6.85511726265
9.13871 10000000016735976 10000000016735975 10000000016735987 6.49159774567
9.22262 10000000016735975 10000000016735974 10000000016735987 6.14490120342
9.29622 10000000016735974 10000000016735973 10000000016735987 6.01075739884
9.31717 10000000016735973 10000000016735971 10000000016735987 5.52976580795
9.34165 10000000016735971 10000000016735970 10000000016735987 5.22758097313
9.34902 10000000016735970 10000000016735968 10000000016735987 4.93938066349
9.49221 10000000016735968 10000000016735967 10000000016735987 4.66451770247
9.54558 10000000016735967 10000000016735966 10000000016735987 4.42803373661
9.58553 10000000016735966 10000000016735964 10000000016735987 4.00794511147
9.60299 10000000016735964 10000000016735963 10000000016735987 3.93726108473
9.69118 10000000016735963 10000000016735962 10000000016735987 3.70877426464
9.75536 10000000016735962 10000000016735961 10000000016735987 3.49086136926
9.77113 10000000016735961 10000000016735960 10000000016735987 3.28303305796
9.83483 10000000016735960 10000000016735959 10000000016735987 3.08482263583
9.83483 10000000016735959 10000000016735958 10000000016735987 3.00813107163
9.84568 10000000016735958 10000000016735957 10000000016735987 2.89578500573
9.85078 10000000016735957 10000000016735956 10000000016735987 2.73314261732
9.87843 10000000016735956 10000000016735955 10000000016735987 2.5772902716
9.88486 10000000016735955 10000000016735954 10000000016735987 2.44422570455
9.89869 10000000016735954 10000000016735953 10000000016735987 2.31611074396
9.0098 10000000016736055 10000000016736054 10000000016736084 1.74357057433
9.02239 10000000016736168 10000000016736167 10000000016736182 4.00794511147
9.03763 10000000016736167 10000000016736166 10000000016736182 3.93726108473
9.03763 10000000016736166 10000000016736165 10000000016736182 3.70877426464
9.04358 10000000016736165 10000000016736164 10000000016736182 3.49086136926
9.0666 10000000016736164 10000000016736163 10000000016736182 3.28303305796
9.09111 10000000016736163 10000000016736162 10000000016736182 3.08482263583
9.19013 10000000016736162 10000000016736158 10000000016736182 2.5772902716
9.05811 10000000016736257 10000000016736256 10000000016736265 6.49159774567
9.09375 10000000016736256 10000000016736255 10000000016736265 6.14490120342
9.12178 10000000016736255 10000000016736254 10000000016736265 6.01075739884
9.19013 10000000016736254 10000000016736253 10000000016736265 5.84661374788
9.2862 10000000016736253 10000000016736252 10000000016736265 5.52976580795
9.30923 10000000016736252 10000000016736251 10000000016736265 5.22758097313
9.36763 10000000016736251 10000000016736250 10000000016736265 4.99593346816
9.40389 10000000016736250 10000000016736249 10000000016736265 4.93938066349
9.46172 10000000016736249 10000000016736248 10000000016736265 4.66451770247
9.50363 10000000016736248 10000000016736247 10000000016736265 4.42803373661
9.51774 10000000016736247 10000000016736246 10000000016736265 4.17683491473
9.54185 10000000016736246 10000000016736245 10000000016736265 4.00794511147
9.54278 10000000016736245 10000000016736243 10000000016736265 3.70877426464
9.58553 10000000016736243 10000000016736242 10000000016736265 3.49086136926
9.63744 10000000016736242 10000000016736241 10000000016736265 3.28303305796
9.6756 10000000016736241 10000000016736240 10000000016736265 3.08482263583
9.70877 10000000016736240 10000000016736239 10000000016736265 3.00813107163
9.71574 10000000016736239 10000000016736238 10000000016736265 2.89578500573
9.7342 10000000016736238 10000000016736237 10000000016736265 2.73314261732
9.77224 10000000016736237 10000000016736234 10000000016736265 2.31611074396
9.77935 10000000016736234 10000000016736232 10000000016736265 2.1032696526
9.00337 10000000016736277 10000000016736276 10000000016736285 4.17683491473
9.08309 10000000016736369 10000000016736368 10000000016736372 7.59510714987
9.14578 10000000016736368 10000000016736367 10000000016736372 7.23627606617
9.16407 10000000016736367 10000000016736366 10000000016736372 7.00541704554
9.23988 10000000016736366 10000000016736364 10000000016736372 6.49159774567
9.27246 10000000016736364 10000000016736362 10000000016736372 6.01075739884
9.27938 10000000016736362 10000000016736361 10000000016736372 5.84661374788
9.30602 10000000016736361 10000000016736359 10000000016736372 5.22758097313
9.32805 10000000016736359 10000000016736357 10000000016736372 4.93938066349
9.36056 10000000016736357 10000000016736356 10000000016736372 4.66451770247
9.37042 10000000016736356 10000000016736354 10000000016736372 4.17683491473
9.38412 10000000016736354 10000000016736353 10000000016736372 4.00794511147
9.41534 10000000016736353 10000000016736351 10000000016736372 3.70877426464
9.47505 10000000016736351 10000000016736350 10000000016736372 3.49086136926
9.55751 10000000016736350 10000000016736349 10000000016736372 3.28303305796
9.58638 10000000016736349 10000000016736348 10000000016736372 3.08482263583
9.62523 10000000016736348 10000000016736347 10000000016736372 3.00813107163
9.64119 10000000016736347 10000000016736346 10000000016736372 2.89578500573
9.717 10000000016736346 10000000016736345 10000000016736372 2.73314261732
9.75993 10000000016736345 10000000016736344 10000000016736372 2.5772902716
9.02239 10000000016736603 10000000016736602 10000000016736611 6.49159774567
9.05235 10000000016736602 10000000016736592 10000000016736611 4.17683491473
9.0666 10000000016736592 10000000016736591 10000000016736611 4.00794511147
9.10415 10000000016736591 10000000016736590 10000000016736611 3.93726108473
9.13154 10000000016736590 10000000016736588 10000000016736611 3.49086136926
9.20464 10000000016736588 10000000016736587 10000000016736611 3.28303305796
9.21671 10000000016736587 10000000016736586 10000000016736611 3.08482263583
9.39609 10000000016736586 10000000016736578 10000000016736611 2.1032696526
