logMh | fpID | subhaloID | main leaf ID | z
9.27246 50000001500062762 50000001500062761 50000001500062764 12.6747021048
9.47396 50000001500062761 50000001500062760 50000001500062764 12.0418635439
9.61266 50000001500062760 50000001500062759 50000001500062764 11.4973879548
9.77444 50000001500062759 50000001500062758 50000001500062764 10.9190331982
9.96227 50000001500062758 50000001500062757 50000001500062764 10.3674435724
10.0406 50000001500062757 50000001500062756 50000001500062764 9.99659046619
10.0768 50000001500062756 50000001500062755 50000001500062764 9.84138043947
10.1593 50000001500062755 50000001500062754 50000001500062764 9.38877127194
10.1882 50000001500062754 50000001500062753 50000001500062764 9.00233985416
10.2199 50000001500062753 50000001500062752 50000001500062764 8.9079991856
10.3094 50000001500062752 50000001500062751 50000001500062764 8.44947629437
10.3722 50000001500062751 50000001500062750 50000001500062764 8.01217294887
10.483 50000001500062750 50000001500062749 50000001500062764 7.59510714987
10.5688 50000001500062749 50000001500062748 50000001500062764 7.23627606617
10.6517 50000001500062748 50000001500062747 50000001500062764 7.00541704554
10.6742 50000001500062747 50000001500062746 50000001500062764 6.85511726265
10.7463 50000001500062746 50000001500062745 50000001500062764 6.49159774567
10.7875 50000001500062745 50000001500062744 50000001500062764 6.14490120342
10.8145 50000001500062744 50000001500062743 50000001500062764 6.01075739884
10.8496 50000001500062743 50000001500062742 50000001500062764 5.84661374788
10.9191 50000001500062742 50000001500062741 50000001500062764 5.52976580795
10.9637 50000001500062741 50000001500062740 50000001500062764 5.22758097313
10.9856 50000001500062740 50000001500062739 50000001500062764 4.99593346816
10.989 50000001500062739 50000001500062738 50000001500062764 4.93938066349
11.0431 50000001500062738 50000001500062737 50000001500062764 4.66451770247
11.1062 50000001500062737 50000001500062736 50000001500062764 4.42803373661
11.1469 50000001500062736 50000001500062735 50000001500062764 4.17683491473
11.1768 50000001500062735 50000001500062734 50000001500062764 4.00794511147
11.2166 50000001500062734 50000001500062732 50000001500062764 3.70877426464
11.3042 50000001500062732 50000001500062731 50000001500062764 3.49086136926
11.3533 50000001500062731 50000001500062730 50000001500062764 3.28303305796
11.3877 50000001500062730 50000001500062729 50000001500062764 3.08482263583
11.4091 50000001500062729 50000001500062728 50000001500062764 3.00813107163
11.4321 50000001500062728 50000001500062727 50000001500062764 2.89578500573
11.479 50000001500062727 50000001500062726 50000001500062764 2.73314261732
11.519 50000001500062726 50000001500062725 50000001500062764 2.5772902716
11.5608 50000001500062725 50000001500062724 50000001500062764 2.44422570455
11.5911 50000001500062724 50000001500062723 50000001500062764 2.31611074396
11.6112 50000001500062723 50000001500062722 50000001500062764 2.20792547238
11.6461 50000001500062722 50000001500062721 50000001500062764 2.1032696526
11.6806 50000001500062721 50000001500062720 50000001500062764 2.00202813925
11.7185 50000001500062720 50000001500062719 50000001500062764 1.90408954353
11.7331 50000001500062719 50000001500062718 50000001500062764 1.82268925262
11.7544 50000001500062718 50000001500062717 50000001500062764 1.74357057433
11.7761 50000001500062717 50000001500062716 50000001500062764 1.66666955611
11.7824 50000001500062716 50000001500062715 50000001500062764 1.60423452207
11.7942 50000001500062715 50000001500062714 50000001500062764 1.53123902916
11.8019 50000001500062714 50000001500062713 50000001500062764 1.47197484527
11.8028 50000001500062713 50000001500062712 50000001500062764 1.41409822037
11.8065 50000001500062712 50000001500062711 50000001500062764 1.3575766674
11.8071 50000001500062711 50000001500062708 50000001500062764 1.20625808078
11.8148 50000001500062708 50000001500062703 50000001500062764 0.997294225782
11.8189 50000001500062703 50000001500062701 50000001500062764 0.950531351585
11.8281 50000001500062701 50000001500062700 50000001500062764 0.923000816178
11.8332 50000001500062700 50000001500062699 50000001500062764 0.886896937575
11.8382 50000001500062699 50000001500062698 50000001500062764 0.851470900625
11.8446 50000001500062698 50000001500062697 50000001500062764 0.816709979012
11.8483 50000001500062697 50000001500062695 50000001500062764 0.757441372616
11.8507 50000001500062695 50000001500062694 50000001500062764 0.732636182022
11.859 50000001500062694 50000001500062693 50000001500062764 0.700106353719
11.8594 50000001500062693 50000001500062692 50000001500062764 0.676110411213
11.8644 50000001500062692 50000001500062691 50000001500062764 0.644641840685
11.8696 50000001500062691 50000001500062690 50000001500062764 0.621428745243
11.8709 50000001500062690 50000001500062688 50000001500062764 0.575980845108
11.8769 50000001500062688 50000001500062687 50000001500062764 0.546392183141
11.8805 50000001500062687 50000001500062686 50000001500062764 0.524565820434
11.8852 50000001500062686 50000001500062685 50000001500062764 0.503047523245
11.89 50000001500062685 50000001500062684 50000001500062764 0.481832943421
11.8962 50000001500062684 50000001500062683 50000001500062764 0.460917794181
11.9001 50000001500062683 50000001500062682 50000001500062764 0.440297849248
11.9073 50000001500062682 50000001500062681 50000001500062764 0.419968941997
11.91 50000001500062681 50000001500062680 50000001500062764 0.399926964614
11.9142 50000001500062680 50000001500062679 50000001500062764 0.38016786726
11.9228 50000001500062679 50000001500062678 50000001500062764 0.360687657262
11.9238 50000001500062678 50000001500062677 50000001500062764 0.347853841858
11.9291 50000001500062677 50000001500062676 50000001500062764 0.328829724206
11.9357 50000001500062676 50000001500062675 50000001500062764 0.310074120128
11.9434 50000001500062675 50000001500062674 50000001500062764 0.291583239722
9.10157 50000001500062789 50000001500062788 50000001500062792 10.3674435724
9.04653 50000001500062849 50000001500062848 50000001500062854 11.4973879548
9.21472 50000001500062848 50000001500062847 50000001500062854 10.9190331982
9.25284 50000001500062847 50000001500062845 50000001500062854 9.99659046619
9.2672 50000001500062845 50000001500062841 50000001500062854 8.9079991856
9.04358 50000001500062920 50000001500062919 50000001500062923 12.0418635439
9.15042 50000001500062919 50000001500062918 50000001500062923 11.4973879548
9.2361 50000001500062918 50000001500062917 50000001500062923 10.9190331982
9.29787 50000001500062917 50000001500062916 50000001500062923 10.3674435724
9.42527 50000001500062916 50000001500062913 50000001500062923 9.38877127194
9.46172 50000001500062913 50000001500062912 50000001500062923 9.00233985416
9.49326 50000001500062912 50000001500062911 50000001500062923 8.9079991856
9.01614 50000001500062959 50000001500062958 50000001500062962 13.3382482898
9.14578 50000001500062958 50000001500062957 50000001500062962 12.6747021048
9.18802 50000001500062957 50000001500062956 50000001500062962 12.0418635439
9.23799 50000001500062956 50000001500062955 50000001500062962 11.4973879548
9.2672 50000001500062955 50000001500062954 50000001500062962 10.9190331982
9.32031 50000001500062954 50000001500062953 50000001500062962 10.3674435724
9.35194 50000001500062953 50000001500062952 50000001500062962 9.99659046619
9.39871 50000001500062952 50000001500062950 50000001500062962 9.38877127194
9.45376 50000001500062950 50000001500062949 50000001500062962 9.00233985416
9.65078 50000001500062949 50000001500062946 50000001500062962 8.01217294887
9.69712 50000001500062946 50000001500062945 50000001500062962 7.59510714987
9.73959 50000001500062945 50000001500062944 50000001500062962 7.23627606617
9.0666 50000001500062976 50000001500062975 50000001500062980 9.38877127194
9.10671 50000001500062975 50000001500062974 50000001500062980 9.00233985416
9.12668 50000001500062974 50000001500062973 50000001500062980 8.9079991856
9.2087 50000001500062973 50000001500062972 50000001500062980 8.44947629437
9.2361 50000001500062972 50000001500062971 50000001500062980 8.01217294887
9.28788 50000001500062971 50000001500062970 50000001500062980 7.59510714987
9.35194 50000001500062970 50000001500062969 50000001500062980 7.23627606617
9.04358 50000001500063004 50000001500063003 50000001500063007 6.49159774567
9.04945 50000001500063003 50000001500063002 50000001500063007 6.14490120342
9.09898 50000001500063002 50000001500063001 50000001500063007 6.01075739884
9.12912 50000001500063042 50000001500063041 50000001500063052 7.23627606617
9.05235 50000001500063088 50000001500063087 50000001500063092 7.23627606617
9.08578 50000001500063087 50000001500063082 50000001500063092 6.01075739884
9.08578 50000001500063082 50000001500063080 50000001500063092 5.52976580795
9.09375 50000001500063158 50000001500063157 50000001500063162 9.38877127194
9.12424 50000001500063157 50000001500063156 50000001500063162 9.00233985416
9.13871 50000001500063156 50000001500063155 50000001500063162 8.9079991856
9.19013 50000001500063155 50000001500063154 50000001500063162 8.44947629437
9.2862 50000001500063154 50000001500063153 50000001500063162 8.01217294887
9.37181 50000001500063153 50000001500063152 50000001500063162 7.59510714987
9.40001 50000001500063152 50000001500063150 50000001500063162 7.00541704554
9.48905 50000001500063150 50000001500063149 50000001500063162 6.85511726265
9.52851 50000001500063149 50000001500063146 50000001500063162 6.01075739884
9.01928 50000001500063222 50000001500063221 50000001500063231 7.59510714987
9.02239 50000001500063221 50000001500063219 50000001500063231 7.00541704554
9.11179 50000001500063219 50000001500063218 50000001500063231 6.85511726265
9.13154 50000001500063218 50000001500063215 50000001500063231 6.01075739884
9.17512 50000001500063215 50000001500063214 50000001500063231 5.84661374788
9.19013 50000001500063214 50000001500063213 50000001500063231 5.52976580795
9.00012 50000001500063248 50000001500063247 50000001500063255 6.85511726265
9.04945 50000001500063247 50000001500063242 50000001500063255 5.52976580795
9.02548 50000001500063299 50000001500063298 50000001500063304 8.44947629437
9.04653 50000001500063298 50000001500063297 50000001500063304 8.01217294887
9.10926 50000001500063297 50000001500063295 50000001500063304 7.23627606617
9.12912 50000001500063295 50000001500063294 50000001500063304 7.00541704554
9.14344 50000001500063294 50000001500063293 50000001500063304 6.85511726265
9.19848 50000001500063293 50000001500063292 50000001500063304 6.49159774567
9.30278 50000001500063292 50000001500063291 50000001500063304 6.14490120342
9.30763 50000001500063291 50000001500063289 50000001500063304 5.84661374788
9.35771 50000001500063289 50000001500063288 50000001500063304 5.52976580795
9.01298 50000001500063330 50000001500063329 50000001500063338 5.52976580795
9.14344 50000001500063329 50000001500063328 50000001500063338 5.22758097313
9.18802 50000001500063328 50000001500063327 50000001500063338 4.99593346816
9.04945 50000001500063357 50000001500063356 50000001500063365 5.52976580795
9.07492 50000001500063356 50000001500063355 50000001500063365 5.22758097313
9.18162 50000001500063430 50000001500063429 50000001500063439 5.22758097313
9.2929 50000001500063429 50000001500063428 50000001500063439 4.99593346816
9.30115 50000001500063428 50000001500063427 50000001500063439 4.93938066349
9.0316 50000001500063503 50000001500063502 50000001500063507 10.9190331982
9.1663 50000001500063502 50000001500063501 50000001500063507 10.3674435724
9.34165 50000001500063501 50000001500063500 50000001500063507 9.99659046619
9.36902 50000001500063500 50000001500063499 50000001500063507 9.84138043947
9.37042 50000001500063499 50000001500063498 50000001500063507 9.38877127194
9.42527 50000001500063498 50000001500063497 50000001500063507 9.00233985416
9.43617 50000001500063497 50000001500063496 50000001500063507 8.9079991856
9.45376 50000001500063496 50000001500063494 50000001500063507 8.01217294887
9.63138 50000001500063494 50000001500063493 50000001500063507 7.59510714987
9.65224 50000001500063493 50000001500063492 50000001500063507 7.23627606617
9.74078 50000001500063492 50000001500063491 50000001500063507 7.00541704554
9.75993 50000001500063491 50000001500063490 50000001500063507 6.85511726265
9.8697 50000001500063490 50000001500063489 50000001500063507 6.49159774567
9.99946 50000001500063489 50000001500063488 50000001500063507 6.14490120342
10.082 50000001500063488 50000001500063487 50000001500063507 6.01075739884
10.12 50000001500063487 50000001500063486 50000001500063507 5.84661374788
10.237 50000001500063486 50000001500063484 50000001500063507 5.22758097313
10.2604 50000001500063484 50000001500063482 50000001500063507 4.93938066349
10.2744 50000001500063482 50000001500063481 50000001500063507 4.66451770247
9.00012 50000001500063527 50000001500063526 50000001500063533 8.01217294887
9.01928 50000001500063526 50000001500063524 50000001500063533 7.23627606617
9.04358 50000001500063524 50000001500063522 50000001500063533 6.85511726265
9.10157 50000001500063547 50000001500063546 50000001500063553 7.00541704554
9.10157 50000001500063546 50000001500063544 50000001500063553 6.49159774567
9.05524 50000001500063586 50000001500063585 50000001500063599 4.99593346816
9.05524 50000001500063585 50000001500063584 50000001500063599 4.93938066349
9.09637 50000001500063584 50000001500063583 50000001500063599 4.66451770247
9.03763 50000001500063625 50000001500063624 50000001500063631 8.01217294887
9.05524 50000001500063624 50000001500063623 50000001500063631 7.59510714987
9.14811 50000001500063623 50000001500063622 50000001500063631 7.23627606617
9.19433 50000001500063622 50000001500063621 50000001500063631 7.00541704554
9.2026 50000001500063621 50000001500063620 50000001500063631 6.85511726265
9.23037 50000001500063620 50000001500063619 50000001500063631 6.49159774567
9.27766 50000001500063619 50000001500063618 50000001500063631 6.14490120342
9.27938 50000001500063618 50000001500063616 50000001500063631 5.84661374788
9.2811 50000001500063616 50000001500063615 50000001500063631 5.52976580795
9.29124 50000001500063615 50000001500063614 50000001500063631 5.22758097313
9.36056 50000001500063614 50000001500063613 50000001500063631 4.99593346816
9.37319 50000001500063613 50000001500063611 50000001500063631 4.66451770247
9.0666 50000001500063659 50000001500063658 50000001500063677 3.28303305796
10.1987 50000001500063718 50000001500063717 50000001500063718 3.70877426464
10.2763 50000001500063717 50000001500063716 50000001500063718 3.28303305796
9.15502 50000001500063732 50000001500063731 50000001500063747 3.70877426464
9.31401 50000001500063731 50000001500063730 50000001500063747 3.49086136926
9.32958 50000001500063730 50000001500063728 50000001500063747 3.08482263583
9.11179 50000001500063751 50000001500063750 50000001500063756 4.00794511147
9.19641 50000001500063758 50000001500063757 50000001500063758 2.73314261732
9.0316 50000001500063826 50000001500063825 50000001500063834 5.22758097313
9.25828 50000001500063825 50000001500063824 50000001500063834 4.99593346816
9.34016 50000001500063824 50000001500063821 50000001500063834 4.42803373661
9.42157 50000001500063821 50000001500063820 50000001500063834 4.17683491473
9.47832 50000001500063820 50000001500063816 50000001500063834 3.49086136926
9.09898 50000001500063850 50000001500063849 50000001500063850 3.93726108473
9.17073 50000001500063849 50000001500063848 50000001500063850 3.70877426464
9.01614 50000001500063874 50000001500063873 50000001500063890 4.00794511147
9.01298 50000001500063928 50000001500063927 50000001500063946 3.08482263583
9.01928 50000001500063927 50000001500063926 50000001500063946 3.00813107163
9.04358 50000001500063926 50000001500063924 50000001500063946 2.73314261732
9.00337 50000001500063989 50000001500063988 50000001500063994 8.01217294887
9.02855 50000001500063988 50000001500063987 50000001500063994 7.59510714987
9.05811 50000001500063987 50000001500063986 50000001500063994 7.23627606617
9.11681 50000001500063986 50000001500063985 50000001500063994 7.00541704554
9.16407 50000001500063985 50000001500063984 50000001500063994 6.85511726265
9.2342 50000001500063984 50000001500063982 50000001500063994 6.14490120342
9.2361 50000001500063982 50000001500063978 50000001500063994 5.22758097313
9.2811 50000001500063978 50000001500063977 50000001500063994 4.99593346816
9.30115 50000001500063977 50000001500063974 50000001500063994 4.42803373661
9.33716 50000001500063974 50000001500063973 50000001500063994 4.17683491473
9.39478 50000001500063973 50000001500063972 50000001500063994 4.00794511147
9.03763 50000001500064018 50000001500064017 50000001500064023 6.14490120342
9.05235 50000001500064017 50000001500064016 50000001500064023 6.01075739884
9.12668 50000001500064016 50000001500064015 50000001500064023 5.84661374788
9.16852 50000001500064015 50000001500064013 50000001500064023 5.22758097313
9.22651 50000001500064013 50000001500064010 50000001500064023 4.66451770247
9.29124 50000001500064010 50000001500064008 50000001500064023 4.17683491473
9.29622 50000001500064008 50000001500064007 50000001500064023 4.00794511147
9.31874 50000001500064007 50000001500064006 50000001500064023 3.93726108473
9.32805 50000001500064006 50000001500064005 50000001500064023 3.70877426464
9.05811 50000001500064185 50000001500064184 50000001500064190 8.01217294887
9.12912 50000001500064184 50000001500064183 50000001500064190 7.59510714987
9.14108 50000001500064183 50000001500064182 50000001500064190 7.23627606617
9.23229 50000001500064182 50000001500064181 50000001500064190 7.00541704554
9.26896 50000001500064181 50000001500064180 50000001500064190 6.85511726265
9.40389 50000001500064180 50000001500064179 50000001500064190 6.49159774567
9.46285 50000001500064179 50000001500064178 50000001500064190 6.14490120342
9.48479 50000001500064178 50000001500064177 50000001500064190 6.01075739884
10.0515 50000001500064177 50000001500064165 50000001500064190 3.49086136926
9.0098 50000001500064502 50000001500064501 50000001500064509 6.85511726265
9.06096 50000001500064501 50000001500064500 50000001500064509 6.49159774567
9.0666 50000001500064500 50000001500064499 50000001500064509 6.14490120342
9.11431 50000001500064499 50000001500064498 50000001500064509 6.01075739884
9.2026 50000001500064498 50000001500064497 50000001500064509 5.84661374788
9.4964 50000001500064497 50000001500064486 50000001500064509 3.49086136926
10.3394 50000001500064486 50000001500064485 50000001500064509 3.08482263583
9.08845 50000001500064559 50000001500064558 50000001500064565 8.44947629437
9.2742 50000001500064558 50000001500064557 50000001500064565 8.01217294887
9.30115 50000001500064557 50000001500064554 50000001500064565 7.00541704554
9.33866 50000001500064554 50000001500064553 50000001500064565 6.85511726265
9.37181 50000001500064553 50000001500064552 50000001500064565 6.49159774567
9.38948 50000001500064552 50000001500064551 50000001500064565 6.14490120342
9.3974 50000001500064551 50000001500064550 50000001500064565 6.01075739884
9.47832 50000001500064550 50000001500064548 50000001500064565 5.52976580795
9.49848 50000001500064548 50000001500064547 50000001500064565 5.22758097313
9.51375 50000001500064547 50000001500064546 50000001500064565 4.99593346816
9.57523 50000001500064546 50000001500064545 50000001500064565 4.93938066349
9.00337 50000001500064751 50000001500064750 50000001500064753 10.3674435724
9.0316 50000001500064750 50000001500064749 50000001500064753 9.99659046619
9.04653 50000001500064749 50000001500064748 50000001500064753 9.84138043947
9.07492 50000001500064748 50000001500064747 50000001500064753 9.38877127194
9.13634 50000001500064747 50000001500064746 50000001500064753 9.00233985416
9.16852 50000001500064746 50000001500064745 50000001500064753 8.9079991856
9.23037 50000001500064745 50000001500064744 50000001500064753 8.44947629437
9.4549 50000001500064744 50000001500064743 50000001500064753 8.01217294887
9.58383 50000001500064743 50000001500064742 50000001500064753 7.59510714987
9.60381 50000001500064742 50000001500064741 50000001500064753 7.23627606617
9.61663 50000001500064741 50000001500064740 50000001500064753 7.00541704554
9.65514 50000001500064740 50000001500064739 50000001500064753 6.85511726265
9.77444 50000001500064739 50000001500064738 50000001500064753 6.49159774567
9.80415 50000001500064738 50000001500064737 50000001500064753 6.14490120342
9.82517 50000001500064737 50000001500064736 50000001500064753 6.01075739884
9.87058 50000001500064736 50000001500064735 50000001500064753 5.84661374788
9.88059 50000001500064735 50000001500064734 50000001500064753 5.52976580795
9.91963 50000001500064734 50000001500064733 50000001500064753 5.22758097313
9.92819 50000001500064733 50000001500064732 50000001500064753 4.99593346816
9.93011 50000001500064732 50000001500064731 50000001500064753 4.93938066349
9.94184 50000001500064731 50000001500064730 50000001500064753 4.66451770247
10.0053 50000001500064730 50000001500064729 50000001500064753 4.42803373661
10.043 50000001500064729 50000001500064728 50000001500064753 4.17683491473
10.0462 50000001500064728 50000001500064726 50000001500064753 3.93726108473
10.0638 50000001500064726 50000001500064725 50000001500064753 3.70877426464
9.01928 50000001500064763 50000001500064762 50000001500064769 9.00233985416
9.03463 50000001500064762 50000001500064761 50000001500064769 8.9079991856
9.09898 50000001500064977 50000001500064976 50000001500064988 7.59510714987
9.28956 50000001500064976 50000001500064975 50000001500064988 7.23627606617
9.35483 50000001500064975 50000001500064969 50000001500064988 5.84661374788
9.43136 50000001500064969 50000001500064968 50000001500064988 5.52976580795
9.47396 50000001500064968 50000001500064967 50000001500064988 5.22758097313
9.50669 50000001500064967 50000001500064966 50000001500064988 4.99593346816
9.51375 50000001500064966 50000001500064965 50000001500064988 4.93938066349
9.55113 50000001500064965 50000001500064964 50000001500064988 4.66451770247
9.56999 50000001500064964 50000001500064963 50000001500064988 4.42803373661
9.03463 50000001500065032 50000001500065031 50000001500065044 4.93938066349
9.0666 50000001500065031 50000001500065029 50000001500065044 4.42803373661
9.07492 50000001500065029 50000001500065027 50000001500065044 4.00794511147
9.19433 50000001500065027 50000001500065026 50000001500065044 3.93726108473
9.28788 50000001500065026 50000001500065024 50000001500065044 3.49086136926
9.32187 50000001500065024 50000001500065020 50000001500065044 2.89578500573
9.34016 50000001500065020 50000001500065016 50000001500065044 2.31611074396
9.04653 50000001500065187 50000001500065186 50000001500065189 8.44947629437
9.09375 50000001500065186 50000001500065185 50000001500065189 8.01217294887
9.12424 50000001500065185 50000001500065184 50000001500065189 7.59510714987
9.16182 50000001500065184 50000001500065183 50000001500065189 7.23627606617
9.2026 50000001500065183 50000001500065182 50000001500065189 7.00541704554
9.2087 50000001500065182 50000001500065181 50000001500065189 6.85511726265
9.2828 50000001500065181 50000001500065180 50000001500065189 6.49159774567
9.28956 50000001500065180 50000001500065178 50000001500065189 6.01075739884
9.30602 50000001500065178 50000001500065170 50000001500065189 4.17683491473
9.31874 50000001500065170 50000001500065167 50000001500065189 3.70877426464
9.34461 50000001500065167 50000001500065166 50000001500065189 3.49086136926
9.36481 50000001500065166 50000001500065165 50000001500065189 3.28303305796
9.38141 50000001500065346 50000001500065345 50000001500065355 8.01217294887
9.52365 50000001500065345 50000001500065344 50000001500065355 7.59510714987
9.77279 50000001500065344 50000001500065343 50000001500065355 7.23627606617
9.90402 50000001500065343 50000001500065342 50000001500065355 7.00541704554
9.98719 50000001500065342 50000001500065341 50000001500065355 6.85511726265
10.0149 50000001500065341 50000001500065340 50000001500065355 6.49159774567
10.0885 50000001500065340 50000001500065339 50000001500065355 6.14490120342
10.0943 50000001500065339 50000001500065338 50000001500065355 6.01075739884
10.1375 50000001500065338 50000001500065337 50000001500065355 5.84661374788
10.2024 50000001500065337 50000001500065336 50000001500065355 5.52976580795
10.2359 50000001500065336 50000001500065335 50000001500065355 5.22758097313
10.2397 50000001500065335 50000001500065334 50000001500065355 4.99593346816
10.2693 50000001500065334 50000001500065332 50000001500065355 4.66451770247
10.3052 50000001500065332 50000001500065325 50000001500065355 3.28303305796
10.3635 50000001500065325 50000001500065324 50000001500065355 3.08482263583
10.388 50000001500065324 50000001500065322 50000001500065355 2.89578500573
10.4175 50000001500065322 50000001500065321 50000001500065355 2.73314261732
10.455 50000001500065321 50000001500065320 50000001500065355 2.5772902716
10.4754 50000001500065320 50000001500065318 50000001500065355 2.31611074396
10.4897 50000001500065318 50000001500065317 50000001500065355 2.20792547238
9.00012 50000001500065360 50000001500065359 50000001500065364 9.00233985416
9.15042 50000001500065359 50000001500065358 50000001500065364 8.9079991856
9.22651 50000001500065358 50000001500065357 50000001500065364 8.44947629437
9.06939 50000001500065395 50000001500065394 50000001500065396 9.38877127194
9.22262 50000001500065394 50000001500065390 50000001500065396 8.01217294887
9.05235 50000001500065479 50000001500065478 50000001500065490 6.01075739884
9.13871 50000001500065478 50000001500065474 50000001500065490 4.99593346816
9.17946 50000001500065474 50000001500065473 50000001500065490 4.93938066349
9.25101 50000001500065473 50000001500065470 50000001500065490 4.17683491473
9.2742 50000001500065470 50000001500065467 50000001500065490 3.70877426464
9.2845 50000001500065467 50000001500065466 50000001500065490 3.49086136926
9.00337 50000001500065533 50000001500065532 50000001500065542 5.22758097313
9.03763 50000001500065532 50000001500065531 50000001500065542 4.99593346816
9.04945 50000001500065531 50000001500065530 50000001500065542 4.93938066349
9.13871 50000001500065530 50000001500065521 50000001500065542 3.00813107163
9.1573 50000001500065632 50000001500065631 50000001500065640 7.23627606617
9.17512 50000001500065631 50000001500065628 50000001500065640 6.49159774567
9.24175 50000001500065628 50000001500065627 50000001500065640 6.14490120342
9.24362 50000001500065627 50000001500065626 50000001500065640 6.01075739884
9.25101 50000001500065626 50000001500065625 50000001500065640 5.84661374788
9.2862 50000001500065625 50000001500065624 50000001500065640 5.52976580795
9.32342 50000001500065624 50000001500065623 50000001500065640 5.22758097313
9.35914 50000001500065623 50000001500065622 50000001500065640 4.99593346816
9.40389 50000001500065622 50000001500065621 50000001500065640 4.93938066349
9.43856 50000001500065621 50000001500065620 50000001500065640 4.66451770247
9.49326 50000001500065620 50000001500065618 50000001500065640 4.17683491473
9.53044 50000001500065618 50000001500065617 50000001500065640 4.00794511147
9.59059 50000001500065617 50000001500065616 50000001500065640 3.93726108473
9.65514 50000001500065616 50000001500065614 50000001500065640 3.49086136926
10.3982 50000001500065614 50000001500065612 50000001500065640 3.08482263583
10.4039 50000001500065612 50000001500065611 50000001500065640 3.00813107163
10.4465 50000001500065611 50000001500065609 50000001500065640 2.73314261732
9.0316 50000001500065679 50000001500065678 50000001500065690 4.42803373661
9.08038 50000001500065678 50000001500065677 50000001500065690 4.17683491473
9.07492 50000001500065762 50000001500065761 50000001500065768 8.01217294887
9.18802 50000001500065761 50000001500065760 50000001500065768 7.59510714987
9.25828 50000001500065760 50000001500065758 50000001500065768 7.00541704554
9.27072 50000001500065758 50000001500065757 50000001500065768 6.85511726265
9.2845 50000001500065757 50000001500065756 50000001500065768 6.49159774567
9.32342 50000001500065756 50000001500065755 50000001500065768 6.14490120342
9.34756 50000001500065755 50000001500065754 50000001500065768 6.01075739884
9.44211 50000001500065754 50000001500065753 50000001500065768 5.84661374788
9.4503 50000001500065753 50000001500065752 50000001500065768 5.52976580795
9.49744 50000001500065752 50000001500065750 50000001500065768 4.99593346816
9.53808 50000001500065750 50000001500065748 50000001500065768 4.66451770247
9.58723 50000001500065748 50000001500065747 50000001500065768 4.42803373661
9.60136 50000001500065747 50000001500065746 50000001500065768 4.17683491473
9.60705 50000001500065746 50000001500065745 50000001500065768 4.00794511147
9.69449 50000001500065745 50000001500065744 50000001500065768 3.93726108473
9.81278 50000001500065744 50000001500065743 50000001500065768 3.70877426464
9.83243 50000001500065743 50000001500065742 50000001500065768 3.49086136926
10.1462 50000001500065786 50000001500065785 50000001500065789 3.28303305796
9.0098 50000001500065811 50000001500065810 50000001500065818 6.01075739884
9.04653 50000001500065810 50000001500065809 50000001500065818 5.84661374788
9.1193 50000001500065809 50000001500065807 50000001500065818 5.22758097313
9.26543 50000001500065807 50000001500065806 50000001500065818 4.99593346816
9.31717 50000001500065806 50000001500065804 50000001500065818 4.66451770247
9.41282 50000001500065804 50000001500065803 50000001500065818 4.42803373661
9.44329 50000001500065803 50000001500065802 50000001500065818 4.17683491473
9.54651 50000001500065802 50000001500065801 50000001500065818 4.00794511147
9.55841 50000001500065801 50000001500065800 50000001500065818 3.93726108473
9.05811 50000001500065869 50000001500065868 50000001500065880 6.49159774567
9.13154 50000001500065868 50000001500065867 50000001500065880 6.14490120342
9.17073 50000001500065867 50000001500065866 50000001500065880 6.01075739884
9.18162 50000001500065866 50000001500065865 50000001500065880 5.84661374788
9.32497 50000001500065865 50000001500065864 50000001500065880 5.52976580795
9.42649 50000001500065864 50000001500065863 50000001500065880 5.22758097313
9.54278 50000001500065863 50000001500065862 50000001500065880 4.99593346816
9.58553 50000001500065862 50000001500065860 50000001500065880 4.66451770247
9.67353 50000001500065860 50000001500065859 50000001500065880 4.42803373661
9.71448 50000001500065859 50000001500065858 50000001500065880 4.17683491473
9.76613 50000001500065858 50000001500065857 50000001500065880 4.00794511147
9.77772 50000001500065857 50000001500065856 50000001500065880 3.93726108473
9.78742 50000001500065856 50000001500065855 50000001500065880 3.70877426464
9.87409 50000001500065855 50000001500065854 50000001500065880 3.49086136926
9.89869 50000001500065854 50000001500065853 50000001500065880 3.28303305796
9.01298 50000001500065980 50000001500065979 50000001500065998 3.00813107163
9.09637 50000001500066065 50000001500066064 50000001500066071 8.01217294887
9.10926 50000001500066064 50000001500066063 50000001500066071 7.59510714987
9.13394 50000001500066063 50000001500066062 50000001500066071 7.23627606617
9.16182 50000001500066062 50000001500066058 50000001500066071 6.14490120342
9.18376 50000001500066058 50000001500066057 50000001500066071 6.01075739884
9.64859 50000001500066057 50000001500066053 50000001500066071 4.99593346816
9.82468 50000001500066053 50000001500066052 50000001500066071 4.93938066349
9.95797 50000001500066052 50000001500066051 50000001500066071 4.66451770247
9.99287 50000001500066051 50000001500066050 50000001500066071 4.42803373661
10.0793 50000001500066050 50000001500066049 50000001500066071 4.17683491473
10.2752 50000001500066049 50000001500066048 50000001500066071 3.93726108473
9.25101 50000001500066080 50000001500066079 50000001500066090 6.14490120342
9.27938 50000001500066079 50000001500066078 50000001500066090 6.01075739884
9.32497 50000001500066078 50000001500066077 50000001500066090 5.84661374788
9.36902 50000001500066077 50000001500066075 50000001500066090 5.22758097313
9.01298 50000001500066092 50000001500066091 50000001500066094 6.49159774567
9.06939 50000001500066152 50000001500066151 50000001500066159 8.01217294887
9.11681 50000001500066151 50000001500066150 50000001500066159 7.59510714987
9.17073 50000001500066150 50000001500066149 50000001500066159 7.23627606617
9.17512 50000001500066149 50000001500066147 50000001500066159 6.85511726265
9.25648 50000001500066147 50000001500066146 50000001500066159 6.49159774567
9.3044 50000001500066146 50000001500066145 50000001500066159 6.14490120342
9.30923 50000001500066145 50000001500066144 50000001500066159 6.01075739884
9.31874 50000001500066144 50000001500066143 50000001500066159 5.84661374788
9.39478 50000001500066143 50000001500066142 50000001500066159 5.52976580795
9.41282 50000001500066142 50000001500066141 50000001500066159 5.22758097313
9.41784 50000001500066141 50000001500066140 50000001500066159 4.99593346816
9.42281 50000001500066140 50000001500066139 50000001500066159 4.93938066349
9.53996 50000001500066139 50000001500066138 50000001500066159 4.66451770247
9.65224 50000001500066138 50000001500066137 50000001500066159 4.42803373661
9.73899 50000001500066137 50000001500066136 50000001500066159 4.17683491473
9.81177 50000001500066136 50000001500066135 50000001500066159 4.00794511147
9.18376 50000001500066170 50000001500066169 50000001500066179 6.14490120342
9.23037 50000001500066169 50000001500066166 50000001500066179 5.52976580795
9.25828 50000001500066166 50000001500066165 50000001500066179 5.22758097313
9.32342 50000001500066165 50000001500066164 50000001500066179 4.99593346816
9.32497 50000001500066164 50000001500066163 50000001500066179 4.93938066349
9.00012 50000001500066318 50000001500066317 50000001500066326 7.23627606617
9.04062 50000001500066317 50000001500066316 50000001500066326 7.00541704554
9.08038 50000001500066316 50000001500066315 50000001500066326 6.85511726265
9.08578 50000001500066315 50000001500066314 50000001500066326 6.49159774567
9.10926 50000001500066314 50000001500066313 50000001500066326 6.14490120342
9.12668 50000001500066313 50000001500066312 50000001500066326 6.01075739884
9.13154 50000001500066312 50000001500066311 50000001500066326 5.84661374788
9.20668 50000001500066311 50000001500066310 50000001500066326 5.52976580795
9.21869 50000001500066310 50000001500066308 50000001500066326 4.99593346816
9.26543 50000001500066308 50000001500066307 50000001500066326 4.93938066349
9.02239 50000001500066382 50000001500066381 50000001500066408 3.28303305796
9.01928 50000001500066470 50000001500066469 50000001500066473 5.22758097313
9.08578 50000001500066469 50000001500066468 50000001500066473 4.99593346816
9.27938 50000001500066468 50000001500066467 50000001500066473 4.93938066349
9.33866 50000001500066467 50000001500066465 50000001500066473 4.42803373661
9.42157 50000001500066465 50000001500066464 50000001500066473 4.17683491473
9.55841 50000001500066464 50000001500066462 50000001500066473 3.70877426464
9.63593 50000001500066462 50000001500066461 50000001500066473 3.49086136926
9.02855 50000001500066686 50000001500066685 50000001500066699 6.49159774567
9.06939 50000001500066685 50000001500066684 50000001500066699 6.14490120342
9.08038 50000001500066684 50000001500066683 50000001500066699 6.01075739884
9.12424 50000001500066683 50000001500066682 50000001500066699 5.84661374788
9.14578 50000001500066682 50000001500066681 50000001500066699 5.52976580795
9.17729 50000001500066681 50000001500066680 50000001500066699 5.22758097313
9.21272 50000001500066680 50000001500066679 50000001500066699 4.99593346816
9.21472 50000001500066679 50000001500066675 50000001500066699 4.17683491473
9.2342 50000001500066675 50000001500066674 50000001500066699 4.00794511147
9.26008 50000001500066674 50000001500066673 50000001500066699 3.93726108473
9.32651 50000001500066673 50000001500066672 50000001500066699 3.70877426464
9.37457 50000001500066672 50000001500066671 50000001500066699 3.49086136926
9.38815 50000001500066671 50000001500066670 50000001500066699 3.28303305796
9.40518 50000001500066670 50000001500066669 50000001500066699 3.08482263583
9.00012 50000001500066915 50000001500066914 50000001500066919 6.49159774567
9.00337 50000001500066914 50000001500066912 50000001500066919 6.01075739884
9.00337 50000001500066912 50000001500066911 50000001500066919 5.84661374788
9.03763 50000001500066911 50000001500066910 50000001500066919 5.52976580795
9.07766 50000001500066910 50000001500066909 50000001500066919 5.22758097313
9.15956 50000001500066909 50000001500066908 50000001500066919 4.99593346816
9.17729 50000001500066908 50000001500066907 50000001500066919 4.93938066349
9.2742 50000001500066907 50000001500066900 50000001500066919 3.49086136926
9.29457 50000001500066900 50000001500066899 50000001500066919 3.28303305796
9.32958 50000001500066899 50000001500066898 50000001500066919 3.08482263583
9.35914 50000001500066898 50000001500066897 50000001500066919 3.00813107163
9.42404 50000001500066897 50000001500066896 50000001500066919 2.89578500573
9.47505 50000001500066896 50000001500066895 50000001500066919 2.73314261732
9.55751 50000001500066895 50000001500066894 50000001500066919 2.5772902716
9.6329 50000001500066894 50000001500066893 50000001500066919 2.44422570455
9.67835 50000001500066893 50000001500066892 50000001500066919 2.31611074396
9.70877 50000001500066892 50000001500066891 50000001500066919 2.20792547238
9.80312 50000001500066891 50000001500066889 50000001500066919 2.00202813925
9.81478 50000001500066889 50000001500066888 50000001500066919 1.90408954353
9.85944 50000001500066888 50000001500066886 50000001500066919 1.74357057433
9.85989 50000001500066886 50000001500066885 50000001500066919 1.66666955611
9.85989 50000001500066885 50000001500066884 50000001500066919 1.60423452207
9.87409 50000001500066884 50000001500066883 50000001500066919 1.53123902916
