logMh | fpID | subhaloID | main leaf ID | z
9.00012 60000016100015314 60000016100015313 60000016100015317 14.0339921445
9.12668 60000016100015313 60000016100015312 60000016100015317 13.3382482898
9.29951 60000016100015312 60000016100015311 60000016100015317 12.6747021048
9.4026 60000016100015311 60000016100015310 60000016100015317 12.0418635439
9.45833 60000016100015310 60000016100015309 60000016100015317 11.4973879548
9.51175 60000016100015309 60000016100015308 60000016100015317 10.9190331982
9.78314 60000016100015308 60000016100015307 60000016100015317 10.3674435724
9.96155 60000016100015307 60000016100015306 60000016100015317 9.99659046619
10.1264 60000016100015306 60000016100015304 60000016100015317 9.38877127194
10.2057 60000016100015304 60000016100015303 60000016100015317 9.00233985416
10.2177 60000016100015303 60000016100015302 60000016100015317 8.9079991856
10.2889 60000016100015302 60000016100015301 60000016100015317 8.44947629437
10.3568 60000016100015301 60000016100015300 60000016100015317 8.01217294887
10.4203 60000016100015300 60000016100015299 60000016100015317 7.59510714987
10.4869 60000016100015299 60000016100015298 60000016100015317 7.23627606617
10.5126 60000016100015298 60000016100015297 60000016100015317 7.00541704554
10.524 60000016100015297 60000016100015296 60000016100015317 6.85511726265
10.5776 60000016100015296 60000016100015295 60000016100015317 6.49159774567
10.628 60000016100015295 60000016100015294 60000016100015317 6.14490120342
10.6587 60000016100015294 60000016100015293 60000016100015317 6.01075739884
10.7122 60000016100015293 60000016100015292 60000016100015317 5.84661374788
10.7564 60000016100015292 60000016100015291 60000016100015317 5.52976580795
10.7984 60000016100015291 60000016100015290 60000016100015317 5.22758097313
10.8362 60000016100015290 60000016100015289 60000016100015317 4.99593346816
10.8438 60000016100015289 60000016100015288 60000016100015317 4.93938066349
10.9061 60000016100015288 60000016100015287 60000016100015317 4.66451770247
10.9247 60000016100015287 60000016100015286 60000016100015317 4.42803373661
10.9573 60000016100015286 60000016100015285 60000016100015317 4.17683491473
10.9679 60000016100015285 60000016100015284 60000016100015317 4.00794511147
10.9743 60000016100015284 60000016100015283 60000016100015317 3.93726108473
10.9869 60000016100015283 60000016100015282 60000016100015317 3.70877426464
11.0176 60000016100015282 60000016100015281 60000016100015317 3.49086136926
11.0277 60000016100015281 60000016100015280 60000016100015317 3.28303305796
11.028 60000016100015280 60000016100015279 60000016100015317 3.08482263583
11.553 60000016100015279 60000016100015273 60000016100015317 2.31611074396
11.7786 60000016100015273 60000016100015269 60000016100015317 1.90408954353
11.8316 60000016100015269 60000016100015267 60000016100015317 1.74357057433
11.874 60000016100015267 60000016100015266 60000016100015317 1.66666955611
11.8924 60000016100015266 60000016100015265 60000016100015317 1.60423452207
11.9022 60000016100015265 60000016100015264 60000016100015317 1.53123902916
11.9081 60000016100015264 60000016100015263 60000016100015317 1.47197484527
11.914 60000016100015263 60000016100015262 60000016100015317 1.41409822037
11.9232 60000016100015262 60000016100015261 60000016100015317 1.3575766674
11.9298 60000016100015261 60000016100015260 60000016100015317 1.30237845991
11.9324 60000016100015260 60000016100015259 60000016100015317 1.24847261425
11.9369 60000016100015259 60000016100015258 60000016100015317 1.20625808078
11.9418 60000016100015258 60000016100015257 60000016100015317 1.15460271236
11.9498 60000016100015257 60000016100015256 60000016100015317 1.11415056377
11.9591 60000016100015256 60000016100015255 60000016100015317 1.07445789455
11.9731 60000016100015255 60000016100015254 60000016100015317 1.03551044566
11.9781 60000016100015254 60000016100015253 60000016100015317 0.997294225782
11.9842 60000016100015253 60000016100015252 60000016100015317 0.987852810816
11.9942 60000016100015252 60000016100015251 60000016100015317 0.950531351585
11.998 60000016100015251 60000016100015250 60000016100015317 0.923000816178
12.0113 60000016100015250 60000016100015249 60000016100015317 0.886896937575
12.0276 60000016100015249 60000016100015248 60000016100015317 0.851470900625
12.0344 60000016100015248 60000016100015247 60000016100015317 0.816709979012
12.0419 60000016100015247 60000016100015246 60000016100015317 0.791068248946
12.0498 60000016100015246 60000016100015245 60000016100015317 0.757441372616
12.0538 60000016100015245 60000016100015244 60000016100015317 0.732636182022
12.0621 60000016100015244 60000016100015243 60000016100015317 0.700106353719
12.0638 60000016100015243 60000016100015242 60000016100015317 0.676110411213
12.0674 60000016100015242 60000016100015241 60000016100015317 0.644641840685
12.0705 60000016100015241 60000016100015240 60000016100015317 0.621428745243
12.0709 60000016100015240 60000016100015239 60000016100015317 0.598543288188
12.075 60000016100015239 60000016100015238 60000016100015317 0.575980845108
12.077 60000016100015238 60000016100015237 60000016100015317 0.546392183141
12.0812 60000016100015237 60000016100015236 60000016100015317 0.524565820434
12.0854 60000016100015236 60000016100015235 60000016100015317 0.503047523245
12.0898 60000016100015235 60000016100015234 60000016100015317 0.481832943421
12.0927 60000016100015234 60000016100015233 60000016100015317 0.460917794181
12.0989 60000016100015233 60000016100015232 60000016100015317 0.440297849248
12.1048 60000016100015232 60000016100015231 60000016100015317 0.419968941997
12.1083 60000016100015231 60000016100015230 60000016100015317 0.399926964614
12.1105 60000016100015230 60000016100015229 60000016100015317 0.38016786726
12.1121 60000016100015229 60000016100015228 60000016100015317 0.360687657262
12.1155 60000016100015228 60000016100015227 60000016100015317 0.347853841858
12.1199 60000016100015227 60000016100015226 60000016100015317 0.328829724206
12.123 60000016100015226 60000016100015225 60000016100015317 0.310074120128
12.1255 60000016100015225 60000016100015224 60000016100015317 0.291583239722
12.1296 60000016100015224 60000016100015223 60000016100015317 0.273353346578
12.1321 60000016100015223 60000016100015222 60000016100015317 0.261343256161
12.1359 60000016100015222 60000016100015221 60000016100015317 0.243540181555
12.141 60000016100015221 60000016100015220 60000016100015317 0.22598838626
12.1434 60000016100015220 60000016100015219 60000016100015317 0.214425035514
12.1497 60000016100015219 60000016100015218 60000016100015317 0.197284182376
12.1513 60000016100015218 60000016100015217 60000016100015317 0.180385261706
12.1547 60000016100015217 60000016100015216 60000016100015317 0.169252033244
12.1589 60000016100015216 60000016100015215 60000016100015317 0.152748768902
12.1645 60000016100015215 60000016100015214 60000016100015317 0.14187620397
12.1673 60000016100015214 60000016100015213 60000016100015317 0.125759332411
12.1723 60000016100015213 60000016100015212 60000016100015317 0.109869940459
12.1756 60000016100015212 60000016100015211 60000016100015317 0.0994018026302
12.1764 60000016100015211 60000016100015210 60000016100015317 0.0838844307975
9.07216 60000016100015329 60000016100015328 60000016100015331 12.6747021048
9.17512 60000016100015328 60000016100015327 60000016100015331 12.0418635439
9.27594 60000016100015327 60000016100015326 60000016100015331 11.4973879548
9.39478 60000016100015326 60000016100015325 60000016100015331 10.9190331982
9.96546 60000016100015325 60000016100015322 60000016100015331 9.84138043947
9.17293 60000016100015352 60000016100015351 60000016100015354 12.0418635439
9.23229 60000016100015351 60000016100015350 60000016100015354 11.4973879548
9.29457 60000016100015350 60000016100015349 60000016100015354 10.9190331982
9.2026 60000016100015366 60000016100015365 60000016100015371 7.59510714987
9.3156 60000016100015376 60000016100015375 60000016100015384 8.01217294887
9.05811 60000016100015437 60000016100015436 60000016100015442 9.00233985416
9.1573 60000016100015436 60000016100015431 60000016100015442 7.23627606617
9.01614 60000016100015500 60000016100015499 60000016100015509 8.01217294887
9.06939 60000016100015499 60000016100015498 60000016100015509 7.59510714987
9.16852 60000016100015498 60000016100015497 60000016100015509 7.23627606617
9.17729 60000016100015497 60000016100015496 60000016100015509 7.00541704554
9.18802 60000016100015496 60000016100015495 60000016100015509 6.85511726265
9.21472 60000016100015495 60000016100015494 60000016100015509 6.49159774567
9.33716 60000016100015494 60000016100015493 60000016100015509 6.14490120342
9.2361 60000016100015544 60000016100015543 60000016100015545 7.23627606617
9.25828 60000016100015543 60000016100015541 60000016100015545 6.85511726265
9.34313 60000016100015541 60000016100015540 60000016100015545 6.49159774567
9.06939 60000016100015606 60000016100015605 60000016100015611 6.14490120342
9.47066 60000016100015605 60000016100015601 60000016100015611 5.22758097313
9.0666 60000016100015686 60000016100015685 60000016100015698 6.49159774567
9.23037 60000016100015685 60000016100015683 60000016100015698 6.01075739884
9.2342 60000016100015683 60000016100015682 60000016100015698 5.84661374788
9.51972 60000016100015682 60000016100015681 60000016100015698 5.52976580795
9.01298 60000016100015743 60000016100015742 60000016100015747 6.14490120342
9.09375 60000016100015742 60000016100015741 60000016100015747 6.01075739884
9.17073 60000016100015937 60000016100015936 60000016100015947 3.70877426464
9.0098 60000016100016007 60000016100016006 60000016100016016 4.00794511147
9.02548 60000016100016006 60000016100016005 60000016100016016 3.93726108473
9.00012 60000016100016131 60000016100016130 60000016100016134 9.00233985416
9.00012 60000016100016130 60000016100016129 60000016100016134 8.9079991856
9.15502 60000016100016129 60000016100016128 60000016100016134 8.44947629437
9.19013 60000016100016128 60000016100016127 60000016100016134 8.01217294887
9.38005 60000016100016127 60000016100016126 60000016100016134 7.59510714987
9.3974 60000016100016126 60000016100016125 60000016100016134 7.23627606617
9.42771 60000016100016125 60000016100016124 60000016100016134 7.00541704554
9.56557 60000016100016124 60000016100016122 60000016100016134 6.49159774567
9.63214 60000016100016122 60000016100016121 60000016100016134 6.14490120342
9.66584 60000016100016121 60000016100016120 60000016100016134 6.01075739884
9.75133 60000016100016120 60000016100016118 60000016100016134 5.52976580795
9.78475 60000016100016118 60000016100016117 60000016100016134 5.22758097313
9.81528 60000016100016117 60000016100016116 60000016100016134 4.99593346816
9.84428 60000016100016116 60000016100016115 60000016100016134 4.93938066349
9.89496 60000016100016115 60000016100016114 60000016100016134 4.66451770247
9.92819 60000016100016114 60000016100016113 60000016100016134 4.42803373661
9.9612 60000016100016113 60000016100016112 60000016100016134 4.17683491473
9.98517 60000016100016112 60000016100016111 60000016100016134 4.00794511147
9.13154 60000016100016150 60000016100016149 60000016100016159 7.23627606617
9.17293 60000016100016149 60000016100016148 60000016100016159 7.00541704554
9.02239 60000016100016192 60000016100016191 60000016100016201 6.14490120342
9.05235 60000016100016191 60000016100016188 60000016100016201 5.52976580795
9.16852 60000016100016188 60000016100016186 60000016100016201 4.99593346816
9.19013 60000016100016186 60000016100016185 60000016100016201 4.93938066349
9.2087 60000016100016185 60000016100016184 60000016100016201 4.66451770247
9.05524 60000016100016251 60000016100016250 60000016100016260 9.00233985416
9.39346 60000016100016250 60000016100016248 60000016100016260 8.44947629437
9.41784 60000016100016248 60000016100016247 60000016100016260 8.01217294887
9.74667 60000016100016247 60000016100016246 60000016100016260 7.59510714987
9.92041 60000016100016246 60000016100016245 60000016100016260 7.23627606617
9.96084 60000016100016245 60000016100016244 60000016100016260 7.00541704554
10.0076 60000016100016244 60000016100016243 60000016100016260 6.85511726265
10.1378 60000016100016243 60000016100016242 60000016100016260 6.49159774567
10.1857 60000016100016242 60000016100016241 60000016100016260 6.14490120342
10.2173 60000016100016241 60000016100016240 60000016100016260 6.01075739884
10.2676 60000016100016240 60000016100016239 60000016100016260 5.84661374788
10.3169 60000016100016239 60000016100016238 60000016100016260 5.52976580795
10.3502 60000016100016238 60000016100016237 60000016100016260 5.22758097313
10.3907 60000016100016237 60000016100016236 60000016100016260 4.99593346816
10.4119 60000016100016236 60000016100016234 60000016100016260 4.66451770247
10.4361 60000016100016234 60000016100016233 60000016100016260 4.42803373661
10.4459 60000016100016233 60000016100016232 60000016100016260 4.17683491473
10.4634 60000016100016232 60000016100016229 60000016100016260 3.70877426464
10.4649 60000016100016229 60000016100016228 60000016100016260 3.49086136926
11.24 60000016100016228 60000016100016225 60000016100016260 3.00813107163
11.3422 60000016100016225 60000016100016223 60000016100016260 2.73314261732
11.6018 60000016100016223 60000016100016219 60000016100016260 2.20792547238
11.6714 60000016100016219 60000016100016218 60000016100016260 2.1032696526
11.7535 60000016100016218 60000016100016217 60000016100016260 2.00202813925
11.7875 60000016100016217 60000016100016215 60000016100016260 1.82268925262
9.03763 60000016100016262 60000016100016261 60000016100016267 8.9079991856
9.09637 60000016100016273 60000016100016272 60000016100016277 9.00233985416
9.19848 60000016100016272 60000016100016269 60000016100016277 8.01217294887
9.02855 60000016100016279 60000016100016278 60000016100016283 8.44947629437
9.22845 60000016100016297 60000016100016296 60000016100016304 8.44947629437
9.09111 60000016100016355 60000016100016354 60000016100016362 7.00541704554
9.10671 60000016100016354 60000016100016353 60000016100016362 6.85511726265
9.01614 60000016100016457 60000016100016456 60000016100016470 5.22758097313
9.03463 60000016100016456 60000016100016455 60000016100016470 4.99593346816
9.30602 60000016100016634 60000016100016633 60000016100016635 3.49086136926
9.04358 60000016100016673 60000016100016672 60000016100016675 10.3674435724
9.04945 60000016100016672 60000016100016671 60000016100016675 9.99659046619
9.09111 60000016100016671 60000016100016669 60000016100016675 9.38877127194
9.30602 60000016100016669 60000016100016668 60000016100016675 9.00233985416
9.39214 60000016100016668 60000016100016666 60000016100016675 8.44947629437
9.55113 60000016100016666 60000016100016665 60000016100016675 8.01217294887
9.59725 60000016100016665 60000016100016664 60000016100016675 7.59510714987
9.7195 60000016100016664 60000016100016663 60000016100016675 7.23627606617
9.77499 60000016100016663 60000016100016662 60000016100016675 7.00541704554
9.82614 60000016100016662 60000016100016661 60000016100016675 6.85511726265
9.93847 60000016100016661 60000016100016660 60000016100016675 6.49159774567
9.9975 60000016100016660 60000016100016658 60000016100016675 6.01075739884
10.0842 60000016100016658 60000016100016657 60000016100016675 5.84661374788
10.1458 60000016100016657 60000016100016656 60000016100016675 5.52976580795
10.2008 60000016100016656 60000016100016655 60000016100016675 5.22758097313
10.287 60000016100016655 60000016100016654 60000016100016675 4.99593346816
10.3571 60000016100016654 60000016100016652 60000016100016675 4.66451770247
10.5641 60000016100016652 60000016100016651 60000016100016675 4.42803373661
10.6206 60000016100016651 60000016100016650 60000016100016675 4.17683491473
10.655 60000016100016650 60000016100016649 60000016100016675 4.00794511147
10.6705 60000016100016649 60000016100016648 60000016100016675 3.93726108473
10.7079 60000016100016648 60000016100016647 60000016100016675 3.70877426464
10.7173 60000016100016647 60000016100016646 60000016100016675 3.49086136926
9.01298 60000016100016691 60000016100016690 60000016100016696 9.00233985416
9.11431 60000016100016690 60000016100016687 60000016100016696 8.01217294887
9.9411 60000016100016687 60000016100016682 60000016100016696 6.14490120342
9.15042 60000016100016733 60000016100016732 60000016100016742 6.14490120342
9.31083 60000016100016732 60000016100016731 60000016100016742 6.01075739884
9.31243 60000016100016731 60000016100016730 60000016100016742 5.84661374788
9.53428 60000016100016730 60000016100016729 60000016100016742 5.52976580795
9.68312 60000016100016729 60000016100016728 60000016100016742 5.22758097313
9.10415 60000016100016827 60000016100016826 60000016100016834 6.49159774567
9.11179 60000016100016826 60000016100016825 60000016100016834 6.14490120342
9.15956 60000016100016825 60000016100016824 60000016100016834 6.01075739884
9.19848 60000016100016851 60000016100016850 60000016100016858 6.49159774567
9.35483 60000016100016850 60000016100016849 60000016100016858 6.14490120342
9.37319 60000016100016849 60000016100016848 60000016100016858 6.01075739884
9.40902 60000016100016848 60000016100016847 60000016100016858 5.84661374788
9.44211 60000016100016847 60000016100016846 60000016100016858 5.52976580795
9.48692 60000016100016846 60000016100016845 60000016100016858 5.22758097313
9.57523 60000016100016845 60000016100016844 60000016100016858 4.99593346816
9.61663 60000016100016844 60000016100016842 60000016100016858 4.66451770247
9.04358 60000016100016893 60000016100016892 60000016100016901 6.14490120342
9.09637 60000016100016892 60000016100016890 60000016100016901 5.84661374788
9.1193 60000016100016890 60000016100016889 60000016100016901 5.52976580795
9.13634 60000016100016889 60000016100016888 60000016100016901 5.22758097313
9.17293 60000016100016888 60000016100016887 60000016100016901 4.99593346816
11.323 60000016100016920 60000016100016919 60000016100016922 2.89578500573
9.06378 60000016100016942 60000016100016941 60000016100016951 5.52976580795
9.15273 60000016100016941 60000016100016940 60000016100016951 5.22758097313
9.19223 60000016100016940 60000016100016939 60000016100016951 4.99593346816
9.23229 60000016100016939 60000016100016938 60000016100016951 4.93938066349
9.25284 60000016100016938 60000016100016936 60000016100016951 4.42803373661
9.01928 60000016100016974 60000016100016973 60000016100016981 4.99593346816
9.02548 60000016100016973 60000016100016971 60000016100016981 4.66451770247
9.05235 60000016100016971 60000016100016970 60000016100016981 4.42803373661
9.11179 60000016100016970 60000016100016969 60000016100016981 4.17683491473
9.05235 60000016100017000 60000016100016999 60000016100017007 4.66451770247
9.05811 60000016100016999 60000016100016998 60000016100017007 4.42803373661
9.05811 60000016100016998 60000016100016994 60000016100017007 3.70877426464
9.05811 60000016100017150 60000016100017149 60000016100017155 9.00233985416
9.13634 60000016100017149 60000016100017147 60000016100017155 8.44947629437
9.20055 60000016100017147 60000016100017146 60000016100017155 8.01217294887
9.26187 60000016100017146 60000016100017145 60000016100017155 7.59510714987
9.33566 60000016100017145 60000016100017144 60000016100017155 7.23627606617
9.38277 60000016100017144 60000016100017143 60000016100017155 7.00541704554
9.3974 60000016100017143 60000016100017142 60000016100017155 6.85511726265
9.44564 60000016100017142 60000016100017141 60000016100017155 6.49159774567
9.49951 60000016100017141 60000016100017140 60000016100017155 6.14490120342
9.51774 60000016100017140 60000016100017139 60000016100017155 6.01075739884
9.54744 60000016100017139 60000016100017138 60000016100017155 5.84661374788
9.91766 60000016100017138 60000016100017136 60000016100017155 5.22758097313
9.98313 60000016100017136 60000016100017135 60000016100017155 4.99593346816
10.0133 60000016100017135 60000016100017134 60000016100017155 4.93938066349
10.1308 60000016100017134 60000016100017133 60000016100017155 4.66451770247
10.2151 60000016100017133 60000016100017132 60000016100017155 4.42803373661
10.3502 60000016100017132 60000016100017131 60000016100017155 4.17683491473
10.5502 60000016100017131 60000016100017129 60000016100017155 3.93726108473
10.6346 60000016100017129 60000016100017128 60000016100017155 3.70877426464
10.7067 60000016100017128 60000016100017127 60000016100017155 3.49086136926
10.8806 60000016100017127 60000016100017126 60000016100017155 3.28303305796
10.9014 60000016100017126 60000016100017125 60000016100017155 3.08482263583
11.2753 60000016100017125 60000016100017121 60000016100017155 2.5772902716
11.4384 60000016100017121 60000016100017120 60000016100017155 2.44422570455
9.13871 60000016100017162 60000016100017161 60000016100017166 6.85511726265
9.2929 60000016100017161 60000016100017159 60000016100017166 6.14490120342
9.34902 60000016100017159 60000016100017158 60000016100017166 6.01075739884
9.37319 60000016100017158 60000016100017157 60000016100017166 5.84661374788
9.02239 60000016100017192 60000016100017191 60000016100017205 6.01075739884
9.53902 60000016100017191 60000016100017189 60000016100017205 5.52976580795
9.10671 60000016100017225 60000016100017224 60000016100017231 7.00541704554
9.13871 60000016100017224 60000016100017223 60000016100017231 6.85511726265
9.18162 60000016100017223 60000016100017222 60000016100017231 6.49159774567
9.2361 60000016100017222 60000016100017221 60000016100017231 6.14490120342
9.27594 60000016100017221 60000016100017220 60000016100017231 6.01075739884
9.40646 60000016100017220 60000016100017219 60000016100017231 5.84661374788
10.4539 60000016100017219 60000016100017211 60000016100017231 4.00794511147
9.05524 60000016100017253 60000016100017252 60000016100017266 4.42803373661
9.00337 60000016100017270 60000016100017269 60000016100017280 4.66451770247
9.05524 60000016100017328 60000016100017327 60000016100017337 5.22758097313
9.12178 60000016100017409 60000016100017408 60000016100017414 9.00233985416
9.19641 60000016100017408 60000016100017407 60000016100017414 8.9079991856
9.25101 60000016100017407 60000016100017406 60000016100017414 8.44947629437
9.38547 60000016100017406 60000016100017405 60000016100017414 8.01217294887
9.43974 60000016100017405 60000016100017404 60000016100017414 7.59510714987
9.53713 60000016100017404 60000016100017403 60000016100017414 7.23627606617
9.54744 60000016100017403 60000016100017402 60000016100017414 7.00541704554
9.60381 60000016100017402 60000016100017401 60000016100017414 6.85511726265
9.67767 60000016100017401 60000016100017400 60000016100017414 6.49159774567
9.74196 60000016100017400 60000016100017399 60000016100017414 6.14490120342
9.77058 60000016100017399 60000016100017396 60000016100017414 5.52976580795
9.85444 60000016100017396 60000016100017395 60000016100017414 5.22758097313
9.87146 60000016100017395 60000016100017393 60000016100017414 4.93938066349
9.98109 60000016100017393 60000016100017392 60000016100017414 4.66451770247
10.0264 60000016100017392 60000016100017391 60000016100017414 4.42803373661
9.14344 60000016100017429 60000016100017428 60000016100017437 5.84661374788
9.21272 60000016100017619 60000016100017618 60000016100017626 4.93938066349
9.43974 60000016100017618 60000016100017614 60000016100017626 4.00794511147
9.45833 60000016100017614 60000016100017612 60000016100017626 3.70877426464
9.29124 60000016100017641 60000016100017640 60000016100017648 4.66451770247
9.39081 60000016100017640 60000016100017639 60000016100017648 4.42803373661
9.41156 60000016100017639 60000016100017638 60000016100017648 4.17683491473
9.12668 60000016100017734 60000016100017733 60000016100017747 2.73314261732
9.01928 60000016100017814 60000016100017813 60000016100017827 4.17683491473
9.12178 60000016100017813 60000016100017812 60000016100017827 4.00794511147
9.22262 60000016100017812 60000016100017807 60000016100017827 3.08482263583
9.23799 60000016100017807 60000016100017802 60000016100017827 2.44422570455
9.0066 60000016100018013 60000016100018012 60000016100018017 9.84138043947
9.06378 60000016100018012 60000016100018011 60000016100018017 9.38877127194
9.16407 60000016100018011 60000016100018010 60000016100018017 9.00233985416
9.36763 60000016100018010 60000016100018008 60000016100018017 8.44947629437
9.41282 60000016100018008 60000016100018007 60000016100018017 8.01217294887
9.46285 60000016100018007 60000016100018006 60000016100018017 7.59510714987
9.49744 60000016100018006 60000016100018005 60000016100018017 7.23627606617
9.53618 60000016100018005 60000016100018004 60000016100018017 7.00541704554
9.56999 60000016100018004 60000016100018003 60000016100018017 6.85511726265
9.64564 60000016100018003 60000016100018002 60000016100018017 6.49159774567
9.70941 60000016100018002 60000016100018001 60000016100018017 6.14490120342
9.74196 60000016100018001 60000016100018000 60000016100018017 6.01075739884
9.77608 60000016100018000 60000016100017999 60000016100018017 5.84661374788
9.78955 60000016100017999 60000016100017998 60000016100018017 5.52976580795
9.79534 60000016100017998 60000016100017997 60000016100018017 5.22758097313
9.79691 60000016100017997 60000016100017996 60000016100018017 4.99593346816
9.84381 60000016100017996 60000016100017994 60000016100018017 4.66451770247
9.91607 60000016100017994 60000016100017990 60000016100018017 3.93726108473
10.2089 60000016100017990 60000016100017987 60000016100018017 3.28303305796
9.13634 60000016100018104 60000016100018103 60000016100018117 4.99593346816
9.28788 60000016100018103 60000016100018101 60000016100018117 4.66451770247
9.35483 60000016100018101 60000016100018095 60000016100018117 3.49086136926
9.5256 60000016100018095 60000016100018089 60000016100018117 2.5772902716
9.0066 60000016100018139 60000016100018138 60000016100018142 5.52976580795
9.07766 60000016100018138 60000016100018137 60000016100018142 5.22758097313
9.10157 60000016100018137 60000016100018136 60000016100018142 4.99593346816
9.10671 60000016100018136 60000016100018135 60000016100018142 4.93938066349
9.12424 60000016100018135 60000016100018134 60000016100018142 4.66451770247
9.22845 60000016100018134 60000016100018133 60000016100018142 4.42803373661
9.36763 60000016100018133 60000016100018124 60000016100018142 2.89578500573
9.37181 60000016100018124 60000016100018123 60000016100018142 2.73314261732
9.00337 60000016100018383 60000016100018382 60000016100018388 6.49159774567
9.31874 60000016100018382 60000016100018380 60000016100018388 6.01075739884
9.44797 60000016100018380 60000016100018369 60000016100018388 3.70877426464
9.66795 60000016100018369 60000016100018368 60000016100018388 3.49086136926
9.11431 60000016100018391 60000016100018390 60000016100018394 6.14490120342
9.62368 60000016100018398 60000016100018397 60000016100018406 3.28303305796
9.05235 60000016100018415 60000016100018414 60000016100018422 4.17683491473
9.05524 60000016100018632 60000016100018631 60000016100018636 7.23627606617
9.07766 60000016100018631 60000016100018630 60000016100018636 7.00541704554
9.77554 60000016100018630 60000016100018627 60000016100018636 6.14490120342
9.85672 60000016100018627 60000016100018626 60000016100018636 6.01075739884
9.88401 60000016100018626 60000016100018625 60000016100018636 5.84661374788
9.92159 60000016100018625 60000016100018624 60000016100018636 5.52976580795
9.96155 60000016100018624 60000016100018623 60000016100018636 5.22758097313
9.97074 60000016100018623 60000016100018622 60000016100018636 4.99593346816
9.97835 60000016100018622 60000016100018621 60000016100018636 4.93938066349
9.98551 60000016100018621 60000016100018619 60000016100018636 4.42803373661
10.0468 60000016100018619 60000016100018618 60000016100018636 4.17683491473
10.0744 60000016100018618 60000016100018617 60000016100018636 4.00794511147
10.1939 60000016100018617 60000016100018616 60000016100018636 3.93726108473
10.3186 60000016100018616 60000016100018615 60000016100018636 3.70877426464
10.4193 60000016100018615 60000016100018614 60000016100018636 3.49086136926
10.4317 60000016100018614 60000016100018613 60000016100018636 3.28303305796
10.5402 60000016100018613 60000016100018612 60000016100018636 3.08482263583
10.5572 60000016100018612 60000016100018610 60000016100018636 2.89578500573
9.42281 60000016100018656 60000016100018655 60000016100018662 7.59510714987
9.60785 60000016100018655 60000016100018652 60000016100018662 6.85511726265
9.72691 60000016100018652 60000016100018651 60000016100018662 6.49159774567
9.51675 60000016100018664 60000016100018663 60000016100018670 7.00541704554
9.07492 60000016100018690 60000016100018689 60000016100018712 3.70877426464
9.04945 60000016100018826 60000016100018825 60000016100018833 7.59510714987
9.12912 60000016100018825 60000016100018824 60000016100018833 7.23627606617
9.15502 60000016100018824 60000016100018822 60000016100018833 6.85511726265
9.23799 60000016100018822 60000016100018821 60000016100018833 6.49159774567
9.23988 60000016100018821 60000016100018820 60000016100018833 6.14490120342
9.38948 60000016100018820 60000016100018819 60000016100018833 6.01075739884
9.08578 60000016100018859 60000016100018858 60000016100018871 6.14490120342
9.13394 60000016100018858 60000016100018857 60000016100018871 6.01075739884
9.15956 60000016100018857 60000016100018856 60000016100018871 5.84661374788
9.2342 60000016100018856 60000016100018855 60000016100018871 5.52976580795
9.32497 60000016100018855 60000016100018854 60000016100018871 5.22758097313
9.32805 60000016100018854 60000016100018853 60000016100018871 4.99593346816
9.00012 60000016100018908 60000016100018907 60000016100018928 3.70877426464
9.02855 60000016100018907 60000016100018906 60000016100018928 3.49086136926
9.0666 60000016100018906 60000016100018905 60000016100018928 3.28303305796
9.19223 60000016100018971 60000016100018970 60000016100018987 4.42803373661
9.2026 60000016100018970 60000016100018969 60000016100018987 4.17683491473
9.2026 60000016100018969 60000016100018966 60000016100018987 3.70877426464
9.06939 60000016100019115 60000016100019114 60000016100019119 9.38877127194
9.14578 60000016100019114 60000016100019113 60000016100019119 9.00233985416
9.15042 60000016100019113 60000016100019112 60000016100019119 8.9079991856
9.32497 60000016100019112 60000016100019111 60000016100019119 8.44947629437
9.66302 60000016100019111 60000016100019110 60000016100019119 8.01217294887
9.82614 60000016100019110 60000016100019109 60000016100019119 7.59510714987
9.90686 60000016100019109 60000016100019108 60000016100019119 7.23627606617
9.91528 60000016100019108 60000016100019107 60000016100019119 7.00541704554
9.95653 60000016100019107 60000016100019106 60000016100019119 6.85511726265
10.0367 60000016100019106 60000016100019105 60000016100019119 6.49159774567
10.1183 60000016100019105 60000016100019104 60000016100019119 6.14490120342
10.165 60000016100019104 60000016100019103 60000016100019119 6.01075739884
10.2051 60000016100019103 60000016100019102 60000016100019119 5.84661374788
10.2716 60000016100019102 60000016100019101 60000016100019119 5.52976580795
10.329 60000016100019101 60000016100019100 60000016100019119 5.22758097313
10.4017 60000016100019100 60000016100019099 60000016100019119 4.99593346816
10.4146 60000016100019099 60000016100019098 60000016100019119 4.93938066349
10.4904 60000016100019098 60000016100019097 60000016100019119 4.66451770247
10.5159 60000016100019097 60000016100019096 60000016100019119 4.42803373661
10.5632 60000016100019096 60000016100019095 60000016100019119 4.17683491473
10.5918 60000016100019095 60000016100019094 60000016100019119 4.00794511147
10.5974 60000016100019094 60000016100019093 60000016100019119 3.93726108473
10.6192 60000016100019093 60000016100019092 60000016100019119 3.70877426464
10.6199 60000016100019092 60000016100019091 60000016100019119 3.49086136926
10.624 60000016100019091 60000016100019089 60000016100019119 3.08482263583
10.6306 60000016100019089 60000016100019088 60000016100019119 3.00813107163
10.6382 60000016100019088 60000016100019087 60000016100019119 2.89578500573
10.6545 60000016100019087 60000016100019086 60000016100019119 2.73314261732
10.6548 60000016100019086 60000016100019085 60000016100019119 2.5772902716
10.6725 60000016100019085 60000016100019084 60000016100019119 2.44422570455
10.6851 60000016100019084 60000016100019083 60000016100019119 2.31611074396
10.6997 60000016100019083 60000016100019082 60000016100019119 2.20792547238
9.03763 60000016100019162 60000016100019161 60000016100019175 6.49159774567
9.02239 60000016100019232 60000016100019231 60000016100019239 8.01217294887
9.17073 60000016100019231 60000016100019230 60000016100019239 7.59510714987
9.2026 60000016100019230 60000016100019228 60000016100019239 7.00541704554
9.09111 60000016100019260 60000016100019259 60000016100019266 7.00541704554
9.09898 60000016100019259 60000016100019256 60000016100019266 6.14490120342
9.25101 60000016100019256 60000016100019255 60000016100019266 6.01075739884
9.03463 60000016100019309 60000016100019308 60000016100019314 8.44947629437
9.05811 60000016100019308 60000016100019307 60000016100019314 8.01217294887
9.29787 60000016100019307 60000016100019306 60000016100019314 7.59510714987
9.30115 60000016100019306 60000016100019305 60000016100019314 7.23627606617
9.38948 60000016100019305 60000016100019304 60000016100019314 7.00541704554
9.44564 60000016100019304 60000016100019303 60000016100019314 6.85511726265
9.50872 60000016100019303 60000016100019302 60000016100019314 6.49159774567
9.50973 60000016100019302 60000016100019300 60000016100019314 6.01075739884
9.59807 60000016100019300 60000016100019299 60000016100019314 5.84661374788
9.65297 60000016100019299 60000016100019298 60000016100019314 5.52976580795
9.05524 60000016100019387 60000016100019386 60000016100019394 6.49159774567
9.07216 60000016100019386 60000016100019384 60000016100019394 6.01075739884
9.02855 60000016100019440 60000016100019439 60000016100019448 3.49086136926
9.08038 60000016100019439 60000016100019438 60000016100019448 3.28303305796
9.14108 60000016100019438 60000016100019436 60000016100019448 3.00813107163
9.19641 60000016100019436 60000016100019435 60000016100019448 2.89578500573
9.2742 60000016100019435 60000016100019428 60000016100019448 1.90408954353
9.0098 60000016100019485 60000016100019484 60000016100019495 3.28303305796
9.01298 60000016100019484 60000016100019483 60000016100019495 3.08482263583
9.01298 60000016100019483 60000016100019478 60000016100019495 2.44422570455
9.01614 60000016100019674 60000016100019673 60000016100019690 4.66451770247
9.04945 60000016100019673 60000016100019672 60000016100019690 4.42803373661
9.08038 60000016100019672 60000016100019671 60000016100019690 4.17683491473
9.13394 60000016100019671 60000016100019670 60000016100019690 4.00794511147
9.14811 60000016100019670 60000016100019669 60000016100019690 3.93726108473
9.15956 60000016100019669 60000016100019668 60000016100019690 3.70877426464
9.0316 60000016100019789 60000016100019788 60000016100019805 4.66451770247
9.06378 60000016100019788 60000016100019785 60000016100019805 4.00794511147
9.09375 60000016100019785 60000016100019784 60000016100019805 3.93726108473
9.13871 60000016100019784 60000016100019783 60000016100019805 3.70877426464
9.15502 60000016100019783 60000016100019781 60000016100019805 3.28303305796
9.2026 60000016100019781 60000016100019780 60000016100019805 3.08482263583
9.21272 60000016100019780 60000016100019779 60000016100019805 3.00813107163
9.33111 60000016100019779 60000016100019778 60000016100019805 2.89578500573
9.20464 60000016100019838 60000016100019837 60000016100019839 0.700106353719
9.04358 60000016100019891 60000016100019890 60000016100019899 4.00794511147
9.2087 60000016100019890 60000016100019887 60000016100019899 3.49086136926
9.22457 60000016100019887 60000016100019886 60000016100019899 3.28303305796
9.25466 60000016100019886 60000016100019885 60000016100019899 3.08482263583
9.2742 60000016100019885 60000016100019883 60000016100019899 2.89578500573
9.2742 60000016100019883 60000016100019882 60000016100019899 2.73314261732
9.29622 60000016100019882 60000016100019881 60000016100019899 2.5772902716
9.07216 60000016100020010 60000016100020009 60000016100020016 8.44947629437
9.14578 60000016100020009 60000016100020008 60000016100020016 8.01217294887
9.26008 60000016100020008 60000016100020007 60000016100020016 7.59510714987
9.35338 60000016100020007 60000016100020006 60000016100020016 7.23627606617
9.36763 60000016100020006 60000016100020005 60000016100020016 7.00541704554
9.39214 60000016100020005 60000016100020004 60000016100020016 6.85511726265
9.42649 60000016100020004 60000016100020003 60000016100020016 6.49159774567
9.626 60000016100020003 60000016100020002 60000016100020016 6.14490120342
9.72935 60000016100020002 60000016100020000 60000016100020016 5.84661374788
10.1013 60000016100020000 60000016100019998 60000016100020016 5.22758097313
10.1559 60000016100019998 60000016100019997 60000016100020016 4.99593346816
10.169 60000016100019997 60000016100019996 60000016100020016 4.93938066349
10.1846 60000016100019996 60000016100019995 60000016100020016 4.66451770247
10.2061 60000016100019995 60000016100019994 60000016100020016 4.42803373661
10.2628 60000016100019994 60000016100019992 60000016100020016 4.00794511147
10.3361 60000016100019992 60000016100019990 60000016100020016 3.70877426464
10.3635 60000016100019990 60000016100019989 60000016100020016 3.49086136926
9.21869 60000016100020031 60000016100020030 60000016100020040 7.00541704554
9.23988 60000016100020030 60000016100020028 60000016100020040 6.49159774567
9.0316 60000016100020079 60000016100020078 60000016100020082 9.99659046619
9.13394 60000016100020078 60000016100020076 60000016100020082 9.38877127194
9.19223 60000016100020076 60000016100020075 60000016100020082 9.00233985416
9.31401 60000016100020075 60000016100020073 60000016100020082 8.44947629437
9.41534 60000016100020073 60000016100020072 60000016100020082 8.01217294887
9.46733 60000016100020072 60000016100020071 60000016100020082 7.59510714987
9.50973 60000016100020071 60000016100020070 60000016100020082 7.23627606617
9.55021 60000016100020070 60000016100020069 60000016100020082 7.00541704554
9.57175 60000016100020069 60000016100020068 60000016100020082 6.85511726265
9.5956 60000016100020068 60000016100020067 60000016100020082 6.49159774567
9.61742 60000016100020067 60000016100020065 60000016100020082 6.01075739884
9.00012 60000016100020158 60000016100020157 60000016100020171 4.17683491473
9.11179 60000016100020157 60000016100020156 60000016100020171 4.00794511147
9.1193 60000016100020156 60000016100020154 60000016100020171 3.70877426464
9.2087 60000016100020154 60000016100020151 60000016100020171 3.08482263583
9.23229 60000016100020151 60000016100020149 60000016100020171 2.89578500573
9.31401 60000016100020149 60000016100020148 60000016100020171 2.73314261732
9.35483 60000016100020148 60000016100020147 60000016100020171 2.5772902716
9.02239 60000016100020240 60000016100020239 60000016100020252 4.17683491473
9.00012 60000016100020513 60000016100020512 60000016100020533 2.1032696526
9.00337 60000016100021069 60000016100021068 60000016100021075 7.23627606617
9.0066 60000016100021068 60000016100021064 60000016100021075 6.14490120342
9.04653 60000016100021064 60000016100021062 60000016100021075 5.84661374788
9.16182 60000016100021062 60000016100021061 60000016100021075 5.52976580795
9.23799 60000016100021061 60000016100021060 60000016100021075 5.22758097313
9.23799 60000016100021060 60000016100021059 60000016100021075 4.99593346816
9.26896 60000016100021059 60000016100021057 60000016100021075 4.66451770247
9.49431 60000016100021057 60000016100021056 60000016100021075 4.42803373661
9.55204 60000016100021056 60000016100021055 60000016100021075 4.17683491473
9.75479 60000016100021055 60000016100021052 60000016100021075 3.70877426464
9.77881 60000016100021052 60000016100021051 60000016100021075 3.49086136926
9.8719 60000016100021051 60000016100021050 60000016100021075 3.28303305796
9.88316 60000016100021050 60000016100021049 60000016100021075 3.08482263583
9.90198 60000016100021049 60000016100021048 60000016100021075 3.00813107163
9.90239 60000016100021048 60000016100021047 60000016100021075 2.89578500573
9.94333 60000016100021047 60000016100021046 60000016100021075 2.73314261732
9.97178 60000016100021046 60000016100021044 60000016100021075 2.44422570455
9.56646 60000016100021085 60000016100021084 60000016100021101 4.00794511147
9.62831 60000016100021084 60000016100021083 60000016100021101 3.93726108473
9.0066 60000016100021161 60000016100021160 60000016100021169 8.01217294887
9.06378 60000016100021160 60000016100021159 60000016100021169 7.59510714987
9.11681 60000016100021159 60000016100021158 60000016100021169 7.23627606617
9.14811 60000016100021158 60000016100021157 60000016100021169 7.00541704554
9.15502 60000016100021157 60000016100021156 60000016100021169 6.85511726265
9.22066 60000016100021156 60000016100021155 60000016100021169 6.49159774567
9.22651 60000016100021155 60000016100021154 60000016100021169 6.14490120342
9.29457 60000016100021154 60000016100021153 60000016100021169 6.01075739884
9.38005 60000016100021153 60000016100021151 60000016100021169 5.52976580795
9.43856 60000016100021151 60000016100021149 60000016100021169 4.99593346816
9.44564 60000016100021149 60000016100021148 60000016100021169 4.93938066349
9.44914 60000016100021148 60000016100021146 60000016100021169 4.42803373661
9.51675 60000016100021146 60000016100021144 60000016100021169 4.00794511147
9.58383 60000016100021144 60000016100021141 60000016100021169 3.49086136926
9.0316 60000016100021355 60000016100021354 60000016100021356 2.31611074396
9.00337 60000016100021413 60000016100021412 60000016100021438 1.66666955611
9.01298 60000016100021412 60000016100021410 60000016100021438 1.53123902916
9.01928 60000016100021410 60000016100021405 60000016100021438 1.24847261425
9.02855 60000016100021405 60000016100021404 60000016100021438 1.20625808078
9.04358 60000016100021404 60000016100021403 60000016100021438 1.15460271236
9.04653 60000016100021403 60000016100021402 60000016100021438 1.11415056377
9.05524 60000016100021402 60000016100021399 60000016100021438 0.997294225782
9.03763 60000016100021516 60000016100021515 60000016100021528 3.08482263583
9.0666 60000016100021633 60000016100021632 60000016100021640 5.84661374788
9.16407 60000016100021632 60000016100021631 60000016100021640 5.52976580795
9.16407 60000016100021631 60000016100021630 60000016100021640 5.22758097313
9.1663 60000016100021630 60000016100021629 60000016100021640 4.99593346816
9.32342 60000016100021629 60000016100021627 60000016100021640 4.66451770247
9.33866 60000016100021627 60000016100021625 60000016100021640 4.17683491473
9.3974 60000016100021625 60000016100021624 60000016100021640 4.00794511147
9.3974 60000016100021624 60000016100021623 60000016100021640 3.93726108473
9.41029 60000016100021623 60000016100021622 60000016100021640 3.70877426464
9.41534 60000016100021622 60000016100021620 60000016100021640 3.28303305796
9.42033 60000016100021620 60000016100021619 60000016100021640 3.08482263583
9.43015 60000016100021619 60000016100021618 60000016100021640 3.00813107163
9.0098 60000016100021789 60000016100021788 60000016100021802 3.49086136926
9.02548 60000016100021788 60000016100021787 60000016100021802 3.28303305796
9.02855 60000016100021787 60000016100021786 60000016100021802 3.08482263583
9.0316 60000016100021786 60000016100021781 60000016100021802 2.44422570455
9.13154 60000016100021781 60000016100021780 60000016100021802 2.31611074396
9.30602 60000016100021780 60000016100021778 60000016100021802 2.1032696526
9.07216 60000016100021925 60000016100021924 60000016100021928 10.3674435724
9.33111 60000016100021924 60000016100021923 60000016100021928 9.99659046619
9.34313 60000016100021923 60000016100021922 60000016100021928 9.84138043947
9.35771 60000016100021922 60000016100021921 60000016100021928 9.38877127194
9.36763 60000016100021921 60000016100021920 60000016100021928 9.00233985416
9.60866 60000016100021920 60000016100021919 60000016100021928 8.9079991856
9.78314 60000016100021919 60000016100021918 60000016100021928 8.44947629437
9.80975 60000016100021918 60000016100021912 60000016100021928 6.49159774567
9.81578 60000016100021912 60000016100021911 60000016100021928 6.14490120342
9.83958 60000016100021911 60000016100021910 60000016100021928 6.01075739884
9.92857 60000016100021910 60000016100021909 60000016100021928 5.84661374788
10.0352 60000016100021909 60000016100021908 60000016100021928 5.52976580795
10.1168 60000016100021908 60000016100021907 60000016100021928 5.22758097313
10.1363 60000016100021907 60000016100021906 60000016100021928 4.99593346816
10.1366 60000016100021906 60000016100021905 60000016100021928 4.93938066349
10.1747 60000016100021905 60000016100021904 60000016100021928 4.66451770247
10.3079 60000016100021904 60000016100021903 60000016100021928 4.42803373661
10.3267 60000016100021903 60000016100021902 60000016100021928 4.17683491473
10.4326 60000016100021902 60000016100021901 60000016100021928 4.00794511147
10.4443 60000016100021901 60000016100021900 60000016100021928 3.93726108473
10.4618 60000016100021900 60000016100021899 60000016100021928 3.70877426464
10.4964 60000016100021899 60000016100021898 60000016100021928 3.49086136926
10.5153 60000016100021898 60000016100021897 60000016100021928 3.28303305796
10.5243 60000016100021897 60000016100021896 60000016100021928 3.08482263583
10.5394 60000016100021896 60000016100021895 60000016100021928 3.00813107163
10.5497 60000016100021895 60000016100021894 60000016100021928 2.89578500573
10.5596 60000016100021894 60000016100021893 60000016100021928 2.73314261732
10.58 60000016100021893 60000016100021892 60000016100021928 2.5772902716
10.6009 60000016100021892 60000016100021891 60000016100021928 2.44422570455
10.6295 60000016100021891 60000016100021890 60000016100021928 2.31611074396
10.7127 60000016100021890 60000016100021889 60000016100021928 2.20792547238
9.04358 60000016100021936 60000016100021935 60000016100021939 9.38877127194
9.35483 60000016100021935 60000016100021934 60000016100021939 9.00233985416
9.11681 60000016100021986 60000016100021985 60000016100021995 7.59510714987
9.1193 60000016100021985 60000016100021981 60000016100021995 6.49159774567
9.08038 60000016100022018 60000016100022017 60000016100022023 7.23627606617
9.2845 60000016100022063 60000016100022062 60000016100022068 7.59510714987
9.29457 60000016100022062 60000016100022060 60000016100022068 7.00541704554
9.29622 60000016100022060 60000016100022059 60000016100022068 6.85511726265
9.53332 60000016100022059 60000016100022057 60000016100022068 6.14490120342
9.59642 60000016100022057 60000016100022054 60000016100022068 5.52976580795
9.61584 60000016100022054 60000016100022052 60000016100022068 4.99593346816
9.61663 60000016100022052 60000016100022051 60000016100022068 4.93938066349
9.6573 60000016100022051 60000016100022050 60000016100022068 4.66451770247
9.30923 60000016100022091 60000016100022090 60000016100022099 6.49159774567
9.01298 60000016100022267 60000016100022266 60000016100022276 8.01217294887
9.07766 60000016100022266 60000016100022265 60000016100022276 7.59510714987
9.18162 60000016100022265 60000016100022263 60000016100022276 7.00541704554
9.57175 60000016100022263 60000016100022261 60000016100022276 6.49159774567
9.65005 60000016100022261 60000016100022260 60000016100022276 6.14490120342
9.66584 60000016100022260 60000016100022258 60000016100022276 5.84661374788
9.70039 60000016100022258 60000016100022256 60000016100022276 5.22758097313
9.74373 60000016100022256 60000016100022255 60000016100022276 4.99593346816
9.76669 60000016100022255 60000016100022254 60000016100022276 4.93938066349
9.77881 60000016100022254 60000016100022250 60000016100022276 4.00794511147
9.83626 60000016100022250 60000016100022248 60000016100022276 3.70877426464
9.85808 60000016100022248 60000016100022247 60000016100022276 3.49086136926
9.0066 60000016100022313 60000016100022312 60000016100022323 6.14490120342
9.01614 60000016100022312 60000016100022310 60000016100022323 5.84661374788
9.02548 60000016100022426 60000016100022425 60000016100022445 2.31611074396
9.06939 60000016100022425 60000016100022424 60000016100022445 2.20792547238
9.08578 60000016100022424 60000016100022422 60000016100022445 2.00202813925
9.02239 60000016100022587 60000016100022586 60000016100022623 1.07445789455
9.0066 60000016100022698 60000016100022697 60000016100022709 3.00813107163
