logMh | fpID | subhaloID | main leaf ID | z
9.15273 10000000018229787 10000000018229786 10000000018229789 12.0418635439
9.27938 10000000018229786 10000000018229785 10000000018229789 11.4973879548
9.46397 10000000018229785 10000000018229784 10000000018229789 10.9190331982
9.6573 10000000018229784 10000000018229783 10000000018229789 10.3674435724
9.8067 10000000018229783 10000000018229780 10000000018229789 9.38877127194
9.91129 10000000018229780 10000000018229779 10000000018229789 9.00233985416
9.93049 10000000018229779 10000000018229778 10000000018229789 8.9079991856
9.98954 10000000018229778 10000000018229777 10000000018229789 8.44947629437
10.057 10000000018229777 10000000018229776 10000000018229789 8.01217294887
10.1408 10000000018229776 10000000018229775 10000000018229789 7.59510714987
10.1882 10000000018229775 10000000018229774 10000000018229789 7.23627606617
10.2042 10000000018229774 10000000018229773 10000000018229789 7.00541704554
10.2698 10000000018229773 10000000018229772 10000000018229789 6.85511726265
10.3543 10000000018229772 10000000018229771 10000000018229789 6.49159774567
10.4419 10000000018229771 10000000018229770 10000000018229789 6.14490120342
10.4759 10000000018229770 10000000018229769 10000000018229789 6.01075739884
10.4962 10000000018229769 10000000018229768 10000000018229789 5.84661374788
10.6222 10000000018229768 10000000018229767 10000000018229789 5.52976580795
10.71 10000000018229767 10000000018229766 10000000018229789 5.22758097313
10.7655 10000000018229766 10000000018229765 10000000018229789 4.99593346816
10.7715 10000000018229765 10000000018229764 10000000018229789 4.93938066349
10.8233 10000000018229764 10000000018229763 10000000018229789 4.66451770247
10.8589 10000000018229763 10000000018229762 10000000018229789 4.42803373661
10.8917 10000000018229762 10000000018229761 10000000018229789 4.17683491473
11.1674 10000000018229761 10000000018229758 10000000018229789 3.70877426464
11.2627 10000000018229758 10000000018229757 10000000018229789 3.49086136926
11.3508 10000000018229757 10000000018229756 10000000018229789 3.28303305796
11.5362 10000000018229756 10000000018229755 10000000018229789 3.08482263583
11.5748 10000000018229755 10000000018229754 10000000018229789 3.00813107163
11.7478 10000000018229754 10000000018229753 10000000018229789 2.73314261732
11.7833 10000000018229753 10000000018229752 10000000018229789 2.5772902716
11.8243 10000000018229752 10000000018229751 10000000018229789 2.44422570455
11.8406 10000000018229751 10000000018229750 10000000018229789 2.31611074396
11.8673 10000000018229750 10000000018229749 10000000018229789 2.20792547238
11.875 10000000018229749 10000000018229748 10000000018229789 2.1032696526
11.8828 10000000018229748 10000000018229746 10000000018229789 1.90408954353
11.8998 10000000018229746 10000000018229745 10000000018229789 1.82268925262
11.9079 10000000018229745 10000000018229744 10000000018229789 1.74357057433
11.9382 10000000018229744 10000000018229743 10000000018229789 1.66666955611
11.9557 10000000018229743 10000000018229742 10000000018229789 1.60423452207
11.9823 10000000018229742 10000000018229741 10000000018229789 1.53123902916
12.01 10000000018229741 10000000018229740 10000000018229789 1.47197484527
12.0253 10000000018229740 10000000018229739 10000000018229789 1.41409822037
12.0607 10000000018229739 10000000018229738 10000000018229789 1.3575766674
12.0903 10000000018229738 10000000018229737 10000000018229789 1.30237845991
12.1057 10000000018229737 10000000018229736 10000000018229789 1.24847261425
12.1106 10000000018229736 10000000018229735 10000000018229789 1.20625808078
12.1305 10000000018229735 10000000018229734 10000000018229789 1.15460271236
12.1434 10000000018229734 10000000018229733 10000000018229789 1.11415056377
12.147 10000000018229733 10000000018229732 10000000018229789 1.07445789455
12.1537 10000000018229732 10000000018229731 10000000018229789 1.03551044566
12.1644 10000000018229731 10000000018229730 10000000018229789 0.997294225782
12.1671 10000000018229730 10000000018229729 10000000018229789 0.987852810816
12.1687 10000000018229729 10000000018229728 10000000018229789 0.950531351585
12.1706 10000000018229728 10000000018229727 10000000018229789 0.923000816178
12.1734 10000000018229727 10000000018229724 10000000018229789 0.816709979012
12.1738 10000000018229724 10000000018229722 10000000018229789 0.757441372616
12.1858 10000000018229722 10000000018229721 10000000018229789 0.732636182022
12.1933 10000000018229721 10000000018229720 10000000018229789 0.700106353719
12.1986 10000000018229720 10000000018229719 10000000018229789 0.676110411213
12.2037 10000000018229719 10000000018229718 10000000018229789 0.644641840685
12.2098 10000000018229718 10000000018229717 10000000018229789 0.621428745243
12.2101 10000000018229717 10000000018229716 10000000018229789 0.598543288188
12.2208 10000000018229716 10000000018229715 10000000018229789 0.575980845108
12.2272 10000000018229715 10000000018229714 10000000018229789 0.546392183141
12.2328 10000000018229714 10000000018229713 10000000018229789 0.524565820434
12.2387 10000000018229713 10000000018229712 10000000018229789 0.503047523245
12.2401 10000000018229712 10000000018229711 10000000018229789 0.481832943421
12.2434 10000000018229711 10000000018229710 10000000018229789 0.460917794181
12.2468 10000000018229710 10000000018229709 10000000018229789 0.440297849248
12.2533 10000000018229709 10000000018229708 10000000018229789 0.419968941997
12.2593 10000000018229708 10000000018229707 10000000018229789 0.399926964614
12.2616 10000000018229707 10000000018229706 10000000018229789 0.38016786726
12.2683 10000000018229706 10000000018229705 10000000018229789 0.360687657262
12.2745 10000000018229705 10000000018229704 10000000018229789 0.347853841858
12.2769 10000000018229704 10000000018229703 10000000018229789 0.328829724206
12.2791 10000000018229703 10000000018229702 10000000018229789 0.310074120128
12.2827 10000000018229702 10000000018229701 10000000018229789 0.291583239722
12.2858 10000000018229701 10000000018229700 10000000018229789 0.273353346578
12.2907 10000000018229700 10000000018229699 10000000018229789 0.261343256161
12.2937 10000000018229699 10000000018229698 10000000018229789 0.243540181555
12.2964 10000000018229698 10000000018229697 10000000018229789 0.22598838626
12.2968 10000000018229697 10000000018229696 10000000018229789 0.214425035514
12.3006 10000000018229696 10000000018229695 10000000018229789 0.197284182376
12.3051 10000000018229695 10000000018229694 10000000018229789 0.180385261706
12.3052 10000000018229694 10000000018229693 10000000018229789 0.169252033244
12.3098 10000000018229693 10000000018229692 10000000018229789 0.152748768902
12.3115 10000000018229692 10000000018229691 10000000018229789 0.14187620397
12.3151 10000000018229691 10000000018229690 10000000018229789 0.125759332411
12.3203 10000000018229690 10000000018229689 10000000018229789 0.109869940459
9.01298 10000000018229919 10000000018229918 10000000018229923 9.84138043947
9.12912 10000000018229918 10000000018229917 10000000018229923 9.38877127194
9.2828 10000000018229917 10000000018229916 10000000018229923 9.00233985416
9.32805 10000000018229916 10000000018229914 10000000018229923 8.44947629437
9.4651 10000000018229914 10000000018229913 10000000018229923 8.01217294887
9.48265 10000000018229913 10000000018229912 10000000018229923 7.59510714987
9.52462 10000000018229912 10000000018229911 10000000018229923 7.23627606617
9.56911 10000000018229911 10000000018229910 10000000018229923 7.00541704554
9.04062 10000000018230090 10000000018230089 10000000018230092 10.9190331982
9.08309 10000000018230089 10000000018230088 10000000018230092 10.3674435724
9.11431 10000000018230088 10000000018230086 10000000018230092 9.84138043947
9.17946 10000000018230086 10000000018230085 10000000018230092 9.38877127194
9.28956 10000000018230085 10000000018230084 10000000018230092 9.00233985416
9.4606 10000000018230084 10000000018230083 10000000018230092 8.9079991856
9.63669 10000000018230083 10000000018230082 10000000018230092 8.44947629437
9.66443 10000000018230082 10000000018230081 10000000018230092 8.01217294887
9.74725 10000000018230081 10000000018230080 10000000018230092 7.59510714987
9.75593 10000000018230080 10000000018230079 10000000018230092 7.23627606617
9.83002 10000000018230079 10000000018230078 10000000018230092 7.00541704554
9.83769 10000000018230078 10000000018230077 10000000018230092 6.85511726265
9.8767 10000000018230077 10000000018230076 10000000018230092 6.49159774567
9.9463 10000000018230076 10000000018230075 10000000018230092 6.14490120342
9.96155 10000000018230075 10000000018230074 10000000018230092 6.01075739884
9.03463 10000000018230099 10000000018230098 10000000018230103 9.99659046619
9.04653 10000000018230161 10000000018230160 10000000018230166 9.99659046619
9.15273 10000000018230160 10000000018230159 10000000018230166 9.84138043947
9.24362 10000000018230159 10000000018230158 10000000018230166 9.38877127194
9.2828 10000000018230158 10000000018230157 10000000018230166 9.00233985416
9.2929 10000000018230157 10000000018230156 10000000018230166 8.9079991856
9.41659 10000000018230156 10000000018230155 10000000018230166 8.44947629437
9.50465 10000000018230155 10000000018230154 10000000018230166 8.01217294887
9.56557 10000000018230154 10000000018230153 10000000018230166 7.59510714987
9.62985 10000000018230153 10000000018230152 10000000018230166 7.23627606617
9.67972 10000000018230152 10000000018230151 10000000018230166 7.00541704554
9.72322 10000000018230151 10000000018230149 10000000018230166 6.49159774567
9.81026 10000000018230149 10000000018230148 10000000018230166 6.14490120342
9.84099 10000000018230148 10000000018230147 10000000018230166 6.01075739884
9.86705 10000000018230147 10000000018230146 10000000018230166 5.84661374788
9.91329 10000000018230146 10000000018230145 10000000018230166 5.52976580795
10.0224 10000000018230145 10000000018230144 10000000018230166 5.22758097313
10.0666 10000000018230144 10000000018230143 10000000018230166 4.99593346816
9.08038 10000000018230232 10000000018230231 10000000018230236 6.49159774567
9.21869 10000000018230231 10000000018230230 10000000018230236 6.14490120342
9.23799 10000000018230230 10000000018230229 10000000018230236 6.01075739884
9.24548 10000000018230229 10000000018230228 10000000018230236 5.84661374788
9.3044 10000000018230228 10000000018230227 10000000018230236 5.52976580795
9.36481 10000000018230227 10000000018230226 10000000018230236 5.22758097313
9.08578 10000000018230252 10000000018230251 10000000018230259 6.01075739884
9.12668 10000000018230251 10000000018230250 10000000018230259 5.84661374788
9.19223 10000000018230250 10000000018230249 10000000018230259 5.52976580795
9.25466 10000000018230249 10000000018230245 10000000018230259 4.66451770247
9.52169 10000000018230276 10000000018230275 10000000018230290 4.42803373661
9.34313 10000000018230336 10000000018230335 10000000018230336 4.00794511147
9.06096 10000000018230474 10000000018230473 10000000018230477 10.3674435724
9.28788 10000000018230473 10000000018230472 10000000018230477 9.99659046619
9.49326 10000000018230472 10000000018230471 10000000018230477 9.84138043947
9.50669 10000000018230471 10000000018230470 10000000018230477 9.38877127194
9.64119 10000000018230470 10000000018230469 10000000018230477 9.00233985416
9.717 10000000018230469 10000000018230468 10000000018230477 8.9079991856
9.83483 10000000018230468 10000000018230467 10000000018230477 8.44947629437
9.94222 10000000018230467 10000000018230466 10000000018230477 8.01217294887
10.0898 10000000018230466 10000000018230465 10000000018230477 7.59510714987
10.1151 10000000018230465 10000000018230463 10000000018230477 7.00541704554
10.1536 10000000018230463 10000000018230462 10000000018230477 6.85511726265
10.2365 10000000018230462 10000000018230461 10000000018230477 6.49159774567
10.3597 10000000018230461 10000000018230460 10000000018230477 6.14490120342
10.3996 10000000018230460 10000000018230459 10000000018230477 6.01075739884
10.4403 10000000018230459 10000000018230458 10000000018230477 5.84661374788
10.5372 10000000018230458 10000000018230457 10000000018230477 5.52976580795
10.6226 10000000018230457 10000000018230456 10000000018230477 5.22758097313
10.6835 10000000018230456 10000000018230455 10000000018230477 4.99593346816
10.6994 10000000018230455 10000000018230454 10000000018230477 4.93938066349
10.7442 10000000018230454 10000000018230453 10000000018230477 4.66451770247
10.8315 10000000018230453 10000000018230452 10000000018230477 4.42803373661
10.8998 10000000018230452 10000000018230451 10000000018230477 4.17683491473
10.9826 10000000018230451 10000000018230450 10000000018230477 4.00794511147
11.1527 10000000018230450 10000000018230449 10000000018230477 3.93726108473
11.6562 10000000018230449 10000000018230444 10000000018230477 2.89578500573
9.09111 10000000018230504 10000000018230503 10000000018230507 9.99659046619
9.24918 10000000018230529 10000000018230528 10000000018230535 7.23627606617
9.24918 10000000018230528 10000000018230526 10000000018230535 6.85511726265
9.02855 10000000018230555 10000000018230554 10000000018230558 7.59510714987
9.07766 10000000018230554 10000000018230551 10000000018230558 6.85511726265
9.09898 10000000018230551 10000000018230550 10000000018230558 6.49159774567
9.14344 10000000018230550 10000000018230549 10000000018230558 6.14490120342
9.09375 10000000018230566 10000000018230565 10000000018230572 7.00541704554
9.01298 10000000018230590 10000000018230589 10000000018230595 7.23627606617
9.12668 10000000018230589 10000000018230587 10000000018230595 6.85511726265
9.15042 10000000018230587 10000000018230586 10000000018230595 6.49159774567
9.19013 10000000018230586 10000000018230584 10000000018230595 6.01075739884
9.19433 10000000018230584 10000000018230583 10000000018230595 5.84661374788
9.13634 10000000018230648 10000000018230647 10000000018230652 10.3674435724
9.24918 10000000018230647 10000000018230646 10000000018230652 9.99659046619
9.25828 10000000018230646 10000000018230645 10000000018230652 9.84138043947
9.34313 10000000018230645 10000000018230644 10000000018230652 9.38877127194
9.40518 10000000018230644 10000000018230643 10000000018230652 9.00233985416
9.42033 10000000018230643 10000000018230642 10000000018230652 8.9079991856
9.46172 10000000018230642 10000000018230641 10000000018230652 8.44947629437
9.65369 10000000018230641 10000000018230640 10000000018230652 8.01217294887
9.70299 10000000018230640 10000000018230639 10000000018230652 7.59510714987
9.74373 10000000018230639 10000000018230638 10000000018230652 7.23627606617
9.79482 10000000018230638 10000000018230637 10000000018230652 7.00541704554
9.81428 10000000018230637 10000000018230636 10000000018230652 6.85511726265
9.89078 10000000018230636 10000000018230635 10000000018230652 6.49159774567
9.08845 10000000018230677 10000000018230676 10000000018230687 7.23627606617
9.2742 10000000018230676 10000000018230675 10000000018230687 7.00541704554
9.29124 10000000018230675 10000000018230674 10000000018230687 6.85511726265
9.29787 10000000018230674 10000000018230672 10000000018230687 6.14490120342
9.32342 10000000018230672 10000000018230671 10000000018230687 6.01075739884
9.34313 10000000018230671 10000000018230670 10000000018230687 5.84661374788
9.03463 10000000018230820 10000000018230819 10000000018230835 5.52976580795
9.03463 10000000018230819 10000000018230818 10000000018230835 5.22758097313
9.0098 10000000018230947 10000000018230946 10000000018230955 6.49159774567
9.06378 10000000018230946 10000000018230945 10000000018230955 6.14490120342
9.08845 10000000018230945 10000000018230943 10000000018230955 5.84661374788
9.20668 10000000018230943 10000000018230942 10000000018230955 5.52976580795
9.21272 10000000018230942 10000000018230941 10000000018230955 5.22758097313
9.21869 10000000018230941 10000000018230940 10000000018230955 4.99593346816
9.17293 10000000018230974 10000000018230973 10000000018230987 4.99593346816
9.24918 10000000018230973 10000000018230970 10000000018230987 4.17683491473
9.28956 10000000018230970 10000000018230969 10000000018230987 4.00794511147
9.37869 10000000018230969 10000000018230968 10000000018230987 3.93726108473
9.01928 10000000018230989 10000000018230988 10000000018230996 5.22758097313
9.00337 10000000018231010 10000000018231009 10000000018231019 4.00794511147
9.07216 10000000018231009 10000000018231008 10000000018231019 3.93726108473
9.01298 10000000018231168 10000000018231167 10000000018231179 5.84661374788
9.01928 10000000018231167 10000000018231166 10000000018231179 5.52976580795
9.11179 10000000018231166 10000000018231165 10000000018231179 5.22758097313
9.1573 10000000018231165 10000000018231164 10000000018231179 4.99593346816
9.1663 10000000018231164 10000000018231162 10000000018231179 4.66451770247
9.04062 10000000018231192 10000000018231191 10000000018231199 4.99593346816
9.14108 10000000018231191 10000000018231189 10000000018231199 4.66451770247
9.14108 10000000018231189 10000000018231188 10000000018231199 4.42803373661
9.15273 10000000018231188 10000000018231187 10000000018231199 4.17683491473
9.0098 10000000018231213 10000000018231212 10000000018231224 4.00794511147
9.49326 10000000018231226 10000000018231225 10000000018231226 2.73314261732
9.09898 10000000018231273 10000000018231272 10000000018231274 3.00813107163
9.03463 10000000018231359 10000000018231358 10000000018231365 6.01075739884
9.30602 10000000018231358 10000000018231356 10000000018231365 5.52976580795
9.46733 10000000018231356 10000000018231355 10000000018231365 5.22758097313
9.53523 10000000018231355 10000000018231354 10000000018231365 4.99593346816
9.65151 10000000018231354 10000000018231352 10000000018231365 4.66451770247
9.0098 10000000018231522 10000000018231521 10000000018231531 3.28303305796
9.06096 10000000018231648 10000000018231647 10000000018231654 10.3674435724
9.11179 10000000018231647 10000000018231646 10000000018231654 9.99659046619
9.22066 10000000018231646 10000000018231645 10000000018231654 9.84138043947
9.28956 10000000018231645 10000000018231644 10000000018231654 9.38877127194
9.31874 10000000018231644 10000000018231643 10000000018231654 9.00233985416
9.35914 10000000018231643 10000000018231642 10000000018231654 8.9079991856
9.47066 10000000018231642 10000000018231641 10000000018231654 8.44947629437
9.53713 10000000018231641 10000000018231640 10000000018231654 8.01217294887
9.59642 10000000018231640 10000000018231639 10000000018231654 7.59510714987
9.67835 10000000018231639 10000000018231638 10000000018231654 7.23627606617
9.70941 10000000018231638 10000000018231637 10000000018231654 7.00541704554
9.74196 10000000018231637 10000000018231636 10000000018231654 6.85511726265
9.81127 10000000018231636 10000000018231635 10000000018231654 6.49159774567
9.82712 10000000018231635 10000000018231634 10000000018231654 6.14490120342
9.85444 10000000018231634 10000000018231633 10000000018231654 6.01075739884
9.89745 10000000018231633 10000000018231632 10000000018231654 5.84661374788
9.94147 10000000018231632 10000000018231630 10000000018231654 5.22758097313
9.95108 10000000018231630 10000000018231629 10000000018231654 4.99593346816
9.97422 10000000018231629 10000000018231628 10000000018231654 4.93938066349
10.0361 10000000018231628 10000000018231627 10000000018231654 4.66451770247
10.0489 10000000018231627 10000000018231626 10000000018231654 4.42803373661
10.1082 10000000018231626 10000000018231625 10000000018231654 4.17683491473
9.11681 10000000018231719 10000000018231718 10000000018231728 6.49159774567
9.26896 10000000018231718 10000000018231717 10000000018231728 6.14490120342
9.43497 10000000018231717 10000000018231716 10000000018231728 6.01075739884
9.45605 10000000018231716 10000000018231715 10000000018231728 5.84661374788
9.49951 10000000018231715 10000000018231714 10000000018231728 5.52976580795
9.54372 10000000018231714 10000000018231713 10000000018231728 5.22758097313
9.61346 10000000018231713 10000000018231712 10000000018231728 4.99593346816
9.70428 10000000018231712 10000000018231710 10000000018231728 4.66451770247
9.626 10000000018231738 10000000018231737 10000000018231750 4.93938066349
9.07492 10000000018231849 10000000018231848 10000000018231854 7.23627606617
9.21072 10000000018231848 10000000018231847 10000000018231854 7.00541704554
9.30602 10000000018231847 10000000018231845 10000000018231854 6.49159774567
9.44797 10000000018231845 10000000018231844 10000000018231854 6.14490120342
9.47505 10000000018231844 10000000018231843 10000000018231854 6.01075739884
9.47832 10000000018231843 10000000018231842 10000000018231854 5.84661374788
9.54091 10000000018231842 10000000018231841 10000000018231854 5.52976580795
9.67767 10000000018231841 10000000018231840 10000000018231854 5.22758097313
9.79743 10000000018231840 10000000018231839 10000000018231854 4.99593346816
9.80261 10000000018231839 10000000018231838 10000000018231854 4.93938066349
9.89496 10000000018231838 10000000018231837 10000000018231854 4.66451770247
9.94667 10000000018231837 10000000018231836 10000000018231854 4.42803373661
9.15042 10000000018231872 10000000018231871 10000000018231877 6.14490120342
9.10157 10000000018231954 10000000018231953 10000000018231961 4.17683491473
9.13154 10000000018231953 10000000018231950 10000000018231961 3.70877426464
9.16852 10000000018231950 10000000018231948 10000000018231961 3.28303305796
9.04945 10000000018232000 10000000018231999 10000000018232010 4.66451770247
9.04945 10000000018231999 10000000018231998 10000000018232010 4.42803373661
9.07492 10000000018231998 10000000018231997 10000000018232010 4.17683491473
9.33866 10000000018231997 10000000018231996 10000000018232010 4.00794511147
9.01928 10000000018232162 10000000018232161 10000000018232172 6.85511726265
9.11179 10000000018232161 10000000018232160 10000000018232172 6.49159774567
9.19013 10000000018232160 10000000018232159 10000000018232172 6.14490120342
9.19641 10000000018232159 10000000018232158 10000000018232172 6.01075739884
9.31874 10000000018232158 10000000018232156 10000000018232172 5.52976580795
9.34165 10000000018232156 10000000018232153 10000000018232172 4.93938066349
9.4606 10000000018232153 10000000018232152 10000000018232172 4.66451770247
9.52169 10000000018232152 10000000018232151 10000000018232172 4.42803373661
9.57087 10000000018232151 10000000018232150 10000000018232172 4.17683491473
9.57262 10000000018232150 10000000018232148 10000000018232172 3.93726108473
9.06096 10000000018232237 10000000018232236 10000000018232246 7.00541704554
9.10415 10000000018232236 10000000018232235 10000000018232246 6.85511726265
9.15502 10000000018232235 10000000018232233 10000000018232246 6.14490120342
9.19013 10000000018232233 10000000018232232 10000000018232246 6.01075739884
9.2087 10000000018232232 10000000018232231 10000000018232246 5.84661374788
9.28956 10000000018232231 10000000018232230 10000000018232246 5.52976580795
9.32031 10000000018232230 10000000018232229 10000000018232246 5.22758097313
9.3634 10000000018232229 10000000018232228 10000000018232246 4.99593346816
9.37181 10000000018232228 10000000018232227 10000000018232246 4.93938066349
9.49744 10000000018232227 10000000018232226 10000000018232246 4.66451770247
9.49951 10000000018232226 10000000018232225 10000000018232246 4.42803373661
9.55841 10000000018232225 10000000018232224 10000000018232246 4.17683491473
9.64416 10000000018232224 10000000018232223 10000000018232246 4.00794511147
9.68244 10000000018232223 10000000018232222 10000000018232246 3.93726108473
9.80054 10000000018232222 10000000018232221 10000000018232246 3.70877426464
9.00012 10000000018232300 10000000018232299 10000000018232311 5.52976580795
9.0666 10000000018232299 10000000018232298 10000000018232311 5.22758097313
9.11681 10000000018232298 10000000018232297 10000000018232311 4.99593346816
9.1193 10000000018232297 10000000018232296 10000000018232311 4.93938066349
9.15042 10000000018232296 10000000018232295 10000000018232311 4.66451770247
9.19433 10000000018232295 10000000018232294 10000000018232311 4.42803373661
9.21671 10000000018232294 10000000018232293 10000000018232311 4.17683491473
9.24362 10000000018232293 10000000018232292 10000000018232311 4.00794511147
9.01298 10000000018232416 10000000018232415 10000000018232424 4.17683491473
9.04358 10000000018232415 10000000018232414 10000000018232424 4.00794511147
9.08038 10000000018232414 10000000018232411 10000000018232424 3.49086136926
9.09898 10000000018232411 10000000018232410 10000000018232424 3.28303305796
9.03763 10000000018232513 10000000018232512 10000000018232515 9.38877127194
9.0666 10000000018232512 10000000018232511 10000000018232515 9.00233985416
9.13394 10000000018232511 10000000018232510 10000000018232515 8.9079991856
9.26543 10000000018232510 10000000018232509 10000000018232515 8.44947629437
9.42033 10000000018232509 10000000018232508 10000000018232515 8.01217294887
9.44447 10000000018232508 10000000018232507 10000000018232515 7.59510714987
9.53713 10000000018232507 10000000018232506 10000000018232515 7.23627606617
9.56911 10000000018232506 10000000018232505 10000000018232515 7.00541704554
9.63593 10000000018232505 10000000018232503 10000000018232515 6.49159774567
9.72074 10000000018232503 10000000018232502 10000000018232515 6.14490120342
9.72996 10000000018232502 10000000018232501 10000000018232515 6.01075739884
9.85672 10000000018232501 10000000018232500 10000000018232515 5.84661374788
9.88868 10000000018232500 10000000018232499 10000000018232515 5.52976580795
9.9942 10000000018232499 10000000018232498 10000000018232515 5.22758097313
10.0486 10000000018232498 10000000018232497 10000000018232515 4.99593346816
10.0914 10000000018232497 10000000018232496 10000000018232515 4.93938066349
10.2103 10000000018232496 10000000018232495 10000000018232515 4.66451770247
10.2594 10000000018232495 10000000018232494 10000000018232515 4.42803373661
10.3274 10000000018232494 10000000018232493 10000000018232515 4.17683491473
10.3876 10000000018232493 10000000018232492 10000000018232515 4.00794511147
10.3948 10000000018232492 10000000018232491 10000000018232515 3.93726108473
10.4622 10000000018232491 10000000018232490 10000000018232515 3.70877426464
10.4662 10000000018232490 10000000018232489 10000000018232515 3.49086136926
10.4841 10000000018232489 10000000018232488 10000000018232515 3.28303305796
9.13394 10000000018232562 10000000018232561 10000000018232566 7.59510714987
9.13394 10000000018232561 10000000018232559 10000000018232566 7.00541704554
9.38412 10000000018232559 10000000018232558 10000000018232566 6.85511726265
9.39081 10000000018232558 10000000018232557 10000000018232566 6.49159774567
9.47176 10000000018232557 10000000018232555 10000000018232566 6.01075739884
9.04062 10000000018232645 10000000018232644 10000000018232652 6.49159774567
9.14344 10000000018232644 10000000018232643 10000000018232652 6.14490120342
9.14578 10000000018232643 10000000018232639 10000000018232652 5.22758097313
9.23229 10000000018232675 10000000018232674 10000000018232681 7.00541704554
9.27594 10000000018232674 10000000018232673 10000000018232681 6.85511726265
9.32187 10000000018232673 10000000018232672 10000000018232681 6.49159774567
9.32342 10000000018232672 10000000018232670 10000000018232681 6.01075739884
9.36481 10000000018232670 10000000018232667 10000000018232681 5.22758097313
9.36622 10000000018232667 10000000018232665 10000000018232681 4.93938066349
9.39081 10000000018232665 10000000018232664 10000000018232681 4.66451770247
9.01928 10000000018232683 10000000018232682 10000000018232684 7.23627606617
9.15956 10000000018232723 10000000018232722 10000000018232727 7.23627606617
9.20668 10000000018232722 10000000018232721 10000000018232727 7.00541704554
9.33716 10000000018232721 10000000018232720 10000000018232727 6.85511726265
9.45145 10000000018232720 10000000018232719 10000000018232727 6.49159774567
9.48799 10000000018232719 10000000018232718 10000000018232727 6.14490120342
9.50771 10000000018232718 10000000018232717 10000000018232727 6.01075739884
9.54278 10000000018232717 10000000018232716 10000000018232727 5.84661374788
9.57262 10000000018232716 10000000018232715 10000000018232727 5.52976580795
9.62985 10000000018232715 10000000018232714 10000000018232727 5.22758097313
9.68108 10000000018232714 10000000018232713 10000000018232727 4.99593346816
9.80874 10000000018232713 10000000018232712 10000000018232727 4.93938066349
9.90888 10000000018232712 10000000018232711 10000000018232727 4.66451770247
10.0578 10000000018232711 10000000018232710 10000000018232727 4.42803373661
10.125 10000000018232710 10000000018232708 10000000018232727 4.00794511147
10.1552 10000000018232708 10000000018232707 10000000018232727 3.93726108473
10.3419 10000000018232707 10000000018232706 10000000018232727 3.70877426464
10.6131 10000000018232706 10000000018232705 10000000018232727 3.49086136926
9.01614 10000000018232751 10000000018232750 10000000018232757 5.52976580795
9.11681 10000000018232750 10000000018232749 10000000018232757 5.22758097313
9.02855 10000000018232879 10000000018232878 10000000018232883 7.59510714987
9.04653 10000000018232878 10000000018232877 10000000018232883 7.23627606617
9.22066 10000000018232877 10000000018232876 10000000018232883 7.00541704554
9.24918 10000000018232876 10000000018232875 10000000018232883 6.85511726265
9.2742 10000000018232875 10000000018232874 10000000018232883 6.49159774567
9.2742 10000000018232874 10000000018232873 10000000018232883 6.14490120342
9.35048 10000000018232873 10000000018232871 10000000018232883 5.84661374788
9.44211 10000000018232871 10000000018232870 10000000018232883 5.52976580795
9.49326 10000000018232870 10000000018232869 10000000018232883 5.22758097313
9.56557 10000000018232869 10000000018232868 10000000018232883 4.99593346816
10.0252 10000000018232868 10000000018232865 10000000018232883 4.42803373661
10.185 10000000018232865 10000000018232864 10000000018232883 4.17683491473
10.2313 10000000018232864 10000000018232863 10000000018232883 4.00794511147
10.3895 10000000018232863 10000000018232862 10000000018232883 3.70877426464
9.38815 10000000018232963 10000000018232962 10000000018232966 7.00541704554
9.49116 10000000018232962 10000000018232958 10000000018232966 6.01075739884
9.49326 10000000018232958 10000000018232957 10000000018232966 5.84661374788
9.05235 10000000018233010 10000000018233009 10000000018233017 8.01217294887
9.08845 10000000018233009 10000000018233008 10000000018233017 7.59510714987
9.17512 10000000018233008 10000000018233005 10000000018233017 6.85511726265
9.31717 10000000018233005 10000000018233004 10000000018233017 6.49159774567
9.50055 10000000018233004 10000000018233003 10000000018233017 6.14490120342
9.56111 10000000018233003 10000000018233002 10000000018233017 6.01075739884
9.21869 10000000018233026 10000000018233025 10000000018233027 7.23627606617
9.09375 10000000018233206 10000000018233205 10000000018233215 4.66451770247
9.34016 10000000018233205 10000000018233203 10000000018233215 4.17683491473
9.50055 10000000018233203 10000000018233202 10000000018233215 4.00794511147
9.58638 10000000018233202 10000000018233201 10000000018233215 3.93726108473
9.65224 10000000018233201 10000000018233200 10000000018233215 3.70877426464
9.66866 10000000018233200 10000000018233198 10000000018233215 3.28303305796
9.08845 10000000018233273 10000000018233272 10000000018233277 5.84661374788
9.16407 10000000018233272 10000000018233271 10000000018233277 5.52976580795
9.26008 10000000018233271 10000000018233270 10000000018233277 5.22758097313
9.33716 10000000018233270 10000000018233269 10000000018233277 4.99593346816
9.39478 10000000018233269 10000000018233268 10000000018233277 4.93938066349
9.43974 10000000018233268 10000000018233267 10000000018233277 4.66451770247
9.47505 10000000018233267 10000000018233265 10000000018233277 4.17683491473
9.50363 10000000018233265 10000000018233257 10000000018233277 2.89578500573
9.08578 10000000018233441 10000000018233440 10000000018233452 6.85511726265
9.26187 10000000018233440 10000000018233439 10000000018233452 6.49159774567
9.27594 10000000018233439 10000000018233438 10000000018233452 6.14490120342
9.31717 10000000018233438 10000000018233437 10000000018233452 6.01075739884
9.51475 10000000018233437 10000000018233434 10000000018233452 5.22758097313
9.57175 10000000018233434 10000000018233433 10000000018233452 4.99593346816
9.58891 10000000018233433 10000000018233432 10000000018233452 4.93938066349
9.64859 10000000018233432 10000000018233431 10000000018233452 4.66451770247
9.67835 10000000018233431 10000000018233424 10000000018233452 3.28303305796
9.74255 10000000018233424 10000000018233423 10000000018233452 3.08482263583
9.75421 10000000018233423 10000000018233422 10000000018233452 3.00813107163
9.76444 10000000018233422 10000000018233420 10000000018233452 2.73314261732
9.51675 10000000018233461 10000000018233460 10000000018233461 5.52976580795
9.06939 10000000018233523 10000000018233522 10000000018233532 7.23627606617
9.14811 10000000018233522 10000000018233520 10000000018233532 6.85511726265
9.22651 10000000018233520 10000000018233519 10000000018233532 6.49159774567
9.3974 10000000018233519 10000000018233518 10000000018233532 6.14490120342
9.42649 10000000018233518 10000000018233517 10000000018233532 6.01075739884
9.45261 10000000018233517 10000000018233516 10000000018233532 5.84661374788
9.52948 10000000018233516 10000000018233515 10000000018233532 5.52976580795
9.54744 10000000018233515 10000000018233514 10000000018233532 5.22758097313
9.59725 10000000018233514 10000000018233513 10000000018233532 4.99593346816
9.60543 10000000018233513 10000000018233512 10000000018233532 4.93938066349
9.60946 10000000018233512 10000000018233510 10000000018233532 4.42803373661
9.63593 10000000018233510 10000000018233509 10000000018233532 4.17683491473
9.67214 10000000018233509 10000000018233508 10000000018233532 4.00794511147
9.01928 10000000018233684 10000000018233683 10000000018233700 3.70877426464
9.08038 10000000018233683 10000000018233680 10000000018233700 3.08482263583
9.02855 10000000018233823 10000000018233822 10000000018233829 7.59510714987
9.15502 10000000018233822 10000000018233821 10000000018233829 7.23627606617
9.19433 10000000018233821 10000000018233820 10000000018233829 7.00541704554
9.31243 10000000018233820 10000000018233818 10000000018233829 6.49159774567
9.35048 10000000018233818 10000000018233817 10000000018233829 6.14490120342
9.36763 10000000018233817 10000000018233816 10000000018233829 6.01075739884
9.43856 10000000018233816 10000000018233814 10000000018233829 5.52976580795
9.4503 10000000018233814 10000000018233813 10000000018233829 5.22758097313
9.48905 10000000018233813 10000000018233812 10000000018233829 4.99593346816
9.5314 10000000018233812 10000000018233811 10000000018233829 4.93938066349
9.72136 10000000018233811 10000000018233810 10000000018233829 4.66451770247
9.77003 10000000018233810 10000000018233809 10000000018233829 4.42803373661
9.8719 10000000018233809 10000000018233808 10000000018233829 4.17683491473
9.02855 10000000018233887 10000000018233886 10000000018233892 6.14490120342
9.05811 10000000018233886 10000000018233885 10000000018233892 6.01075739884
9.05811 10000000018233885 10000000018233884 10000000018233892 5.84661374788
9.10926 10000000018233884 10000000018233883 10000000018233892 5.52976580795
9.17946 10000000018233883 10000000018233873 10000000018233892 3.49086136926
9.01614 10000000018233928 10000000018233927 10000000018233939 3.08482263583
9.04062 10000000018233927 10000000018233925 10000000018233939 2.89578500573
9.04945 10000000018233925 10000000018233924 10000000018233939 2.73314261732
9.07766 10000000018233924 10000000018233919 10000000018233939 2.1032696526
9.00337 10000000018234286 10000000018234285 10000000018234293 7.59510714987
9.23229 10000000018234285 10000000018234284 10000000018234293 7.23627606617
9.30278 10000000018234284 10000000018234281 10000000018234293 6.49159774567
9.42281 10000000018234281 10000000018234280 10000000018234293 6.14490120342
9.48799 10000000018234280 10000000018234279 10000000018234293 6.01075739884
9.57349 10000000018234279 10000000018234278 10000000018234293 5.84661374788
9.65586 10000000018234278 10000000018234277 10000000018234293 5.52976580795
9.717 10000000018234277 10000000018234276 10000000018234293 5.22758097313
9.76947 10000000018234276 10000000018234275 10000000018234293 4.99593346816
9.87278 10000000018234275 10000000018234273 10000000018234293 4.66451770247
9.91766 10000000018234273 10000000018234272 10000000018234293 4.42803373661
9.92626 10000000018234272 10000000018234271 10000000018234293 4.17683491473
9.95363 10000000018234271 10000000018234270 10000000018234293 4.00794511147
9.95797 10000000018234270 10000000018234269 10000000018234293 3.93726108473
10.0686 10000000018234269 10000000018234266 10000000018234293 3.28303305796
9.27246 10000000018234299 10000000018234298 10000000018234307 7.00541704554
9.07492 10000000018234400 10000000018234399 10000000018234414 4.00794511147
9.09111 10000000018234399 10000000018234398 10000000018234414 3.93726108473
9.16852 10000000018234398 10000000018234396 10000000018234414 3.49086136926
9.27766 10000000018234396 10000000018234395 10000000018234414 3.28303305796
9.2862 10000000018234395 10000000018234394 10000000018234414 3.08482263583
9.29787 10000000018234394 10000000018234392 10000000018234414 2.89578500573
9.00337 10000000018234517 10000000018234516 10000000018234521 5.84661374788
9.0316 10000000018234516 10000000018234514 10000000018234521 5.22758097313
9.2342 10000000018234514 10000000018234513 10000000018234521 4.99593346816
9.2342 10000000018234513 10000000018234512 10000000018234521 4.93938066349
9.2672 10000000018234512 10000000018234511 10000000018234521 4.66451770247
9.2862 10000000018234511 10000000018234510 10000000018234521 4.42803373661
9.34165 10000000018234510 10000000018234509 10000000018234521 4.17683491473
9.43377 10000000018234509 10000000018234508 10000000018234521 4.00794511147
9.44093 10000000018234508 10000000018234507 10000000018234521 3.93726108473
9.47286 10000000018234507 10000000018234506 10000000018234521 3.70877426464
9.5989 10000000018234506 10000000018234505 10000000018234521 3.49086136926
9.73299 10000000018234505 10000000018234504 10000000018234521 3.28303305796
9.76106 10000000018234504 10000000018234502 10000000018234521 3.00813107163
9.79272 10000000018234502 10000000018234501 10000000018234521 2.89578500573
9.81976 10000000018234501 10000000018234500 10000000018234521 2.73314261732
9.00012 10000000018234595 10000000018234594 10000000018234607 3.93726108473
9.15502 10000000018234594 10000000018234590 10000000018234607 3.08482263583
9.14344 10000000018234767 10000000018234766 10000000018234781 2.73314261732
9.17293 10000000018234766 10000000018234765 10000000018234781 2.5772902716
9.17293 10000000018234765 10000000018234764 10000000018234781 2.44422570455
9.17293 10000000018234764 10000000018234763 10000000018234781 2.31611074396
9.20668 10000000018234763 10000000018234762 10000000018234781 2.20792547238
9.21272 10000000018234762 10000000018234761 10000000018234781 2.1032696526
9.21869 10000000018234761 10000000018234760 10000000018234781 2.00202813925
9.23229 10000000018234760 10000000018234759 10000000018234781 1.90408954353
9.02548 10000000018234909 10000000018234908 10000000018234922 4.00794511147
9.12912 10000000018234908 10000000018234907 10000000018234922 3.93726108473
9.1663 10000000018234907 10000000018234905 10000000018234922 3.49086136926
9.00337 10000000018234955 10000000018234954 10000000018234967 4.00794511147
9.04653 10000000018235046 10000000018235045 10000000018235062 4.17683491473
9.00337 10000000018235086 10000000018235085 10000000018235105 2.31611074396
9.01298 10000000018235085 10000000018235083 10000000018235105 2.1032696526
9.11681 10000000018235256 10000000018235255 10000000018235269 4.42803373661
9.16182 10000000018235255 10000000018235254 10000000018235269 4.17683491473
9.18376 10000000018235254 10000000018235253 10000000018235269 4.00794511147
9.19433 10000000018235253 10000000018235252 10000000018235269 3.93726108473
9.32342 10000000018235252 10000000018235248 10000000018235269 3.08482263583
9.47286 10000000018235248 10000000018235246 10000000018235269 2.89578500573
9.00012 10000000018235306 10000000018235305 10000000018235316 3.00813107163
9.0066 10000000018235305 10000000018235304 10000000018235316 2.89578500573
9.03463 10000000018235304 10000000018235303 10000000018235316 2.73314261732
9.17729 10000000018235303 10000000018235302 10000000018235316 2.5772902716
9.2742 10000000018235302 10000000018235300 10000000018235316 2.31611074396
9.2828 10000000018235300 10000000018235298 10000000018235316 2.1032696526
9.32651 10000000018235298 10000000018235297 10000000018235316 2.00202813925
9.34016 10000000018235297 10000000018235296 10000000018235316 1.90408954353
9.06096 10000000018235389 10000000018235388 10000000018235399 4.99593346816
9.0666 10000000018235388 10000000018235387 10000000018235399 4.93938066349
9.06939 10000000018235387 10000000018235383 10000000018235399 4.00794511147
9.09898 10000000018235383 10000000018235378 10000000018235399 3.08482263583
9.10671 10000000018235378 10000000018235377 10000000018235399 3.00813107163
9.12912 10000000018235377 10000000018235376 10000000018235399 2.89578500573
9.14578 10000000018235376 10000000018235375 10000000018235399 2.73314261732
9.18376 10000000018235375 10000000018235374 10000000018235399 2.5772902716
9.2342 10000000018235374 10000000018235373 10000000018235399 2.44422570455
9.07492 10000000018235425 10000000018235424 10000000018235445 2.20792547238
9.01614 10000000018235505 10000000018235504 10000000018235510 9.00233985416
9.10926 10000000018235504 10000000018235503 10000000018235510 8.9079991856
9.2845 10000000018235503 10000000018235501 10000000018235510 8.01217294887
10.0187 10000000018235501 10000000018235500 10000000018235510 7.59510714987
10.1279 10000000018235500 10000000018235498 10000000018235510 7.00541704554
10.2113 10000000018235498 10000000018235497 10000000018235510 6.85511726265
10.2539 10000000018235497 10000000018235496 10000000018235510 6.49159774567
10.3512 10000000018235496 10000000018235495 10000000018235510 6.14490120342
10.3885 10000000018235495 10000000018235494 10000000018235510 6.01075739884
10.4244 10000000018235494 10000000018235493 10000000018235510 5.84661374788
10.502 10000000018235493 10000000018235492 10000000018235510 5.52976580795
10.565 10000000018235492 10000000018235491 10000000018235510 5.22758097313
10.6168 10000000018235491 10000000018235490 10000000018235510 4.99593346816
10.6396 10000000018235490 10000000018235489 10000000018235510 4.93938066349
10.749 10000000018235489 10000000018235488 10000000018235510 4.66451770247
10.8149 10000000018235488 10000000018235487 10000000018235510 4.42803373661
10.8936 10000000018235487 10000000018235486 10000000018235510 4.17683491473
10.9274 10000000018235486 10000000018235485 10000000018235510 4.00794511147
10.941 10000000018235485 10000000018235484 10000000018235510 3.93726108473
10.9782 10000000018235484 10000000018235483 10000000018235510 3.70877426464
10.9905 10000000018235483 10000000018235482 10000000018235510 3.49086136926
10.9919 10000000018235482 10000000018235481 10000000018235510 3.28303305796
11.0058 10000000018235481 10000000018235478 10000000018235510 2.89578500573
11.0239 10000000018235478 10000000018235477 10000000018235510 2.73314261732
11.0731 10000000018235477 10000000018235476 10000000018235510 2.5772902716
11.0743 10000000018235476 10000000018235475 10000000018235510 2.44422570455
11.095 10000000018235475 10000000018235474 10000000018235510 2.31611074396
11.1206 10000000018235474 10000000018235473 10000000018235510 2.20792547238
11.1325 10000000018235473 10000000018235472 10000000018235510 2.1032696526
11.1539 10000000018235472 10000000018235471 10000000018235510 2.00202813925
11.163 10000000018235471 10000000018235470 10000000018235510 1.90408954353
9.0066 10000000018235522 10000000018235521 10000000018235524 10.3674435724
9.21869 10000000018235521 10000000018235520 10000000018235524 9.99659046619
9.26543 10000000018235520 10000000018235519 10000000018235524 9.84138043947
9.34609 10000000018235519 10000000018235518 10000000018235524 9.38877127194
9.36056 10000000018235518 10000000018235515 10000000018235524 8.44947629437
9.00012 10000000018235535 10000000018235534 10000000018235539 9.00233985416
9.0316 10000000018235534 10000000018235531 10000000018235539 8.01217294887
9.00337 10000000018235551 10000000018235550 10000000018235555 8.44947629437
9.42157 10000000018235550 10000000018235547 10000000018235555 7.23627606617
9.00012 10000000018235566 10000000018235565 10000000018235569 9.38877127194
9.00337 10000000018235565 10000000018235564 10000000018235569 9.00233985416
9.05235 10000000018235564 10000000018235563 10000000018235569 8.9079991856
9.14811 10000000018235563 10000000018235562 10000000018235569 8.44947629437
9.0066 10000000018235577 10000000018235576 10000000018235581 7.59510714987
9.13871 10000000018235656 10000000018235655 10000000018235661 7.23627606617
9.01298 10000000018235765 10000000018235764 10000000018235769 9.99659046619
9.01614 10000000018235764 10000000018235763 10000000018235769 9.84138043947
9.04653 10000000018235763 10000000018235762 10000000018235769 9.38877127194
9.14578 10000000018235762 10000000018235761 10000000018235769 9.00233985416
9.17512 10000000018235761 10000000018235760 10000000018235769 8.9079991856
9.2862 10000000018235760 10000000018235758 10000000018235769 8.01217294887
9.48372 10000000018235758 10000000018235757 10000000018235769 7.59510714987
9.70363 10000000018235757 10000000018235756 10000000018235769 7.23627606617
9.76724 10000000018235756 10000000018235755 10000000018235769 7.00541704554
9.81478 10000000018235755 10000000018235754 10000000018235769 6.85511726265
9.88656 10000000018235754 10000000018235753 10000000018235769 6.49159774567
9.92354 10000000018235753 10000000018235752 10000000018235769 6.14490120342
9.92548 10000000018235752 10000000018235751 10000000018235769 6.01075739884
9.97801 10000000018235751 10000000018235750 10000000018235769 5.84661374788
10.0114 10000000018235750 10000000018235749 10000000018235769 5.52976580795
10.0289 10000000018235749 10000000018235748 10000000018235769 5.22758097313
10.0394 10000000018235748 10000000018235747 10000000018235769 4.99593346816
10.0895 10000000018235747 10000000018235746 10000000018235769 4.93938066349
9.02239 10000000018235778 10000000018235777 10000000018235780 8.44947629437
9.01298 10000000018235784 10000000018235783 10000000018235793 8.01217294887
9.03763 10000000018235855 10000000018235854 10000000018235862 7.23627606617
9.06939 10000000018235854 10000000018235853 10000000018235862 7.00541704554
9.07216 10000000018235853 10000000018235852 10000000018235862 6.85511726265
9.11681 10000000018235852 10000000018235851 10000000018235862 6.49159774567
9.14344 10000000018235851 10000000018235850 10000000018235862 6.14490120342
9.19848 10000000018235850 10000000018235848 10000000018235862 5.84661374788
9.20668 10000000018235848 10000000018235847 10000000018235862 5.52976580795
9.00337 10000000018235958 10000000018235957 10000000018235962 10.3674435724
9.09637 10000000018235957 10000000018235956 10000000018235962 9.99659046619
9.10415 10000000018235956 10000000018235955 10000000018235962 9.84138043947
9.15502 10000000018235955 10000000018235954 10000000018235962 9.38877127194
9.2026 10000000018235954 10000000018235953 10000000018235962 9.00233985416
9.22457 10000000018235953 10000000018235952 10000000018235962 8.9079991856
9.34313 10000000018235952 10000000018235951 10000000018235962 8.44947629437
9.44797 10000000018235951 10000000018235950 10000000018235962 8.01217294887
9.52754 10000000018235950 10000000018235949 10000000018235962 7.59510714987
9.55569 10000000018235949 10000000018235948 10000000018235962 7.23627606617
9.60136 10000000018235948 10000000018235947 10000000018235962 7.00541704554
9.62212 10000000018235947 10000000018235946 10000000018235962 6.85511726265
9.63214 10000000018235946 10000000018235944 10000000018235962 6.14490120342
9.65514 10000000018235944 10000000018235943 10000000018235962 6.01075739884
9.69317 10000000018235943 10000000018235941 10000000018235962 5.52976580795
9.0098 10000000018236148 10000000018236147 10000000018236152 3.49086136926
9.02239 10000000018236147 10000000018236146 10000000018236152 3.28303305796
9.06939 10000000018236146 10000000018236143 10000000018236152 2.89578500573
9.08845 10000000018236143 10000000018236141 10000000018236152 2.5772902716
9.14108 10000000018236141 10000000018236140 10000000018236152 2.44422570455
9.14811 10000000018236140 10000000018236139 10000000018236152 2.31611074396
9.17293 10000000018236139 10000000018236138 10000000018236152 2.20792547238
9.18376 10000000018236138 10000000018236137 10000000018236152 2.1032696526
9.08578 10000000018236204 10000000018236203 10000000018236213 6.01075739884
9.08845 10000000018236203 10000000018236202 10000000018236213 5.84661374788
9.09375 10000000018236202 10000000018236201 10000000018236213 5.52976580795
9.15502 10000000018236201 10000000018236200 10000000018236213 5.22758097313
9.16182 10000000018236200 10000000018236196 10000000018236213 4.42803373661
9.18589 10000000018236196 10000000018236195 10000000018236213 4.17683491473
9.2026 10000000018236195 10000000018236194 10000000018236213 4.00794511147
9.21869 10000000018236194 10000000018236193 10000000018236213 3.93726108473
9.22651 10000000018236193 10000000018236191 10000000018236213 3.49086136926
9.24362 10000000018236191 10000000018236190 10000000018236213 3.28303305796
9.2811 10000000018236190 10000000018236189 10000000018236213 3.08482263583
9.32958 10000000018236189 10000000018236188 10000000018236213 3.00813107163
9.36763 10000000018236188 10000000018236187 10000000018236213 2.89578500573
9.38277 10000000018236187 10000000018236186 10000000018236213 2.73314261732
9.41029 10000000018236186 10000000018236185 10000000018236213 2.5772902716
9.48372 10000000018236185 10000000018236184 10000000018236213 2.44422570455
9.54278 10000000018236184 10000000018236183 10000000018236213 2.31611074396
9.55204 10000000018236183 10000000018236180 10000000018236213 2.00202813925
9.56911 10000000018236180 10000000018236177 10000000018236213 1.74357057433
9.11431 10000000018236292 10000000018236291 10000000018236300 6.14490120342
9.13634 10000000018236291 10000000018236286 10000000018236300 4.99593346816
9.30115 10000000018236286 10000000018236285 10000000018236300 4.93938066349
9.41659 10000000018236285 10000000018236284 10000000018236300 4.66451770247
9.45261 10000000018236284 10000000018236282 10000000018236300 4.17683491473
9.02239 10000000018236348 10000000018236347 10000000018236359 4.66451770247
9.12912 10000000018236347 10000000018236346 10000000018236359 4.42803373661
9.16852 10000000018236346 10000000018236345 10000000018236359 4.17683491473
9.16852 10000000018236345 10000000018236341 10000000018236359 3.49086136926
9.22457 10000000018236341 10000000018236340 10000000018236359 3.28303305796
9.24548 10000000018236340 10000000018236339 10000000018236359 3.08482263583
9.26365 10000000018236339 10000000018236337 10000000018236359 2.89578500573
9.2742 10000000018236337 10000000018236336 10000000018236359 2.73314261732
9.27766 10000000018236336 10000000018236331 10000000018236359 2.1032696526
9.2862 10000000018236331 10000000018236328 10000000018236359 1.82268925262
9.30278 10000000018236328 10000000018236327 10000000018236359 1.74357057433
9.00012 10000000018236399 10000000018236398 10000000018236409 3.49086136926
9.04358 10000000018236398 10000000018236396 10000000018236409 3.08482263583
9.12424 10000000018236396 10000000018236395 10000000018236409 3.00813107163
9.13154 10000000018236395 10000000018236394 10000000018236409 2.89578500573
9.23037 10000000018236394 10000000018236393 10000000018236409 2.73314261732
9.26896 10000000018236393 10000000018236392 10000000018236409 2.5772902716
9.28956 10000000018236392 10000000018236391 10000000018236409 2.44422570455
9.30763 10000000018236391 10000000018236390 10000000018236409 2.31611074396
9.05811 10000000018236550 10000000018236549 10000000018236570 2.73314261732
9.00337 10000000018236719 10000000018236718 10000000018236730 3.08482263583
9.01298 10000000018236718 10000000018236708 10000000018236730 1.90408954353
9.02855 10000000018236708 10000000018236705 10000000018236730 1.66666955611
9.0316 10000000018236705 10000000018236702 10000000018236730 1.47197484527
9.05235 10000000018236702 10000000018236701 10000000018236730 1.41409822037
9.0666 10000000018236701 10000000018236700 10000000018236730 1.3575766674
9.09111 10000000018236700 10000000018236699 10000000018236730 1.30237845991
9.09898 10000000018236699 10000000018236698 10000000018236730 1.24847261425
9.13634 10000000018236769 10000000018236768 10000000018236779 3.08482263583
9.17729 10000000018236768 10000000018236766 10000000018236779 2.89578500573
9.21671 10000000018236766 10000000018236765 10000000018236779 2.73314261732
9.22262 10000000018236765 10000000018236763 10000000018236779 2.44422570455
9.24362 10000000018236763 10000000018236762 10000000018236779 2.31611074396
9.07766 10000000018236843 10000000018236842 10000000018236850 6.01075739884
9.10926 10000000018236842 10000000018236841 10000000018236850 5.84661374788
9.1193 10000000018236841 10000000018236840 10000000018236850 5.52976580795
9.18589 10000000018236840 10000000018236839 10000000018236850 5.22758097313
9.19013 10000000018236839 10000000018236838 10000000018236850 4.99593346816
9.19223 10000000018236838 10000000018236836 10000000018236850 4.66451770247
9.19433 10000000018236836 10000000018236835 10000000018236850 4.42803373661
9.20055 10000000018236835 10000000018236834 10000000018236850 4.17683491473
9.24918 10000000018236834 10000000018236833 10000000018236850 4.00794511147
9.25648 10000000018236833 10000000018236832 10000000018236850 3.93726108473
9.38277 10000000018236832 10000000018236830 10000000018236850 3.49086136926
9.42404 10000000018236830 10000000018236829 10000000018236850 3.28303305796
9.42649 10000000018236829 10000000018236828 10000000018236850 3.08482263583
9.50567 10000000018236828 10000000018236827 10000000018236850 3.00813107163
9.35627 10000000018236933 10000000018236932 10000000018236948 4.66451770247
9.40902 10000000018236932 10000000018236923 10000000018236948 3.00813107163
9.45946 10000000018236923 10000000018236922 10000000018236948 2.89578500573
9.47941 10000000018236922 10000000018236921 10000000018236948 2.73314261732
9.57087 10000000018236921 10000000018236920 10000000018236948 2.5772902716
9.57523 10000000018236920 10000000018236918 10000000018236948 2.31611074396
9.0098 10000000018236973 10000000018236972 10000000018236984 4.42803373661
9.00012 10000000018237033 10000000018237032 10000000018237037 5.22758097313
9.04653 10000000018237032 10000000018237031 10000000018237037 4.99593346816
9.11431 10000000018237031 10000000018237029 10000000018237037 4.66451770247
9.13154 10000000018237029 10000000018237028 10000000018237037 4.42803373661
9.19223 10000000018237028 10000000018237027 10000000018237037 4.17683491473
9.20055 10000000018237027 10000000018237026 10000000018237037 4.00794511147
9.21072 10000000018237026 10000000018237025 10000000018237037 3.93726108473
9.45833 10000000018237025 10000000018237022 10000000018237037 3.28303305796
9.55478 10000000018237022 10000000018237021 10000000018237037 3.08482263583
9.01298 10000000018237120 10000000018237119 10000000018237128 9.38877127194
9.1663 10000000018237119 10000000018237118 10000000018237128 9.00233985416
9.2342 10000000018237118 10000000018237116 10000000018237128 8.44947629437
9.32187 10000000018237116 10000000018237115 10000000018237128 8.01217294887
9.35627 10000000018237115 10000000018237114 10000000018237128 7.59510714987
9.54091 10000000018237114 10000000018237113 10000000018237128 7.23627606617
9.67145 10000000018237113 10000000018237111 10000000018237128 6.85511726265
9.69383 10000000018237111 10000000018237110 10000000018237128 6.49159774567
9.71195 10000000018237110 10000000018237109 10000000018237128 6.14490120342
9.7384 10000000018237109 10000000018237108 10000000018237128 6.01075739884
9.76557 10000000018237108 10000000018237107 10000000018237128 5.84661374788
9.76613 10000000018237107 10000000018237104 10000000018237128 4.99593346816
9.77554 10000000018237104 10000000018237103 10000000018237128 4.93938066349
9.80363 10000000018237103 10000000018237101 10000000018237128 4.42803373661
9.81127 10000000018237101 10000000018237099 10000000018237128 4.00794511147
9.81528 10000000018237099 10000000018237098 10000000018237128 3.93726108473
9.86482 10000000018237098 10000000018237097 10000000018237128 3.70877426464
9.91528 10000000018237097 10000000018237096 10000000018237128 3.49086136926
9.93734 10000000018237096 10000000018237095 10000000018237128 3.28303305796
9.95218 10000000018237095 10000000018237093 10000000018237128 3.00813107163
9.96793 10000000018237093 10000000018237091 10000000018237128 2.73314261732
9.98313 10000000018237091 10000000018237090 10000000018237128 2.5772902716
9.0098 10000000018237196 10000000018237195 10000000018237215 1.90408954353
9.0666 10000000018237195 10000000018237194 10000000018237215 1.82268925262
9.09111 10000000018237194 10000000018237193 10000000018237215 1.74357057433
9.10671 10000000018237193 10000000018237188 10000000018237215 1.41409822037
9.13154 10000000018237188 10000000018237187 10000000018237215 1.3575766674
9.13394 10000000018237187 10000000018237185 10000000018237215 1.24847261425
9.15273 10000000018237185 10000000018237182 10000000018237215 1.11415056377
9.16852 10000000018237182 10000000018237181 10000000018237215 1.07445789455
9.17512 10000000018237181 10000000018237180 10000000018237215 1.03551044566
9.17946 10000000018237180 10000000018237170 10000000018237215 0.732636182022
9.06096 10000000018237391 10000000018237390 10000000018237400 7.23627606617
9.10926 10000000018237390 10000000018237388 10000000018237400 6.85511726265
9.25828 10000000018237388 10000000018237387 10000000018237400 6.49159774567
9.42157 10000000018237387 10000000018237386 10000000018237400 6.14490120342
9.56999 10000000018237386 10000000018237385 10000000018237400 6.01075739884
9.59477 10000000018237385 10000000018237383 10000000018237400 5.52976580795
9.70685 10000000018237383 10000000018237382 10000000018237400 5.22758097313
9.72507 10000000018237382 10000000018237381 10000000018237400 4.99593346816
9.74784 10000000018237381 10000000018237380 10000000018237400 4.93938066349
9.75017 10000000018237380 10000000018237379 10000000018237400 4.66451770247
9.81378 10000000018237379 10000000018237378 10000000018237400 4.42803373661
9.83339 10000000018237378 10000000018237377 10000000018237400 4.17683491473
9.96688 10000000018237377 10000000018237376 10000000018237400 4.00794511147
10.1455 10000000018237376 10000000018237374 10000000018237400 3.70877426464
10.1968 10000000018237374 10000000018237373 10000000018237400 3.49086136926
10.2455 10000000018237373 10000000018237371 10000000018237400 3.08482263583
9.04653 10000000018237499 10000000018237498 10000000018237512 4.17683491473
9.05811 10000000018237498 10000000018237496 10000000018237512 3.93726108473
9.00012 10000000018237554 10000000018237553 10000000018237564 3.08482263583
9.01614 10000000018237553 10000000018237550 10000000018237564 2.73314261732
9.07492 10000000018237550 10000000018237549 10000000018237564 2.5772902716
9.20668 10000000018237549 10000000018237548 10000000018237564 2.44422570455
9.25466 10000000018237548 10000000018237547 10000000018237564 2.31611074396
9.09898 10000000018237952 10000000018237951 10000000018237956 7.59510714987
9.15956 10000000018237951 10000000018237949 10000000018237956 7.00541704554
9.15956 10000000018237949 10000000018237947 10000000018237956 6.49159774567
9.18376 10000000018237947 10000000018237946 10000000018237956 6.14490120342
9.21671 10000000018237946 10000000018237945 10000000018237956 6.01075739884
9.33415 10000000018237945 10000000018237943 10000000018237956 5.52976580795
9.43856 10000000018237943 10000000018237942 10000000018237956 5.22758097313
9.60785 10000000018237942 10000000018237941 10000000018237956 4.99593346816
9.69383 10000000018237941 10000000018237939 10000000018237956 4.66451770247
9.80158 10000000018237939 10000000018237937 10000000018237956 4.17683491473
9.81976 10000000018237937 10000000018237935 10000000018237956 3.93726108473
9.86304 10000000018237935 10000000018237934 10000000018237956 3.70877426464
9.91409 10000000018237934 10000000018237933 10000000018237956 3.49086136926
9.91963 10000000018237933 10000000018237931 10000000018237956 3.08482263583
9.9463 10000000018237931 10000000018237929 10000000018237956 2.89578500573
10.0246 10000000018237929 10000000018237928 10000000018237956 2.73314261732
10.043 10000000018237928 10000000018237926 10000000018237956 2.44422570455
10.0969 10000000018237926 10000000018237925 10000000018237956 2.31611074396
9.12912 10000000018238065 10000000018238064 10000000018238073 3.70877426464
9.13394 10000000018238064 10000000018238062 10000000018238073 3.28303305796
9.14578 10000000018238062 10000000018238061 10000000018238073 3.08482263583
9.21869 10000000018238061 10000000018238060 10000000018238073 3.00813107163
9.26187 10000000018238060 10000000018238057 10000000018238073 2.5772902716
9.01928 10000000018238299 10000000018238298 10000000018238304 8.01217294887
9.04653 10000000018238298 10000000018238297 10000000018238304 7.59510714987
9.10671 10000000018238297 10000000018238296 10000000018238304 7.23627606617
9.16407 10000000018238296 10000000018238295 10000000018238304 7.00541704554
9.21272 10000000018238295 10000000018238294 10000000018238304 6.85511726265
9.29622 10000000018238294 10000000018238293 10000000018238304 6.49159774567
9.34165 10000000018238293 10000000018238292 10000000018238304 6.14490120342
9.37869 10000000018238292 10000000018238291 10000000018238304 6.01075739884
9.41408 10000000018238291 10000000018238290 10000000018238304 5.84661374788
9.56823 10000000018238290 10000000018238289 10000000018238304 5.52976580795
9.6573 10000000018238289 10000000018238288 10000000018238304 5.22758097313
9.72198 10000000018238288 10000000018238287 10000000018238304 4.99593346816
9.77113 10000000018238287 10000000018238285 10000000018238304 4.66451770247
9.83099 10000000018238285 10000000018238284 10000000018238304 4.42803373661
9.87929 10000000018238284 10000000018238283 10000000018238304 4.17683491473
9.92664 10000000018238283 10000000018238282 10000000018238304 4.00794511147
9.18162 10000000018238504 10000000018238503 10000000018238516 2.00202813925
9.22845 10000000018238503 10000000018238501 10000000018238516 1.82268925262
9.0316 10000000018238596 10000000018238595 10000000018238601 6.14490120342
9.07766 10000000018238595 10000000018238594 10000000018238601 6.01075739884
9.08845 10000000018238594 10000000018238593 10000000018238601 5.84661374788
9.14344 10000000018238593 10000000018238592 10000000018238601 5.52976580795
9.18589 10000000018238592 10000000018238591 10000000018238601 5.22758097313
9.22845 10000000018238591 10000000018238590 10000000018238601 4.99593346816
9.2862 10000000018238590 10000000018238588 10000000018238601 4.66451770247
9.30763 10000000018238588 10000000018238587 10000000018238601 4.42803373661
9.35914 10000000018238587 10000000018238586 10000000018238601 4.17683491473
9.54465 10000000018238586 10000000018238585 10000000018238601 4.00794511147
9.57523 10000000018238585 10000000018238584 10000000018238601 3.93726108473
9.60866 10000000018238584 10000000018238583 10000000018238601 3.70877426464
9.65945 10000000018238583 10000000018238582 10000000018238601 3.49086136926
9.78152 10000000018238582 10000000018238581 10000000018238601 3.28303305796
9.86214 10000000018238581 10000000018238580 10000000018238601 3.08482263583
9.90402 10000000018238580 10000000018238578 10000000018238601 2.89578500573
9.90443 10000000018238578 10000000018238576 10000000018238601 2.5772902716
9.92857 10000000018238576 10000000018238575 10000000018238601 2.44422570455
9.94222 10000000018238575 10000000018238574 10000000018238601 2.31611074396
9.97698 10000000018238574 10000000018238570 10000000018238601 1.90408954353
10.0227 10000000018238570 10000000018238567 10000000018238601 1.66666955611
9.0066 10000000018238634 10000000018238633 10000000018238641 4.99593346816
9.02239 10000000018238633 10000000018238632 10000000018238641 4.93938066349
9.12178 10000000018238632 10000000018238631 10000000018238641 4.66451770247
9.15042 10000000018238631 10000000018238630 10000000018238641 4.42803373661
9.21869 10000000018238630 10000000018238629 10000000018238641 4.17683491473
9.25101 10000000018238629 10000000018238628 10000000018238641 4.00794511147
9.2672 10000000018238628 10000000018238627 10000000018238641 3.93726108473
9.33566 10000000018238627 10000000018238626 10000000018238641 3.70877426464
9.39346 10000000018238626 10000000018238625 10000000018238641 3.49086136926
9.07766 10000000018238720 10000000018238719 10000000018238725 6.01075739884
9.17946 10000000018238719 10000000018238717 10000000018238725 5.52976580795
9.21472 10000000018238717 10000000018238716 10000000018238725 5.22758097313
9.25828 10000000018238716 10000000018238715 10000000018238725 4.99593346816
9.26896 10000000018238715 10000000018238714 10000000018238725 4.93938066349
9.2845 10000000018238714 10000000018238713 10000000018238725 4.66451770247
9.31717 10000000018238713 10000000018238712 10000000018238725 4.42803373661
9.32958 10000000018238712 10000000018238710 10000000018238725 4.00794511147
9.47724 10000000018238710 10000000018238706 10000000018238725 3.28303305796
9.49116 10000000018238706 10000000018238704 10000000018238725 3.00813107163
9.54836 10000000018238704 10000000018238703 10000000018238725 2.89578500573
9.5989 10000000018238703 10000000018238702 10000000018238725 2.73314261732
9.60705 10000000018238702 10000000018238700 10000000018238725 2.44422570455
9.62368 10000000018238700 10000000018238699 10000000018238725 2.31611074396
9.64268 10000000018238699 10000000018238698 10000000018238725 2.20792547238
9.03463 10000000018238804 10000000018238803 10000000018238810 7.23627606617
9.05524 10000000018238803 10000000018238802 10000000018238810 7.00541704554
9.10671 10000000018238802 10000000018238801 10000000018238810 6.85511726265
9.14578 10000000018238801 10000000018238799 10000000018238810 6.14490120342
9.19013 10000000018238799 10000000018238798 10000000018238810 6.01075739884
9.25648 10000000018238798 10000000018238796 10000000018238810 5.52976580795
9.2828 10000000018238796 10000000018238795 10000000018238810 5.22758097313
9.35771 10000000018238795 10000000018238794 10000000018238810 4.99593346816
9.39871 10000000018238794 10000000018238793 10000000018238810 4.93938066349
9.41909 10000000018238793 10000000018238792 10000000018238810 4.66451770247
9.50669 10000000018238792 10000000018238791 10000000018238810 4.42803373661
9.60299 10000000018238791 10000000018238790 10000000018238810 4.17683491473
9.05524 10000000018238871 10000000018238870 10000000018238880 2.5772902716
9.12668 10000000018238870 10000000018238868 10000000018238880 2.31611074396
9.19223 10000000018238868 10000000018238867 10000000018238880 2.20792547238
9.01614 10000000018239090 10000000018239089 10000000018239104 3.93726108473
9.04358 10000000018239089 10000000018239088 10000000018239104 3.70877426464
9.08309 10000000018239088 10000000018239087 10000000018239104 3.49086136926
9.43377 10000000018239087 10000000018239086 10000000018239104 3.28303305796
9.49744 10000000018239086 10000000018239085 10000000018239104 3.08482263583
9.02855 10000000018239441 10000000018239440 10000000018239452 4.42803373661
9.19013 10000000018239440 10000000018239439 10000000018239452 4.17683491473
9.21671 10000000018239439 10000000018239438 10000000018239452 4.00794511147
9.33263 10000000018239438 10000000018239437 10000000018239452 3.93726108473
9.45719 10000000018239437 10000000018239436 10000000018239452 3.70877426464
9.49744 10000000018239436 10000000018239435 10000000018239452 3.49086136926
9.53713 10000000018239435 10000000018239434 10000000018239452 3.28303305796
9.57262 10000000018239434 10000000018239433 10000000018239452 3.08482263583
9.58553 10000000018239433 10000000018239432 10000000018239452 3.00813107163
9.60381 10000000018239432 10000000018239431 10000000018239452 2.89578500573
9.61584 10000000018239431 10000000018239430 10000000018239452 2.73314261732
9.02548 10000000018239616 10000000018239615 10000000018239629 3.93726108473
9.04358 10000000018239615 10000000018239614 10000000018239629 3.70877426464
9.0666 10000000018239614 10000000018239610 10000000018239629 3.00813107163
9.08578 10000000018239610 10000000018239609 10000000018239629 2.89578500573
9.08578 10000000018239609 10000000018239607 10000000018239629 2.5772902716
9.09111 10000000018239607 10000000018239604 10000000018239629 2.20792547238
9.09898 10000000018239604 10000000018239603 10000000018239629 2.1032696526
9.10157 10000000018239603 10000000018239601 10000000018239629 1.90408954353
9.11179 10000000018239601 10000000018239600 10000000018239629 1.82268925262
9.11681 10000000018239600 10000000018239598 10000000018239629 1.66666955611
9.12912 10000000018239598 10000000018239596 10000000018239629 1.53123902916
9.12912 10000000018239596 10000000018239595 10000000018239629 1.47197484527
9.13154 10000000018239595 10000000018239592 10000000018239629 1.30237845991
9.17729 10000000018239592 10000000018239589 10000000018239629 1.15460271236
9.18162 10000000018239589 10000000018239588 10000000018239629 1.11415056377
9.04945 10000000018239870 10000000018239869 10000000018239881 4.99593346816
9.05524 10000000018239869 10000000018239868 10000000018239881 4.93938066349
9.10926 10000000018239868 10000000018239867 10000000018239881 4.66451770247
9.12178 10000000018239867 10000000018239866 10000000018239881 4.42803373661
9.16407 10000000018239866 10000000018239865 10000000018239881 4.17683491473
9.18376 10000000018239865 10000000018239864 10000000018239881 4.00794511147
9.21869 10000000018239864 10000000018239863 10000000018239881 3.93726108473
9.25466 10000000018239863 10000000018239862 10000000018239881 3.70877426464
9.34902 10000000018239862 10000000018239861 10000000018239881 3.49086136926
9.38141 10000000018239861 10000000018239859 10000000018239881 3.08482263583
9.47396 10000000018239859 10000000018239858 10000000018239881 3.00813107163
9.56201 10000000018239858 10000000018239856 10000000018239881 2.73314261732
9.0066 10000000018240043 10000000018240042 10000000018240052 4.93938066349
9.10157 10000000018240042 10000000018240040 10000000018240052 4.42803373661
9.11431 10000000018240040 10000000018240034 10000000018240052 3.28303305796
9.17073 10000000018240034 10000000018240033 10000000018240052 3.08482263583
9.21072 10000000018240033 10000000018240031 10000000018240052 2.89578500573
9.21671 10000000018240031 10000000018240030 10000000018240052 2.73314261732
9.23799 10000000018240030 10000000018240029 10000000018240052 2.5772902716
9.05524 10000000018240261 10000000018240260 10000000018240267 6.14490120342
9.09375 10000000018240260 10000000018240257 10000000018240267 5.52976580795
9.10157 10000000018240257 10000000018240256 10000000018240267 5.22758097313
9.12424 10000000018240256 10000000018240255 10000000018240267 4.99593346816
9.2026 10000000018240255 10000000018240252 10000000018240267 4.42803373661
9.2862 10000000018240252 10000000018240250 10000000018240267 4.00794511147
9.32958 10000000018240250 10000000018240248 10000000018240267 3.70877426464
9.43136 10000000018240248 10000000018240246 10000000018240267 3.28303305796
9.02239 10000000018240333 10000000018240332 10000000018240343 2.31611074396
9.04358 10000000018240332 10000000018240331 10000000018240343 2.20792547238
9.08578 10000000018240331 10000000018240326 10000000018240343 1.74357057433
9.0066 10000000018240518 10000000018240517 10000000018240531 4.00794511147
9.11681 10000000018240517 10000000018240516 10000000018240531 3.93726108473
9.16407 10000000018240516 10000000018240515 10000000018240531 3.70877426464
9.22457 10000000018240515 10000000018240514 10000000018240531 3.49086136926
9.30923 10000000018240514 10000000018240513 10000000018240531 3.28303305796
9.43856 10000000018240513 10000000018240512 10000000018240531 3.08482263583
9.50669 10000000018240512 10000000018240511 10000000018240531 3.00813107163
9.54465 10000000018240511 10000000018240510 10000000018240531 2.89578500573
9.57523 10000000018240510 10000000018240508 10000000018240531 2.5772902716
9.00337 10000000018240609 10000000018240608 10000000018240639 1.66666955611
9.25101 10000000018240778 10000000018240777 10000000018240787 2.89578500573
9.39871 10000000018240777 10000000018240769 10000000018240787 1.90408954353
9.43737 10000000018240769 10000000018240768 10000000018240787 1.82268925262
9.44914 10000000018240768 10000000018240767 10000000018240787 1.74357057433
9.48049 10000000018240767 10000000018240766 10000000018240787 1.66666955611
9.49116 10000000018240766 10000000018240762 10000000018240787 1.41409822037
9.36056 10000000018240803 10000000018240802 10000000018240808 2.00202813925
