logMh | fpID | subhaloID | main leaf ID | descID |  z
9.04653 80000245100000094 80000245100000093 80000245100000099 80000245100000092 7.00541704554 1.24807 1.92326 3.20573
9.05811 80000245100000093 80000245100000092 80000245100000099 80000245100000091 6.85511726265 1.84941 2.42421 2.64806
9.10671 80000245100000092 80000245100000091 80000245100000099 80000245100000090 6.49159774567 0.386501 2.42467 2.44141
9.22066 80000245100000091 80000245100000090 80000245100000099 80000245100000089 6.14490120342 1.08823 -6.03548 -2.42183
9.23799 80000245100000090 80000245100000089 80000245100000099 80000245100000088 6.01075739884 -0.630805 -6.59068 -2.4222
9.24733 80000245100000089 80000245100000088 80000245100000099 80000245100000087 5.84661374788 -0.0852471 -7.01974 -3.56267
9.25648 80000245100000088 80000245100000087 80000245100000099 80000245100000086 5.52976580795 0.764476 -6.76641 -3.23154
9.32342 80000245100000087 80000245100000086 80000245100000099 80000245100000085 5.22758097313 -0.28909 -7.09767 -2.98213
9.37869 80000245100000086 80000245100000085 80000245100000099 80000245100000084 4.99593346816 -3.32548 -7.35473 -3.11836
9.38948 80000245100000085 80000245100000084 80000245100000099 80000245100000083 4.93938066349 -1.50071 -6.89159 -5.52911
9.42404 80000245100000084 80000245100000083 80000245100000099 80000245100000082 4.66451770247 -1.8416 -6.51393 -5.09472
9.46844 80000245100000083 80000245100000082 80000245100000099 80000245100000081 4.42803373661 1.46833 -8.33772 -2.87811
9.53618 80000245100000082 80000245100000081 80000245100000099 80000245100000080 4.17683491473 1.09558 -17.9882 -6.73661
9.60218 80000245100000081 80000245100000078 80000245100000099 80000245100000077 3.70877426464 -14.5178 -25.1645 -22.3659
9.6623 80000245100000078 80000245100000077 80000245100000099 80000245100000076 3.49086136926 5.81363 -22.9088 -21.2794
9.72691 80000245100000077 80000245100000076 80000245100000099 80000245100000075 3.28303305796 8.369 -28.9255 -25.106
9.78742 80000245100000076 80000245100000075 80000245100000099 80000245100000074 3.08482263583 25.5255 -27.9092 -15.6416
9.84847 80000245100000075 80000245100000074 80000245100000099 80000245100000073 3.00813107163 45.163 -23.9576 -3.12178
9.88571 80000245100000074 80000245100000073 80000245100000099 80000245100000072 2.89578500573 40.3089 -28.6314 -0.289016
9.96546 80000245100000073 80000245100000072 80000245100000099 80000245100000071 2.73314261732 34.4511 -14.8559 -24.8944
10.0834 80000245100000072 80000245100000071 80000245100000099 80000245100000070 2.5772902716 40.0554 6.58864 -21.0494
10.2048 80000245100000071 80000245100000070 80000245100000099 80000245100000069 2.44422570455 62.0292 -2.95447 -34.4922
10.2319 80000245100000070 80000245100000069 80000245100000099 80000245100000068 2.31611074396 53.5232 -20.225 -20.5973
10.3743 80000245100000069 80000245100000068 80000245100000099 80000245100000067 2.20792547238 69.7348 -49.633 -59.0798
10.3859 80000245100000068 80000245100000066 80000245100000099 80000245100000065 2.00202813925 105.286 -65.6387 -53.3667
10.421 80000245100000066 80000245100000064 80000245100000099 80000245100000063 1.82268925262 75.7807 -81.9766 -43.4373
10.5157 80000245100000064 80000245100000057 80000245100000099 80000245100000056 1.3575766674 95.4827 -64.4589 -54.611
10.5941 80000245100000057 80000245100000056 80000245100000099 80000245100000055 1.30237845991 71.3244 -89.3162 -79.1173
10.6213 80000245100000056 80000245100000055 80000245100000099 80000245100000054 1.24847261425 44.0742 -66.6825 -108.805
10.7895 80000245100000055 80000245100000054 80000245100000099 80000245100000053 1.20625808078 -121.859 -152.248 -270.924
11.0249 80000245100000054 80000245100000051 80000245100000099 80000245100000050 1.07445789455 -190.146 -199.152 -134.477
11.0588 80000245100000051 80000245100000050 80000245100000099 80000245100000049 1.03551044566 -233.844 -252.766 -87.3627
11.2657 80000245100000050 80000245100000046 80000245100000099 80000245100000045 0.923000816178 -387.759 -263.547 84.1303
11.3073 80000245100000046 80000245100000045 80000245100000099 80000245100000044 0.886896937575 -398.048 -298.697 106.558
11.3364 80000245100000045 80000245100000044 80000245100000099 80000245100000043 0.851470900625 -471.441 -274.203 115.902
11.3412 80000245100000044 80000245100000043 80000245100000099 80000245100000042 0.816709979012 -558.226 -257.076 161.406
11.3745 80000245100000043 80000245100000038 80000245100000099 80000245100000037 0.676110411213 -542.355 -231.082 137.28
11.3785 80000245100000038 80000245100000020 80000245100000099 80000245100000019 0.273353346578 -283.84 -181.275 175.672
11.3825 80000245100000020 80000245100000019 80000245100000099 80000245100000018 0.261343256161 -307.045 -176.352 152.27
11.3891 80000245100000019 80000245100000018 80000245100000099 80000245100000017 0.243540181555 -305.447 -173.591 151.72
11.3921 80000245100000018 80000245100000017 80000245100000099 80000245100000016 0.22598838626 -305.408 -170.946 156.576
11.4032 80000245100000017 80000245100000016 80000245100000099 80000245100000015 0.214425035514 -301.951 -178.271 170.196
11.4105 80000245100000016 80000245100000015 80000245100000099 80000245100000014 0.197284182376 -317.424 -190.081 169.553
11.4122 80000245100000015 80000245100000014 80000245100000099 80000245100000013 0.180385261706 -300.043 -184.624 173.091
11.4169 80000245100000014 80000245100000013 80000245100000099 80000245100000012 0.169252033244 -310.143 -188.105 177.125
11.4252 80000245100000013 80000245100000012 80000245100000099 80000245100000011 0.152748768902 -294.406 -201.821 183.643
11.4274 80000245100000012 80000245100000011 80000245100000099 80000245100000010 0.14187620397 -286.962 -191.855 170.469
11.4303 80000245100000011 80000245100000010 80000245100000099 80000245100000009 0.125759332411 -297.342 -191.467 183.393
11.4353 80000245100000010 80000245100000009 80000245100000099 80000245100000008 0.109869940459 -320.465 -196.628 192.871
11.4411 80000245100000009 80000245100000008 80000245100000099 80000245100000007 0.0994018026302 -307.666 -210.472 215.137
11.4432 80000245100000008 80000245100000007 80000245100000099 80000245100000006 0.0838844307975 -303.048 -199.539 212.419
11.444 80000245100000007 80000245100000006 80000245100000099 80000245100000005 0.0736613846564 -303.698 -204.436 211.763
11.4493 80000245100000006 80000245100000005 80000245100000099 80000245100000004 0.0585073227945 -291.716 -179.9 211.916
11.4532 80000245100000005 80000245100000004 80000245100000099 80000245100000003 0.0485236299818 -292.382 -179.712 215.03
11.4574 80000245100000004 80000245100000003 80000245100000099 80000245100000002 0.0337243718735 -287.712 -172.955 204.462
11.4599 80000245100000003 80000245100000002 80000245100000099 80000245100000001 0.0239744283828 -280.424 -176.184 208.995
11.4622 80000245100000002 80000245100000001 80000245100000099 80000245100000000 0.00952166696794 -295.031 -163.683 211.517
11.4642 80000245100000001 80000245100000000 80000245100000099 -1 2.22044604925e-16 -276.437 -166.995 207.974
9.14811 80000245100000151 80000245100000150 80000245100000157 80000245100000149 4.17683491473 -11.9111 4.69828 1.63613
9.21272 80000245100000150 80000245100000149 80000245100000157 80000245100000148 4.00794511147 -8.10043 12.4129 1.60473
9.2742 80000245100000149 80000245100000147 80000245100000157 80000245100000146 3.70877426464 -3.73719 16.3545 6.61587
9.04062 80000245100000199 80000245100000198 80000245100000206 80000245100000197 5.52976580795 -3.07202 0.520541 7.75526
9.10157 80000245100000198 80000245100000197 80000245100000206 80000245100000196 5.22758097313 1.16193 0.239841 5.94492
9.2845 80000245100000197 80000245100000196 80000245100000206 80000245100000195 4.99593346816 -0.112925 -7.33026 16.3617
9.34016 80000245100000196 80000245100000195 80000245100000206 80000245100000194 4.93938066349 4.13595 -13.2111 23.2255
9.42649 80000245100000195 80000245100000194 80000245100000206 80000245100000193 4.66451770247 6.59659 -5.78786 17.6584
9.49848 80000245100000194 80000245100000192 80000245100000206 80000245100000191 4.17683491473 8.21822 -11.7458 19.3025
9.51575 80000245100000192 80000245100000191 80000245100000206 80000245100000190 4.00794511147 10.3487 -11.0272 18.4018
9.53713 80000245100000191 80000245100000190 80000245100000206 80000245100000189 3.93726108473 8.02055 -13.1712 23.5032
9.58638 80000245100000190 80000245100000189 80000245100000206 80000245100000188 3.70877426464 3.49049 -5.46813 15.2748
9.60462 80000245100000189 80000245100000188 80000245100000206 80000245100000187 3.49086136926 6.61736 -6.61725 19.0876
9.71132 80000245100000188 80000245100000187 80000245100000206 80000245100000186 3.28303305796 -11.0441 -20.01 31.1715
9.72012 80000245100000187 80000245100000186 80000245100000206 80000245100000185 3.08482263583 -3.71682 -17.1017 18.8407
9.74018 80000245100000186 80000245100000185 80000245100000206 80000245100000184 3.00813107163 -6.60986 -18.6256 15.7664
9.77608 80000245100000185 80000245100000184 80000245100000206 80000245100000183 2.89578500573 -4.6936 -20.2799 15.1604
10.4045 80000245100000184 80000245100000176 80000245100000206 80000245100000063 1.90408954353 109.867 -76.8158 -45.1022
10.4171 80000245100000225 80000245100000224 80000245100000227 80000245100000060 1.60423452207 96.9811 -80.7351 -9.6177
9.01298 80000245100000273 80000245100000272 80000245100000278 80000245100000271 6.49159774567 2.17978 0.377439 -6.89787
9.06939 80000245100000272 80000245100000271 80000245100000278 80000245100000270 6.14490120342 -1.41539 1.43597 -7.17567
9.13634 80000245100000271 80000245100000270 80000245100000278 80000245100000269 6.01075739884 -5.18484 2.78854 -6.89562
9.19848 80000245100000270 80000245100000269 80000245100000278 80000245100000268 5.84661374788 -2.50536 13.2069 -12.245
9.2742 80000245100000269 80000245100000268 80000245100000278 80000245100000267 5.52976580795 3.90457 11.9403 -13.8278
9.37042 80000245100000268 80000245100000267 80000245100000278 80000245100000266 5.22758097313 2.80992 19.833 -11.2923
9.39478 80000245100000267 80000245100000266 80000245100000278 80000245100000265 4.99593346816 -2.03823 22.2683 -10.4136
9.42404 80000245100000266 80000245100000264 80000245100000278 80000245100000263 4.66451770247 1.75765 20.6099 -13.3973
9.44681 80000245100000264 80000245100000263 80000245100000278 80000245100000262 4.42803373661 0.0526575 12.2093 -13.1116
9.49848 80000245100000263 80000245100000262 80000245100000278 80000245100000261 4.17683491473 -0.782851 19.7451 -9.64823
9.53236 80000245100000262 80000245100000261 80000245100000278 80000245100000260 4.00794511147 -2.00803 21.0904 -12.785
9.54372 80000245100000261 80000245100000260 80000245100000278 80000245100000259 3.93726108473 -6.26079 23.8517 -13.6879
9.56379 80000245100000260 80000245100000259 80000245100000278 80000245100000258 3.70877426464 -7.75734 29.3104 -8.23087
9.57262 80000245100000259 80000245100000258 80000245100000278 80000245100000257 3.49086136926 -10.879 28.9749 -8.18886
9.62056 80000245100000258 80000245100000257 80000245100000278 80000245100000256 3.28303305796 -15.0851 39.2468 4.48349
9.70941 80000245100000257 80000245100000256 80000245100000278 80000245100000255 3.08482263583 -8.90714 37.2214 -1.49952
9.75708 80000245100000256 80000245100000255 80000245100000278 80000245100000254 3.00813107163 -10.0467 38.381 -4.18019
9.75708 80000245100000255 80000245100000254 80000245100000278 80000245100000253 2.89578500573 -14.364 43.5766 -4.4445
9.83291 80000245100000254 80000245100000253 80000245100000278 80000245100000252 2.73314261732 -7.86414 44.9883 8.72006
10.3715 80000245100000253 80000245100000248 80000245100000278 80000245100000247 2.1032696526 43.5756 -29.8922 -44.302
9.12178 80000245100000397 80000245100000396 80000245100000404 80000245100000395 7.23627606617 0.169448 -11.457 9.80266
9.23037 80000245100000396 80000245100000393 80000245100000404 80000245100000392 6.49159774567 -4.12704 -10.5982 8.73364
9.2742 80000245100000393 80000245100000392 80000245100000404 80000245100000391 6.14490120342 -2.08328 0.988926 13.6294
9.34756 80000245100000392 80000245100000390 80000245100000404 80000245100000389 5.84661374788 -6.8657 -6.31024 1.63822
9.34902 80000245100000390 80000245100000389 80000245100000404 80000245100000388 5.52976580795 -6.1097 -9.97143 7.61418
9.41784 80000245100000389 80000245100000388 80000245100000404 80000245100000387 5.22758097313 -7.33065 -8.50789 2.86569
9.43257 80000245100000388 80000245100000386 80000245100000404 80000245100000385 4.93938066349 -5.58292 -11.1794 -0.00495937
9.4549 80000245100000386 80000245100000385 80000245100000404 80000245100000384 4.66451770247 -5.09006 -5.13616 1.41575
9.50567 80000245100000385 80000245100000384 80000245100000404 80000245100000383 4.42803373661 -11.5015 -6.71513 -0.598711
9.56646 80000245100000384 80000245100000383 80000245100000404 80000245100000382 4.17683491473 -11.2606 -3.86128 -0.668904
9.58638 80000245100000383 80000245100000382 80000245100000404 80000245100000381 4.00794511147 -8.16657 -7.01877 -4.62642
9.59059 80000245100000382 80000245100000381 80000245100000404 80000245100000380 3.93726108473 -7.50612 -7.43859 -6.53168
9.60462 80000245100000381 80000245100000380 80000245100000404 80000245100000379 3.70877426464 -8.49721 -7.32804 -2.47779
9.60705 80000245100000380 80000245100000377 80000245100000404 80000245100000376 3.08482263583 -5.12639 -5.67255 -1.39681
9.63061 80000245100000377 80000245100000376 80000245100000404 80000245100000375 3.00813107163 -5.17179 -3.57053 -3.74765
9.81877 80000245100000376 80000245100000374 80000245100000404 80000245100000373 2.73314261732 -37.1718 -6.32953 -3.19312
9.89204 80000245100000374 80000245100000373 80000245100000404 80000245100000372 2.5772902716 -42.2479 -14.0979 -2.30422
10.1598 80000245100000373 80000245100000372 80000245100000404 80000245100000371 2.44422570455 -125.515 -1.91536 -28.113
10.241 80000245100000372 80000245100000371 80000245100000404 80000245100000370 2.31611074396 -137.398 -4.56853 -35.8665
10.2558 80000245100000371 80000245100000369 80000245100000404 80000245100000368 2.1032696526 -134.175 -0.727863 -24.1826
10.2835 80000245100000369 80000245100000368 80000245100000404 80000245100000367 2.00202813925 -122.43 -1.18595 -29.0804
11.1193 80000245100000368 80000245100000350 80000245100000404 80000245100000349 0.987852810816 -299.17 -272.883 76.9775
11.1608 80000245100000350 80000245100000349 80000245100000404 80000245100000046 0.950531351585 -417.363 -242.745 146.884
9.08578 80000245100000435 80000245100000434 80000245100000443 80000245100000433 5.52976580795 3.21159 -9.8376 5.81141
9.17512 80000245100000434 80000245100000433 80000245100000443 80000245100000432 5.22758097313 0.434107 -6.66174 10.807
9.19433 80000245100000433 80000245100000432 80000245100000443 80000245100000431 4.99593346816 -8.36051 -6.98243 5.86672
9.22651 80000245100000432 80000245100000431 80000245100000443 80000245100000430 4.93938066349 -9.594 -6.78851 7.55187
9.2672 80000245100000431 80000245100000430 80000245100000443 80000245100000429 4.66451770247 -0.560584 -3.38947 2.52873
9.34313 80000245100000430 80000245100000429 80000245100000443 80000245100000428 4.42803373661 -4.99444 -4.50188 10.0668
9.44211 80000245100000429 80000245100000428 80000245100000443 80000245100000427 4.17683491473 -5.94089 -9.56293 13.4173
9.45376 80000245100000428 80000245100000427 80000245100000443 80000245100000426 4.00794511147 -11.3372 -8.74475 14.6396
9.45833 80000245100000427 80000245100000426 80000245100000443 80000245100000425 3.93726108473 -8.03699 -6.23117 15.3147
9.58127 80000245100000426 80000245100000422 80000245100000443 80000245100000421 3.08482263583 -30.01 3.03702 -0.211712
9.64785 80000245100000422 80000245100000421 80000245100000443 80000245100000420 3.00813107163 -47.623 3.02978 -13.0657
9.69184 80000245100000421 80000245100000420 80000245100000443 80000245100000419 2.89578500573 -46.5847 0.968007 -17.8129
9.05235 80000245100000473 80000245100000472 80000245100000485 80000245100000471 4.42803373661 0.767857 -7.59464 -7.8597
9.12912 80000245100000472 80000245100000470 80000245100000485 80000245100000469 4.00794511147 2.80007 -6.89174 -8.9908
9.14344 80000245100000470 80000245100000469 80000245100000485 80000245100000468 3.93726108473 3.40646 -8.61496 -9.28586
9.15956 80000245100000469 80000245100000468 80000245100000485 80000245100000467 3.70877426464 4.5622 -7.73648 -9.81692
9.2342 80000245100000468 80000245100000467 80000245100000485 80000245100000466 3.49086136926 2.49913 -10.0462 -7.5306
9.2342 80000245100000467 80000245100000466 80000245100000485 80000245100000465 3.28303305796 -0.443099 -8.35411 -5.68165
9.25466 80000245100000466 80000245100000465 80000245100000485 80000245100000464 3.08482263583 -0.14422 -10.1004 -7.31926
9.2845 80000245100000465 80000245100000463 80000245100000485 80000245100000462 2.89578500573 1.75701 -9.19694 -5.48516
9.03463 80000245100000499 80000245100000498 80000245100000515 80000245100000497 3.93726108473 -3.64405 -10.6839 3.4826
9.33415 80000245100000498 80000245100000497 80000245100000515 80000245100000496 3.70877426464 -4.11366 -20.8367 16.1003
9.38277 80000245100000497 80000245100000496 80000245100000515 80000245100000495 3.49086136926 -4.72235 -20.5247 13.7415
9.41659 80000245100000496 80000245100000495 80000245100000515 80000245100000494 3.28303305796 -6.01418 -15.6538 9.86866
9.03763 80000245100000564 80000245100000563 80000245100000572 80000245100000562 5.52976580795 -8.37757 -2.64046 -1.26078
9.11681 80000245100000563 80000245100000562 80000245100000572 80000245100000561 5.22758097313 -6.46448 -2.83979 4.2408
9.12178 80000245100000562 80000245100000559 80000245100000572 80000245100000558 4.66451770247 -4.18148 -6.69246 2.52609
9.16407 80000245100000559 80000245100000558 80000245100000572 80000245100000557 4.42803373661 -9.53668 -8.13938 0.397289
9.17512 80000245100000558 80000245100000557 80000245100000572 80000245100000556 4.17683491473 -9.20171 -9.52191 1.20863
9.2026 80000245100000557 80000245100000556 80000245100000572 80000245100000555 4.00794511147 -6.86666 -6.74473 -1.65768
9.22651 80000245100000556 80000245100000554 80000245100000572 80000245100000553 3.70877426464 -7.63872 -6.61277 -2.04958
9.24175 80000245100000554 80000245100000552 80000245100000572 80000245100000551 3.28303305796 -7.20853 -4.49429 1.64691
9.24175 80000245100000552 80000245100000550 80000245100000572 80000245100000549 3.00813107163 -6.31672 -0.480223 1.8881
9.10926 80000245100000677 80000245100000676 80000245100000690 80000245100000675 2.73314261732 1.45221 -3.17736 -8.67889
9.15956 80000245100000676 80000245100000675 80000245100000690 80000245100000674 2.5772902716 -4.8451 -4.46733 -12.7715
9.01614 80000245100000969 80000245100000968 80000245100000975 80000245100000967 7.00541704554 2.39411 1.66507 -6.54276
9.08309 80000245100000968 80000245100000966 80000245100000975 80000245100000965 6.49159774567 3.05481 -2.94934 -1.36876
9.20055 80000245100000966 80000245100000964 80000245100000975 80000245100000963 6.01075739884 5.86225 -16.023 2.0333
9.3156 80000245100000964 80000245100000962 80000245100000975 80000245100000961 5.52976580795 2.3916 -10.1759 5.07696
9.34165 80000245100000962 80000245100000961 80000245100000975 80000245100000960 5.22758097313 4.45897 -8.31565 1.81858
9.45719 80000245100000961 80000245100000960 80000245100000975 80000245100000959 4.99593346816 6.78019 -5.09211 6.31736
9.48157 80000245100000960 80000245100000959 80000245100000975 80000245100000958 4.93938066349 5.18372 -10.0192 8.88072
9.60381 80000245100000959 80000245100000958 80000245100000975 80000245100000957 4.66451770247 7.26921 4.8676 13.8234
9.67214 80000245100000958 80000245100000957 80000245100000975 80000245100000956 4.42803373661 18.3197 -8.48846 3.83858
9.69778 80000245100000957 80000245100000956 80000245100000975 80000245100000955 4.17683491473 15.5502 2.84136 7.34091
9.75879 80000245100000956 80000245100000955 80000245100000975 80000245100000954 4.00794511147 17.3905 2.23657 12.6021
9.78314 80000245100000955 80000245100000954 80000245100000975 80000245100000953 3.93726108473 20.0387 2.35465 10.6592
9.83243 80000245100000954 80000245100000953 80000245100000975 80000245100000952 3.70877426464 13.4922 -5.99338 6.59872
9.91607 80000245100000953 80000245100000952 80000245100000975 80000245100000951 3.49086136926 10.6589 -4.37657 13.5232
9.96863 80000245100000952 80000245100000951 80000245100000975 80000245100000950 3.28303305796 4.85441 -10.1997 10.0652
10.0193 80000245100000951 80000245100000950 80000245100000975 80000245100000949 3.08482263583 18.7982 -15.6742 12.3926
10.023 80000245100000950 80000245100000949 80000245100000975 80000245100000948 3.00813107163 20.9834 -5.02158 21.6818
10.037 80000245100000949 80000245100000948 80000245100000975 80000245100000947 2.89578500573 24.0879 -12.0881 17.5633
10.0448 80000245100000948 80000245100000947 80000245100000975 80000245100000946 2.73314261732 19.5325 -16.7411 24.2288
10.1589 80000245100000947 80000245100000940 80000245100000975 80000245100000939 1.90408954353 -30.5811 -51.7813 -82.0916
10.3094 80000245100000940 80000245100000939 80000245100000975 80000245100000938 1.82268925262 -66.4363 -127.727 -226.308
10.331 80000245100000939 80000245100000936 80000245100000975 80000245100000935 1.60423452207 -31.5066 -143.903 -219.113
10.3925 80000245100000936 80000245100000934 80000245100000975 80000245100000933 1.47197484527 -37.9356 -189.356 -234.089
10.4555 80000245100000934 80000245100000933 80000245100000975 80000245100000932 1.41409822037 -22.2039 -203.425 -258.423
9.21272 80000245100000977 80000245100000976 80000245100000990 80000245100000962 5.84661374788 4.42992 -15.147 2.03095
9.17073 80000245100001072 80000245100001071 80000245100001081 80000245100001070 5.52976580795 -5.33177 -10.5438 1.81945
9.21272 80000245100001071 80000245100001069 80000245100001081 80000245100001068 4.99593346816 -0.250483 -8.52594 -6.81113
9.26008 80000245100001069 80000245100001067 80000245100001081 80000245100001066 4.66451770247 3.86882 -2.16137 -7.96408
9.39871 80000245100001067 80000245100001066 80000245100001081 80000245100001065 4.42803373661 3.99942 -2.54824 -8.53753
9.4549 80000245100001066 80000245100001065 80000245100001081 80000245100001064 4.17683491473 0.875034 -3.94571 -5.45909
9.53523 80000245100001065 80000245100001064 80000245100001081 80000245100001063 4.00794511147 -0.617499 -13.8338 -14.0282
9.53808 80000245100001064 80000245100001063 80000245100001081 80000245100001062 3.93726108473 -0.559432 -13.3897 -14.1338
9.58891 80000245100001063 80000245100001059 80000245100001081 80000245100001058 3.08482263583 10.2786 -7.04594 -27.1997
9.60136 80000245100001059 80000245100001057 80000245100001081 80000245100001056 2.89578500573 13.6382 -7.32618 -33.4606
9.99782 80000245100001057 80000245100001054 80000245100001081 80000245100001053 2.44422570455 -19.4129 -115.116 -95.9478
10.0558 80000245100001054 80000245100001053 80000245100001081 80000245100001052 2.31611074396 -11.4428 -117.447 -95.4023
10.079 80000245100001053 80000245100001052 80000245100001081 80000245100001051 2.20792547238 -9.12165 -118.072 -89.3834
10.1125 80000245100001052 80000245100001050 80000245100001081 80000245100001049 2.00202813925 -11.1051 -129.47 -95.5465
10.2363 80000245100001050 80000245100001047 80000245100001081 80000245100001046 1.74357057433 -19.228 -168.157 -195.464
10.2508 80000245100001047 80000245100001046 80000245100001081 80000245100001045 1.66666955611 -25.833 -172.175 -196.999
10.3391 80000245100001046 80000245100001044 80000245100001081 80000245100001043 1.53123902916 -40.5655 -203.816 -250.503
9.26365 80000245100001115 80000245100001114 80000245100001123 80000245100001113 3.49086136926 10.0878 -5.08473 -2.95603
9.69118 80000245100001114 80000245100001109 80000245100001123 80000245100001108 2.73314261732 25.3513 -52.5921 6.95976
9.4606 80000245100001171 80000245100001170 80000245100001188 80000245100001169 3.28303305796 -2.18709 -32.9516 -21.6564
9.46621 80000245100001170 80000245100001169 80000245100001188 80000245100001168 3.08482263583 8.43129 -14.7188 -13.2285
9.54836 80000245100001169 80000245100001167 80000245100001188 80000245100001166 2.89578500573 14.5046 -23.7272 -21.1858
9.76892 80000245100001167 80000245100001165 80000245100001188 80000245100001164 2.5772902716 -4.88848 -52.3819 -23.1269
11.1105 80000245100001196 80000245100001195 80000245100001201 80000245100000923 0.997294225782 -233.544 -302.997 -27.3183
9.29457 80000245100001265 80000245100001264 80000245100001271 80000245100001263 7.00541704554 18.4844 19.8817 -5.93354
9.45605 80000245100001264 80000245100001259 80000245100001271 80000245100001258 5.84661374788 1.58207 13.244 -4.23026
9.64119 80000245100001259 80000245100001258 80000245100001271 80000245100001257 5.52976580795 -0.124236 21.7904 10.4841
9.69515 80000245100001258 80000245100001257 80000245100001271 80000245100001256 5.22758097313 -7.34823 19.3808 1.2726
9.76947 80000245100001257 80000245100001256 80000245100001271 80000245100001255 4.99593346816 -10.8609 21.6626 2.08931
9.77058 80000245100001256 80000245100001255 80000245100001271 80000245100001254 4.93938066349 -9.26521 19.2641 3.97587
9.80466 80000245100001255 80000245100001254 80000245100001271 80000245100001253 4.66451770247 -9.17399 17.2782 3.47351
9.84939 80000245100001254 80000245100001253 80000245100001271 80000245100001252 4.42803373661 -3.81115 22.3838 2.45582
9.90686 80000245100001253 80000245100001248 80000245100001271 80000245100001247 3.49086136926 -11.4766 16.5668 1.4555
9.95905 80000245100001248 80000245100001247 80000245100001271 80000245100001246 3.28303305796 -14.5071 24.7749 -13.2562
10.0716 80000245100001247 80000245100001246 80000245100001271 80000245100001245 3.08482263583 -20.6827 27.4433 -23.5457
10.0735 80000245100001246 80000245100001245 80000245100001271 80000245100001244 3.00813107163 -26.953 24.3772 -20.9573
10.1296 80000245100001245 80000245100001243 80000245100001271 80000245100001242 2.73314261732 -20.1672 29.6685 -21.8625
10.1742 80000245100001243 80000245100001242 80000245100001271 80000245100001241 2.5772902716 -13.98 23.1712 -16.1972
10.2315 80000245100001242 80000245100001241 80000245100001271 80000245100001240 2.44422570455 22.2835 -2.37314 -25.0263
10.2814 80000245100001241 80000245100001240 80000245100001271 80000245100001239 2.31611074396 52.5081 -19.4618 -35.5983
10.3483 80000245100001240 80000245100001239 80000245100001271 80000245100001238 2.20792547238 83.776 -52.9586 -35.4833
10.5093 80000245100001239 80000245100001238 80000245100001271 80000245100001237 2.1032696526 127.747 -194.763 -46.9888
10.5561 80000245100001238 80000245100001237 80000245100001271 80000245100001236 2.00202813925 123.497 -220.331 -45.3332
10.5598 80000245100001237 80000245100001235 80000245100001271 80000245100001234 1.82268925262 115.396 -191.901 -41.9673
10.5943 80000245100001235 80000245100001234 80000245100001271 80000245100001233 1.74357057433 115.103 -209.903 -55.5636
10.6086 80000245100001234 80000245100001233 80000245100001271 80000245100001232 1.66666955611 122.088 -211.646 -55.0666
10.6143 80000245100001233 80000245100001232 80000245100001271 80000245100001231 1.60423452207 116.463 -207.725 -48.9964
10.6639 80000245100001232 80000245100001231 80000245100001271 80000245100001230 1.53123902916 103.815 -186.34 0.68056
10.6755 80000245100001231 80000245100001229 80000245100001271 80000245100001228 1.41409822037 87.4846 -188.512 4.36565
10.6904 80000245100001229 80000245100001228 80000245100001271 80000245100001227 1.3575766674 90.9669 -147.903 16.5185
10.7367 80000245100001228 80000245100001227 80000245100001271 80000245100001226 1.30237845991 38.3783 -84.8581 47.7711
10.879 80000245100001227 80000245100001224 80000245100001271 80000245100001223 1.15460271236 -26.5874 -118.06 144.296
10.886 80000245100001224 80000245100001223 80000245100001271 80000245100001222 1.11415056377 -61.8221 -140.744 75.298
11.3752 80000245100001223 80000245100001213 80000245100001271 80000245100001212 0.791068248946 -649.573 -220.53 157.816
11.3846 80000245100001213 80000245100001212 80000245100001271 80000245100001211 0.757441372616 -607.643 -196.848 144.915
9.1193 80000245100001280 80000245100001279 80000245100001282 80000245100001278 6.85511726265 -11.1858 -0.108855 9.54978
9.12424 80000245100001279 80000245100001277 80000245100001282 80000245100001276 6.14490120342 -3.35364 6.89952 0.571527
9.08038 80000245100001286 80000245100001285 80000245100001295 80000245100001284 6.01075739884 5.27695 0.881871 -0.879472
9.04062 80000245100001345 80000245100001344 80000245100001350 80000245100001343 7.00541704554 -3.25293 -0.418846 0.0430439
9.14108 80000245100001344 80000245100001343 80000245100001350 80000245100001342 6.85511726265 -0.632117 9.34177 5.40048
9.18589 80000245100001343 80000245100001342 80000245100001350 80000245100001341 6.49159774567 -5.06045 8.14915 6.93952
9.19641 80000245100001342 80000245100001341 80000245100001350 80000245100001340 6.14490120342 -1.87404 8.30809 6.63251
9.21472 80000245100001341 80000245100001339 80000245100001350 80000245100001338 5.84661374788 -0.929694 7.93138 7.01164
9.25284 80000245100001339 80000245100001334 80000245100001350 80000245100001333 4.66451770247 -8.0759 8.81985 31.6338
9.04062 80000245100001373 80000245100001372 80000245100001386 80000245100001371 3.28303305796 5.95667 4.01884 9.41078
9.20055 80000245100001372 80000245100001368 80000245100001386 80000245100001367 2.73314261732 -3.34927 2.82731 28.2223
9.03763 80000245100001473 80000245100001472 80000245100001480 80000245100001471 7.59510714987 1.99245 -7.92788 -0.751457
9.04945 80000245100001472 80000245100001471 80000245100001480 80000245100001470 7.23627606617 0.434425 -11.2846 -2.48477
9.08038 80000245100001471 80000245100001470 80000245100001480 80000245100001469 7.00541704554 2.58688 -10.352 0.274936
9.09111 80000245100001470 80000245100001469 80000245100001480 80000245100001468 6.85511726265 1.83817 -10.7215 -0.702486
9.15502 80000245100001469 80000245100001468 80000245100001480 80000245100001467 6.49159774567 0.670683 -6.84338 -0.0265545
9.18589 80000245100001468 80000245100001467 80000245100001480 80000245100001466 6.14490120342 0.121186 -4.88618 1.19984
9.21472 80000245100001467 80000245100001466 80000245100001480 80000245100001465 6.01075739884 1.56439 -5.78171 0.48851
9.2342 80000245100001466 80000245100001464 80000245100001480 80000245100001463 5.52976580795 0.328609 -2.9958 -0.828362
9.32651 80000245100001464 80000245100001463 80000245100001480 80000245100001462 5.22758097313 -0.953728 -2.81151 -1.27471
9.33866 80000245100001463 80000245100001462 80000245100001480 80000245100001461 4.99593346816 1.08418 2.0944 -0.125108
9.34313 80000245100001462 80000245100001461 80000245100001480 80000245100001460 4.93938066349 2.74466 0.523383 -0.35153
9.37732 80000245100001461 80000245100001460 80000245100001480 80000245100001459 4.66451770247 2.09072 -1.93351 -3.01243
9.43136 80000245100001460 80000245100001459 80000245100001480 80000245100001458 4.42803373661 2.01345 2.02226 -4.91676
9.45261 80000245100001459 80000245100001458 80000245100001480 80000245100001457 4.17683491473 10.4043 -2.07637 -14.1021
9.51972 80000245100001458 80000245100001457 80000245100001480 80000245100001456 4.00794511147 9.61792 11.0755 -0.3234
9.54744 80000245100001457 80000245100001456 80000245100001480 80000245100001455 3.93726108473 9.95745 11.4549 -1.08716
9.70685 80000245100001456 80000245100001455 80000245100001480 80000245100001454 3.70877426464 16.8975 35.8083 10.1983
9.7678 80000245100001455 80000245100001454 80000245100001480 80000245100001453 3.49086136926 17.1418 31.4913 -0.201184
9.87626 80000245100001454 80000245100001453 80000245100001480 80000245100001452 3.28303305796 15.0634 38.3418 -0.468121
9.8891 80000245100001453 80000245100001452 80000245100001480 80000245100001451 3.08482263583 14.7712 34.6982 1.34844
9.91009 80000245100001452 80000245100001451 80000245100001480 80000245100001450 3.00813107163 13.7696 31.7228 7.01326
9.96793 80000245100001451 80000245100001450 80000245100001480 80000245100001449 2.89578500573 20.0756 25.1677 -25.8139
10.0108 80000245100001450 80000245100001449 80000245100001480 80000245100001448 2.73314261732 22.6836 7.39091 -44.5456
9.11681 80000245100001511 80000245100001510 80000245100001515 80000245100001509 4.99593346816 0.583256 4.93211 12.5669
9.2087 80000245100001510 80000245100001508 80000245100001515 80000245100001507 4.66451770247 1.10583 3.91735 9.88091
9.00012 80000245100001523 80000245100001522 80000245100001531 80000245100001521 3.28303305796 -16.5008 -4.57358 18.1311
9.02239 80000245100001568 80000245100001567 80000245100001581 80000245100001566 6.14490120342 2.12931 3.80129 1.14325
9.08309 80000245100001567 80000245100001563 80000245100001581 80000245100001562 5.22758097313 1.11536 7.00918 -6.60845
9.1193 80000245100001563 80000245100001562 80000245100001581 80000245100001561 4.99593346816 -0.250489 0.337616 -3.45145
9.17293 80000245100001562 80000245100001560 80000245100001581 80000245100001559 4.66451770247 -0.94658 -4.88608 -3.64997
9.18802 80000245100001560 80000245100001559 80000245100001581 80000245100001558 4.42803373661 -1.71519 0.507477 -2.94157
9.21072 80000245100001559 80000245100001558 80000245100001581 80000245100001557 4.17683491473 2.06828 -0.991057 -3.19304
9.23799 80000245100001558 80000245100001557 80000245100001581 80000245100001556 4.00794511147 2.02523 4.79487 -0.876125
9.25648 80000245100001557 80000245100001556 80000245100001581 80000245100001555 3.93726108473 0.86561 5.01521 1.01524
9.25648 80000245100001556 80000245100001554 80000245100001581 80000245100001553 3.49086136926 -0.536609 3.98305 -3.07873
9.2811 80000245100001554 80000245100001553 80000245100001581 80000245100001552 3.28303305796 1.99199 -4.59355 -0.154445
9.33415 80000245100001553 80000245100001552 80000245100001581 80000245100001551 3.08482263583 -1.40997 -0.924223 1.61988
9.05811 80000245100001586 80000245100001585 80000245100001586 80000245100001563 5.52976580795 2.54152 8.58554 -0.825812
9.03763 80000245100001649 80000245100001648 80000245100001674 80000245100001647 1.30237845991 -1.03263 19.4418 -18.1096
9.04653 80000245100001879 80000245100001878 80000245100001884 80000245100001877 4.42803373661 17.449 -2.80015 7.04433
9.08038 80000245100001878 80000245100001876 80000245100001884 80000245100001875 4.00794511147 15.5719 -4.13454 1.39623
9.11179 80000245100001876 80000245100001874 80000245100001884 80000245100001873 3.70877426464 0.287466 0.617223 0.586465
9.18376 80000245100001874 80000245100001868 80000245100001884 80000245100001867 2.73314261732 -7.18545 -9.92624 2.52849
9.10157 80000245100001950 80000245100001949 80000245100001963 80000245100001948 3.49086136926 28.5003 2.01883 -3.20251
9.10671 80000245100001949 80000245100001946 80000245100001963 80000245100001945 3.00813107163 23.4547 4.2911 -3.89978
9.13634 80000245100001946 80000245100001944 80000245100001963 80000245100001943 2.73314261732 16.8994 5.86754 1.13085
9.13634 80000245100001944 80000245100001943 80000245100001963 80000245100001942 2.5772902716 16.0069 2.984 1.03286
9.18589 80000245100001943 80000245100001941 80000245100001963 80000245100001940 2.31611074396 16.3416 3.96479 4.64683
9.20668 80000245100001941 80000245100001940 80000245100001963 80000245100001939 2.20792547238 19.6277 5.90579 4.06186
9.24175 80000245100001940 80000245100001936 80000245100001963 80000245100001935 1.82268925262 15.7027 5.84793 -0.0627013
9.26008 80000245100001936 80000245100001932 80000245100001963 80000245100001931 1.53123902916 17.289 4.91801 2.53082
9.2672 80000245100001932 80000245100001930 80000245100001963 80000245100001929 1.41409822037 19.9856 5.68665 0.72763
9.29124 80000245100001930 80000245100001929 80000245100001963 80000245100001928 1.3575766674 17.9319 10.2923 1.83955
9.03763 80000245100002041 80000245100002040 80000245100002054 80000245100002039 5.22758097313 1.69401 1.28264 5.16515
9.07216 80000245100002040 80000245100002039 80000245100002054 80000245100002038 4.99593346816 3.03778 1.63444 4.29794
9.07216 80000245100002039 80000245100002035 80000245100002054 80000245100002034 4.17683491473 -3.62426 -3.88848 2.76099
9.15042 80000245100002035 80000245100002034 80000245100002054 80000245100002033 4.00794511147 2.04626 -4.62766 1.02173
9.26365 80000245100002034 80000245100002032 80000245100002054 80000245100002031 3.70877426464 13.4567 -10.5465 -8.58493
9.37181 80000245100002032 80000245100002031 80000245100002054 80000245100002030 3.49086136926 10.8024 -8.24577 -12.5052
9.3974 80000245100002031 80000245100002029 80000245100002054 80000245100002028 3.08482263583 12.1064 -8.81458 -15.7551
9.40902 80000245100002029 80000245100002028 80000245100002054 80000245100002027 3.00813107163 14.18 -5.97439 -16.7276
9.47396 80000245100002028 80000245100002026 80000245100002054 80000245100002025 2.73314261732 13.1192 -7.09286 -3.59017
9.48905 80000245100002026 80000245100002025 80000245100002054 80000245100002024 2.5772902716 13.3331 -7.38077 -5.25405
9.50872 80000245100002025 80000245100002023 80000245100002054 80000245100002022 2.31611074396 9.37164 6.27923 1.9858
9.58127 80000245100002023 80000245100002022 80000245100002054 80000245100002021 2.20792547238 9.85136 28.3766 12.1324
9.58213 80000245100002022 80000245100002017 80000245100002054 80000245100002016 1.74357057433 12.3251 -5.59901 -9.04893
9.59227 80000245100002017 80000245100002016 80000245100002054 80000245100002015 1.66666955611 7.29727 2.44953 -1.95851
9.66866 80000245100002068 80000245100002067 80000245100002069 80000245100002066 0.524565820434 -12.4471 -16.9743 -4.97303
9.68784 80000245100002067 80000245100002066 80000245100002069 80000245100002065 0.503047523245 -10.5682 -10.9732 -6.17351
9.00337 80000245100002164 80000245100002163 80000245100002189 80000245100002162 1.24847261425 -7.93331 -18.5898 3.2694
9.03763 80000245100002249 80000245100002248 80000245100002263 80000245100002247 4.42803373661 0.333483 -0.256087 -0.0676891
9.09375 80000245100002248 80000245100002244 80000245100002263 80000245100002243 3.70877426464 2.64478 1.51976 0.256714
9.11681 80000245100002244 80000245100002243 80000245100002263 80000245100002242 3.49086136926 4.08065 1.54239 -0.527033
9.11681 80000245100002243 80000245100002242 80000245100002263 80000245100002241 3.28303305796 5.15603 1.01326 -7.5583
9.17073 80000245100002242 80000245100002241 80000245100002263 80000245100002240 3.08482263583 -0.534098 20.8152 -1.39559
9.2742 80000245100002241 80000245100002239 80000245100002263 80000245100002238 2.89578500573 -7.51253 8.17227 -7.86389
9.30923 80000245100002239 80000245100002236 80000245100002263 80000245100002235 2.44422570455 -11.8623 4.94629 -9.26769
9.42033 80000245100002236 80000245100002234 80000245100002263 80000245100002233 2.20792547238 -21.9655 6.37856 5.66015
9.95725 80000245100002234 80000245100002226 80000245100002263 80000245100002225 1.53123902916 14.4968 -19.742 22.8571
9.95761 80000245100002226 80000245100002225 80000245100002263 80000245100002224 1.47197484527 3.24946 -10.7562 26.9975
9.97004 80000245100002225 80000245100002224 80000245100002263 80000245100002223 1.41409822037 12.6769 -6.72669 14.6788
9.03463 80000245100002280 80000245100002279 80000245100002286 80000245100002278 3.28303305796 19.3091 4.53265 6.40235
9.05811 80000245100002279 80000245100002278 80000245100002286 80000245100002277 3.08482263583 -3.9454 3.62659 3.68923
9.12178 80000245100002278 80000245100002277 80000245100002286 80000245100002276 3.00813107163 11.443 5.54467 1.44096
9.1573 80000245100002277 80000245100002274 80000245100002286 80000245100002273 2.5772902716 -5.04386 -1.45998 10.1679
9.28956 80000245100002274 80000245100002273 80000245100002286 80000245100002272 2.44422570455 -1.70218 -6.27875 20.9012
9.42649 80000245100002273 80000245100002270 80000245100002286 80000245100002269 2.00202813925 1.82397 -11.1779 19.9485
9.69051 80000245100002270 80000245100002268 80000245100002286 80000245100002267 1.82268925262 -9.26761 5.24617 75.5812
9.90034 80000245100002268 80000245100002267 80000245100002286 80000245100002266 1.74357057433 14.5138 -23.8626 23.8835
9.32187 80000245100002298 80000245100002297 80000245100002311 80000245100002270 2.20792547238 -2.83974 -8.78524 16.6352
9.73057 80000245100002327 80000245100002326 80000245100002327 80000245100002325 2.1032696526 -34.1896 -11.0662 84.4555
9.07492 80000245100002349 80000245100002348 80000245100002358 80000245100002347 3.93726108473 13.9675 -5.76036 -3.29849
9.14811 80000245100002348 80000245100002347 80000245100002358 80000245100002346 3.70877426464 15.4613 -7.30927 -3.05863
9.15273 80000245100002347 80000245100002346 80000245100002358 80000245100002345 3.49086136926 11.7948 -6.74734 -3.63211
9.2361 80000245100002346 80000245100002345 80000245100002358 80000245100002344 3.28303305796 11.1108 -8.89728 -1.70577
9.26543 80000245100002345 80000245100002344 80000245100002358 80000245100002343 3.08482263583 5.57653 -7.83656 1.44485
9.26896 80000245100002344 80000245100002343 80000245100002358 80000245100002342 3.00813107163 10.4281 -6.7156 -0.959906
9.2811 80000245100002343 80000245100002342 80000245100002358 80000245100002341 2.89578500573 6.35855 -7.49924 0.0848901
9.2845 80000245100002342 80000245100002341 80000245100002358 80000245100002340 2.73314261732 3.2807 -6.08764 3.13869
9.28956 80000245100002341 80000245100002340 80000245100002358 80000245100002339 2.5772902716 13.2015 -9.02731 3.59814
9.32497 80000245100002340 80000245100002339 80000245100002358 80000245100002338 2.44422570455 13.4297 -7.94912 0.521776
9.85672 80000245100002339 80000245100002331 80000245100002358 80000245100002330 1.66666955611 51.4304 -46.3984 -1.76688
9.93011 80000245100002331 80000245100002330 80000245100002358 80000245100002329 1.60423452207 58.4937 -42.8223 13.1444
9.0066 80000245100002387 80000245100002386 80000245100002393 80000245100002385 4.66451770247 -10.9861 -2.13323 5.60803
9.06939 80000245100002386 80000245100002384 80000245100002393 80000245100002383 4.17683491473 -4.15535 -5.71585 6.24136
9.10415 80000245100002384 80000245100002383 80000245100002393 80000245100002382 4.00794511147 -5.34176 -7.92375 1.26109
9.10926 80000245100002383 80000245100002382 80000245100002393 80000245100002381 3.93726108473 -5.52954 -8.53567 1.01426
9.12668 80000245100002382 80000245100002381 80000245100002393 80000245100002380 3.70877426464 -2.67052 -9.02279 2.48524
9.2026 80000245100002381 80000245100002380 80000245100002393 80000245100002379 3.49086136926 0.290534 -7.09888 -0.266172
9.22651 80000245100002380 80000245100002372 80000245100002393 80000245100002371 2.31611074396 -0.946186 -10.7768 0.469556
9.01614 80000245100002466 80000245100002465 80000245100002480 80000245100002464 3.49086136926 -3.38476 -1.62109 -12.3569
9.02548 80000245100002465 80000245100002464 80000245100002480 80000245100002463 3.28303305796 -3.30838 2.72239 -12.901
9.04653 80000245100002464 80000245100002463 80000245100002480 80000245100002462 3.08482263583 0.164419 3.20206 -6.52991
9.48692 80000245100002463 80000245100002459 80000245100002480 80000245100002458 2.5772902716 -6.21814 -4.80491 6.59972
9.53902 80000245100002459 80000245100002458 80000245100002480 80000245100002457 2.44422570455 -7.23649 -5.18998 0.872907
9.61026 80000245100002458 80000245100002457 80000245100002480 80000245100002456 2.31611074396 5.11508 -3.18822 -0.843434
9.67972 80000245100002457 80000245100002456 80000245100002480 80000245100002455 2.20792547238 -2.22772 8.06619 7.44857
9.00337 80000245100002486 80000245100002485 80000245100002495 80000245100002484 3.28303305796 1.14583 -5.44067 2.80863
9.1193 80000245100002485 80000245100002483 80000245100002495 80000245100002482 3.00813107163 1.45671 3.92904 -1.16939
9.19641 80000245100002483 80000245100002482 80000245100002495 80000245100002481 2.89578500573 4.47082 -0.349397 7.4534
9.32805 80000245100002482 80000245100002481 80000245100002495 80000245100002459 2.73314261732 1.15904 -5.6836 4.5456
9.03463 80000245100002769 80000245100002768 80000245100002779 80000245100002767 4.99593346816 3.02349 2.58072 1.01443
9.03763 80000245100002768 80000245100002767 80000245100002779 80000245100002766 4.93938066349 3.08092 3.52146 1.35873
9.08845 80000245100002767 80000245100002766 80000245100002779 80000245100002765 4.66451770247 3.59756 1.6136 -0.380888
9.1193 80000245100002766 80000245100002765 80000245100002779 80000245100002764 4.42803373661 3.33367 1.45367 1.48055
9.18162 80000245100002765 80000245100002764 80000245100002779 80000245100002763 4.17683491473 3.00064 -3.00378 -2.90314
9.24918 80000245100002764 80000245100002763 80000245100002779 80000245100002762 4.00794511147 3.18274 -8.30227 4.32584
9.25101 80000245100002763 80000245100002762 80000245100002779 80000245100002761 3.93726108473 1.88152 -9.65155 4.73143
9.30278 80000245100002762 80000245100002761 80000245100002779 80000245100002760 3.70877426464 8.28833 4.49279 2.11249
9.48265 80000245100002761 80000245100002759 80000245100002779 80000245100002758 3.28303305796 20.6585 18.7332 -21.183
9.51375 80000245100002759 80000245100002757 80000245100002779 80000245100002756 3.00813107163 20.3054 12.5042 -18.8014
9.63969 80000245100002757 80000245100002755 80000245100002779 80000245100002754 2.73314261732 22.9997 5.63817 -15.8239
9.6573 80000245100002755 80000245100002754 80000245100002779 80000245100002753 2.5772902716 18.3079 8.47269 -12.0302
9.69843 80000245100002754 80000245100002753 80000245100002779 80000245100002752 2.44422570455 14.5056 10.101 -10.9102
9.72445 80000245100002753 80000245100002752 80000245100002779 80000245100002751 2.31611074396 12.7635 13.0853 -12.6536
9.73178 80000245100002752 80000245100002751 80000245100002779 80000245100002750 2.20792547238 20.7285 19.9352 -12.6567
9.7384 80000245100002751 80000245100002750 80000245100002779 80000245100002749 2.1032696526 17.0739 13.5894 -8.5417
9.74196 80000245100002750 80000245100002748 80000245100002779 80000245100002747 1.90408954353 20.2364 10.3421 -4.4928
9.74491 80000245100002748 80000245100002747 80000245100002779 80000245100002746 1.82268925262 23.1801 11.4465 -8.3594
9.78902 80000245100002747 80000245100002746 80000245100002779 80000245100002745 1.74357057433 27.4801 6.93139 -8.57149
9.80003 80000245100002746 80000245100002745 80000245100002779 80000245100002744 1.66666955611 24.3298 8.09944 -0.721773
9.88273 80000245100002745 80000245100002744 80000245100002779 80000245100002743 1.60423452207 32.5453 7.42026 9.2754
9.9028 80000245100002744 80000245100002743 80000245100002779 80000245100002742 1.53123902916 20.4314 0.493413 5.55706
9.90888 80000245100002743 80000245100002741 80000245100002779 80000245100002740 1.41409822037 18.7128 -11.1761 1.542
9.96012 80000245100002741 80000245100002740 80000245100002779 80000245100002739 1.3575766674 16.615 -10.284 8.36421
9.99387 80000245100002740 80000245100002739 80000245100002779 80000245100002738 1.30237845991 14.316 -13.4524 11.1761
9.0316 80000245100002821 80000245100002820 80000245100002833 80000245100002819 3.00813107163 -8.24778 -0.81414 11.435
9.04358 80000245100002820 80000245100002819 80000245100002833 80000245100002818 2.89578500573 -5.72038 -0.318971 8.58221
9.11179 80000245100002819 80000245100002818 80000245100002833 80000245100002817 2.73314261732 -5.98288 -3.25552 10.5438
9.13394 80000245100002818 80000245100002817 80000245100002833 80000245100002816 2.5772902716 -1.06615 -9.53536 12.3898
9.3044 80000245100002817 80000245100002815 80000245100002833 80000245100002814 2.31611074396 13.3277 -20.8876 12.9749
9.3044 80000245100002815 80000245100002812 80000245100002833 80000245100002811 2.00202813925 14.6315 -16.6194 16.8726
9.09375 80000245100002836 80000245100002835 80000245100002842 80000245100002834 2.44422570455 11.0904 -14.0618 16.5105
