logMh | fpID | subhaloID | main leaf ID | descID |  z
9.10415 100000344000000099 100000344000000098 100000344000000106 100000344000000097 8.44947629437 2.90546 -5.2709 -1.13015
9.24548 100000344000000098 100000344000000097 100000344000000106 100000344000000096 8.01217294887 -2.45737 -1.47008 -2.94899
9.39214 100000344000000097 100000344000000095 100000344000000106 100000344000000094 7.23627606617 -6.8619 4.61225 5.62009
9.50872 100000344000000095 100000344000000094 100000344000000106 100000344000000093 7.00541704554 -4.87956 7.10861 6.81096
9.95797 100000344000000094 100000344000000091 100000344000000106 100000344000000090 6.14490120342 29.9358 87.2582 45.8787
9.97248 100000344000000091 100000344000000087 100000344000000106 100000344000000086 5.22758097313 -45.367 38.7354 2.48881
10.1168 100000344000000087 100000344000000086 100000344000000106 100000344000000085 4.99593346816 40.0518 64.2234 12.6048
10.2265 100000344000000086 100000344000000082 100000344000000106 100000344000000081 4.17683491473 16.289 47.9525 22.3029
10.2884 100000344000000082 100000344000000081 100000344000000106 100000344000000080 4.00794511147 16.4833 39.3321 13.9261
10.3041 100000344000000081 100000344000000080 100000344000000106 100000344000000079 3.93726108473 45.8148 39.7548 9.85485
10.3791 100000344000000080 100000344000000079 100000344000000106 100000344000000078 3.70877426464 5.4174 27.0783 -16.27
10.4239 100000344000000079 100000344000000078 100000344000000106 100000344000000077 3.49086136926 10.1934 21.5221 -14.8387
10.5238 100000344000000078 100000344000000077 100000344000000106 100000344000000076 3.28303305796 -32.2327 48.4129 -25.4355
10.5973 100000344000000077 100000344000000076 100000344000000106 100000344000000075 3.08482263583 -73.86 69.1659 -48.1208
10.6091 100000344000000076 100000344000000075 100000344000000106 100000344000000074 3.00813107163 -74.1546 74.8238 -53.7961
10.6256 100000344000000075 100000344000000074 100000344000000106 100000344000000073 2.89578500573 -66.0551 68.5896 -45.8043
10.654 100000344000000074 100000344000000073 100000344000000106 100000344000000072 2.73314261732 -62.9101 65.9554 -46.6239
10.693 100000344000000073 100000344000000072 100000344000000106 100000344000000071 2.5772902716 -75.8196 74.5376 -48.1744
10.7041 100000344000000072 100000344000000070 100000344000000106 100000344000000069 2.31611074396 -74.6406 64.832 -50.116
10.7156 100000344000000070 100000344000000069 100000344000000106 100000344000000068 2.20792547238 -67.0354 70.0106 -49.0443
10.7212 100000344000000069 100000344000000067 100000344000000106 100000344000000066 2.00202813925 -74.524 94.9226 -43.8828
10.7329 100000344000000067 100000344000000065 100000344000000106 100000344000000064 1.82268925262 -73.2388 99.6813 -55.0852
10.7471 100000344000000065 100000344000000064 100000344000000106 100000344000000063 1.74357057433 -74.3524 107.952 -57.1656
10.7527 100000344000000064 100000344000000063 100000344000000106 100000344000000062 1.66666955611 -67.2966 91.3467 -63.4458
10.7641 100000344000000063 100000344000000062 100000344000000106 100000344000000061 1.60423452207 -72.5026 93.3609 -72.3046
10.7674 100000344000000062 100000344000000061 100000344000000106 100000344000000060 1.53123902916 -69.8593 100.968 -77.272
10.782 100000344000000061 100000344000000060 100000344000000106 100000344000000059 1.47197484527 -74.0108 103.624 -76.4817
10.7882 100000344000000060 100000344000000059 100000344000000106 100000344000000058 1.41409822037 -77.7621 99.2327 -85.9342
10.7965 100000344000000059 100000344000000058 100000344000000106 100000344000000057 1.3575766674 -72.8756 91.3653 -82.4091
10.7973 100000344000000058 100000344000000057 100000344000000106 100000344000000056 1.30237845991 -67.1591 98.4938 -76.7021
10.824 100000344000000057 100000344000000055 100000344000000106 100000344000000054 1.20625808078 -78.8496 100.807 -92.5124
10.8348 100000344000000055 100000344000000054 100000344000000106 100000344000000053 1.15460271236 -76.5257 108.541 -97.375
10.8382 100000344000000054 100000344000000053 100000344000000106 100000344000000052 1.11415056377 -75.8504 105.325 -93.0325
10.8459 100000344000000053 100000344000000052 100000344000000106 100000344000000051 1.07445789455 -80.0555 95.5366 -84.4744
10.8606 100000344000000052 100000344000000051 100000344000000106 100000344000000050 1.03551044566 -80.6588 99.0012 -91.4701
10.8764 100000344000000051 100000344000000050 100000344000000106 100000344000000049 0.997294225782 -85.9383 103.325 -103.26
10.8785 100000344000000050 100000344000000049 100000344000000106 100000344000000048 0.987852810816 -81.0832 97.126 -100.574
10.8887 100000344000000049 100000344000000048 100000344000000106 100000344000000047 0.950531351585 -87.1281 100.859 -104.666
10.9011 100000344000000048 100000344000000047 100000344000000106 100000344000000046 0.923000816178 -88.561 98.3811 -91.5246
10.9057 100000344000000047 100000344000000046 100000344000000106 100000344000000045 0.886896937575 -89.987 105.559 -99.979
10.9177 100000344000000046 100000344000000045 100000344000000106 100000344000000044 0.851470900625 -88.531 97.6585 -110.803
10.9237 100000344000000045 100000344000000044 100000344000000106 100000344000000043 0.816709979012 -101.755 100.548 -94.1177
10.9371 100000344000000044 100000344000000043 100000344000000106 100000344000000042 0.791068248946 -109.11 105.507 -107.652
10.9429 100000344000000043 100000344000000041 100000344000000106 100000344000000040 0.732636182022 -107.213 103.709 -97.8326
10.9449 100000344000000041 100000344000000040 100000344000000106 100000344000000039 0.700106353719 -107.481 92.3739 -103.106
10.9538 100000344000000040 100000344000000039 100000344000000106 100000344000000038 0.676110411213 -99.876 89.2456 -113.773
10.9599 100000344000000039 100000344000000038 100000344000000106 100000344000000037 0.644641840685 -95.5915 93.7637 -125.983
10.9668 100000344000000038 100000344000000037 100000344000000106 100000344000000036 0.621428745243 -97.5324 89.6416 -113.468
10.968 100000344000000037 100000344000000036 100000344000000106 100000344000000035 0.598543288188 -99.1187 90.5863 -121.195
10.9739 100000344000000036 100000344000000035 100000344000000106 100000344000000034 0.575980845108 -89.2277 71.0856 -132.199
10.9804 100000344000000035 100000344000000034 100000344000000106 100000344000000033 0.546392183141 -88.3037 66.9101 -137.129
10.9881 100000344000000034 100000344000000032 100000344000000106 100000344000000031 0.503047523245 -72.3496 42.0461 -147.199
10.9887 100000344000000032 100000344000000031 100000344000000106 100000344000000030 0.481832943421 -62.0688 39.3555 -158.937
10.9956 100000344000000031 100000344000000030 100000344000000106 100000344000000029 0.460917794181 -60.942 35.4977 -166.727
11.0014 100000344000000030 100000344000000029 100000344000000106 100000344000000028 0.440297849248 -61.5944 35.6026 -165.503
11.0048 100000344000000029 100000344000000025 100000344000000106 100000344000000024 0.360687657262 -67.2838 56.2196 -160.624
11.0126 100000344000000025 100000344000000024 100000344000000106 100000344000000023 0.347853841858 -65.4961 46.7921 -168.61
11.0153 100000344000000024 100000344000000023 100000344000000106 100000344000000022 0.328829724206 -65.46 53.4986 -168.722
11.0186 100000344000000023 100000344000000022 100000344000000106 100000344000000021 0.310074120128 -72.2044 57.5444 -177.07
11.0201 100000344000000022 100000344000000021 100000344000000106 100000344000000020 0.291583239722 -80.2567 58.236 -170.162
11.0216 100000344000000021 100000344000000020 100000344000000106 100000344000000019 0.273353346578 -89.6373 65.7481 -163.923
11.0224 100000344000000020 100000344000000019 100000344000000106 100000344000000018 0.261343256161 -88.075 61.5626 -157.589
11.0251 100000344000000019 100000344000000018 100000344000000106 100000344000000017 0.243540181555 -89.0273 68.5132 -162.249
11.0258 100000344000000018 100000344000000017 100000344000000106 100000344000000016 0.22598838626 -86.3968 63.3178 -160.177
11.0259 100000344000000017 100000344000000016 100000344000000106 100000344000000015 0.214425035514 -97.4009 64.225 -154.935
11.0312 100000344000000016 100000344000000015 100000344000000106 100000344000000014 0.197284182376 -100.53 68.3496 -156.888
11.0334 100000344000000015 100000344000000013 100000344000000106 100000344000000012 0.169252033244 -97.7301 63.2236 -157.749
11.0398 100000344000000013 100000344000000010 100000344000000106 100000344000000009 0.125759332411 -101.78 57.2942 -157.8
11.0425 100000344000000010 100000344000000009 100000344000000106 100000344000000008 0.109869940459 -101.963 53.435 -162.435
11.0444 100000344000000009 100000344000000008 100000344000000106 100000344000000007 0.0994018026302 -97.0774 59.2518 -165.046
11.0448 100000344000000008 100000344000000007 100000344000000106 100000344000000006 0.0838844307975 -94.6239 51.7432 -164.359
11.0477 100000344000000007 100000344000000006 100000344000000106 100000344000000005 0.0736613846564 -97.3342 58.9057 -166.516
11.0511 100000344000000006 100000344000000005 100000344000000106 100000344000000004 0.0585073227945 -88.1581 52.5797 -182.372
11.0516 100000344000000005 100000344000000003 100000344000000106 100000344000000002 0.0337243718735 -89.0459 46.7694 -185.333
11.0565 100000344000000003 100000344000000002 100000344000000106 100000344000000001 0.0239744283828 -100.195 53.5439 -184.237
9.55296 100000344000000115 100000344000000114 100000344000000119 100000344000000113 6.49159774567 -4.73817 19.1355 24.4785
9.749 100000344000000114 100000344000000113 100000344000000119 100000344000000089 6.01075739884 -6.3837 8.42943 6.67734
9.03463 100000344000000147 100000344000000146 100000344000000152 100000344000000145 8.44947629437 9.36872 -4.57366 11.2013
9.10157 100000344000000146 100000344000000145 100000344000000152 100000344000000144 8.01217294887 7.7905 -5.63597 8.7407
9.24918 100000344000000145 100000344000000144 100000344000000152 100000344000000143 7.59510714987 1.28692 -2.39874 -1.19361
9.25284 100000344000000144 100000344000000142 100000344000000152 100000344000000141 7.00541704554 2.52726 -4.68256 2.16079
9.25284 100000344000000142 100000344000000140 100000344000000152 100000344000000139 6.49159774567 3.05787 -3.55649 1.24848
9.03463 100000344000000222 100000344000000221 100000344000000229 100000344000000220 8.01217294887 -3.30205 -6.35501 -2.36416
9.15042 100000344000000221 100000344000000220 100000344000000229 100000344000000219 7.59510714987 -0.0976208 -10.8696 -6.64902
9.20055 100000344000000220 100000344000000219 100000344000000229 100000344000000218 7.23627606617 -0.200432 -8.67024 -3.63082
9.22262 100000344000000219 100000344000000218 100000344000000229 100000344000000217 7.00541704554 -0.188569 -9.6178 -5.00163
9.25828 100000344000000218 100000344000000217 100000344000000229 100000344000000216 6.85511726265 2.96022 -3.10845 -2.20593
9.29457 100000344000000217 100000344000000216 100000344000000229 100000344000000215 6.49159774567 -4.22282 -5.74548 -0.814637
9.41784 100000344000000216 100000344000000215 100000344000000229 100000344000000214 6.01075739884 -5.8051 -1.69729 10.3243
9.4606 100000344000000215 100000344000000212 100000344000000229 100000344000000211 5.22758097313 -14.2407 -5.32366 -0.759893
9.13154 100000344000000245 100000344000000244 100000344000000249 100000344000000243 6.14490120342 1.27757 -6.80415 -0.0249562
9.22262 100000344000000244 100000344000000243 100000344000000249 100000344000000242 6.01075739884 3.11546 -1.33909 -7.88219
9.23037 100000344000000243 100000344000000242 100000344000000249 100000344000000241 5.84661374788 6.34511 -2.06955 -2.97268
9.36199 100000344000000242 100000344000000241 100000344000000249 100000344000000240 5.52976580795 -6.47554 -0.673895 -2.64651
9.40389 100000344000000241 100000344000000239 100000344000000249 100000344000000238 4.99593346816 0.879972 -0.750542 -4.97622
9.60462 100000344000000239 100000344000000237 100000344000000249 100000344000000236 4.66451770247 7.00726 4.45658 5.50347
9.05235 100000344000000286 100000344000000285 100000344000000296 100000344000000284 4.42803373661 -0.369488 8.71267 -1.12168
9.13154 100000344000000285 100000344000000284 100000344000000296 100000344000000283 4.17683491473 2.57419 11.4158 -4.99887
9.11179 100000344000000310 100000344000000309 100000344000000315 100000344000000308 5.52976580795 -17.5036 12.5866 -16.007
9.11179 100000344000000309 100000344000000307 100000344000000315 100000344000000306 4.99593346816 -14.7235 12.6456 -12.1178
9.17729 100000344000000307 100000344000000306 100000344000000315 100000344000000305 4.93938066349 -10.4633 11.5953 -12.211
9.05524 100000344000000419 100000344000000418 100000344000000427 100000344000000417 5.52976580795 6.05185 0.343729 -13.1512
9.14108 100000344000000418 100000344000000417 100000344000000427 100000344000000416 5.22758097313 4.54279 0.135035 -10.3236
9.16852 100000344000000417 100000344000000416 100000344000000427 100000344000000415 4.99593346816 5.59786 -0.282989 -10.18
9.19641 100000344000000416 100000344000000415 100000344000000427 100000344000000414 4.93938066349 5.4259 1.15551 -6.93505
9.21472 100000344000000415 100000344000000414 100000344000000427 100000344000000413 4.66451770247 5.71421 2.98303 -5.2166
9.23799 100000344000000414 100000344000000413 100000344000000427 100000344000000412 4.42803373661 6.4428 6.93927 -5.88551
9.03763 100000344000000459 100000344000000458 100000344000000468 100000344000000457 7.00541704554 -4.68627 -4.3928 -2.20305
9.03763 100000344000000458 100000344000000457 100000344000000468 100000344000000456 6.85511726265 -6.42125 -3.33693 -2.72509
9.07216 100000344000000457 100000344000000455 100000344000000468 100000344000000454 6.14490120342 -6.62482 -6.07937 -6.02548
9.11179 100000344000000455 100000344000000454 100000344000000468 100000344000000453 6.01075739884 -4.98398 -5.96046 -6.8932
9.13394 100000344000000454 100000344000000453 100000344000000468 100000344000000452 5.84661374788 -3.15375 -6.05542 -6.87212
9.1573 100000344000000453 100000344000000452 100000344000000468 100000344000000451 5.52976580795 -1.7195 -1.63212 -5.81162
9.1573 100000344000000452 100000344000000451 100000344000000468 100000344000000450 5.22758097313 -1.34071 -3.50249 -2.82316
9.20055 100000344000000451 100000344000000448 100000344000000468 100000344000000447 4.66451770247 -4.52008 -4.18192 -3.65856
9.2342 100000344000000448 100000344000000446 100000344000000468 100000344000000445 4.17683491473 -1.44932 -0.750137 -2.35458
9.25101 100000344000000446 100000344000000444 100000344000000468 100000344000000443 3.93726108473 -4.23834 -5.2373 -5.57638
9.26543 100000344000000444 100000344000000443 100000344000000468 100000344000000442 3.70877426464 -4.37346 -7.80333 -3.99893
9.34756 100000344000000443 100000344000000442 100000344000000468 100000344000000441 3.49086136926 -11.8383 -1.70025 -1.75107
9.00012 100000344000000630 100000344000000629 100000344000000648 100000344000000628 2.73314261732 -14.1425 -2.49959 -6.19669
9.04945 100000344000000629 100000344000000627 100000344000000648 100000344000000626 2.44422570455 -10.8378 1.89078 -2.27659
9.0666 100000344000000627 100000344000000625 100000344000000648 100000344000000624 2.20792547238 -11.6167 -0.583174 -0.475343
9.08578 100000344000000625 100000344000000624 100000344000000648 100000344000000623 2.1032696526 -10.1757 -2.99442 -1.00318
9.15273 100000344000000624 100000344000000621 100000344000000648 100000344000000620 1.82268925262 -5.11217 -8.19535 -0.703398
9.17073 100000344000000621 100000344000000616 100000344000000648 100000344000000615 1.47197484527 -8.22618 1.17312 2.48466
9.19433 100000344000000616 100000344000000613 100000344000000648 100000344000000612 1.30237845991 -12.4626 3.08861 -0.610705
9.00337 100000344000000766 100000344000000765 100000344000000780 100000344000000764 2.89578500573 -2.39003 5.78062 8.21115
9.02855 100000344000000765 100000344000000764 100000344000000780 100000344000000763 2.73314261732 -0.602902 4.97585 8.28693
9.08578 100000344000000764 100000344000000762 100000344000000780 100000344000000761 2.44422570455 -0.982719 0.830423 24.005
9.17729 100000344000000762 100000344000000760 100000344000000780 100000344000000759 2.20792547238 -5.84018 4.57979 46.4085
9.18589 100000344000000760 100000344000000754 100000344000000780 100000344000000753 1.66666955611 -6.0978 -2.47097 36.8685
9.18802 100000344000000754 100000344000000751 100000344000000780 100000344000000750 1.47197484527 -4.2782 -1.11429 35.6741
