logMh | fpID | subhaloID | main leaf ID | descID |  z
9.02239 80000078100000107 80000078100000106 80000078100000107 80000078100000105 12.0418635439 0.650612 -2.63775 10.221
9.05811 80000078100000106 80000078100000105 80000078100000107 80000078100000104 11.4973879548 -1.18151 -2.5214 9.26571
9.17073 80000078100000105 80000078100000103 80000078100000107 80000078100000102 10.3674435724 -3.95028 -0.590619 11.2073
9.2361 80000078100000103 80000078100000102 80000078100000107 80000078100000101 9.99659046619 -0.961729 -2.26964 10.3697
9.23988 80000078100000102 80000078100000101 80000078100000107 80000078100000100 9.84138043947 -1.05441 -1.09092 8.84647
9.35194 80000078100000101 80000078100000100 80000078100000107 80000078100000099 9.38877127194 -1.94818 2.18829 7.71267
9.48479 80000078100000100 80000078100000099 80000078100000107 80000078100000098 9.00233985416 -4.23348 0.273727 9.28371
9.48905 80000078100000099 80000078100000098 80000078100000107 80000078100000097 8.9079991856 -3.35857 0.316406 7.871
9.54836 80000078100000098 80000078100000097 80000078100000107 80000078100000096 8.44947629437 2.07479 -0.960707 6.25087
9.58891 80000078100000097 80000078100000096 80000078100000107 80000078100000095 8.01217294887 3.87136 0.175833 2.17364
9.71259 80000078100000096 80000078100000095 80000078100000107 80000078100000094 7.59510714987 2.19601 -1.22568 -1.92963
9.73959 80000078100000095 80000078100000094 80000078100000107 80000078100000093 7.23627606617 3.96914 -2.75442 -4.9094
9.80363 80000078100000094 80000078100000093 80000078100000107 80000078100000092 7.00541704554 4.98032 -0.138308 -1.96695
9.81278 80000078100000093 80000078100000092 80000078100000107 80000078100000091 6.85511726265 6.57513 -1.88178 -2.69432
9.83002 80000078100000092 80000078100000091 80000078100000107 80000078100000090 6.49159774567 5.0128 -1.34521 -3.47042
9.90321 80000078100000091 80000078100000090 80000078100000107 80000078100000089 6.14490120342 9.10521 0.774421 -10.014
9.92198 80000078100000090 80000078100000089 80000078100000107 80000078100000088 6.01075739884 9.28275 1.77754 -9.21447
9.93393 80000078100000089 80000078100000088 80000078100000107 80000078100000087 5.84661374788 10.4292 0.537086 -12.2257
9.94667 80000078100000088 80000078100000087 80000078100000107 80000078100000086 5.52976580795 7.39739 1.66021 -20.4676
9.96191 80000078100000087 80000078100000086 80000078100000107 80000078100000085 5.22758097313 9.71228 -2.04049 -22.2976
10.005 80000078100000086 80000078100000085 80000078100000107 80000078100000084 4.99593346816 9.23879 5.95075 -23.6342
10.0111 80000078100000085 80000078100000084 80000078100000107 80000078100000083 4.93938066349 9.08748 4.44762 -23.8598
10.0289 80000078100000084 80000078100000083 80000078100000107 80000078100000082 4.66451770247 14.2811 9.36924 -22.0721
10.068 80000078100000083 80000078100000082 80000078100000107 80000078100000081 4.42803373661 9.45766 7.58853 -23.0036
10.0919 80000078100000082 80000078100000081 80000078100000107 80000078100000080 4.17683491473 4.85047 -1.17502 -21.4689
10.1141 80000078100000081 80000078100000079 80000078100000107 80000078100000078 3.93726108473 3.39741 -1.61635 -18.4487
10.1465 80000078100000079 80000078100000077 80000078100000107 80000078100000076 3.49086136926 -13.3259 7.70055 -12.4655
10.5098 80000078100000077 80000078100000075 80000078100000107 80000078100000074 3.08482263583 26.2508 -186.888 -56.7054
10.5326 80000078100000075 80000078100000074 80000078100000107 80000078100000073 3.00813107163 81.0145 -167.93 -49.2036
10.5814 80000078100000074 80000078100000073 80000078100000107 80000078100000072 2.89578500573 78.05 -184.73 -39.188
10.6966 80000078100000073 80000078100000072 80000078100000107 80000078100000071 2.73314261732 112.487 -132.93 -29.7685
10.9392 80000078100000072 80000078100000071 80000078100000107 80000078100000070 2.5772902716 70.7273 -155.59 -70.0191
11.0095 80000078100000071 80000078100000070 80000078100000107 80000078100000069 2.44422570455 37.5247 -242.787 -71.8902
11.0247 80000078100000070 80000078100000069 80000078100000107 80000078100000068 2.31611074396 3.84793 -245.999 -114.488
11.1284 80000078100000069 80000078100000068 80000078100000107 80000078100000067 2.20792547238 32.9549 -319.594 -68.7731
11.2311 80000078100000068 80000078100000066 80000078100000107 80000078100000065 2.00202813925 69.6562 -363.226 -33.8039
11.2353 80000078100000066 80000078100000065 80000078100000107 80000078100000064 1.90408954353 55.3378 -296.312 46.4531
11.277 80000078100000065 80000078100000064 80000078100000107 80000078100000063 1.82268925262 26.7659 -295.959 55.0973
11.3052 80000078100000064 80000078100000061 80000078100000107 80000078100000060 1.53123902916 -28.5123 -342.915 75.264
11.3108 80000078100000061 80000078100000060 80000078100000107 80000078100000059 1.47197484527 -3.01047 -345.692 60.5088
11.3144 80000078100000060 80000078100000059 80000078100000107 80000078100000058 1.41409822037 -27.3214 -352.247 1.72201
11.3484 80000078100000059 80000078100000058 80000078100000107 80000078100000057 1.3575766674 119.814 -504.132 33.4647
11.3571 80000078100000058 80000078100000056 80000078100000107 80000078100000055 1.24847261425 25.9386 -376.709 -42.4761
11.3729 80000078100000056 80000078100000055 80000078100000107 80000078100000054 1.20625808078 21.8978 -372.533 -48.8915
11.3932 80000078100000055 80000078100000054 80000078100000107 80000078100000053 1.15460271236 -51.9454 -359.356 -48.4739
11.3946 80000078100000054 80000078100000053 80000078100000107 80000078100000052 1.11415056377 -8.61975 -340.269 -45.6986
11.4026 80000078100000053 80000078100000052 80000078100000107 80000078100000051 1.07445789455 -61.8475 -277.787 -73.7811
11.4311 80000078100000052 80000078100000051 80000078100000107 80000078100000050 1.03551044566 -59.7438 -250.948 -92.2733
11.4507 80000078100000051 80000078100000050 80000078100000107 80000078100000049 0.997294225782 -91.0464 -224.755 -108.212
11.451 80000078100000050 80000078100000049 80000078100000107 80000078100000048 0.987852810816 -71.9097 -233.667 -110.865
11.4738 80000078100000049 80000078100000048 80000078100000107 80000078100000047 0.950531351585 -116.027 -193.655 -126.641
11.4917 80000078100000048 80000078100000047 80000078100000107 80000078100000046 0.923000816178 -176.172 -86.3389 -152.287
11.5047 80000078100000047 80000078100000046 80000078100000107 80000078100000045 0.886896937575 -141.878 -105.055 -173.936
11.5253 80000078100000046 80000078100000045 80000078100000107 80000078100000044 0.851470900625 -160.069 -25.2394 -183.896
11.5438 80000078100000045 80000078100000044 80000078100000107 80000078100000043 0.816709979012 -158.088 -84.4658 -167.16
11.5581 80000078100000044 80000078100000043 80000078100000107 80000078100000042 0.791068248946 -126.502 -105.992 -165.332
11.5711 80000078100000043 80000078100000042 80000078100000107 80000078100000041 0.757441372616 -135.013 -76.7376 -153.67
11.578 80000078100000042 80000078100000041 80000078100000107 80000078100000040 0.732636182022 -127.201 -90.357 -149.889
11.5825 80000078100000041 80000078100000040 80000078100000107 80000078100000039 0.700106353719 -148.452 -98.3239 -124.934
11.5837 80000078100000040 80000078100000039 80000078100000107 80000078100000038 0.676110411213 -137.798 -98.7704 -94.7327
11.586 80000078100000039 80000078100000027 80000078100000107 80000078100000026 0.399926964614 -31.0599 -166.352 -15.9121
11.59 80000078100000027 80000078100000024 80000078100000107 80000078100000023 0.347853841858 -30.1061 -177.785 -23.385
11.5944 80000078100000024 80000078100000023 80000078100000107 80000078100000022 0.328829724206 -11.3448 -195.008 -27.2137
11.5963 80000078100000023 80000078100000022 80000078100000107 80000078100000021 0.310074120128 16.1951 -200.092 -28.9301
11.5974 80000078100000022 80000078100000020 80000078100000107 80000078100000019 0.273353346578 31.8452 -202.526 -31.2572
11.6122 80000078100000020 80000078100000019 80000078100000107 80000078100000018 0.261343256161 18.4079 -81.9271 3.73692
11.618 80000078100000019 80000078100000018 80000078100000107 80000078100000017 0.243540181555 47.5224 -89.0979 -4.06657
11.6249 80000078100000018 80000078100000017 80000078100000107 80000078100000016 0.22598838626 -5.38539 -11.5868 24.4035
11.6309 80000078100000017 80000078100000016 80000078100000107 80000078100000015 0.214425035514 -22.2997 7.64142 30.2963
11.6393 80000078100000016 80000078100000015 80000078100000107 80000078100000014 0.197284182376 -90.5986 51.8044 49.3486
11.6508 80000078100000015 80000078100000014 80000078100000107 80000078100000013 0.180385261706 -142.421 122.724 87.293
11.6547 80000078100000014 80000078100000013 80000078100000107 80000078100000012 0.169252033244 -162.452 137.14 82.7122
11.666 80000078100000013 80000078100000012 80000078100000107 80000078100000011 0.152748768902 -217.746 201.029 65.6489
11.6799 80000078100000012 80000078100000011 80000078100000107 80000078100000010 0.14187620397 -352.84 297.648 97.1935
11.687 80000078100000011 80000078100000010 80000078100000107 80000078100000009 0.125759332411 -414.103 287.069 79.9592
11.6926 80000078100000010 80000078100000009 80000078100000107 80000078100000008 0.109869940459 -476.996 351.689 108.708
11.6965 80000078100000009 80000078100000008 80000078100000107 80000078100000007 0.0994018026302 -504.122 356.735 126.63
11.7078 80000078100000008 80000078100000007 80000078100000107 80000078100000006 0.0838844307975 -630.308 427.01 126.412
11.7124 80000078100000007 80000078100000006 80000078100000107 80000078100000005 0.0736613846564 -656.302 411.506 132.785
11.7172 80000078100000006 80000078100000004 80000078100000107 80000078100000003 0.0485236299818 -745.401 448.608 180.892
11.7417 80000078100000004 80000078100000003 80000078100000107 80000078100000002 0.0337243718735 -947.784 657.539 248.091
11.7599 80000078100000003 80000078100000002 80000078100000107 80000078100000001 0.0239744283828 -1047.97 773.273 270.124
11.7784 80000078100000002 80000078100000001 80000078100000107 80000078100000000 0.00952166696794 -1175.52 926.108 341.355
11.7838 80000078100000001 80000078100000000 80000078100000107 -1 2.22044604925e-16 -1181.34 950.025 347.641
9.03763 80000078100000155 80000078100000154 80000078100000162 80000078100000153 4.42803373661 -1.26303 7.79206 2.11396
9.08845 80000078100000154 80000078100000153 80000078100000162 80000078100000152 4.17683491473 2.39487 7.40784 3.4979
9.09375 80000078100000153 80000078100000152 80000078100000162 80000078100000151 4.00794511147 1.59471 7.3384 2.22852
9.02548 80000078100000214 80000078100000213 80000078100000221 80000078100000212 6.14490120342 5.32002 4.94934 -8.73412
9.02855 80000078100000213 80000078100000212 80000078100000221 80000078100000211 6.01075739884 5.07316 7.67548 -7.80921
9.15042 80000078100000212 80000078100000211 80000078100000221 80000078100000210 5.84661374788 1.46791 -1.03287 0.851864
9.17946 80000078100000211 80000078100000210 80000078100000221 80000078100000209 5.52976580795 0.574985 0.00284453 -1.29562
9.22845 80000078100000210 80000078100000209 80000078100000221 80000078100000208 5.22758097313 3.77593 0.262598 -1.95049
9.35627 80000078100000209 80000078100000208 80000078100000221 80000078100000207 4.99593346816 -6.52723 0.282033 -0.0573189
9.35914 80000078100000208 80000078100000207 80000078100000221 80000078100000206 4.93938066349 -8.83267 0.386092 1.22314
9.78689 80000078100000207 80000078100000205 80000078100000221 80000078100000204 4.42803373661 2.9157 -45.0278 19.5936
10.1663 80000078100000205 80000078100000202 80000078100000221 80000078100000201 3.70877426464 81.7768 -20.9763 62.6298
9.1193 80000078100000277 80000078100000276 80000078100000282 80000078100000275 8.01217294887 8.37842 1.58159 1.01617
9.17512 80000078100000276 80000078100000275 80000078100000282 80000078100000274 7.59510714987 10.3027 2.85708 1.90094
9.31083 80000078100000275 80000078100000274 80000078100000282 80000078100000273 7.23627606617 10.6438 0.0602891 -4.84535
9.35771 80000078100000274 80000078100000273 80000078100000282 80000078100000272 7.00541704554 19.3271 -5.80333 -10.3908
9.38547 80000078100000273 80000078100000271 80000078100000282 80000078100000270 6.49159774567 12.0231 -1.06809 -5.07112
9.54744 80000078100000271 80000078100000270 80000078100000282 80000078100000269 6.14490120342 12.8831 12.1218 -0.320321
9.5931 80000078100000270 80000078100000268 80000078100000282 80000078100000267 5.84661374788 12.3309 19.6928 -1.06691
9.62445 80000078100000268 80000078100000267 80000078100000282 80000078100000266 5.52976580795 10.326 19.4893 1.62713
9.70039 80000078100000267 80000078100000266 80000078100000282 80000078100000265 5.22758097313 22.8466 7.3344 1.25245
9.72322 80000078100000266 80000078100000265 80000078100000282 80000078100000264 4.99593346816 19.9233 6.49156 3.16911
9.736 80000078100000265 80000078100000264 80000078100000282 80000078100000263 4.93938066349 23.05 5.51725 5.55998
10.0459 80000078100000264 80000078100000261 80000078100000282 80000078100000260 4.17683491473 74.1476 -10.7015 53.3102
10.1509 80000078100000261 80000078100000260 80000078100000282 80000078100000259 4.00794511147 73.6482 -18.7074 65.7726
10.2228 80000078100000260 80000078100000257 80000078100000282 80000078100000256 3.49086136926 106.887 -27.2832 56.4264
10.3908 80000078100000257 80000078100000256 80000078100000282 80000078100000255 3.28303305796 52.8734 -136.04 -21.3664
9.22845 80000078100000335 80000078100000334 80000078100000340 80000078100000333 5.84661374788 -0.042156 9.81172 -11.3058
9.00337 80000078100000391 80000078100000390 80000078100000397 80000078100000389 9.00233985416 -2.34416 -0.512916 -1.0789
9.0066 80000078100000390 80000078100000389 80000078100000397 80000078100000388 8.9079991856 -2.45982 -0.746055 -0.719358
9.10671 80000078100000389 80000078100000388 80000078100000397 80000078100000387 8.44947629437 -2.95257 -1.22361 1.97566
9.16852 80000078100000388 80000078100000387 80000078100000397 80000078100000386 8.01217294887 -4.17832 1.91263 1.16265
9.35338 80000078100000387 80000078100000386 80000078100000397 80000078100000385 7.59510714987 -12.2695 -3.1206 -4.64611
9.44914 80000078100000386 80000078100000385 80000078100000397 80000078100000384 7.23627606617 -8.25053 -2.86849 -1.48683
9.45946 80000078100000385 80000078100000384 80000078100000397 80000078100000383 7.00541704554 -13.2877 0.86804 -4.20223
9.50465 80000078100000384 80000078100000382 80000078100000397 80000078100000381 6.49159774567 -0.645354 -7.49938 -8.87706
9.53713 80000078100000382 80000078100000381 80000078100000397 80000078100000380 6.14490120342 -0.811247 -7.54893 -9.32279
9.58298 80000078100000381 80000078100000380 80000078100000397 80000078100000379 6.01075739884 1.74859 -2.30552 -4.97354
9.69974 80000078100000380 80000078100000379 80000078100000397 80000078100000378 5.84661374788 -10.7563 3.72917 -6.55237
9.84381 80000078100000379 80000078100000378 80000078100000397 80000078100000377 5.52976580795 -25.2196 20.272 -2.37363
9.89496 80000078100000378 80000078100000377 80000078100000397 80000078100000376 5.22758097313 -37.0731 19.4101 5.32864
9.94815 80000078100000377 80000078100000376 80000078100000397 80000078100000375 4.99593346816 -38.2679 17.9538 -0.723345
9.95725 80000078100000376 80000078100000375 80000078100000397 80000078100000374 4.93938066349 -36.6345 17.2271 -0.317432
10.0561 80000078100000375 80000078100000374 80000078100000397 80000078100000373 4.66451770247 -35.5214 9.87309 1.08219
10.1034 80000078100000374 80000078100000373 80000078100000397 80000078100000372 4.42803373661 -26.8597 0.718323 12.5723
10.1641 80000078100000373 80000078100000372 80000078100000397 80000078100000371 4.17683491473 -23.6384 -8.46003 19.4602
10.5314 80000078100000372 80000078100000371 80000078100000397 80000078100000370 4.00794511147 -73.1126 -108.109 -111.898
10.5315 80000078100000371 80000078100000368 80000078100000397 80000078100000367 3.49086136926 -45.6955 -95.4177 -54.1916
10.6694 80000078100000368 80000078100000366 80000078100000397 80000078100000365 3.08482263583 -18.0393 -103.568 7.60654
10.6924 80000078100000366 80000078100000365 80000078100000397 80000078100000364 3.00813107163 -4.95761 -115.158 15.0712
11.1676 80000078100000365 80000078100000358 80000078100000397 80000078100000066 2.1032696526 57.6276 -321.596 -48.194
9.11179 80000078100000420 80000078100000419 80000078100000424 80000078100000418 7.23627606617 12.822 -2.32203 -1.93741
9.15956 80000078100000419 80000078100000417 80000078100000424 80000078100000416 6.85511726265 9.26407 -1.4834 -0.350362
9.18589 80000078100000417 80000078100000416 80000078100000424 80000078100000415 6.49159774567 8.44841 -0.793378 -1.89732
9.26543 80000078100000416 80000078100000415 80000078100000424 80000078100000414 6.14490120342 10.4775 -4.02578 -3.51917
9.14578 80000078100000471 80000078100000470 80000078100000479 80000078100000469 6.14490120342 6.15582 -9.12889 3.32367
9.19848 80000078100000470 80000078100000468 80000078100000479 80000078100000467 5.84661374788 4.21844 -6.20411 -2.93313
9.24175 80000078100000468 80000078100000467 80000078100000479 80000078100000466 5.52976580795 1.64622 -2.39257 1.58546
9.3974 80000078100000467 80000078100000466 80000078100000479 80000078100000465 5.22758097313 -9.86335 -5.75689 7.0909
9.40774 80000078100000466 80000078100000465 80000078100000479 80000078100000464 4.99593346816 -5.97513 -5.08748 5.71427
9.42157 80000078100000465 80000078100000464 80000078100000479 80000078100000463 4.93938066349 -5.51603 -4.63043 4.82314
9.04358 80000078100000551 80000078100000550 80000078100000556 80000078100000549 9.00233985416 -0.822871 -2.5482 1.02924
9.09637 80000078100000550 80000078100000548 80000078100000556 80000078100000547 8.44947629437 -1.69694 -2.50089 -1.43892
9.19641 80000078100000548 80000078100000547 80000078100000556 80000078100000546 8.01217294887 11.0229 6.6535 -16.3409
9.50055 80000078100000547 80000078100000546 80000078100000556 80000078100000545 7.59510714987 3.48213 1.9094 -21.3038
9.50363 80000078100000546 80000078100000545 80000078100000556 80000078100000544 7.23627606617 4.30699 -0.562085 -18.9633
9.51774 80000078100000545 80000078100000544 80000078100000556 80000078100000543 7.00541704554 2.08524 0.59315 -17.6976
9.54465 80000078100000544 80000078100000543 80000078100000556 80000078100000542 6.85511726265 2.19965 1.98506 -17.2512
9.59059 80000078100000543 80000078100000542 80000078100000556 80000078100000541 6.49159774567 -6.0586 -3.67634 -2.67884
9.62134 80000078100000542 80000078100000541 80000078100000556 80000078100000540 6.14490120342 -5.70671 -3.06824 -1.36389
9.65658 80000078100000541 80000078100000540 80000078100000556 80000078100000539 6.01075739884 -5.78786 -6.23301 1.90437
9.72568 80000078100000540 80000078100000539 80000078100000556 80000078100000538 5.84661374788 -12.2921 -5.65317 -0.334224
9.90402 80000078100000539 80000078100000538 80000078100000556 80000078100000537 5.52976580795 1.19233 -10.4521 8.88735
9.91963 80000078100000538 80000078100000537 80000078100000556 80000078100000536 5.22758097313 -13.0933 -18.5923 2.73133
9.98109 80000078100000537 80000078100000536 80000078100000556 80000078100000535 4.99593346816 -25.1887 -23.2116 -2.37173
9.99519 80000078100000536 80000078100000535 80000078100000556 80000078100000534 4.93938066349 -13.2455 -22.6603 4.13031
10.079 80000078100000535 80000078100000534 80000078100000556 80000078100000533 4.66451770247 -20.5021 -16.2174 -4.33531
10.1228 80000078100000534 80000078100000533 80000078100000556 80000078100000532 4.42803373661 -20.934 -3.56022 0.118315
10.1895 80000078100000533 80000078100000532 80000078100000556 80000078100000531 4.17683491473 -14.0717 -2.14789 1.34148
10.2508 80000078100000532 80000078100000531 80000078100000556 80000078100000530 3.93726108473 -2.32653 -6.14752 -4.41537
10.6215 80000078100000531 80000078100000528 80000078100000556 80000078100000527 3.28303305796 -37.6106 -103.902 -29.8922
10.7049 80000078100000528 80000078100000525 80000078100000556 80000078100000524 2.89578500573 1.51583 -130.493 12.7178
9.02548 80000078100000610 80000078100000609 80000078100000616 80000078100000608 7.23627606617 -11.9107 1.58943 13.5761
9.04062 80000078100000609 80000078100000608 80000078100000616 80000078100000607 7.00541704554 -12.7317 2.38774 12.1934
9.06096 80000078100000608 80000078100000607 80000078100000616 80000078100000606 6.85511726265 -13.542 4.41384 14.0417
9.12424 80000078100000607 80000078100000605 80000078100000616 80000078100000604 6.14490120342 -7.689 3.42394 8.76187
9.02855 80000078100000660 80000078100000659 80000078100000664 80000078100000658 6.85511726265 -4.07798 0.441551 -2.1114
9.07492 80000078100000659 80000078100000657 80000078100000664 80000078100000656 6.14490120342 -3.82507 -0.0679023 -2.18943
9.13154 80000078100000657 80000078100000654 80000078100000664 80000078100000653 5.52976580795 -2.40923 2.64617 -1.13811
9.18802 80000078100000654 80000078100000653 80000078100000664 80000078100000652 5.22758097313 -3.26442 2.11415 -4.04254
9.27938 80000078100000653 80000078100000652 80000078100000664 80000078100000651 4.99593346816 -10.6278 7.24815 -9.55973
9.30923 80000078100000652 80000078100000651 80000078100000664 80000078100000650 4.93938066349 -9.74496 7.96251 -9.08904
9.34461 80000078100000651 80000078100000650 80000078100000664 80000078100000649 4.66451770247 -8.93536 9.12422 -9.58246
9.39214 80000078100000650 80000078100000649 80000078100000664 80000078100000648 4.42803373661 -8.31829 15.7741 -8.18101
9.45261 80000078100000649 80000078100000648 80000078100000664 80000078100000647 4.17683491473 -11.4512 9.0296 -7.22699
9.47396 80000078100000648 80000078100000647 80000078100000664 80000078100000646 4.00794511147 -15.1865 10.8298 -6.68185
9.49221 80000078100000647 80000078100000646 80000078100000664 80000078100000645 3.93726108473 -14.372 6.84011 -7.62132
9.54372 80000078100000646 80000078100000645 80000078100000664 80000078100000644 3.70877426464 -21.4458 7.92172 -13.6195
9.54651 80000078100000645 80000078100000644 80000078100000664 80000078100000643 3.49086136926 -20.9873 12.1127 -8.21427
9.0098 80000078100000786 80000078100000785 80000078100000791 80000078100000784 10.3674435724 1.00235 -0.159356 1.50691
9.08038 80000078100000785 80000078100000784 80000078100000791 80000078100000783 9.99659046619 2.87893 -1.95362 -1.13335
9.08578 80000078100000784 80000078100000783 80000078100000791 80000078100000782 9.84138043947 3.56658 -0.731427 -1.38729
9.10157 80000078100000783 80000078100000782 80000078100000791 80000078100000781 9.38877127194 3.08467 -2.11291 -0.26178
9.11179 80000078100000782 80000078100000781 80000078100000791 80000078100000780 9.00233985416 3.89707 -0.849803 -0.196828
9.18802 80000078100000781 80000078100000780 80000078100000791 80000078100000779 8.9079991856 4.51671 -0.10386 -0.794933
9.26896 80000078100000780 80000078100000779 80000078100000791 80000078100000778 8.44947629437 -2.86393 -1.63275 3.1016
9.58723 80000078100000779 80000078100000777 80000078100000791 80000078100000776 7.59510714987 -15.2602 1.40627 -8.40027
9.66372 80000078100000777 80000078100000776 80000078100000791 80000078100000775 7.23627606617 -14.0497 2.50095 -7.0772
9.70039 80000078100000776 80000078100000775 80000078100000791 80000078100000774 7.00541704554 -15.5162 1.23531 -6.07751
9.72935 80000078100000775 80000078100000774 80000078100000791 80000078100000773 6.85511726265 -15.391 2.20436 -5.71077
9.78152 80000078100000774 80000078100000773 80000078100000791 80000078100000772 6.49159774567 -15.3692 3.4342 -2.57561
9.78152 80000078100000773 80000078100000772 80000078100000791 80000078100000771 6.14490120342 -12.4511 1.49679 -0.365069
9.81026 80000078100000772 80000078100000771 80000078100000791 80000078100000770 6.01075739884 -15.0464 2.54818 -1.58713
9.83531 80000078100000771 80000078100000770 80000078100000791 80000078100000769 5.84661374788 -12.3981 2.1498 4.39
9.88868 80000078100000770 80000078100000769 80000078100000791 80000078100000768 5.52976580795 -16.3717 2.66639 5.45605
9.9028 80000078100000769 80000078100000768 80000078100000791 80000078100000767 5.22758097313 -17.1597 9.05735 3.82366
9.91845 80000078100000768 80000078100000767 80000078100000791 80000078100000766 4.99593346816 -20.8154 4.21065 3.91161
9.94593 80000078100000767 80000078100000766 80000078100000791 80000078100000765 4.93938066349 -20.6696 5.27608 4.03743
9.97629 80000078100000766 80000078100000765 80000078100000791 80000078100000764 4.66451770247 -19.7357 5.41897 7.6298
10.0768 80000078100000765 80000078100000764 80000078100000791 80000078100000763 4.42803373661 -16.2867 13.5808 6.26669
10.1589 80000078100000764 80000078100000763 80000078100000791 80000078100000762 4.17683491473 -17.0781 29.5261 15.6427
10.1801 80000078100000763 80000078100000762 80000078100000791 80000078100000761 4.00794511147 -24.4353 28.4529 17.5489
10.1895 80000078100000762 80000078100000761 80000078100000791 80000078100000760 3.93726108473 -21.0535 21.5532 18.536
10.2115 80000078100000761 80000078100000760 80000078100000791 80000078100000759 3.70877426464 -19.198 22.4077 20.7048
10.2376 80000078100000760 80000078100000759 80000078100000791 80000078100000758 3.49086136926 -19.802 24.0914 20.3427
11.3156 80000078100000759 80000078100000745 80000078100000791 80000078100000744 1.66666955611 -40.4517 -307.376 96.0329
11.318 80000078100000745 80000078100000744 80000078100000791 80000078100000061 1.60423452207 2.68228 -333.901 99.2514
9.49011 80000078100000793 80000078100000792 80000078100000800 80000078100000777 8.01217294887 -12.9603 4.49047 -10.9816
9.02855 80000078100000828 80000078100000827 80000078100000834 80000078100000826 4.66451770247 15.3603 -5.09389 -2.29758
11.2991 80000078100000862 80000078100000861 80000078100000863 80000078100000745 1.74357057433 8.08106 -298.447 76.9053
9.88571 80000078100000873 80000078100000872 80000078100000873 80000078100000871 1.90408954353 3.54529 9.18983 22.9199
9.07766 80000078100000907 80000078100000906 80000078100000921 80000078100000905 3.08482263583 -1.1212 -0.913909 2.70588
9.11681 80000078100000906 80000078100000903 80000078100000921 80000078100000902 2.73314261732 0.63767 2.01972 -4.17417
9.11681 80000078100000903 80000078100000900 80000078100000921 80000078100000899 2.31611074396 0.248696 -0.268755 -13.4965
9.00012 80000078100000964 80000078100000963 80000078100000974 80000078100000962 3.93726108473 -1.58405 -1.02894 -4.19432
9.09375 80000078100000963 80000078100000962 80000078100000974 80000078100000961 3.70877426464 -5.94396 11.9241 2.02571
9.14811 80000078100000962 80000078100000959 80000078100000974 80000078100000958 3.08482263583 -14.8611 20.9483 13.7519
9.1573 80000078100000959 80000078100000958 80000078100000974 80000078100000957 3.00813107163 -7.11931 17.6461 10.4781
9.17512 80000078100000958 80000078100000955 80000078100000974 80000078100000954 2.5772902716 -6.01411 15.2659 5.3455
9.17946 80000078100000955 80000078100000951 80000078100000974 80000078100000950 2.1032696526 -5.0334 15.8707 3.05596
9.25284 80000078100000951 80000078100000950 80000078100000974 80000078100000949 2.00202813925 -11.8066 15.4507 2.52575
9.02239 80000078100001102 80000078100001101 80000078100001107 80000078100001100 3.49086136926 -3.13731 19.4766 4.576
9.22262 80000078100001101 80000078100001100 80000078100001107 80000078100001099 3.28303305796 11.4796 -7.91075 -0.734228
9.22457 80000078100001100 80000078100001099 80000078100001107 80000078100001098 3.08482263583 9.90351 -5.04211 -0.1047
9.08038 80000078100001234 80000078100001233 80000078100001250 80000078100001232 3.93726108473 11.2068 -2.40118 12.0932
9.23988 80000078100001233 80000078100001231 80000078100001250 80000078100001230 3.49086136926 5.70421 4.30535 10.9959
9.32187 80000078100001231 80000078100001230 80000078100001250 80000078100001229 3.28303305796 0.937487 -4.84204 8.97636
9.33716 80000078100001230 80000078100001229 80000078100001250 80000078100001228 3.08482263583 -5.90458 -7.02046 11.4651
9.41156 80000078100001229 80000078100001228 80000078100001250 80000078100001227 3.00813107163 -2.03131 1.42954 19.2353
9.4549 80000078100001228 80000078100001227 80000078100001250 80000078100001226 2.89578500573 -8.66388 -12.0546 16.8818
9.54372 80000078100001227 80000078100001226 80000078100001250 80000078100001225 2.73314261732 -12.072 -5.77035 18.6777
9.56557 80000078100001226 80000078100001224 80000078100001250 80000078100001223 2.44422570455 -7.74057 -3.56958 21.8918
9.57262 80000078100001224 80000078100001223 80000078100001250 80000078100001222 2.31611074396 -8.69206 0.720086 21.7347
9.58041 80000078100001223 80000078100001222 80000078100001250 80000078100001221 2.20792547238 -5.25665 2.70212 26.1776
9.06939 80000078100001384 80000078100001383 80000078100001393 80000078100001382 3.08482263583 -19.074 -0.0772496 -7.26416
9.07766 80000078100001383 80000078100001382 80000078100001393 80000078100001381 3.00813107163 -21.2677 0.534115 -7.59091
9.13634 80000078100001382 80000078100001381 80000078100001393 80000078100001380 2.89578500573 -20.6482 1.47647 -12.0875
9.16182 80000078100001381 80000078100001380 80000078100001393 80000078100001379 2.73314261732 -22.0578 0.822382 -10.1579
9.17729 80000078100001380 80000078100001379 80000078100001393 80000078100001378 2.5772902716 -18.3765 3.85778 -14.2849
9.20055 80000078100001379 80000078100001373 80000078100001393 80000078100001372 1.90408954353 -14.4218 3.46082 -27.3808
9.2026 80000078100001373 80000078100001369 80000078100001393 80000078100001368 1.60423452207 -7.92913 0.477188 -14.1039
9.22845 80000078100001369 80000078100001368 80000078100001393 80000078100001367 1.53123902916 -3.69566 1.45297 -10.8325
9.00337 80000078100001639 80000078100001638 80000078100001647 80000078100001637 8.01217294887 2.68695 -9.20184 3.86658
9.10926 80000078100001638 80000078100001636 80000078100001647 80000078100001635 7.23627606617 9.02812 -3.24449 7.6122
9.1663 80000078100001636 80000078100001635 80000078100001647 80000078100001634 7.00541704554 10.0697 0.335639 10.1654
9.2342 80000078100001635 80000078100001632 80000078100001647 80000078100001631 6.14490120342 6.42734 -4.65076 3.58767
9.25101 80000078100001632 80000078100001630 80000078100001647 80000078100001629 5.84661374788 5.39039 -4.37464 -0.407197
9.27766 80000078100001630 80000078100001629 80000078100001647 80000078100001628 5.52976580795 4.05019 -6.04322 2.25422
9.2828 80000078100001629 80000078100001628 80000078100001647 80000078100001627 5.22758097313 0.25876 -5.5281 2.20122
9.2862 80000078100001628 80000078100001625 80000078100001647 80000078100001624 4.66451770247 -1.63246 0.349253 7.34124
9.31874 80000078100001625 80000078100001624 80000078100001647 80000078100001623 4.42803373661 4.01432 4.42454 7.54716
9.01614 80000078100001686 80000078100001685 80000078100001709 80000078100001684 2.1032696526 1.86003 -3.05799 -19.3462
9.05524 80000078100001685 80000078100001679 80000078100001709 80000078100001678 1.60423452207 -3.02262 -0.612 -23.5212
9.05524 80000078100001679 80000078100001677 80000078100001709 80000078100001676 1.47197484527 -3.41994 1.58174 -14.1338
9.05524 80000078100001677 80000078100001672 80000078100001709 80000078100001671 1.20625808078 -6.53892 5.5867 -12.9357
9.10671 80000078100002025 80000078100002024 80000078100002033 80000078100002023 7.23627606617 -3.07318 -0.361604 -6.69714
9.24733 80000078100002024 80000078100002023 80000078100002033 80000078100002022 7.00541704554 -0.964308 0.926833 -2.17299
9.27072 80000078100002023 80000078100002022 80000078100002033 80000078100002021 6.85511726265 0.455333 0.92271 -1.30117
9.34609 80000078100002022 80000078100002021 80000078100002033 80000078100002020 6.49159774567 -0.76352 -1.55662 -7.91539
9.41282 80000078100002021 80000078100002020 80000078100002033 80000078100002019 6.14490120342 -0.832166 -0.635232 -7.18491
9.43974 80000078100002020 80000078100002019 80000078100002033 80000078100002018 6.01075739884 -0.733059 -1.57988 -6.33323
9.48157 80000078100002019 80000078100002018 80000078100002033 80000078100002017 5.84661374788 -2.46276 -0.727803 -11.0824
9.53618 80000078100002018 80000078100002017 80000078100002033 80000078100002016 5.52976580795 -1.53052 1.05893 -7.17644
9.60785 80000078100002017 80000078100002016 80000078100002033 80000078100002015 5.22758097313 -2.51805 6.86283 0.202051
9.66017 80000078100002016 80000078100002015 80000078100002033 80000078100002014 4.99593346816 -1.17328 8.91087 4.51643
9.68582 80000078100002015 80000078100002014 80000078100002033 80000078100002013 4.93938066349 -0.972633 9.15996 5.92233
9.83051 80000078100002014 80000078100002013 80000078100002033 80000078100002012 4.66451770247 -23.5956 -16.2493 3.06692
9.83051 80000078100002013 80000078100002012 80000078100002033 80000078100002011 4.42803373661 -6.62277 -5.35544 -2.4008
9.92276 80000078100002012 80000078100002011 80000078100002033 80000078100002010 4.17683491473 -21.9575 -22.7008 -0.402444
9.93469 80000078100002011 80000078100002010 80000078100002033 80000078100002009 4.00794511147 -19.5435 -17.7837 3.06434
9.98313 80000078100002010 80000078100002008 80000078100002033 80000078100002007 3.70877426464 -16.3177 -8.6807 1.26295
10.0205 80000078100002008 80000078100002007 80000078100002033 80000078100002006 3.49086136926 -20.1285 -8.14057 2.75838
10.0524 80000078100002007 80000078100002006 80000078100002033 80000078100002005 3.28303305796 -13.2986 -8.03079 -1.79765
10.1444 80000078100002006 80000078100002005 80000078100002033 80000078100002004 3.08482263583 -31.7441 -1.89098 -1.20888
10.3355 80000078100002005 80000078100002004 80000078100002033 80000078100002003 3.00813107163 -56.9067 1.3422 36.6582
10.4278 80000078100002004 80000078100002003 80000078100002033 80000078100002002 2.89578500573 -64.5509 -11.0896 55.7182
10.4555 80000078100002003 80000078100001999 80000078100002033 80000078100001998 2.31611074396 -66.5419 -18.2315 23.4107
10.4566 80000078100001999 80000078100001987 80000078100002033 80000078100001986 1.3575766674 -66.8657 17.1814 41.2653
10.4661 80000078100001987 80000078100001986 80000078100002033 80000078100001985 1.30237845991 -65.2908 27.9587 40.0111
10.4864 80000078100001986 80000078100001985 80000078100002033 80000078100001984 1.24847261425 -77.2083 29.5844 43.4967
10.4999 80000078100001985 80000078100001983 80000078100002033 80000078100001982 1.15460271236 -82.4561 39.5451 37.353
10.5085 80000078100001983 80000078100001982 80000078100002033 80000078100001981 1.11415056377 -83.7644 51.8095 36.5246
9.0098 80000078100002065 80000078100002064 80000078100002073 80000078100002063 5.84661374788 -5.60567 -5.26328 0.534831
9.06939 80000078100002064 80000078100002063 80000078100002073 80000078100002062 5.52976580795 -0.243216 1.55545 -0.457413
9.1573 80000078100002063 80000078100002062 80000078100002073 80000078100002061 5.22758097313 -8.10248 4.9413 -3.10678
9.21072 80000078100002169 80000078100002168 80000078100002175 80000078100002167 5.84661374788 7.55033 5.37789 12.4326
9.2361 80000078100002168 80000078100002167 80000078100002175 80000078100002166 5.52976580795 -0.273011 0.776868 9.09905
9.29622 80000078100002167 80000078100002166 80000078100002175 80000078100002165 5.22758097313 2.72429 4.26551 10.2543
9.41156 80000078100002166 80000078100002165 80000078100002175 80000078100002164 4.99593346816 0.700885 3.30597 5.32704
9.61346 80000078100002165 80000078100002163 80000078100002175 80000078100002162 4.66451770247 5.47974 -0.893099 12.7834
9.6756 80000078100002163 80000078100002162 80000078100002175 80000078100002161 4.42803373661 4.66321 0.509003 12.6298
9.70749 80000078100002162 80000078100002161 80000078100002175 80000078100002160 4.17683491473 2.97825 -4.26242 12.4085
9.74842 80000078100002161 80000078100002160 80000078100002175 80000078100002159 4.00794511147 1.82761 -7.63321 14.0711
9.75017 80000078100002160 80000078100002159 80000078100002175 80000078100002158 3.93726108473 2.36203 -13.6876 12.9612
9.83002 80000078100002159 80000078100002158 80000078100002175 80000078100002157 3.70877426464 4.78708 -12.9389 15.0944
9.84194 80000078100002158 80000078100002156 80000078100002175 80000078100002155 3.28303305796 3.83445 -2.77863 8.82563
10.2686 80000078100002156 80000078100002152 80000078100002175 80000078100002151 2.73314261732 -48.4732 -24.6213 20.4857
9.00337 80000078100002282 80000078100002281 80000078100002291 80000078100002280 4.00794511147 0.446351 -4.81173 -5.59679
9.01614 80000078100002281 80000078100002279 80000078100002291 80000078100002278 3.70877426464 3.52485 -7.8869 -4.55763
9.05235 80000078100002279 80000078100002278 80000078100002291 80000078100002277 3.49086136926 -1.46301 -6.08844 5.2058
9.11681 80000078100002278 80000078100002277 80000078100002291 80000078100002276 3.28303305796 7.39734 -8.17732 -4.95517
9.01614 80000078100002481 80000078100002480 80000078100002488 80000078100002479 7.59510714987 -2.39972 4.26464 2.80236
9.04653 80000078100002480 80000078100002479 80000078100002488 80000078100002478 7.23627606617 -1.23553 3.89213 3.17813
9.11681 80000078100002479 80000078100002478 80000078100002488 80000078100002477 7.00541704554 1.41051 4.24458 3.15115
9.17073 80000078100002478 80000078100002477 80000078100002488 80000078100002476 6.85511726265 1.30442 9.01226 3.44192
9.31717 80000078100002477 80000078100002476 80000078100002488 80000078100002475 6.49159774567 -1.85703 7.04965 0.751366
9.42033 80000078100002476 80000078100002475 80000078100002488 80000078100002474 6.14490120342 -7.09894 -6.3312 -5.23444
9.42771 80000078100002475 80000078100002474 80000078100002488 80000078100002473 6.01075739884 -0.0610628 -3.13001 -1.93455
9.46955 80000078100002474 80000078100002473 80000078100002488 80000078100002472 5.84661374788 -4.50781 -6.61316 -4.10812
9.49848 80000078100002473 80000078100002472 80000078100002488 80000078100002471 5.52976580795 -6.80808 -7.65609 -3.78957
9.51375 80000078100002472 80000078100002471 80000078100002488 80000078100002470 5.22758097313 -9.51438 -5.21943 -0.612581
9.56911 80000078100002471 80000078100002470 80000078100002488 80000078100002469 4.99593346816 -4.87653 -8.59242 0.427415
9.59642 80000078100002470 80000078100002468 80000078100002488 80000078100002467 4.66451770247 -1.16087 -5.41925 3.79203
9.60785 80000078100002468 80000078100002466 80000078100002488 80000078100002465 4.17683491473 -6.63229 2.10486 4.77743
9.61026 80000078100002466 80000078100002464 80000078100002488 80000078100002463 3.93726108473 -10.88 2.02503 4.67874
9.63969 80000078100002464 80000078100002463 80000078100002488 80000078100002462 3.70877426464 -8.55729 -2.88848 -0.244735
9.73178 80000078100002463 80000078100002462 80000078100002488 80000078100002461 3.49086136926 4.80926 13.1159 5.25485
9.74373 80000078100002462 80000078100002461 80000078100002488 80000078100002460 3.28303305796 6.43911 10.7955 7.61864
9.78902 80000078100002461 80000078100002460 80000078100002488 80000078100002459 3.08482263583 0.619041 5.58719 -1.87787
9.80158 80000078100002460 80000078100002456 80000078100002488 80000078100002455 2.5772902716 7.81753 -0.472353 -0.244372
9.80823 80000078100002456 80000078100002455 80000078100002488 80000078100002454 2.44422570455 4.52682 -0.691404 -4.60891
9.81877 80000078100002455 80000078100002454 80000078100002488 80000078100002453 2.31611074396 14.1954 6.89041 1.20666
9.82075 80000078100002454 80000078100002453 80000078100002488 80000078100002452 2.20792547238 17.5341 20.283 5.06412
9.87058 80000078100002453 80000078100002452 80000078100002488 80000078100002451 2.1032696526 25.137 25.9955 4.1122
9.8823 80000078100002452 80000078100002451 80000078100002488 80000078100002450 2.00202813925 24.2284 24.3404 0.163218
9.89496 80000078100002451 80000078100002448 80000078100002488 80000078100002447 1.74357057433 19.8128 12.1833 5.06807
9.91607 80000078100002448 80000078100002446 80000078100002488 80000078100002445 1.60423452207 31.0046 24.7227 17.6878
9.93469 80000078100002446 80000078100002445 80000078100002488 80000078100002444 1.53123902916 37.2043 34.3212 27.0455
9.94482 80000078100002445 80000078100002444 80000078100002488 80000078100002443 1.47197484527 37.5323 35.4941 21.8231
9.99254 80000078100002444 80000078100002443 80000078100002488 80000078100002442 1.41409822037 42.0278 46.3547 23.204
9.99453 80000078100002443 80000078100002441 80000078100002488 80000078100002440 1.30237845991 44.0568 31.1333 32.1789
10.0403 80000078100002441 80000078100002440 80000078100002488 80000078100002439 1.24847261425 36.7222 44.3392 40.4597
9.0066 80000078100002556 80000078100002555 80000078100002571 80000078100002554 4.93938066349 3.55666 0.108115 -2.73346
9.01298 80000078100002555 80000078100002554 80000078100002571 80000078100002553 4.66451770247 -0.0881952 0.240755 -5.33688
9.09375 80000078100002554 80000078100002553 80000078100002571 80000078100002552 4.42803373661 -0.264163 -1.82305 -6.14591
9.15042 80000078100002553 80000078100002552 80000078100002571 80000078100002551 4.17683491473 5.31517 0.576413 -3.43594
9.20668 80000078100002552 80000078100002551 80000078100002571 80000078100002550 4.00794511147 8.0482 7.2264 0.570899
9.25101 80000078100002551 80000078100002549 80000078100002571 80000078100002548 3.70877426464 5.57864 5.55851 -2.09638
9.28788 80000078100002549 80000078100002548 80000078100002571 80000078100002547 3.49086136926 4.63956 3.73019 -0.291349
9.32031 80000078100002548 80000078100002547 80000078100002571 80000078100002546 3.28303305796 3.71332 3.55653 1.01303
9.34461 80000078100002547 80000078100002546 80000078100002571 80000078100002545 3.08482263583 3.84067 1.62254 2.45181
9.35338 80000078100002546 80000078100002545 80000078100002571 80000078100002544 3.00813107163 3.16403 0.777889 2.14713
9.40518 80000078100002545 80000078100002544 80000078100002571 80000078100002543 2.89578500573 5.74294 4.51059 1.55852
9.43377 80000078100002544 80000078100002543 80000078100002571 80000078100002542 2.73314261732 6.08439 9.53803 2.74977
9.45145 80000078100002543 80000078100002542 80000078100002571 80000078100002541 2.5772902716 9.82493 3.73934 2.46981
9.50771 80000078100002542 80000078100002541 80000078100002571 80000078100002540 2.44422570455 11.1124 6.01874 7.09254
9.00337 80000078100002637 80000078100002636 80000078100002656 80000078100002635 2.5772902716 -3.43593 -4.30728 6.11509
9.0316 80000078100002636 80000078100002635 80000078100002656 80000078100002634 2.44422570455 -6.5556 -0.909721 6.59917
9.04945 80000078100002635 80000078100002632 80000078100002656 80000078100002631 2.1032696526 -4.00662 4.22377 3.76895
9.01298 80000078100002748 80000078100002747 80000078100002761 80000078100002746 3.28303305796 1.57852 0.986108 3.8092
9.03463 80000078100002747 80000078100002746 80000078100002761 80000078100002745 3.08482263583 3.53751 -0.664647 5.51573
9.05524 80000078100002746 80000078100002745 80000078100002761 80000078100002744 3.00813107163 2.78006 -1.35435 7.16578
9.12668 80000078100002745 80000078100002743 80000078100002761 80000078100002742 2.73314261732 2.06369 3.55224 5.51077
9.12668 80000078100002743 80000078100002742 80000078100002761 80000078100002741 2.5772902716 4.04015 3.5106 6.75113
9.13154 80000078100002742 80000078100002741 80000078100002761 80000078100002740 2.44422570455 0.491153 2.76368 6.81143
9.15956 80000078100002741 80000078100002740 80000078100002761 80000078100002739 2.31611074396 -1.72459 1.67562 3.65322
9.17946 80000078100002740 80000078100002739 80000078100002761 80000078100002738 2.20792547238 -0.299957 -1.41407 3.36108
9.2342 80000078100002739 80000078100002737 80000078100002761 80000078100002736 2.00202813925 -2.58186 -0.576731 3.97075
9.30115 80000078100002737 80000078100002736 80000078100002761 80000078100002735 1.90408954353 19.3694 -15.2751 6.03543
9.3974 80000078100002736 80000078100002729 80000078100002761 80000078100002728 1.41409822037 -25.2027 -12.0582 8.93424
9.04653 80000078100002856 80000078100002855 80000078100002868 80000078100002854 3.28303305796 -6.90691 -7.57324 1.81232
9.06378 80000078100002855 80000078100002851 80000078100002868 80000078100002850 2.73314261732 -0.46496 -11.1711 0.610037
9.0666 80000078100002851 80000078100002846 80000078100002868 80000078100002845 2.1032696526 -2.9566 -7.39651 -1.99556
9.0066 80000078100002941 80000078100002940 80000078100002964 80000078100002939 1.66666955611 0.754465 -1.28793 -8.44488
9.0316 80000078100002940 80000078100002938 80000078100002964 80000078100002937 1.53123902916 3.37632 4.20351 -7.22127
9.02548 80000078100003082 80000078100003081 80000078100003102 80000078100003080 3.93726108473 0.0624064 -6.2303 -0.52327
9.06939 80000078100003081 80000078100003080 80000078100003102 80000078100003079 3.70877426464 0.82855 -9.52486 1.75461
9.1193 80000078100003080 80000078100003078 80000078100003102 80000078100003077 3.28303305796 7.33028 -7.34042 0.916136
9.12912 80000078100003078 80000078100003077 80000078100003102 80000078100003076 3.08482263583 6.20402 -0.19978 -3.04
9.13154 80000078100003077 80000078100003076 80000078100003102 80000078100003075 3.00813107163 5.66696 -0.39643 -1.93457
9.18376 80000078100003076 80000078100003074 80000078100003102 80000078100003073 2.73314261732 10.9815 -5.4813 -1.41067
9.21472 80000078100003074 80000078100003073 80000078100003102 80000078100003072 2.5772902716 5.1877 -7.56949 -1.20152
9.22457 80000078100003073 80000078100003070 80000078100003102 80000078100003069 2.20792547238 7.12317 -7.01832 8.24163
9.22457 80000078100003070 80000078100003069 80000078100003102 80000078100003068 2.1032696526 11.0884 -9.61265 2.48838
9.24733 80000078100003069 80000078100003068 80000078100003102 80000078100003067 2.00202813925 8.91525 -11.5434 4.87432
9.25648 80000078100003068 80000078100003067 80000078100003102 80000078100003066 1.90408954353 9.73222 -6.08624 0.167557
9.26543 80000078100003067 80000078100003065 80000078100003102 80000078100003064 1.74357057433 8.6821 -12.1217 0.262904
9.29622 80000078100003065 80000078100003064 80000078100003102 80000078100003063 1.66666955611 8.20218 -13.669 2.4098
9.30602 80000078100003064 80000078100003061 80000078100003102 80000078100003060 1.47197484527 8.75928 -8.98641 5.93478
9.33111 80000078100003061 80000078100003059 80000078100003102 80000078100003058 1.3575766674 11.0889 -12.4107 6.03853
9.33111 80000078100003059 80000078100003058 80000078100003102 80000078100003057 1.30237845991 9.81567 -10.0627 7.16606
