logMh | fpID | subhaloID | main leaf ID | descID |  z
9.0316 80000348600000098 80000348600000097 80000348600000107 80000348600000096 8.01217294887 -2.35815 -1.78502 -1.27138
9.14344 80000348600000097 80000348600000096 80000348600000107 80000348600000095 7.59510714987 -4.16623 -3.52632 1.42005
9.27246 80000348600000096 80000348600000095 80000348600000107 80000348600000094 7.23627606617 1.48611 -2.35899 1.24855
9.27938 80000348600000095 80000348600000094 80000348600000107 80000348600000093 7.00541704554 2.92406 -3.24042 0.715705
9.31874 80000348600000094 80000348600000093 80000348600000107 80000348600000092 6.85511726265 4.16306 -6.01384 1.56485
9.38277 80000348600000093 80000348600000092 80000348600000107 80000348600000091 6.49159774567 3.63117 1.15875 1.63605
9.45719 80000348600000092 80000348600000091 80000348600000107 80000348600000090 6.14490120342 3.85064 2.00936 -0.611866
9.46172 80000348600000091 80000348600000089 80000348600000107 80000348600000088 5.84661374788 4.08454 1.13 0.201909
9.55021 80000348600000089 80000348600000088 80000348600000107 80000348600000087 5.52976580795 7.20864 5.97328 7.891
9.75306 80000348600000088 80000348600000087 80000348600000107 80000348600000086 5.22758097313 -12.7887 38.3923 7.60289
9.81328 80000348600000087 80000348600000086 80000348600000107 80000348600000085 4.99593346816 -9.48536 37.7623 8.82195
9.82321 80000348600000086 80000348600000085 80000348600000107 80000348600000084 4.93938066349 -11.1121 38.5659 8.27188
9.93658 80000348600000085 80000348600000084 80000348600000107 80000348600000083 4.66451770247 -21.6186 34.5041 9.28596
10.005 80000348600000084 80000348600000083 80000348600000107 80000348600000082 4.42803373661 -23.9839 52.4947 6.3583
10.0677 80000348600000083 80000348600000082 80000348600000107 80000348600000081 4.17683491473 -22.2335 44.8658 -0.456502
10.139 80000348600000082 80000348600000081 80000348600000107 80000348600000080 4.00794511147 -24.4113 51.7421 5.33766
10.1842 80000348600000081 80000348600000079 80000348600000107 80000348600000078 3.70877426464 -5.08061 61.5827 9.30801
10.2131 80000348600000079 80000348600000078 80000348600000107 80000348600000077 3.49086136926 -3.7153 60.2965 9.42788
10.2315 80000348600000078 80000348600000076 80000348600000107 80000348600000075 3.08482263583 -12.4087 35.2095 14.536
10.2665 80000348600000076 80000348600000075 80000348600000107 80000348600000074 3.00813107163 -25.5649 38.0301 15.9398
10.3223 80000348600000075 80000348600000074 80000348600000107 80000348600000073 2.89578500573 -40.2149 20.7291 -11.9121
10.3725 80000348600000074 80000348600000073 80000348600000107 80000348600000072 2.73314261732 -46.4745 14.7652 -32.8791
10.4961 80000348600000073 80000348600000072 80000348600000107 80000348600000071 2.5772902716 -134.84 2.63308 -51.2031
10.5863 80000348600000072 80000348600000071 80000348600000107 80000348600000070 2.44422570455 -189.958 3.56949 -48.7089
10.6362 80000348600000071 80000348600000070 80000348600000107 80000348600000069 2.31611074396 -203.169 4.75668 -50.0554
10.6904 80000348600000070 80000348600000069 80000348600000107 80000348600000068 2.20792547238 -210.518 -6.11246 -70.956
10.7314 80000348600000069 80000348600000068 80000348600000107 80000348600000067 2.1032696526 -195.284 -16.3725 -106.127
10.7866 80000348600000068 80000348600000067 80000348600000107 80000348600000066 2.00202813925 -167.241 -29.2015 -142.771
10.8265 80000348600000067 80000348600000066 80000348600000107 80000348600000065 1.90408954353 -131.159 -55.4307 -148.947
10.8396 80000348600000066 80000348600000065 80000348600000107 80000348600000064 1.82268925262 -108.282 -68.0422 -152.233
10.854 80000348600000065 80000348600000064 80000348600000107 80000348600000063 1.74357057433 -81.1929 -64.7645 -143.557
10.8889 80000348600000064 80000348600000063 80000348600000107 80000348600000062 1.66666955611 -68.1794 -52.2914 -153.745
10.9115 80000348600000063 80000348600000062 80000348600000107 80000348600000061 1.60423452207 -64.5642 -59.2985 -136.883
10.9302 80000348600000062 80000348600000061 80000348600000107 80000348600000060 1.53123902916 -51.1359 -63.4687 -113.364
10.9397 80000348600000061 80000348600000060 80000348600000107 80000348600000059 1.47197484527 -47.4438 -65.1293 -90.8443
10.9677 80000348600000060 80000348600000059 80000348600000107 80000348600000058 1.41409822037 -82.0261 -30.5654 -123.219
10.9831 80000348600000059 80000348600000058 80000348600000107 80000348600000057 1.3575766674 -119.041 -23.5072 -136.091
10.9978 80000348600000058 80000348600000057 80000348600000107 80000348600000056 1.30237845991 -106.311 -24.8804 -126.851
11.0071 80000348600000057 80000348600000056 80000348600000107 80000348600000055 1.24847261425 -113.88 -8.24771 -133.102
11.0254 80000348600000056 80000348600000055 80000348600000107 80000348600000054 1.20625808078 -143.516 -1.85271 -159.831
11.0286 80000348600000055 80000348600000054 80000348600000107 80000348600000053 1.15460271236 -172.4 5.05578 -203.282
11.0339 80000348600000054 80000348600000053 80000348600000107 80000348600000052 1.11415056377 -186.199 1.2673 -214.263
11.0519 80000348600000053 80000348600000052 80000348600000107 80000348600000051 1.07445789455 -192.745 10.9515 -218.688
11.0632 80000348600000052 80000348600000051 80000348600000107 80000348600000050 1.03551044566 -198.066 8.07692 -227.26
11.072 80000348600000051 80000348600000048 80000348600000107 80000348600000047 0.950531351585 -191.01 6.79724 -202.776
11.0752 80000348600000048 80000348600000047 80000348600000107 80000348600000046 0.923000816178 -197.911 -4.6492 -212.674
11.0852 80000348600000047 80000348600000046 80000348600000107 80000348600000045 0.886896937575 -212.131 -14.4937 -195.312
11.0987 80000348600000046 80000348600000045 80000348600000107 80000348600000044 0.851470900625 -221.674 -9.77918 -204.712
11.1022 80000348600000045 80000348600000044 80000348600000107 80000348600000043 0.816709979012 -233.015 -19.7839 -224.197
11.105 80000348600000044 80000348600000043 80000348600000107 80000348600000042 0.791068248946 -216.427 -22.4659 -193.14
11.1144 80000348600000043 80000348600000042 80000348600000107 80000348600000041 0.757441372616 -221.857 -26.9057 -182.263
11.1165 80000348600000042 80000348600000040 80000348600000107 80000348600000039 0.700106353719 -220.038 -37.8735 -176.536
11.1166 80000348600000040 80000348600000039 80000348600000107 80000348600000038 0.676110411213 -207.118 -36.4112 -165.935
11.1223 80000348600000039 80000348600000038 80000348600000107 80000348600000037 0.644641840685 -200.033 -41.0642 -146.203
11.124 80000348600000038 80000348600000037 80000348600000107 80000348600000036 0.621428745243 -187.76 -44.2693 -150.014
11.129 80000348600000037 80000348600000036 80000348600000107 80000348600000035 0.598543288188 -199.731 -45.9593 -137.932
11.1315 80000348600000036 80000348600000035 80000348600000107 80000348600000034 0.575980845108 -214.338 -43.7417 -139.723
11.1412 80000348600000035 80000348600000034 80000348600000107 80000348600000033 0.546392183141 -218.929 -42.3872 -142.955
11.1675 80000348600000034 80000348600000033 80000348600000107 80000348600000032 0.524565820434 -261.419 -49.1824 -228.803
11.1712 80000348600000033 80000348600000032 80000348600000107 80000348600000031 0.503047523245 -263.53 -54.8722 -248.643
11.1747 80000348600000032 80000348600000031 80000348600000107 80000348600000030 0.481832943421 -263.495 -55.0999 -298.451
11.187 80000348600000031 80000348600000029 80000348600000107 80000348600000028 0.440297849248 -245.818 -69.3319 -340.118
11.193 80000348600000029 80000348600000028 80000348600000107 80000348600000027 0.419968941997 -267.711 -71.8461 -367.419
11.2054 80000348600000028 80000348600000027 80000348600000107 80000348600000026 0.399926964614 -293.903 -82.035 -394.474
11.2178 80000348600000027 80000348600000026 80000348600000107 80000348600000025 0.38016786726 -342.957 -89.1296 -456.777
11.2288 80000348600000026 80000348600000023 80000348600000107 80000348600000022 0.328829724206 -359.861 -74.1339 -509.88
11.2388 80000348600000023 80000348600000021 80000348600000107 80000348600000020 0.291583239722 -444.872 -73.3399 -521.266
11.2488 80000348600000021 80000348600000020 80000348600000107 80000348600000019 0.273353346578 -460.58 -73.8286 -562.921
11.259 80000348600000020 80000348600000019 80000348600000107 80000348600000018 0.261343256161 -460.648 -69.7989 -564.779
11.2657 80000348600000019 80000348600000018 80000348600000107 80000348600000017 0.243540181555 -486.656 -73.2288 -581.768
11.2777 80000348600000018 80000348600000017 80000348600000107 80000348600000016 0.22598838626 -522.118 -55.6998 -573.624
11.2827 80000348600000017 80000348600000016 80000348600000107 80000348600000015 0.214425035514 -545.615 -51.4385 -593.192
11.2941 80000348600000016 80000348600000015 80000348600000107 80000348600000014 0.197284182376 -592.264 -12.8386 -599.125
11.2978 80000348600000015 80000348600000014 80000348600000107 80000348600000013 0.180385261706 -617.409 4.88113 -602.872
11.303 80000348600000014 80000348600000013 80000348600000107 80000348600000012 0.169252033244 -622.403 11.1404 -617.757
11.3053 80000348600000013 80000348600000012 80000348600000107 80000348600000011 0.152748768902 -630.393 26.6851 -628.542
11.3131 80000348600000012 80000348600000011 80000348600000107 80000348600000010 0.14187620397 -641.702 41.6553 -631.082
11.3133 80000348600000011 80000348600000010 80000348600000107 80000348600000009 0.125759332411 -613.588 62.7905 -608.136
11.3201 80000348600000010 80000348600000009 80000348600000107 80000348600000008 0.109869940459 -624.855 114.661 -622.791
11.3252 80000348600000009 80000348600000008 80000348600000107 80000348600000007 0.0994018026302 -600.436 128.516 -623.229
11.3316 80000348600000008 80000348600000007 80000348600000107 80000348600000006 0.0838844307975 -581.652 119.49 -664.204
11.3326 80000348600000007 80000348600000006 80000348600000107 80000348600000005 0.0736613846564 -597.259 123.557 -651.386
11.3355 80000348600000006 80000348600000005 80000348600000107 80000348600000004 0.0585073227945 -574.563 104.639 -677.87
11.341 80000348600000005 80000348600000004 80000348600000107 80000348600000003 0.0485236299818 -595.301 112.372 -685.859
11.3457 80000348600000004 80000348600000002 80000348600000107 80000348600000001 0.0239744283828 -616.51 122.848 -706.37
11.3507 80000348600000002 80000348600000001 80000348600000107 80000348600000000 0.00952166696794 -619.433 98.3873 -711.605
9.0066 80000348600000138 80000348600000137 80000348600000142 80000348600000136 7.23627606617 7.04063 -6.01283 0.618334
9.05811 80000348600000137 80000348600000136 80000348600000142 80000348600000135 7.00541704554 5.97522 -7.06376 0.0867586
9.06939 80000348600000136 80000348600000135 80000348600000142 80000348600000134 6.85511726265 0.877743 -6.90066 1.40755
9.20055 80000348600000135 80000348600000134 80000348600000142 80000348600000133 6.49159774567 -0.302902 -10.3388 -0.868208
9.26365 80000348600000134 80000348600000133 80000348600000142 80000348600000132 6.14490120342 -8.74958 -18.0498 -0.0945884
9.27766 80000348600000133 80000348600000131 80000348600000142 80000348600000130 5.84661374788 -7.44584 -13.8743 -1.09138
9.10671 80000348600000194 80000348600000193 80000348600000199 80000348600000192 8.01217294887 -2.36513 7.87184 2.22011
9.14108 80000348600000193 80000348600000192 80000348600000199 80000348600000191 7.59510714987 -1.97349 0.825287 -0.395412
9.19013 80000348600000192 80000348600000191 80000348600000199 80000348600000190 7.23627606617 -1.31819 3.13295 1.05921
9.24175 80000348600000191 80000348600000190 80000348600000199 80000348600000189 7.00541704554 -5.25921 5.20454 1.3231
9.28788 80000348600000190 80000348600000189 80000348600000199 80000348600000188 6.85511726265 -6.27559 0.356643 -0.257101
9.31083 80000348600000189 80000348600000187 80000348600000199 80000348600000186 6.14490120342 -6.12896 0.470566 2.55267
9.34313 80000348600000187 80000348600000186 80000348600000199 80000348600000185 6.01075739884 -10.7589 -2.02913 -0.914604
9.36902 80000348600000186 80000348600000185 80000348600000199 80000348600000184 5.84661374788 -12.1036 -3.82547 0.588067
9.37595 80000348600000185 80000348600000184 80000348600000199 80000348600000183 5.52976580795 -12.0817 -5.59834 2.18511
9.38547 80000348600000184 80000348600000183 80000348600000199 80000348600000182 5.22758097313 -11.4388 -5.55999 -0.7129
9.39871 80000348600000183 80000348600000182 80000348600000199 80000348600000181 4.99593346816 -15.4786 -7.94688 -2.30881
9.4026 80000348600000182 80000348600000181 80000348600000199 80000348600000180 4.93938066349 -18.4213 -8.00466 -2.12283
9.0066 80000348600000240 80000348600000239 80000348600000246 80000348600000238 6.14490120342 -3.96384 13.8464 -3.13164
9.15273 80000348600000239 80000348600000238 80000348600000246 80000348600000237 6.01075739884 -3.91537 13.5637 -12.8535
9.17293 80000348600000238 80000348600000236 80000348600000246 80000348600000235 5.52976580795 -7.1978 11.9092 -9.0315
9.21472 80000348600000236 80000348600000235 80000348600000246 80000348600000234 5.22758097313 -3.86793 14.3312 -8.0865
9.32497 80000348600000235 80000348600000234 80000348600000246 80000348600000233 4.99593346816 -6.79642 9.6301 -0.278194
9.35194 80000348600000234 80000348600000232 80000348600000246 80000348600000231 4.66451770247 1.48324 9.46281 8.24397
9.38005 80000348600000232 80000348600000231 80000348600000246 80000348600000230 4.42803373661 -4.72386 7.48333 6.94557
9.57262 80000348600000231 80000348600000230 80000348600000246 80000348600000229 4.17683491473 1.59136 35.7758 19.84
9.61504 80000348600000230 80000348600000229 80000348600000246 80000348600000228 4.00794511147 3.20322 27.7324 16.7693
9.65442 80000348600000229 80000348600000227 80000348600000246 80000348600000226 3.70877426464 3.74066 26.1389 17.069
9.76219 80000348600000227 80000348600000226 80000348600000246 80000348600000225 3.49086136926 8.44791 18.3054 16.6885
9.77169 80000348600000226 80000348600000224 80000348600000246 80000348600000223 3.08482263583 6.40104 14.5062 10.4867
9.77334 80000348600000224 80000348600000223 80000348600000246 80000348600000222 3.00813107163 7.14386 17.0248 15.6117
9.11431 80000348600000374 80000348600000373 80000348600000383 80000348600000372 7.23627606617 -2.94128 -6.79325 6.48793
9.14108 80000348600000373 80000348600000372 80000348600000383 80000348600000371 7.00541704554 -5.11805 -9.96043 12.17
9.15042 80000348600000372 80000348600000371 80000348600000383 80000348600000370 6.85511726265 -6.91552 -9.26361 9.9119
9.31083 80000348600000371 80000348600000369 80000348600000383 80000348600000368 6.14490120342 8.85949 -7.70963 6.16783
9.31401 80000348600000369 80000348600000368 80000348600000383 80000348600000367 6.01075739884 0.180948 -7.64446 7.96828
9.35194 80000348600000368 80000348600000367 80000348600000383 80000348600000366 5.84661374788 0.538335 -4.7896 2.67356
9.50669 80000348600000367 80000348600000366 80000348600000383 80000348600000365 5.52976580795 6.48029 1.65919 0.432909
9.58127 80000348600000366 80000348600000365 80000348600000383 80000348600000364 5.22758097313 7.21043 2.23777 -2.64355
9.65514 80000348600000365 80000348600000364 80000348600000383 80000348600000363 4.99593346816 11.9762 -2.54461 -0.235368
9.67075 80000348600000364 80000348600000363 80000348600000383 80000348600000362 4.93938066349 10.7221 -1.61117 -1.81817
9.70299 80000348600000363 80000348600000362 80000348600000383 80000348600000361 4.66451770247 6.48049 -1.88141 -2.37302
9.78044 80000348600000362 80000348600000361 80000348600000383 80000348600000360 4.42803373661 5.08602 -8.34141 4.67115
9.83339 80000348600000361 80000348600000360 80000348600000383 80000348600000359 4.17683491473 0.254328 -6.46224 2.10406
9.83911 80000348600000360 80000348600000358 80000348600000383 80000348600000357 3.93726108473 3.91779 -3.91716 2.36762
9.90239 80000348600000358 80000348600000357 80000348600000383 80000348600000356 3.70877426464 19.7659 -2.87617 -3.31026
9.9529 80000348600000357 80000348600000356 80000348600000383 80000348600000355 3.49086136926 26.0696 -1.80494 -3.08509
9.96828 80000348600000356 80000348600000355 80000348600000383 80000348600000354 3.28303305796 18.7318 -3.32371 -3.50376
9.05524 80000348600000408 80000348600000407 80000348600000416 80000348600000406 8.01217294887 5.88441 -2.06685 2.28774
9.09111 80000348600000407 80000348600000406 80000348600000416 80000348600000405 7.59510714987 6.37393 -5.18957 7.15866
9.12424 80000348600000406 80000348600000405 80000348600000416 80000348600000404 7.23627606617 5.52175 -3.9872 6.98485
9.14344 80000348600000405 80000348600000404 80000348600000416 80000348600000403 7.00541704554 8.18115 -4.24187 8.7717
9.17729 80000348600000404 80000348600000403 80000348600000416 80000348600000402 6.85511726265 9.43986 -4.42041 9.84648
9.2087 80000348600000403 80000348600000402 80000348600000416 80000348600000401 6.49159774567 11.0566 -2.29334 5.35899
9.2342 80000348600000402 80000348600000400 80000348600000416 80000348600000399 6.01075739884 13.6647 -1.93154 2.88706
9.02855 80000348600000556 80000348600000555 80000348600000561 80000348600000554 7.23627606617 1.48734 -1.65601 -1.39844
9.0666 80000348600000555 80000348600000553 80000348600000561 80000348600000552 6.85511726265 -0.159804 -4.58546 -2.4816
9.09111 80000348600000553 80000348600000552 80000348600000561 80000348600000551 6.49159774567 -0.380706 -2.53414 -3.83102
9.20464 80000348600000552 80000348600000551 80000348600000561 80000348600000550 6.14490120342 0.72442 -1.94326 -2.72128
9.21072 80000348600000551 80000348600000550 80000348600000561 80000348600000549 6.01075739884 0.510184 -2.46443 -3.24963
9.2361 80000348600000550 80000348600000549 80000348600000561 80000348600000548 5.84661374788 -0.793521 -2.11264 -0.816234
9.29622 80000348600000549 80000348600000548 80000348600000561 80000348600000547 5.52976580795 3.14454 0.0864691 -4.91162
9.37732 80000348600000548 80000348600000547 80000348600000561 80000348600000546 5.22758097313 0.056455 -1.32915 -0.0848107
9.44914 80000348600000547 80000348600000546 80000348600000561 80000348600000545 4.99593346816 -0.872749 -0.528926 1.58482
9.46844 80000348600000546 80000348600000545 80000348600000561 80000348600000544 4.93938066349 -0.817687 -1.58974 1.25137
9.49951 80000348600000545 80000348600000544 80000348600000561 80000348600000543 4.66451770247 -4.51324 -2.39435 9.12481
9.54651 80000348600000544 80000348600000543 80000348600000561 80000348600000542 4.42803373661 -9.43048 -2.58149 12.8706
9.55931 80000348600000543 80000348600000540 80000348600000561 80000348600000539 3.93726108473 -12.6396 -4.23143 8.5568
9.61106 80000348600000540 80000348600000539 80000348600000561 80000348600000538 3.70877426464 -6.73025 1.93291 10.5198
9.64342 80000348600000539 80000348600000538 80000348600000561 80000348600000537 3.49086136926 -6.85676 -3.18826 12.3362
9.66584 80000348600000538 80000348600000536 80000348600000561 80000348600000535 3.08482263583 2.26035 4.83653 8.70181
9.67629 80000348600000536 80000348600000534 80000348600000561 80000348600000533 2.89578500573 2.17037 2.71555 3.84668
9.68312 80000348600000534 80000348600000531 80000348600000561 80000348600000530 2.44422570455 0.372528 -9.37051 3.14861
9.08845 80000348600000706 80000348600000705 80000348600000717 80000348600000704 6.14490120342 -0.463468 -8.36698 0.711783
9.09898 80000348600000705 80000348600000704 80000348600000717 80000348600000703 6.01075739884 -0.469137 -6.65435 2.33005
9.13394 80000348600000704 80000348600000703 80000348600000717 80000348600000702 5.84661374788 3.14557 -6.57146 3.66098
9.2811 80000348600000703 80000348600000702 80000348600000717 80000348600000701 5.52976580795 3.82549 -5.33686 4.77345
9.35338 80000348600000702 80000348600000701 80000348600000717 80000348600000700 5.22758097313 1.84 -3.63587 7.31722
9.46172 80000348600000701 80000348600000700 80000348600000717 80000348600000699 4.99593346816 11.0663 -9.97722 -2.47409
9.46955 80000348600000700 80000348600000699 80000348600000717 80000348600000698 4.93938066349 6.85587 -8.98156 -2.21786
9.50363 80000348600000699 80000348600000698 80000348600000717 80000348600000697 4.66451770247 5.97196 -10.0543 -1.11011
9.51175 80000348600000698 80000348600000697 80000348600000717 80000348600000696 4.42803373661 6.71069 -8.60655 -1.28778
9.5566 80000348600000697 80000348600000696 80000348600000717 80000348600000695 4.17683491473 9.36226 -9.25609 -0.108017
9.73299 80000348600000696 80000348600000695 80000348600000717 80000348600000694 4.00794511147 39.296 1.94142 15.5077
9.81877 80000348600000695 80000348600000693 80000348600000717 80000348600000692 3.70877426464 46.5227 20.95 49.0677
9.85215 80000348600000693 80000348600000688 80000348600000717 80000348600000687 2.89578500573 33.042 7.04395 12.8694
9.88868 80000348600000688 80000348600000686 80000348600000717 80000348600000685 2.5772902716 40.8777 18.9078 31.5998
9.89787 80000348600000686 80000348600000683 80000348600000717 80000348600000682 2.20792547238 47.716 15.9325 21.7381
9.03763 80000348600000873 80000348600000872 80000348600000890 80000348600000871 4.17683491473 -0.805707 0.815354 -1.63379
9.07766 80000348600000872 80000348600000871 80000348600000890 80000348600000870 4.00794511147 -3.41725 0.902179 -5.19604
9.16852 80000348600000871 80000348600000869 80000348600000890 80000348600000868 3.70877426464 -1.33535 -0.0454606 3.45133
9.16852 80000348600000869 80000348600000868 80000348600000890 80000348600000867 3.49086136926 -1.47615 3.27524 6.00666
9.20464 80000348600000868 80000348600000866 80000348600000890 80000348600000865 3.08482263583 -3.33415 2.66055 9.3663
9.23988 80000348600000866 80000348600000865 80000348600000890 80000348600000864 3.00813107163 -5.57137 -1.1034 12.5214
9.24175 80000348600000865 80000348600000864 80000348600000890 80000348600000863 2.89578500573 -3.42701 2.58655 8.65927
9.24548 80000348600000864 80000348600000860 80000348600000890 80000348600000859 2.31611074396 -4.44971 2.76536 4.04202
9.04945 80000348600000989 80000348600000988 80000348600000996 80000348600000987 5.52976580795 0.761985 -3.89162 -8.95204
9.1193 80000348600000988 80000348600000987 80000348600000996 80000348600000986 5.22758097313 -0.73155 -1.52703 -10.6024
9.13154 80000348600000987 80000348600000986 80000348600000996 80000348600000985 4.99593346816 1.36631 -0.977734 -9.76216
9.13394 80000348600000986 80000348600000985 80000348600000996 80000348600000984 4.93938066349 1.6718 -1.42468 -9.87831
9.16407 80000348600000985 80000348600000983 80000348600000996 80000348600000982 4.42803373661 6.18203 -1.91722 -14.9379
9.19433 80000348600000983 80000348600000982 80000348600000996 80000348600000981 4.17683491473 5.39187 3.68245 -21.026
9.22066 80000348600000982 80000348600000981 80000348600000996 80000348600000980 4.00794511147 7.38802 1.50131 -16.8515
9.25284 80000348600000981 80000348600000980 80000348600000996 80000348600000979 3.93726108473 3.85905 0.154988 -18.2946
9.2828 80000348600000980 80000348600000979 80000348600000996 80000348600000978 3.70877426464 11.1897 -0.833116 -17.6329
9.32805 80000348600000979 80000348600000978 80000348600000996 80000348600000977 3.49086136926 5.89722 7.57482 -30.5728
9.34756 80000348600000978 80000348600000976 80000348600000996 80000348600000975 3.08482263583 3.02174 6.55584 -15.2935
9.37181 80000348600000976 80000348600000975 80000348600000996 80000348600000974 3.00813107163 3.03901 8.32698 -17.5341
9.41156 80000348600000975 80000348600000974 80000348600000996 80000348600000973 2.89578500573 6.38818 4.87091 -16.5763
9.43136 80000348600000974 80000348600000973 80000348600000996 80000348600000972 2.73314261732 1.49301 7.95729 -19.0826
9.45946 80000348600000973 80000348600000972 80000348600000996 80000348600000971 2.5772902716 -1.98459 6.20648 -21.8409
9.07492 80000348600001289 80000348600001288 80000348600001300 80000348600001287 6.14490120342 5.00601 2.51934 1.48209
9.09898 80000348600001288 80000348600001287 80000348600001300 80000348600001286 6.01075739884 3.8961 1.88537 2.22846
9.11179 80000348600001287 80000348600001286 80000348600001300 80000348600001285 5.84661374788 4.10002 0.589374 1.86079
9.17946 80000348600001286 80000348600001285 80000348600001300 80000348600001284 5.52976580795 1.80734 0.435011 1.72146
9.26187 80000348600001285 80000348600001284 80000348600001300 80000348600001283 5.22758097313 0.616502 -2.41763 2.99379
9.29622 80000348600001284 80000348600001282 80000348600001300 80000348600001281 4.93938066349 1.18319 -2.88172 2.11177
9.33566 80000348600001282 80000348600001281 80000348600001300 80000348600001280 4.66451770247 2.74 -5.05442 1.35306
9.40518 80000348600001281 80000348600001279 80000348600001300 80000348600001278 4.17683491473 2.16448 -11.4214 11.4425
9.50872 80000348600001279 80000348600001278 80000348600001300 80000348600001277 4.00794511147 6.11221 -16.2344 7.35208
9.50973 80000348600001278 80000348600001277 80000348600001300 80000348600001276 3.93726108473 5.55897 -10.353 6.81139
9.56823 80000348600001277 80000348600001276 80000348600001300 80000348600001275 3.70877426464 6.403 -3.0445 12.5846
9.59227 80000348600001276 80000348600001275 80000348600001300 80000348600001274 3.49086136926 4.06311 1.0624 12.1133
9.67835 80000348600001275 80000348600001274 80000348600001300 80000348600001273 3.28303305796 6.73856 -16.1863 17.1884
9.68918 80000348600001274 80000348600001272 80000348600001300 80000348600001271 3.00813107163 8.26489 -13.7005 10.5561
9.73178 80000348600001272 80000348600001270 80000348600001300 80000348600001269 2.73314261732 -5.36016 -14.7028 19.6537
9.749 80000348600001270 80000348600001269 80000348600001300 80000348600001268 2.5772902716 -1.95129 -16.0158 9.29247
9.79166 80000348600001269 80000348600001268 80000348600001300 80000348600001267 2.44422570455 -13.4568 -4.79015 14.9227
9.80466 80000348600001268 80000348600001267 80000348600001300 80000348600001266 2.31611074396 -8.82386 1.64623 9.17813
9.81428 80000348600001267 80000348600001266 80000348600001300 80000348600001265 2.20792547238 6.00781 6.54378 10.6751
9.81628 80000348600001266 80000348600001265 80000348600001300 80000348600001264 2.1032696526 10.2033 5.88476 14.7541
9.84521 80000348600001265 80000348600001263 80000348600001300 80000348600001262 1.90408954353 15.976 4.46754 13.7365
9.85808 80000348600001263 80000348600001261 80000348600001300 80000348600001260 1.74357057433 10.9685 3.28147 23.4851
9.0066 80000348600001584 80000348600001583 80000348600001598 80000348600001582 2.44422570455 9.35631 8.96815 -19.7698
9.04358 80000348600001583 80000348600001581 80000348600001598 80000348600001580 2.20792547238 -3.13165 2.14396 -17.4458
9.04653 80000348600001581 80000348600001580 80000348600001598 80000348600001579 2.1032696526 -9.9142 0.543422 -16.9857
9.14578 80000348600001580 80000348600001579 80000348600001598 80000348600001578 2.00202813925 -13.0442 4.58897 -20.0918
9.2361 80000348600001579 80000348600001578 80000348600001598 80000348600001577 1.90408954353 -31.5653 10.5371 -18.7119
9.24918 80000348600001578 80000348600001577 80000348600001598 80000348600001576 1.82268925262 -24.875 9.56642 -22.6277
9.2672 80000348600001577 80000348600001575 80000348600001598 80000348600001574 1.66666955611 -24.5329 7.24695 -20.5285
9.27766 80000348600001575 80000348600001574 80000348600001598 80000348600001573 1.60423452207 -23.2558 8.76535 -18.2947
9.29124 80000348600001574 80000348600001573 80000348600001598 80000348600001572 1.53123902916 -27.0587 7.90348 -18.9112
9.30763 80000348600001573 80000348600001570 80000348600001598 80000348600001569 1.3575766674 -18.3491 5.06456 -16.8683
9.30923 80000348600001570 80000348600001565 80000348600001598 80000348600001564 1.11415056377 -11.0189 7.19285 -14.1968
9.31243 80000348600001565 80000348600001564 80000348600001598 80000348600001563 1.07445789455 -9.60513 8.53827 -15.1717
9.32342 80000348600001564 80000348600001563 80000348600001598 80000348600001562 1.03551044566 -9.96861 6.05967 -12.8895
9.33415 80000348600001563 80000348600001558 80000348600001598 80000348600001557 0.886896937575 -14.6155 9.05439 -11.8563
9.35914 80000348600001558 80000348600001557 80000348600001598 80000348600001556 0.851470900625 -9.96328 10.3772 -17.0969
9.37732 80000348600001557 80000348600001556 80000348600001598 80000348600001555 0.816709979012 -12.5545 8.65745 -17.9953
9.10157 80000348600001716 80000348600001715 80000348600001738 80000348600001714 1.47197484527 -4.61835 1.62107 20.6154
9.11179 80000348600001715 80000348600001714 80000348600001738 80000348600001713 1.41409822037 -6.16657 -0.34467 18.829
9.12178 80000348600001714 80000348600001713 80000348600001738 80000348600001712 1.3575766674 -4.06334 -1.61184 16.863
9.2742 80000348600001713 80000348600001712 80000348600001738 80000348600001711 1.24847261425 -7.24274 15.4695 0.766513
9.24175 80000348600001770 80000348600001769 80000348600001781 80000348600001768 1.30237845991 -5.72544 9.76519 11.6708
