logMh | fpID | subhaloID | main leaf ID | descID |  z
9.10671 90000120200000097 90000120200000096 90000120200000105 90000120200000095 7.59510714987 -6.81252 -2.58416 -2.02367
9.14344 90000120200000096 90000120200000094 90000120200000105 90000120200000093 7.00541704554 -7.36666 0.549695 -1.15675
9.26896 90000120200000094 90000120200000093 90000120200000105 90000120200000092 6.85511726265 -7.68262 0.906575 -3.34397
9.31401 90000120200000093 90000120200000092 90000120200000105 90000120200000091 6.49159774567 -11.2479 4.36491 -4.48759
9.39871 90000120200000092 90000120200000091 90000120200000105 90000120200000090 6.14490120342 -7.45591 3.67992 -7.45382
9.50771 90000120200000091 90000120200000090 90000120200000105 90000120200000089 6.01075739884 -16.4654 6.0121 -10.2168
9.58807 90000120200000090 90000120200000089 90000120200000105 90000120200000088 5.84661374788 -19.8983 16.5222 -10.6016
9.64044 90000120200000089 90000120200000088 90000120200000105 90000120200000087 5.52976580795 -17.7932 13.6818 -10.3442
9.68447 90000120200000088 90000120200000087 90000120200000105 90000120200000086 5.22758097313 -14.8988 11.3288 -1.80866
9.68582 90000120200000087 90000120200000086 90000120200000105 90000120200000085 4.99593346816 -17.3024 9.85199 -7.65908
9.71132 90000120200000086 90000120200000085 90000120200000105 90000120200000084 4.93938066349 -17.1455 9.76559 -2.18477
9.72198 90000120200000085 90000120200000084 90000120200000105 90000120200000083 4.66451770247 -20.1948 12.4485 -7.35299
9.78314 90000120200000084 90000120200000083 90000120200000105 90000120200000082 4.42803373661 -16.1298 14.7448 -3.14686
9.78742 90000120200000083 90000120200000082 90000120200000105 90000120200000081 4.17683491473 -9.29277 16.1049 -5.38974
9.94296 90000120200000082 90000120200000081 90000120200000105 90000120200000080 4.00794511147 -13.1903 6.71588 -2.12705
9.9932 90000120200000081 90000120200000080 90000120200000105 90000120200000079 3.93726108473 -18.1948 7.06087 -1.90593
10.061 90000120200000080 90000120200000079 90000120200000105 90000120200000078 3.70877426464 -17.1605 4.98392 -16.5383
10.1425 90000120200000079 90000120200000078 90000120200000105 90000120200000077 3.49086136926 -12.2079 -1.0733 -18.0387
10.2321 90000120200000078 90000120200000077 90000120200000105 90000120200000076 3.28303305796 -33.3569 -14.7615 -22.2866
10.3666 90000120200000077 90000120200000076 90000120200000105 90000120200000075 3.08482263583 -26.7025 -9.51827 -31.4788
10.4013 90000120200000076 90000120200000075 90000120200000105 90000120200000074 3.00813107163 -33.2302 -8.99255 -34.1941
10.4147 90000120200000075 90000120200000074 90000120200000105 90000120200000073 2.89578500573 -27.9301 -12.8995 -28.2812
10.44 90000120200000074 90000120200000073 90000120200000105 90000120200000072 2.73314261732 -33.4042 -7.27088 -16.7471
10.5002 90000120200000073 90000120200000072 90000120200000105 90000120200000071 2.5772902716 -50.2882 9.25669 5.297
10.5343 90000120200000072 90000120200000071 90000120200000105 90000120200000070 2.44422570455 -45.1206 7.18479 -0.733942
10.5672 90000120200000071 90000120200000070 90000120200000105 90000120200000069 2.31611074396 -56.6109 3.58454 43.7094
10.578 90000120200000070 90000120200000069 90000120200000105 90000120200000068 2.20792547238 -56.6672 -21.6598 46.3511
10.6008 90000120200000069 90000120200000068 90000120200000105 90000120200000067 2.1032696526 -46.6447 -4.28819 40.206
10.6119 90000120200000068 90000120200000067 90000120200000105 90000120200000066 2.00202813925 -38.4144 12.4523 43.0449
10.6476 90000120200000067 90000120200000066 90000120200000105 90000120200000065 1.90408954353 -4.29168 16.7642 23.2121
10.6843 90000120200000066 90000120200000065 90000120200000105 90000120200000064 1.82268925262 20.9248 0.0416432 9.92796
10.7215 90000120200000065 90000120200000064 90000120200000105 90000120200000063 1.74357057433 6.7265 -27.3267 14.5981
10.753 90000120200000064 90000120200000063 90000120200000105 90000120200000062 1.66666955611 -11.866 -73.7272 27.2758
10.7655 90000120200000063 90000120200000062 90000120200000105 90000120200000061 1.60423452207 -27.076 -80.4811 33.0957
10.7912 90000120200000062 90000120200000061 90000120200000105 90000120200000060 1.53123902916 -12.456 -117.748 23.4121
10.8068 90000120200000061 90000120200000059 90000120200000105 90000120200000058 1.41409822037 -21.0207 -134.667 27.4178
10.8225 90000120200000059 90000120200000058 90000120200000105 90000120200000057 1.3575766674 -26.939 -138.649 27.9458
10.8404 90000120200000058 90000120200000057 90000120200000105 90000120200000056 1.30237845991 -24.7664 -138.046 34.5045
10.8621 90000120200000057 90000120200000056 90000120200000105 90000120200000055 1.24847261425 -14.5018 -153.921 30.0411
10.8848 90000120200000056 90000120200000054 90000120200000105 90000120200000053 1.15460271236 -31.9603 -199.23 28.5655
10.8939 90000120200000054 90000120200000053 90000120200000105 90000120200000052 1.11415056377 -9.7139 -189.744 15.9152
10.8985 90000120200000053 90000120200000052 90000120200000105 90000120200000051 1.07445789455 -19.2133 -204.251 17.8833
10.9044 90000120200000052 90000120200000051 90000120200000105 90000120200000050 1.03551044566 -27.4211 -215.88 29.8051
10.9195 90000120200000051 90000120200000050 90000120200000105 90000120200000049 0.997294225782 -62.6112 -241.815 42.5313
10.9238 90000120200000050 90000120200000049 90000120200000105 90000120200000048 0.987852810816 -61.7362 -254.599 46.5919
10.9309 90000120200000049 90000120200000048 90000120200000105 90000120200000047 0.950531351585 -62.8327 -250.598 58.4649
10.9576 90000120200000048 90000120200000047 90000120200000105 90000120200000046 0.923000816178 -87.0134 -284.303 66.8014
10.9675 90000120200000047 90000120200000045 90000120200000105 90000120200000044 0.851470900625 -124.107 -296.401 94.1535
10.9836 90000120200000045 90000120200000044 90000120200000105 90000120200000043 0.816709979012 -136.941 -317.989 114.769
10.9924 90000120200000044 90000120200000043 90000120200000105 90000120200000042 0.791068248946 -163.964 -324.112 125.849
11.0033 90000120200000043 90000120200000039 90000120200000105 90000120200000038 0.676110411213 -183.597 -323.741 124.195
11.0277 90000120200000039 90000120200000038 90000120200000105 90000120200000037 0.644641840685 -155.327 -323.953 153.462
11.0335 90000120200000038 90000120200000036 90000120200000105 90000120200000035 0.598543288188 -151.264 -341.978 147.923
11.0338 90000120200000036 90000120200000035 90000120200000105 90000120200000034 0.575980845108 -151.896 -333.567 147.59
11.0395 90000120200000035 90000120200000034 90000120200000105 90000120200000033 0.546392183141 -136.645 -329.556 128.781
11.0402 90000120200000034 90000120200000032 90000120200000105 90000120200000031 0.503047523245 -127.641 -315.429 101.471
11.0405 90000120200000032 90000120200000031 90000120200000105 90000120200000030 0.481832943421 -123.66 -301.683 97.2033
11.0529 90000120200000031 90000120200000030 90000120200000105 90000120200000029 0.460917794181 -110.177 -300.307 92.5566
11.0572 90000120200000030 90000120200000029 90000120200000105 90000120200000028 0.440297849248 -107.244 -273.577 110.191
11.0834 90000120200000029 90000120200000028 90000120200000105 90000120200000027 0.419968941997 -81.3014 -277.661 126.126
11.096 90000120200000028 90000120200000027 90000120200000105 90000120200000026 0.399926964614 -85.4501 -259.939 153.791
11.1032 90000120200000027 90000120200000026 90000120200000105 90000120200000025 0.38016786726 -87.9097 -268.857 132.104
11.1172 90000120200000026 90000120200000025 90000120200000105 90000120200000024 0.360687657262 -92.0692 -242.575 158.089
11.138 90000120200000025 90000120200000024 90000120200000105 90000120200000023 0.347853841858 -62.8085 -224.346 194.102
11.1582 90000120200000024 90000120200000023 90000120200000105 90000120200000022 0.328829724206 -76.1277 -190.603 222.611
11.1585 90000120200000023 90000120200000018 90000120200000105 90000120200000017 0.243540181555 -76.2536 -248.534 163.981
11.1664 90000120200000018 90000120200000017 90000120200000105 90000120200000016 0.22598838626 -80.9229 -258.608 180.278
11.1806 90000120200000017 90000120200000016 90000120200000105 90000120200000015 0.214425035514 -73.1237 -254.591 167.613
11.181 90000120200000016 90000120200000015 90000120200000105 90000120200000014 0.197284182376 -95.3944 -270.296 193.531
11.1858 90000120200000015 90000120200000010 90000120200000105 90000120200000009 0.125759332411 -113.719 -250.098 191.869
11.1898 90000120200000010 90000120200000008 90000120200000105 90000120200000007 0.0994018026302 -120.343 -247.846 171.828
11.1915 90000120200000008 90000120200000006 90000120200000105 90000120200000005 0.0736613846564 -123.821 -271.368 162.62
11.1919 90000120200000006 90000120200000005 90000120200000105 90000120200000004 0.0585073227945 -125.754 -254.267 144.6
11.2037 90000120200000005 90000120200000003 90000120200000105 90000120200000002 0.0337243718735 -126.602 -259.184 121.446
11.2135 90000120200000003 90000120200000001 90000120200000105 90000120200000000 0.00952166696794 -150.512 -260.825 73.7826
11.223 90000120200000001 90000120200000000 90000120200000105 -1 2.22044604925e-16 -150.56 -260.481 48.4559
9.00012 90000120200000134 90000120200000133 90000120200000140 90000120200000132 6.14490120342 -0.422116 -0.76758 -5.89884
9.02548 90000120200000133 90000120200000131 90000120200000140 90000120200000130 5.84661374788 -2.56963 1.15178 -2.31007
9.30278 90000120200000131 90000120200000130 90000120200000140 90000120200000129 5.52976580795 -9.06297 -9.08998 -3.99232
9.32805 90000120200000130 90000120200000129 90000120200000140 90000120200000128 5.22758097313 -2.48605 -8.91249 -4.91829
9.33866 90000120200000129 90000120200000128 90000120200000140 90000120200000127 4.99593346816 -3.64654 -5.35681 -7.58219
9.34313 90000120200000128 90000120200000127 90000120200000140 90000120200000126 4.93938066349 -3.4847 -4.61964 -8.75403
9.38681 90000120200000127 90000120200000126 90000120200000140 90000120200000125 4.66451770247 1.80302 -2.49501 -9.18474
9.01928 90000120200000163 90000120200000162 90000120200000173 90000120200000161 4.66451770247 8.27479 0.587353 -2.27284
9.09637 90000120200000162 90000120200000160 90000120200000173 90000120200000159 4.17683491473 19.4072 16.166 -18.6253
9.33415 90000120200000247 90000120200000246 90000120200000257 90000120200000245 5.22758097313 -13.583 10.7859 8.22874
9.35627 90000120200000246 90000120200000245 90000120200000257 90000120200000244 4.99593346816 -15.1289 8.97621 6.0944
9.36763 90000120200000245 90000120200000244 90000120200000257 90000120200000243 4.93938066349 -10.8711 11.0042 5.63325
9.38948 90000120200000244 90000120200000243 90000120200000257 90000120200000242 4.66451770247 -10.9534 9.1457 4.85177
9.47176 90000120200000243 90000120200000242 90000120200000257 90000120200000241 4.42803373661 -22.2154 -0.136527 13.0337
9.5026 90000120200000242 90000120200000241 90000120200000257 90000120200000240 4.17683491473 -20.5502 8.57764 12.5839
9.53713 90000120200000241 90000120200000240 90000120200000257 90000120200000239 4.00794511147 -18.817 15.014 16.7434
9.54465 90000120200000240 90000120200000239 90000120200000257 90000120200000238 3.93726108473 -14.1278 20.7304 16.9573
9.59059 90000120200000239 90000120200000238 90000120200000257 90000120200000237 3.70877426464 -12.533 29.9906 24.7157
9.01298 90000120200000306 90000120200000305 90000120200000314 90000120200000304 6.01075739884 -1.27418 0.475843 -0.166683
9.02855 90000120200000305 90000120200000303 90000120200000314 90000120200000302 5.52976580795 -4.38714 1.63409 0.0690817
9.10415 90000120200000303 90000120200000302 90000120200000314 90000120200000301 5.22758097313 -0.527242 4.03898 1.63179
9.10926 90000120200000302 90000120200000301 90000120200000314 90000120200000300 4.99593346816 -1.7526 5.60242 -0.719213
9.11179 90000120200000301 90000120200000300 90000120200000314 90000120200000299 4.93938066349 -1.74933 2.95735 -0.0632512
9.12668 90000120200000300 90000120200000299 90000120200000314 90000120200000298 4.66451770247 -1.85016 3.33762 -2.9788
9.17946 90000120200000299 90000120200000298 90000120200000314 90000120200000297 4.42803373661 -8.6683 6.32248 -0.822155
9.20668 90000120200000298 90000120200000296 90000120200000314 90000120200000295 4.00794511147 -11.467 0.272724 5.6027
9.21671 90000120200000296 90000120200000295 90000120200000314 90000120200000294 3.93726108473 -10.0835 1.77263 5.06332
9.25466 90000120200000295 90000120200000294 90000120200000314 90000120200000293 3.70877426464 -4.38493 7.10712 3.77767
9.39214 90000120200000294 90000120200000293 90000120200000314 90000120200000292 3.49086136926 -16.5641 5.16227 -5.43441
9.07492 90000120200000400 90000120200000399 90000120200000413 90000120200000398 3.70877426464 2.90057 11.8976 1.00754
9.11179 90000120200000399 90000120200000398 90000120200000413 90000120200000397 3.49086136926 2.6577 9.46824 1.5155
9.12668 90000120200000398 90000120200000397 90000120200000413 90000120200000396 3.28303305796 2.35566 8.02613 -0.980335
9.16182 90000120200000397 90000120200000396 90000120200000413 90000120200000395 3.08482263583 1.5654 7.25953 -2.32967
9.18802 90000120200000396 90000120200000395 90000120200000413 90000120200000394 3.00813107163 0.694588 6.47854 -1.76677
9.19641 90000120200000395 90000120200000390 90000120200000413 90000120200000389 2.31611074396 4.47713 6.55329 1.01489
9.2087 90000120200000390 90000120200000389 90000120200000413 90000120200000388 2.20792547238 1.39809 5.49058 -2.78482
9.21671 90000120200000389 90000120200000388 90000120200000413 90000120200000387 2.1032696526 1.99175 6.39131 0.855586
9.02548 90000120200000432 90000120200000431 90000120200000442 90000120200000430 3.00813107163 14.5751 6.0751 -9.23275
9.09637 90000120200000431 90000120200000428 90000120200000442 90000120200000427 2.5772902716 17.8026 -0.569559 -11.8399
9.16407 90000120200000428 90000120200000423 90000120200000442 90000120200000422 2.00202813925 14.539 -4.51811 -7.46592
9.00012 90000120200000507 90000120200000506 90000120200000525 90000120200000505 2.20792547238 0.684788 1.81061 5.82534
9.0098 90000120200000583 90000120200000582 90000120200000595 90000120200000581 4.00794511147 -3.06924 2.5201 -3.03611
9.02239 90000120200000582 90000120200000581 90000120200000595 90000120200000580 3.93726108473 -2.35629 2.5465 -4.80325
9.05524 90000120200000581 90000120200000580 90000120200000595 90000120200000579 3.70877426464 -2.41618 0.672744 -1.72497
9.08845 90000120200000580 90000120200000579 90000120200000595 90000120200000578 3.49086136926 1.90118 9.39325 7.04114
9.17512 90000120200000579 90000120200000578 90000120200000595 90000120200000577 3.28303305796 5.50536 -2.98269 2.02666
9.04358 90000120200000700 90000120200000699 90000120200000710 90000120200000698 3.70877426464 1.43975 -2.4063 11.4322
9.06378 90000120200000699 90000120200000698 90000120200000710 90000120200000697 3.49086136926 -2.40874 0.317462 11.3833
9.07766 90000120200000698 90000120200000697 90000120200000710 90000120200000696 3.28303305796 -1.46448 -0.226443 10.9292
9.09111 90000120200000697 90000120200000696 90000120200000710 90000120200000695 3.08482263583 -0.93565 1.35744 14.0069
9.11179 90000120200000696 90000120200000694 90000120200000710 90000120200000693 2.89578500573 -2.74957 -12.0233 3.32888
9.12668 90000120200000694 90000120200000692 90000120200000710 90000120200000691 2.5772902716 2.73135 -8.92742 1.51956
9.19848 90000120200000692 90000120200000691 90000120200000710 90000120200000690 2.44422570455 2.18539 -9.19418 5.99236
9.19848 90000120200000691 90000120200000689 90000120200000710 90000120200000688 2.20792547238 6.83457 -13.3323 9.74947
9.00337 90000120200000733 90000120200000732 90000120200000756 90000120200000731 1.3575766674 12.6042 -6.53153 9.76735
9.05235 90000120200000789 90000120200000788 90000120200000803 90000120200000787 2.89578500573 9.29618 13.5138 9.05232
9.07766 90000120200000788 90000120200000785 90000120200000803 90000120200000784 2.44422570455 6.50456 10.1986 4.76274
9.08309 90000120200001037 90000120200001036 90000120200001046 90000120200001035 5.52976580795 -2.90937 6.31909 -5.3579
9.09898 90000120200001036 90000120200001034 90000120200001046 90000120200001033 4.99593346816 0.70464 4.77286 -8.09531
9.13394 90000120200001034 90000120200001033 90000120200001046 90000120200001032 4.93938066349 1.36043 4.64473 -6.84021
9.25284 90000120200001033 90000120200001032 90000120200001046 90000120200001031 4.66451770247 -4.02249 5.64867 -9.84061
9.30602 90000120200001032 90000120200001031 90000120200001046 90000120200001030 4.42803373661 -1.38393 6.36003 -7.79239
9.35627 90000120200001031 90000120200001030 90000120200001046 90000120200001029 4.17683491473 -5.74744 7.12179 -10.2533
9.40518 90000120200001030 90000120200001029 90000120200001046 90000120200001028 4.00794511147 -2.96502 1.95876 -6.68497
9.45145 90000120200001029 90000120200001027 90000120200001046 90000120200001026 3.70877426464 -8.38702 5.66725 -0.586807
9.49011 90000120200001027 90000120200001026 90000120200001046 90000120200001025 3.49086136926 -4.47383 2.00934 -1.9187
9.56111 90000120200001026 90000120200001025 90000120200001046 90000120200001024 3.28303305796 -11.8263 10.5911 1.63324
9.58638 90000120200001025 90000120200001024 90000120200001046 90000120200001023 3.08482263583 -8.97325 8.42703 -1.31282
9.61504 90000120200001024 90000120200001023 90000120200001046 90000120200001022 3.00813107163 -13.2743 -2.17554 -5.08472
9.63894 90000120200001023 90000120200001022 90000120200001046 90000120200001021 2.89578500573 -14.926 -5.95501 -7.36757
9.64712 90000120200001022 90000120200001021 90000120200001046 90000120200001020 2.73314261732 -10.819 0.196578 -6.97632
9.67491 90000120200001021 90000120200001020 90000120200001046 90000120200001019 2.5772902716 -10.1028 -0.0847031 -7.53076
9.78152 90000120200001020 90000120200001019 90000120200001046 90000120200001018 2.44422570455 0.066548 18.9663 -19.6042
9.80209 90000120200001019 90000120200001018 90000120200001046 90000120200001017 2.31611074396 0.738268 6.55214 -13.9327
9.90929 90000120200001018 90000120200001017 90000120200001046 90000120200001016 2.20792547238 9.76413 25.6161 -36.9128
9.91607 90000120200001017 90000120200001016 90000120200001046 90000120200001015 2.1032696526 3.70773 28.3745 -33.9228
9.94851 90000120200001016 90000120200001015 90000120200001046 90000120200001014 2.00202813925 -16.2053 41.4411 -46.8608
9.97422 90000120200001015 90000120200001013 90000120200001046 90000120200001012 1.82268925262 -22.599 26.4849 -57.4741
9.04062 90000120200001080 90000120200001079 90000120200001092 90000120200001078 4.17683491473 3.87318 -2.91552 -2.53201
9.09898 90000120200001079 90000120200001078 90000120200001092 90000120200001077 4.00794511147 2.36256 -5.46233 -6.06542
9.13154 90000120200001078 90000120200001077 90000120200001092 90000120200001076 3.93726108473 2.77742 -7.25132 -6.82629
9.14811 90000120200001077 90000120200001076 90000120200001092 90000120200001075 3.70877426464 4.03242 -4.99397 -5.18418
9.17073 90000120200001076 90000120200001075 90000120200001092 90000120200001074 3.49086136926 3.30295 -6.06355 -4.21088
9.17293 90000120200001075 90000120200001074 90000120200001092 90000120200001073 3.28303305796 2.56571 -8.67892 -5.99727
9.20055 90000120200001074 90000120200001073 90000120200001092 90000120200001072 3.08482263583 -0.827614 -12.0256 1.60397
9.21272 90000120200001073 90000120200001069 90000120200001092 90000120200001068 2.5772902716 -1.6814 -12.628 2.60437
9.07492 90000120200001197 90000120200001196 90000120200001205 90000120200001195 5.84661374788 -6.93249 10.8471 5.31014
9.10157 90000120200001196 90000120200001195 90000120200001205 90000120200001194 5.52976580795 -8.41642 10.196 4.15741
9.15042 90000120200001195 90000120200001194 90000120200001205 90000120200001193 5.22758097313 -8.39143 8.75212 3.72158
9.20668 90000120200001194 90000120200001193 90000120200001205 90000120200001192 4.99593346816 -8.01 6.22448 0.741282
9.21671 90000120200001193 90000120200001192 90000120200001205 90000120200001191 4.93938066349 -6.87122 6.98136 2.31655
9.22457 90000120200001192 90000120200001191 90000120200001205 90000120200001190 4.66451770247 -6.94107 6.49614 1.36079
9.2742 90000120200001191 90000120200001190 90000120200001205 90000120200001189 4.42803373661 -5.92905 3.66069 0.726267
9.30278 90000120200001190 90000120200001188 90000120200001205 90000120200001187 4.00794511147 -9.93037 6.73692 2.04307
9.32651 90000120200001188 90000120200001178 90000120200001205 90000120200001177 2.44422570455 0.160318 8.35601 4.34194
9.37319 90000120200001178 90000120200001177 90000120200001205 90000120200001176 2.31611074396 -2.32897 7.73751 -0.819013
9.39346 90000120200001177 90000120200001171 90000120200001205 90000120200001170 1.74357057433 -7.71326 1.50344 0.023212
9.40518 90000120200001171 90000120200001170 90000120200001205 90000120200001169 1.66666955611 -8.91948 4.43256 -0.0952023
9.41408 90000120200001170 90000120200001169 90000120200001205 90000120200001168 1.60423452207 -6.14632 5.37628 0.383059
9.04062 90000120200001420 90000120200001419 90000120200001435 90000120200001418 3.70877426464 -6.51844 1.31864 -4.59606
9.08845 90000120200001419 90000120200001418 90000120200001435 90000120200001417 3.49086136926 -6.70909 0.410691 -3.89131
9.1193 90000120200001418 90000120200001417 90000120200001435 90000120200001416 3.28303305796 -7.51564 -6.72797 -5.45514
9.15273 90000120200001417 90000120200001415 90000120200001435 90000120200001414 3.00813107163 -7.48607 -9.50603 -3.73093
9.2087 90000120200001415 90000120200001414 90000120200001435 90000120200001413 2.89578500573 -7.90486 -4.62122 -5.307
9.22845 90000120200001414 90000120200001413 90000120200001435 90000120200001412 2.73314261732 -8.49728 -8.39486 -4.66374
9.22845 90000120200001413 90000120200001411 90000120200001435 90000120200001410 2.44422570455 -10.4047 -5.63245 -3.14804
9.25284 90000120200001411 90000120200001410 90000120200001435 90000120200001409 2.31611074396 -10.2632 -4.61969 -3.23066
9.3156 90000120200001410 90000120200001409 90000120200001435 90000120200001408 2.20792547238 -5.53462 -3.10833 -0.28072
9.32651 90000120200001409 90000120200001408 90000120200001435 90000120200001407 2.1032696526 -10.1554 -3.83832 -3.33937
9.35627 90000120200001408 90000120200001406 90000120200001435 90000120200001405 1.90408954353 -7.04249 -1.16044 -10.1221
9.3634 90000120200001406 90000120200001402 90000120200001435 90000120200001401 1.60423452207 -3.9755 3.41013 -9.88009
9.4026 90000120200001402 90000120200001398 90000120200001435 90000120200001397 1.3575766674 -5.73892 -5.5226 -7.28171
