logMh | fpID | subhaloID | main leaf ID | descID |  z
9.04945 80000085600000098 80000085600000097 80000085600000107 80000085600000096 8.01217294887 0.894431 -2.37662 1.78336
9.12424 80000085600000097 80000085600000096 80000085600000107 80000085600000095 7.59510714987 0.85125 -0.958654 0.648266
9.17512 80000085600000096 80000085600000095 80000085600000107 80000085600000094 7.23627606617 1.69549 -3.01859 2.20515
9.20464 80000085600000095 80000085600000093 80000085600000107 80000085600000092 6.85511726265 2.24921 -2.85021 0.736867
9.26896 80000085600000093 80000085600000092 80000085600000107 80000085600000091 6.49159774567 2.08291 -1.05821 1.04135
9.43257 80000085600000092 80000085600000091 80000085600000107 80000085600000090 6.14490120342 -6.40563 -2.89694 5.78123
9.45719 80000085600000091 80000085600000089 80000085600000107 80000085600000088 5.84661374788 -4.68723 -1.94717 -1.09628
9.58383 80000085600000089 80000085600000088 80000085600000107 80000085600000087 5.52976580795 -9.47217 -1.98713 2.76559
9.84939 80000085600000088 80000085600000086 80000085600000107 80000085600000085 4.99593346816 -22.7054 4.55948 21.6867
9.93088 80000085600000086 80000085600000085 80000085600000107 80000085600000084 4.93938066349 -24.4638 0.502036 31.5368
10.068 80000085600000085 80000085600000084 80000085600000107 80000085600000083 4.66451770247 -47.012 6.24308 39.774
10.2369 80000085600000084 80000085600000083 80000085600000107 80000085600000082 4.42803373661 -83.0229 43.1129 42.3572
10.4339 80000085600000083 80000085600000082 80000085600000107 80000085600000081 4.17683491473 -110.328 68.6042 41.2994
10.4533 80000085600000082 80000085600000081 80000085600000107 80000085600000080 4.00794511147 -98.9623 67.772 39.2145
10.4686 80000085600000081 80000085600000080 80000085600000107 80000085600000079 3.93726108473 -102.03 61.5309 41.3587
10.5548 80000085600000080 80000085600000079 80000085600000107 80000085600000078 3.70877426464 -134.377 73.4901 46.9978
10.6634 80000085600000079 80000085600000078 80000085600000107 80000085600000077 3.49086136926 -166.801 55.4623 35.5996
10.7417 80000085600000078 80000085600000077 80000085600000107 80000085600000076 3.28303305796 -160.586 62.6003 31.9993
10.781 80000085600000077 80000085600000076 80000085600000107 80000085600000075 3.08482263583 -152.792 56.5788 30.7122
10.7881 80000085600000076 80000085600000075 80000085600000107 80000085600000074 3.00813107163 -131.889 49.677 44.0396
10.849 80000085600000075 80000085600000074 80000085600000107 80000085600000073 2.89578500573 -166.491 77.054 25.083
10.9414 80000085600000074 80000085600000073 80000085600000107 80000085600000072 2.73314261732 -295.389 156.133 20.0587
10.9793 80000085600000073 80000085600000072 80000085600000107 80000085600000071 2.5772902716 -260.08 85.1001 19.1213
11.0234 80000085600000072 80000085600000071 80000085600000107 80000085600000070 2.44422570455 -275.509 84.5383 34.9455
11.0469 80000085600000071 80000085600000070 80000085600000107 80000085600000069 2.31611074396 -271.228 84.6213 32.0402
11.0665 80000085600000070 80000085600000069 80000085600000107 80000085600000068 2.20792547238 -273.434 98.0402 33.4927
11.0945 80000085600000069 80000085600000068 80000085600000107 80000085600000067 2.1032696526 -277.678 79.2936 23.8697
11.1045 80000085600000068 80000085600000065 80000085600000107 80000085600000064 1.82268925262 -216.077 116.685 96.0931
11.1308 80000085600000065 80000085600000063 80000085600000107 80000085600000062 1.66666955611 -200.295 185.457 153.373
11.1712 80000085600000063 80000085600000062 80000085600000107 80000085600000061 1.60423452207 -218.239 226.475 179.884
11.208 80000085600000062 80000085600000061 80000085600000107 80000085600000060 1.53123902916 -233.222 322.54 160.46
11.2341 80000085600000061 80000085600000060 80000085600000107 80000085600000059 1.47197484527 -227.587 386.635 120.814
11.2798 80000085600000060 80000085600000059 80000085600000107 80000085600000058 1.41409822037 -239.882 487.793 49.4053
11.2945 80000085600000059 80000085600000058 80000085600000107 80000085600000057 1.3575766674 -251.011 510.924 66.9718
11.3275 80000085600000058 80000085600000057 80000085600000107 80000085600000056 1.30237845991 -252.305 509.284 74.0538
11.3494 80000085600000057 80000085600000056 80000085600000107 80000085600000055 1.24847261425 -223.789 467.94 30.308
11.3628 80000085600000056 80000085600000055 80000085600000107 80000085600000054 1.20625808078 -214.15 467.37 46.2173
11.3954 80000085600000055 80000085600000054 80000085600000107 80000085600000053 1.15460271236 -203.822 502.249 -7.88611
11.415 80000085600000054 80000085600000053 80000085600000107 80000085600000052 1.11415056377 -210.117 481.747 72.4463
11.4264 80000085600000053 80000085600000052 80000085600000107 80000085600000051 1.07445789455 -245.332 471.48 66.0501
11.4419 80000085600000052 80000085600000051 80000085600000107 80000085600000050 1.03551044566 -209.451 408.987 58.5022
11.4561 80000085600000051 80000085600000050 80000085600000107 80000085600000049 0.997294225782 -196.283 384.452 86.007
11.4735 80000085600000050 80000085600000048 80000085600000107 80000085600000047 0.950531351585 -177.116 324.735 174.924
11.4741 80000085600000048 80000085600000047 80000085600000107 80000085600000046 0.923000816178 -194.731 330.078 185.146
11.4809 80000085600000047 80000085600000046 80000085600000107 80000085600000045 0.886896937575 -194.387 314.379 155.685
11.4928 80000085600000046 80000085600000045 80000085600000107 80000085600000044 0.851470900625 -170.006 316.26 169.174
11.5107 80000085600000045 80000085600000044 80000085600000107 80000085600000043 0.816709979012 -155.147 300.504 207.127
11.5197 80000085600000044 80000085600000043 80000085600000107 80000085600000042 0.791068248946 -155.271 274.134 240.187
11.5388 80000085600000043 80000085600000042 80000085600000107 80000085600000041 0.757441372616 -136.583 305.757 300.751
11.545 80000085600000042 80000085600000041 80000085600000107 80000085600000040 0.732636182022 -114.482 302.88 321.031
11.5659 80000085600000041 80000085600000040 80000085600000107 80000085600000039 0.700106353719 -87.7836 338.128 394.262
11.5735 80000085600000040 80000085600000036 80000085600000107 80000085600000035 0.598543288188 -104.267 325.782 330.262
11.5885 80000085600000036 80000085600000035 80000085600000107 80000085600000034 0.575980845108 -125.744 327.106 323.832
11.5979 80000085600000035 80000085600000034 80000085600000107 80000085600000033 0.546392183141 -149.57 283.656 339.207
11.5999 80000085600000034 80000085600000033 80000085600000107 80000085600000032 0.524565820434 -151.245 257.48 296.61
11.6002 80000085600000033 80000085600000032 80000085600000107 80000085600000031 0.503047523245 -148.224 230.418 308.279
11.6156 80000085600000032 80000085600000031 80000085600000107 80000085600000030 0.481832943421 -167.64 155.102 338.6
11.6221 80000085600000031 80000085600000029 80000085600000107 80000085600000028 0.440297849248 -152.465 102.969 288.208
11.6245 80000085600000029 80000085600000027 80000085600000107 80000085600000026 0.399926964614 -186.243 48.3095 312.928
11.6319 80000085600000027 80000085600000026 80000085600000107 80000085600000025 0.38016786726 -175.441 43.5683 274.998
11.6401 80000085600000026 80000085600000023 80000085600000107 80000085600000022 0.328829724206 -169.736 36.1476 270.824
11.6407 80000085600000023 80000085600000022 80000085600000107 80000085600000021 0.310074120128 -164.684 53.4196 229.805
11.6651 80000085600000022 80000085600000021 80000085600000107 80000085600000020 0.291583239722 -175.806 87.6861 192.155
11.6727 80000085600000021 80000085600000020 80000085600000107 80000085600000019 0.273353346578 -176.973 106.025 221.594
11.6799 80000085600000020 80000085600000019 80000085600000107 80000085600000018 0.261343256161 -193.523 111.01 206.086
11.7078 80000085600000019 80000085600000018 80000085600000107 80000085600000017 0.243540181555 -224.053 100.439 197.399
11.7154 80000085600000018 80000085600000017 80000085600000107 80000085600000016 0.22598838626 -251.392 128.453 160.514
11.7246 80000085600000017 80000085600000016 80000085600000107 80000085600000015 0.214425035514 -280.822 145.179 120.547
11.729 80000085600000016 80000085600000015 80000085600000107 80000085600000014 0.197284182376 -267.099 172.995 89.2676
11.7415 80000085600000015 80000085600000014 80000085600000107 80000085600000013 0.180385261706 -287.147 216.958 53.3313
11.7495 80000085600000014 80000085600000013 80000085600000107 80000085600000012 0.169252033244 -302.279 254.479 25.2198
11.7764 80000085600000013 80000085600000012 80000085600000107 80000085600000011 0.152748768902 -354.615 292.552 -62.3613
11.7908 80000085600000012 80000085600000011 80000085600000107 80000085600000010 0.14187620397 -399.227 317.211 -125.52
11.8138 80000085600000011 80000085600000010 80000085600000107 80000085600000009 0.125759332411 -431.553 373.81 -194.264
11.8141 80000085600000010 80000085600000006 80000085600000107 80000085600000005 0.0736613846564 -397.727 427.551 -243.4
11.8269 80000085600000006 80000085600000005 80000085600000107 80000085600000004 0.0585073227945 -379.129 436.881 -255.084
11.8317 80000085600000005 80000085600000004 80000085600000107 80000085600000003 0.0485236299818 -377.277 461.385 -267.846
11.8458 80000085600000004 80000085600000003 80000085600000107 80000085600000002 0.0337243718735 -335.242 487.857 -305.761
11.8491 80000085600000003 80000085600000002 80000085600000107 80000085600000001 0.0239744283828 -338.139 488.918 -303.307
11.8585 80000085600000002 80000085600000001 80000085600000107 80000085600000000 0.00952166696794 -308.047 496.095 -321.372
11.862 80000085600000001 80000085600000000 80000085600000107 -1 2.22044604925e-16 -305.601 476.404 -294.341
9.1573 80000085600000135 80000085600000134 80000085600000139 80000085600000133 6.49159774567 2.79402 -1.62695 1.59571
9.86482 80000085600000134 80000085600000129 80000085600000139 80000085600000128 5.22758097313 -25.3563 4.74358 25.1523
9.06096 80000085600000194 80000085600000193 80000085600000198 80000085600000192 8.9079991856 3.0258 6.55916 -2.95285
9.12424 80000085600000193 80000085600000191 80000085600000198 80000085600000190 8.01217294887 4.27848 1.66587 12.388
9.23229 80000085600000191 80000085600000190 80000085600000198 80000085600000189 7.59510714987 5.35772 7.30177 2.18554
9.31083 80000085600000190 80000085600000188 80000085600000198 80000085600000187 7.00541704554 8.41154 7.20693 11.9421
9.38005 80000085600000188 80000085600000187 80000085600000198 80000085600000186 6.85511726265 10.4409 8.49669 17.8999
9.44329 80000085600000187 80000085600000186 80000085600000198 80000085600000185 6.49159774567 1.38357 20.1176 12.5124
9.59227 80000085600000186 80000085600000185 80000085600000198 80000085600000184 6.14490120342 -20.0589 22.0677 6.2325
9.76724 80000085600000185 80000085600000181 80000085600000198 80000085600000180 5.22758097313 -26.9741 9.90443 -2.63967
9.80975 80000085600000181 80000085600000180 80000085600000198 80000085600000179 4.99593346816 -25.4659 14.3074 -1.97152
9.82906 80000085600000180 80000085600000179 80000085600000198 80000085600000178 4.93938066349 -56.0498 0.700503 -27.0935
9.08309 80000085600000223 80000085600000222 80000085600000233 80000085600000221 8.01217294887 3.62974 -4.0209 -1.73092
9.13154 80000085600000222 80000085600000221 80000085600000233 80000085600000220 7.59510714987 6.9418 -1.3136 -2.75291
9.22262 80000085600000221 80000085600000220 80000085600000233 80000085600000219 7.23627606617 7.19768 -2.8605 0.183735
9.23229 80000085600000220 80000085600000219 80000085600000233 80000085600000218 7.00541704554 6.95557 -3.23431 -2.09272
9.42157 80000085600000219 80000085600000215 80000085600000233 80000085600000214 6.01075739884 -16.2616 6.87619 0.211292
9.73959 80000085600000215 80000085600000209 80000085600000233 80000085600000177 4.66451770247 -33.664 18.1187 -19.6461
9.11431 80000085600000254 80000085600000253 80000085600000259 80000085600000252 6.49159774567 2.07629 3.72984 10.4688
9.00337 80000085600000280 80000085600000279 80000085600000290 80000085600000278 6.14490120342 8.72539 2.76456 -2.35449
9.04653 80000085600000279 80000085600000277 80000085600000290 80000085600000276 5.84661374788 2.69779 0.346037 -0.817475
9.0666 80000085600000277 80000085600000275 80000085600000290 80000085600000274 5.22758097313 7.70881 -0.172738 -0.795431
9.10671 80000085600000275 80000085600000274 80000085600000290 80000085600000273 4.99593346816 7.30279 0.240707 -2.49557
9.11431 80000085600000367 80000085600000366 80000085600000376 80000085600000365 6.85511726265 -8.53588 6.66844 4.31344
9.1573 80000085600000366 80000085600000365 80000085600000376 80000085600000364 6.49159774567 -9.41068 4.13615 7.41468
9.21671 80000085600000365 80000085600000363 80000085600000376 80000085600000362 6.01075739884 -19.8602 6.43401 6.12011
9.27938 80000085600000363 80000085600000362 80000085600000376 80000085600000361 5.84661374788 -21.2331 4.685 5.02419
9.30923 80000085600000362 80000085600000361 80000085600000376 80000085600000360 5.52976580795 -19.072 1.90214 1.27807
9.43015 80000085600000361 80000085600000359 80000085600000376 80000085600000358 4.99593346816 -18.2583 -8.55604 -0.956541
9.44093 80000085600000359 80000085600000358 80000085600000376 80000085600000357 4.93938066349 -18.7672 -6.7072 -0.553718
9.63894 80000085600000358 80000085600000356 80000085600000376 80000085600000355 4.42803373661 -29.3112 -46.974 -11.8474
9.01298 80000085600000384 80000085600000383 80000085600000391 80000085600000382 5.52976580795 -0.559721 -7.91181 6.29212
9.10157 80000085600000383 80000085600000382 80000085600000391 80000085600000381 5.22758097313 2.73622 -6.45015 4.41997
9.02239 80000085600000437 80000085600000436 80000085600000442 80000085600000435 9.84138043947 5.11385 0.366119 -11.2976
9.11681 80000085600000436 80000085600000435 80000085600000442 80000085600000434 9.38877127194 -0.537317 10.3409 11.5655
9.32187 80000085600000435 80000085600000430 80000085600000442 80000085600000429 7.59510714987 5.87162 5.55415 -10.8449
9.32805 80000085600000430 80000085600000427 80000085600000442 80000085600000426 6.85511726265 6.97396 7.20642 -0.779205
9.3634 80000085600000427 80000085600000426 80000085600000442 80000085600000425 6.49159774567 6.32851 6.90375 -2.32617
9.44093 80000085600000426 80000085600000425 80000085600000442 80000085600000424 6.14490120342 9.67211 13.356 -1.33203
9.47396 80000085600000425 80000085600000424 80000085600000442 80000085600000423 6.01075739884 16.5184 14.29 -6.17572
9.57697 80000085600000424 80000085600000422 80000085600000442 80000085600000421 5.52976580795 9.74124 8.81987 -3.30532
9.60136 80000085600000422 80000085600000421 80000085600000442 80000085600000420 5.22758097313 9.10604 8.42257 -3.87527
9.65297 80000085600000421 80000085600000420 80000085600000442 80000085600000419 4.99593346816 10.4032 18.149 -7.42952
9.70039 80000085600000420 80000085600000419 80000085600000442 80000085600000418 4.93938066349 6.59363 18.1341 -3.96774
9.79587 80000085600000419 80000085600000418 80000085600000442 80000085600000417 4.66451770247 13.0969 37.1587 -6.76349
9.85763 80000085600000418 80000085600000417 80000085600000442 80000085600000416 4.42803373661 -5.55712 51.4083 -7.54013
9.88952 80000085600000417 80000085600000416 80000085600000442 80000085600000415 4.17683491473 -2.76926 47.0966 -2.38736
9.90157 80000085600000416 80000085600000415 80000085600000442 80000085600000414 4.00794511147 5.26725 42.9294 -4.00566
9.91884 80000085600000415 80000085600000414 80000085600000442 80000085600000413 3.93726108473 -3.18348 46.1206 -0.9252
9.93847 80000085600000414 80000085600000413 80000085600000442 80000085600000412 3.70877426464 -3.64565 36.0345 1.05346
9.10157 80000085600000465 80000085600000464 80000085600000476 80000085600000463 5.52976580795 16.8368 11.3907 -1.82574
9.04653 80000085600000640 80000085600000639 80000085600000655 80000085600000638 4.66451770247 -0.873832 0.573735 6.72451
9.18589 80000085600000639 80000085600000637 80000085600000655 80000085600000636 4.17683491473 -2.25766 2.14176 8.29314
9.22262 80000085600000637 80000085600000635 80000085600000655 80000085600000634 3.93726108473 2.67477 3.43624 7.0353
9.23988 80000085600000635 80000085600000633 80000085600000655 80000085600000632 3.49086136926 0.477392 -0.801812 15.4957
9.24175 80000085600000633 80000085600000632 80000085600000655 80000085600000631 3.28303305796 3.74091 1.91866 9.4481
9.0316 80000085600000704 80000085600000703 80000085600000713 80000085600000702 5.22758097313 -0.560034 2.44674 -1.18585
9.03463 80000085600000703 80000085600000702 80000085600000713 80000085600000701 4.99593346816 -0.514257 2.74343 -1.47501
9.03463 80000085600000702 80000085600000701 80000085600000713 80000085600000700 4.93938066349 -0.36042 2.88699 -0.988691
9.04062 80000085600000701 80000085600000700 80000085600000713 80000085600000699 4.66451770247 -0.130384 2.06246 -1.87049
9.08038 80000085600000700 80000085600000698 80000085600000713 80000085600000697 4.17683491473 -2.46768 4.09254 -4.98459
9.10415 80000085600000698 80000085600000697 80000085600000713 80000085600000696 4.00794511147 -0.149749 1.8409 -4.95197
9.10926 80000085600000697 80000085600000696 80000085600000713 80000085600000695 3.93726108473 -1.28156 -0.974525 -3.94248
9.15273 80000085600000696 80000085600000694 80000085600000713 80000085600000693 3.49086136926 0.121734 0.259707 -4.43884
9.2811 80000085600000835 80000085600000834 80000085600000843 80000085600000833 6.49159774567 0.259655 9.82802 4.89653
9.34902 80000085600000834 80000085600000833 80000085600000843 80000085600000832 6.14490120342 -9.52827 -7.39567 -12.7852
9.46733 80000085600000833 80000085600000830 80000085600000843 80000085600000829 5.52976580795 -13.4265 -13.6293 -5.5654
9.54185 80000085600000830 80000085600000829 80000085600000843 80000085600000828 5.22758097313 -9.54993 -14.048 -6.76555
9.58041 80000085600000829 80000085600000828 80000085600000843 80000085600000827 4.99593346816 -11.8733 -12.6017 -11.367
9.61186 80000085600000828 80000085600000826 80000085600000843 80000085600000825 4.66451770247 -15.2224 -14.3598 -10.1352
9.67353 80000085600000826 80000085600000825 80000085600000843 80000085600000824 4.42803373661 -12.7027 -6.97039 7.0517
9.72874 80000085600000825 80000085600000824 80000085600000843 80000085600000823 4.17683491473 -12.4797 -7.08905 3.20954
9.7342 80000085600000824 80000085600000823 80000085600000843 80000085600000822 4.00794511147 -26.0984 -8.70675 -9.6761
9.79114 80000085600000823 80000085600000822 80000085600000843 80000085600000821 3.93726108473 -28.6354 -12.9309 -7.24977
9.81127 80000085600000822 80000085600000821 80000085600000843 80000085600000820 3.70877426464 -34.8438 -27.9083 -24.2994
9.848 80000085600000821 80000085600000820 80000085600000843 80000085600000819 3.49086136926 -36.0068 -31.7291 -29.4844
9.90565 80000085600000820 80000085600000819 80000085600000843 80000085600000818 3.28303305796 -28.1939 -33.5107 -22.3379
9.94222 80000085600000819 80000085600000818 80000085600000843 80000085600000817 3.08482263583 -32.1601 -32.2862 -19.6295
9.95108 80000085600000818 80000085600000817 80000085600000843 80000085600000816 3.00813107163 -33.5699 -29.1426 -13.4538
9.97178 80000085600000817 80000085600000816 80000085600000843 80000085600000815 2.89578500573 -29.778 -24.6166 -11.0651
9.41784 80000085600000856 80000085600000855 80000085600000856 80000085600000854 5.84661374788 -8.19056 -13.3171 -3.79161
9.0066 80000085600001103 80000085600001102 80000085600001112 80000085600001101 7.23627606617 2.05002 -2.32993 1.3716
9.04358 80000085600001102 80000085600001101 80000085600001112 80000085600001100 7.00541704554 0.409949 -0.860177 0.0621532
9.10157 80000085600001101 80000085600001100 80000085600001112 80000085600001099 6.85511726265 0.160295 1.3633 -3.69986
9.20668 80000085600001100 80000085600001099 80000085600001112 80000085600001098 6.49159774567 -1.94843 3.46287 -4.61042
9.23988 80000085600001099 80000085600001098 80000085600001112 80000085600001097 6.14490120342 -1.26635 2.26223 -0.433181
9.25466 80000085600001098 80000085600001097 80000085600001112 80000085600001096 6.01075739884 -1.69141 1.77134 -2.55313
9.27938 80000085600001097 80000085600001096 80000085600001112 80000085600001095 5.84661374788 -2.56605 2.27303 0.0736231
9.36056 80000085600001096 80000085600001095 80000085600001112 80000085600001094 5.52976580795 -0.292354 2.68854 0.0609328
9.51774 80000085600001095 80000085600001094 80000085600001112 80000085600001093 5.22758097313 2.16213 6.46222 -3.14368
9.58127 80000085600001094 80000085600001093 80000085600001112 80000085600001092 4.99593346816 7.02646 5.9976 -8.96224
9.60299 80000085600001093 80000085600001091 80000085600001112 80000085600001090 4.66451770247 4.73283 6.45594 -10.0339
9.63669 80000085600001091 80000085600001090 80000085600001112 80000085600001089 4.42803373661 6.51345 13.1139 -9.87982
9.67767 80000085600001090 80000085600001089 80000085600001112 80000085600001088 4.17683491473 8.03167 11.7475 -9.48536
9.71259 80000085600001089 80000085600001088 80000085600001112 80000085600001087 4.00794511147 9.67592 8.39932 -9.60255
9.7263 80000085600001088 80000085600001087 80000085600001112 80000085600001086 3.93726108473 8.32086 8.7387 -9.81934
9.77718 80000085600001087 80000085600001086 80000085600001112 80000085600001085 3.70877426464 2.89206 0.410002 -7.75925
9.85536 80000085600001086 80000085600001085 80000085600001112 80000085600001084 3.49086136926 -1.52063 11.9339 -0.957958
9.9212 80000085600001085 80000085600001084 80000085600001112 80000085600001083 3.28303305796 -10.9663 -5.16206 -1.54355
9.9756 80000085600001084 80000085600001083 80000085600001112 80000085600001082 3.08482263583 -8.37912 -12.2367 -8.12152
9.97594 80000085600001083 80000085600001082 80000085600001112 80000085600001081 3.00813107163 -15.077 -10.6477 -8.06304
9.01298 80000085600001235 80000085600001234 80000085600001242 80000085600001233 6.49159774567 -8.027 5.58728 0.837559
9.01298 80000085600001234 80000085600001230 80000085600001242 80000085600001229 5.52976580795 -8.5383 2.01288 5.24997
9.03763 80000085600001230 80000085600001227 80000085600001242 80000085600001226 4.93938066349 -4.78164 7.00706 1.34013
9.08845 80000085600001227 80000085600001226 80000085600001242 80000085600001225 4.66451770247 -3.02143 5.37997 1.25085
9.11431 80000085600001226 80000085600001224 80000085600001242 80000085600001223 4.17683491473 -1.94128 4.93774 1.12818
9.15042 80000085600001224 80000085600001223 80000085600001242 80000085600001222 4.00794511147 -1.59687 2.53309 5.1719
9.19848 80000085600001223 80000085600001221 80000085600001242 80000085600001220 3.70877426464 -1.29086 7.13881 5.41609
9.21272 80000085600001221 80000085600001219 80000085600001242 80000085600001218 3.28303305796 -2.51951 6.68399 6.054
9.03463 80000085600001273 80000085600001272 80000085600001287 80000085600001271 3.70877426464 -8.87042 -13.0774 6.14036
9.04653 80000085600001272 80000085600001271 80000085600001287 80000085600001270 3.49086136926 -8.85142 -11.4302 3.98518
9.09898 80000085600001271 80000085600001267 80000085600001287 80000085600001266 2.89578500573 -3.91069 -6.7352 1.97105
9.15273 80000085600001267 80000085600001265 80000085600001287 80000085600001264 2.5772902716 -9.09991 0.779631 -0.646087
9.17293 80000085600001265 80000085600001264 80000085600001287 80000085600001263 2.44422570455 -7.07539 -5.42548 -5.52683
9.17729 80000085600001264 80000085600001263 80000085600001287 80000085600001262 2.31611074396 -3.87786 -8.36343 -3.69924
9.23229 80000085600001263 80000085600001262 80000085600001287 80000085600001261 2.20792547238 -7.13706 -9.83735 -0.0764702
9.24362 80000085600001262 80000085600001261 80000085600001287 80000085600001260 2.1032696526 -6.39178 -12.7816 -5.75647
9.25466 80000085600001261 80000085600001259 80000085600001287 80000085600001258 1.90408954353 -9.23866 -6.20842 -2.18098
9.19433 80000085600001318 80000085600001317 80000085600001336 80000085600001316 2.20792547238 -28.7003 -18.5479 14.4184
9.03763 80000085600001487 80000085600001486 80000085600001496 80000085600001485 4.00794511147 7.3411 -10.3054 16.6515
9.2087 80000085600001486 80000085600001483 80000085600001496 80000085600001482 3.49086136926 13.983 -2.49272 1.07642
9.25828 80000085600001483 80000085600001482 80000085600001496 80000085600001481 3.28303305796 14.2276 -2.03968 -0.306413
9.37595 80000085600001482 80000085600001481 80000085600001496 80000085600001480 3.08482263583 16.1888 -6.75397 5.43419
9.39346 80000085600001481 80000085600001480 80000085600001496 80000085600001479 3.00813107163 12.4683 -8.6553 1.66559
9.51375 80000085600001480 80000085600001478 80000085600001496 80000085600001477 2.73314261732 11.6578 -10.122 -2.60214
9.55478 80000085600001478 80000085600001477 80000085600001496 80000085600001476 2.5772902716 10.5781 -2.0562 -8.70375
9.59807 80000085600001477 80000085600001476 80000085600001496 80000085600001475 2.44422570455 9.63659 -1.08885 -14.0315
9.64564 80000085600001476 80000085600001474 80000085600001496 80000085600001473 2.20792547238 4.75425 -3.78038 -16.995
9.65514 80000085600001474 80000085600001472 80000085600001496 80000085600001471 2.00202813925 7.77365 -11.9473 -13.192
9.66088 80000085600001472 80000085600001471 80000085600001496 80000085600001470 1.90408954353 3.35895 -16.3213 -14.6455
9.6838 80000085600001471 80000085600001468 80000085600001496 80000085600001467 1.66666955611 13.7428 -15.6971 -32.5845
9.43136 80000085600001511 80000085600001510 80000085600001529 80000085600001478 2.89578500573 16.9312 -11.6025 1.77409
9.1573 80000085600001618 80000085600001617 80000085600001628 80000085600001616 8.01217294887 5.96301 6.30764 15.9897
9.23037 80000085600001617 80000085600001616 80000085600001628 80000085600001615 7.59510714987 7.09655 6.2505 14.3158
9.28956 80000085600001616 80000085600001615 80000085600001628 80000085600001614 7.23627606617 6.72538 7.1992 8.7722
9.33111 80000085600001615 80000085600001614 80000085600001628 80000085600001613 7.00541704554 9.70561 6.53903 9.36713
9.35483 80000085600001614 80000085600001613 80000085600001628 80000085600001612 6.85511726265 9.423 5.57476 6.40421
9.40646 80000085600001613 80000085600001612 80000085600001628 80000085600001611 6.49159774567 10.7088 2.58618 1.63398
9.48586 80000085600001612 80000085600001611 80000085600001628 80000085600001610 6.14490120342 6.35565 5.31999 -3.7329
9.52851 80000085600001611 80000085600001610 80000085600001628 80000085600001609 6.01075739884 6.84358 6.89258 -3.90545
9.72813 80000085600001610 80000085600001608 80000085600001628 80000085600001607 5.52976580795 -19.9349 2.82564 1.01046
9.75536 80000085600001608 80000085600001607 80000085600001628 80000085600001606 5.22758097313 10.0642 26.3636 -1.05184
9.84521 80000085600001607 80000085600001606 80000085600001628 80000085600001605 4.99593346816 15.5787 28.3498 7.68625
9.86616 80000085600001606 80000085600001605 80000085600001628 80000085600001604 4.93938066349 26.4638 37.713 3.27108
9.98719 80000085600001605 80000085600001604 80000085600001628 80000085600001603 4.66451770247 22.618 29.0849 0.768762
10.0486 80000085600001604 80000085600001603 80000085600001628 80000085600001602 4.42803373661 10.3932 28.9363 -1.36679
10.1672 80000085600001603 80000085600001602 80000085600001628 80000085600001601 4.17683491473 -13.4121 14.0225 -8.96765
10.259 80000085600001602 80000085600001601 80000085600001628 80000085600001600 4.00794511147 -24.2453 2.07666 -20.8893
10.2633 80000085600001601 80000085600001599 80000085600001628 80000085600001598 3.70877426464 -17.766 10.3161 -6.38701
10.2739 80000085600001599 80000085600001598 80000085600001628 80000085600001597 3.49086136926 -15.8911 5.70166 -11.8246
10.3413 80000085600001598 80000085600001597 80000085600001628 80000085600001596 3.28303305796 -16.8713 10.5128 -9.37547
10.374 80000085600001597 80000085600001594 80000085600001628 80000085600001593 2.89578500573 18.6205 37.603 6.36445
10.3755 80000085600001594 80000085600001593 80000085600001628 80000085600001592 2.73314261732 34.9899 33.652 23.5971
10.4135 80000085600001593 80000085600001592 80000085600001628 80000085600001591 2.5772902716 31.0131 19.7497 5.62903
10.434 80000085600001592 80000085600001591 80000085600001628 80000085600001590 2.44422570455 28.4549 14.8098 0.888489
10.4833 80000085600001591 80000085600001590 80000085600001628 80000085600001589 2.31611074396 51.2044 13.7714 24.4315
10.5003 80000085600001590 80000085600001589 80000085600001628 80000085600001588 2.20792547238 50.7931 1.55996 24.2077
10.5151 80000085600001589 80000085600001586 80000085600001628 80000085600001585 1.90408954353 29.6771 1.16636 18.0841
10.5203 80000085600001586 80000085600001585 80000085600001628 80000085600001584 1.82268925262 34.4414 6.14926 20.6156
10.5523 80000085600001585 80000085600001584 80000085600001628 80000085600001583 1.74357057433 50.2694 0.84769 29.1546
9.02855 80000085600001680 80000085600001679 80000085600001687 80000085600001678 6.49159774567 -4.25362 1.05673 -17.2524
9.26008 80000085600001679 80000085600001675 80000085600001687 80000085600001674 5.22758097313 7.56714 -1.48135 -15.7707
9.43136 80000085600001675 80000085600001674 80000085600001687 80000085600001673 4.99593346816 20.0459 -10.9116 -15.4587
9.50973 80000085600001674 80000085600001673 80000085600001687 80000085600001672 4.93938066349 26.5427 -18.1718 -12.0076
9.06939 80000085600001690 80000085600001689 80000085600001693 80000085600001688 6.01075739884 -4.55391 -3.82831 -16.5635
9.06939 80000085600001710 80000085600001709 80000085600001717 80000085600001708 6.14490120342 -5.06224 -3.93873 -7.69782
9.07492 80000085600001709 80000085600001708 80000085600001717 80000085600001707 6.01075739884 -4.5464 -2.76506 -7.06575
9.09111 80000085600001708 80000085600001707 80000085600001717 80000085600001706 5.84661374788 -4.8649 -4.83289 -6.16368
9.10157 80000085600001707 80000085600001706 80000085600001717 80000085600001705 5.52976580795 -2.07914 -2.71351 -5.53236
9.02239 80000085600001732 80000085600001731 80000085600001739 80000085600001730 6.49159774567 10.115 -2.64304 2.98347
9.05811 80000085600001731 80000085600001730 80000085600001739 80000085600001729 6.14490120342 10.0731 -4.17544 0.720334
9.06378 80000085600001730 80000085600001729 80000085600001739 80000085600001728 6.01075739884 8.93406 -2.23961 0.711796
9.08578 80000085600001729 80000085600001728 80000085600001739 80000085600001727 5.84661374788 8.90547 -3.72864 2.04616
9.09375 80000085600001728 80000085600001727 80000085600001739 80000085600001726 5.52976580795 13.7698 -10.4189 2.98411
9.11179 80000085600001785 80000085600001784 80000085600001798 80000085600001783 4.42803373661 -1.92238 -2.3152 -2.52419
9.20464 80000085600001784 80000085600001783 80000085600001798 80000085600001782 4.17683491473 -2.62147 -9.96619 -8.12508
9.23229 80000085600001783 80000085600001782 80000085600001798 80000085600001781 4.00794511147 -6.70858 -7.73189 -5.20362
9.26365 80000085600001782 80000085600001781 80000085600001798 80000085600001780 3.93726108473 -2.90543 -12.1208 -7.03383
9.26365 80000085600001781 80000085600001779 80000085600001798 80000085600001778 3.49086136926 -2.53839 -7.06696 -9.83196
9.2828 80000085600001779 80000085600001778 80000085600001798 80000085600001777 3.28303305796 -3.53907 -4.82082 -10.6337
9.00012 80000085600001899 80000085600001898 80000085600001909 80000085600001897 4.42803373661 2.39754 -0.456761 0.969759
9.4026 80000085600001898 80000085600001897 80000085600001909 80000085600001896 4.17683491473 -7.28354 1.32444 11.3585
9.50055 80000085600001897 80000085600001896 80000085600001909 80000085600001895 4.00794511147 -6.3368 -0.791424 12.5442
9.50567 80000085600001896 80000085600001894 80000085600001909 80000085600001893 3.70877426464 -5.92562 0.32562 13.621
9.56201 80000085600001894 80000085600001893 80000085600001909 80000085600001892 3.49086136926 -4.74803 1.32026 15.8491
9.6756 80000085600001893 80000085600001892 80000085600001909 80000085600001891 3.28303305796 -10.5628 7.57118 27.8298
9.71574 80000085600001892 80000085600001891 80000085600001909 80000085600001890 3.08482263583 -10.8675 9.19913 8.84214
9.74078 80000085600001891 80000085600001890 80000085600001909 80000085600001889 3.00813107163 -9.19728 6.15045 12.2399
9.75765 80000085600001890 80000085600001889 80000085600001909 80000085600001888 2.89578500573 -14.9597 0.732488 13.5837
9.77935 80000085600001889 80000085600001888 80000085600001909 80000085600001887 2.73314261732 -18.5988 3.21573 8.2485
9.02548 80000085600001924 80000085600001923 80000085600001934 80000085600001922 4.66451770247 0.130285 -0.519666 -15.3088
9.0066 80000085600002038 80000085600002037 80000085600002053 80000085600002036 3.70877426464 -4.30768 5.1975 11.7664
9.01928 80000085600002037 80000085600002036 80000085600002053 80000085600002035 3.49086136926 -5.4844 5.85309 9.12817
9.01928 80000085600002036 80000085600002035 80000085600002053 80000085600002034 3.28303305796 -7.03446 5.40605 10.1516
9.05811 80000085600002035 80000085600002034 80000085600002053 80000085600002033 3.08482263583 -9.03552 9.44404 10.9393
9.05811 80000085600002034 80000085600002033 80000085600002053 80000085600002032 3.00813107163 -9.6233 9.42084 11.0789
9.08845 80000085600002033 80000085600002032 80000085600002053 80000085600002031 2.89578500573 -8.88024 9.91814 11.3868
9.01298 80000085600002103 80000085600002102 80000085600002118 80000085600002101 4.93938066349 -0.00718764 2.2149 -0.573839
9.03763 80000085600002102 80000085600002101 80000085600002118 80000085600002100 4.66451770247 5.17373 3.30458 -2.55455
9.07766 80000085600002101 80000085600002099 80000085600002118 80000085600002098 4.17683491473 -0.839148 6.32808 -4.95247
9.09898 80000085600002099 80000085600002098 80000085600002118 80000085600002097 4.00794511147 0.483758 3.71772 -0.8652
9.00337 80000085600002250 80000085600002249 80000085600002264 80000085600002248 4.00794511147 6.44099 -2.51906 5.07055
9.01298 80000085600002249 80000085600002248 80000085600002264 80000085600002247 3.93726108473 6.40824 -2.20098 5.65388
9.18162 80000085600002248 80000085600002246 80000085600002264 80000085600002245 3.49086136926 -5.2164 5.40178 -1.30813
9.33566 80000085600002246 80000085600002245 80000085600002264 80000085600002244 3.28303305796 -12.1023 15.77 12.9361
9.33716 80000085600002245 80000085600002244 80000085600002264 80000085600002243 3.08482263583 -14.1053 11.1732 17.7259
9.3634 80000085600002244 80000085600002243 80000085600002264 80000085600002242 3.00813107163 -15.6613 9.43291 18.4983
9.39478 80000085600002243 80000085600002242 80000085600002264 80000085600002241 2.89578500573 -16.719 10.0961 15.9007
9.41029 80000085600002242 80000085600002241 80000085600002264 80000085600002240 2.73314261732 -19.1844 9.05147 12.8847
9.41659 80000085600002241 80000085600002239 80000085600002264 80000085600002238 2.44422570455 -16.7479 3.12519 20.816
9.14578 80000085600002268 80000085600002267 80000085600002276 80000085600002266 3.70877426464 -4.19485 3.64426 6.47015
9.02548 80000085600002362 80000085600002361 80000085600002366 80000085600002360 11.4973879548 0.0746202 3.94301 0.654917
9.08578 80000085600002361 80000085600002360 80000085600002366 80000085600002359 10.9190331982 0.520569 3.8116 1.40237
9.19848 80000085600002360 80000085600002359 80000085600002366 80000085600002358 10.3674435724 0.68521 1.10302 2.03591
9.22262 80000085600002359 80000085600002358 80000085600002366 80000085600002357 9.99659046619 -0.0718541 1.49385 2.09152
9.23988 80000085600002358 80000085600002357 80000085600002366 80000085600002356 9.84138043947 -0.0106312 2.31161 3.01781
9.29457 80000085600002357 80000085600002356 80000085600002366 80000085600002355 9.38877127194 0.615787 2.27908 3.3926
9.35338 80000085600002356 80000085600002355 80000085600002366 80000085600002354 9.00233985416 0.0643167 1.74681 -1.92338
9.39478 80000085600002355 80000085600002354 80000085600002366 80000085600002353 8.9079991856 2.55322 -1.25356 -5.38432
9.45261 80000085600002354 80000085600002353 80000085600002366 80000085600002352 8.44947629437 1.50061 4.4687 0.278964
9.5026 80000085600002353 80000085600002352 80000085600002366 80000085600002351 8.01217294887 1.13418 8.45418 -5.259
9.56911 80000085600002352 80000085600002351 80000085600002366 80000085600002350 7.59510714987 2.50339 7.72643 -0.932462
9.70169 80000085600002351 80000085600002350 80000085600002366 80000085600002349 7.23627606617 -1.09484 -0.213777 -26.7485
9.7263 80000085600002350 80000085600002349 80000085600002366 80000085600002348 7.00541704554 4.6232 -0.439911 0.814967
9.7455 80000085600002349 80000085600002348 80000085600002366 80000085600002347 6.85511726265 4.23191 -4.73148 -5.5818
9.82222 80000085600002348 80000085600002347 80000085600002366 80000085600002346 6.49159774567 5.15874 -3.73506 -7.32704
9.84661 80000085600002347 80000085600002346 80000085600002366 80000085600002345 6.14490120342 9.48887 -5.05899 0.109861
9.95436 80000085600002346 80000085600002345 80000085600002366 80000085600002344 6.01075739884 5.11669 -11.0702 -15.0237
9.97248 80000085600002345 80000085600002344 80000085600002366 80000085600002343 5.84661374788 3.41729 -18.3238 -14.6877
9.97525 80000085600002344 80000085600002343 80000085600002366 80000085600002342 5.52976580795 5.43604 -10.5852 -1.8309
10.0239 80000085600002343 80000085600002342 80000085600002366 80000085600002341 5.22758097313 3.37687 -5.68145 -11.7721
10.0246 80000085600002342 80000085600002341 80000085600002366 80000085600002340 4.99593346816 -2.66425 -5.90009 -10.6474
10.0503 80000085600002341 80000085600002340 80000085600002366 80000085600002339 4.93938066349 0.837708 -16.9954 -19.1256
10.0643 80000085600002340 80000085600002339 80000085600002366 80000085600002338 4.66451770247 -1.41604 -3.32507 -8.27865
10.1026 80000085600002339 80000085600002338 80000085600002366 80000085600002337 4.42803373661 -0.738638 10.4437 -13.0376
10.1093 80000085600002338 80000085600002337 80000085600002366 80000085600002336 4.17683491473 4.44863 18.097 -22.0785
10.1279 80000085600002337 80000085600002336 80000085600002366 80000085600002335 4.00794511147 1.76528 9.83441 -18.447
10.1425 80000085600002336 80000085600002334 80000085600002366 80000085600002333 3.70877426464 12.0707 14.153 -15.8721
10.2408 80000085600002334 80000085600002333 80000085600002366 80000085600002332 3.49086136926 0.954794 -0.199961 -14.8466
10.3614 80000085600002333 80000085600002332 80000085600002366 80000085600002331 3.28303305796 -25.5281 -9.77361 0.557648
10.4126 80000085600002332 80000085600002331 80000085600002366 80000085600002330 3.08482263583 -23.6698 -0.569281 3.86728
10.4188 80000085600002331 80000085600002329 80000085600002366 80000085600002328 2.89578500573 -22.1597 -19.1913 3.50648
10.4688 80000085600002329 80000085600002328 80000085600002366 80000085600002327 2.73314261732 -32.4108 -15.6236 12.0858
10.5126 80000085600002328 80000085600002327 80000085600002366 80000085600002326 2.5772902716 -35.5869 -33.2502 1.32806
10.5483 80000085600002327 80000085600002326 80000085600002366 80000085600002325 2.44422570455 -35.0986 -39.7584 -5.07758
10.5788 80000085600002326 80000085600002325 80000085600002366 80000085600002324 2.31611074396 -9.95773 -36.1813 -4.14545
10.5886 80000085600002325 80000085600002324 80000085600002366 80000085600002323 2.20792547238 -8.37882 -31.3201 8.42126
10.6221 80000085600002324 80000085600002323 80000085600002366 80000085600002322 2.1032696526 -20.1633 -33.616 -1.70139
10.6227 80000085600002323 80000085600002322 80000085600002366 80000085600002321 2.00202813925 -30.1759 -35.5439 -10.6649
10.6412 80000085600002322 80000085600002321 80000085600002366 80000085600002320 1.90408954353 -40.1731 -36.3682 -11.0787
10.643 80000085600002321 80000085600002318 80000085600002366 80000085600002317 1.66666955611 -41.0446 -22.6504 3.62044
10.6457 80000085600002318 80000085600002317 80000085600002366 80000085600002316 1.60423452207 -34.5754 -23.3914 1.85741
10.6481 80000085600002317 80000085600002316 80000085600002366 80000085600002315 1.53123902916 -59.1301 -39.1491 -4.64382
10.6684 80000085600002316 80000085600002314 80000085600002366 80000085600002313 1.41409822037 -58.0159 -31.188 -6.4616
10.6775 80000085600002314 80000085600002310 80000085600002366 80000085600002309 1.20625808078 -56.9306 -43.6381 12.8633
10.6934 80000085600002310 80000085600002309 80000085600002366 80000085600002308 1.15460271236 -139.321 -89.6976 17.0248
10.694 80000085600002309 80000085600002306 80000085600002366 80000085600002305 1.03551044566 -43.6032 -29.6033 20.6042
9.02855 80000085600002411 80000085600002410 80000085600002420 80000085600002409 7.00541704554 -0.140803 -0.512063 6.37858
9.11179 80000085600002410 80000085600002409 80000085600002420 80000085600002408 6.85511726265 5.40036 -4.608 5.84366
9.14108 80000085600002409 80000085600002408 80000085600002420 80000085600002407 6.49159774567 3.51763 -1.59687 5.03832
9.19013 80000085600002408 80000085600002407 80000085600002420 80000085600002406 6.14490120342 2.86143 -4.03064 0.34102
9.22651 80000085600002407 80000085600002406 80000085600002420 80000085600002405 6.01075739884 0.410806 -2.08264 2.99094
9.26008 80000085600002406 80000085600002405 80000085600002420 80000085600002404 5.84661374788 1.75868 -3.39618 1.3505
9.29622 80000085600002405 80000085600002404 80000085600002420 80000085600002403 5.52976580795 1.27101 -0.918722 1.93105
9.57262 80000085600002404 80000085600002403 80000085600002420 80000085600002402 5.22758097313 8.55363 12.3864 -1.83359
9.65078 80000085600002403 80000085600002402 80000085600002420 80000085600002401 4.99593346816 7.66221 8.89738 -1.53193
9.70299 80000085600002402 80000085600002400 80000085600002420 80000085600002399 4.66451770247 7.79645 8.41709 -1.77608
9.72752 80000085600002400 80000085600002399 80000085600002420 80000085600002398 4.42803373661 1.89778 8.14298 -2.87369
9.7678 80000085600002399 80000085600002398 80000085600002420 80000085600002397 4.17683491473 0.788866 6.0263 -8.46449
9.7799 80000085600002398 80000085600002397 80000085600002420 80000085600002396 4.00794511147 0.717474 7.31358 -2.72535
9.01614 80000085600002432 80000085600002431 80000085600002442 80000085600002430 6.85511726265 3.70787 -2.16312 4.82566
9.01614 80000085600002431 80000085600002430 80000085600002442 80000085600002429 6.49159774567 6.09972 -3.25112 3.97327
9.07766 80000085600002430 80000085600002429 80000085600002442 80000085600002428 6.14490120342 7.99895 -1.75188 8.47307
9.02239 80000085600002470 80000085600002469 80000085600002482 80000085600002468 4.66451770247 3.42289 -3.95404 4.67274
9.10415 80000085600002469 80000085600002464 80000085600002482 80000085600002463 3.70877426464 8.41272 -8.79222 -2.49898
9.12912 80000085600002464 80000085600002463 80000085600002482 80000085600002462 3.49086136926 4.01473 -6.92717 -8.19981
9.22845 80000085600002463 80000085600002461 80000085600002482 80000085600002460 3.08482263583 3.72223 -15.6949 -17.874
9.24548 80000085600002461 80000085600002460 80000085600002482 80000085600002459 3.00813107163 7.57865 -11.5396 -19.6927
9.01298 80000085600002534 80000085600002533 80000085600002538 80000085600002532 7.23627606617 -3.78806 1.24199 -6.40811
9.02855 80000085600002533 80000085600002531 80000085600002538 80000085600002530 6.85511726265 -5.91184 2.2311 -8.40013
9.09898 80000085600002531 80000085600002530 80000085600002538 80000085600002529 6.49159774567 -5.79856 -2.12452 -0.289464
9.17946 80000085600002530 80000085600002529 80000085600002538 80000085600002528 6.14490120342 -1.19114 1.63531 -1.0108
9.19433 80000085600002529 80000085600002528 80000085600002538 80000085600002527 6.01075739884 -2.50285 3.27537 -1.29962
9.2026 80000085600002528 80000085600002526 80000085600002538 80000085600002525 5.52976580795 -4.68842 -1.878 1.52656
9.3156 80000085600002526 80000085600002525 80000085600002538 80000085600002524 5.22758097313 -11.7554 -7.60301 -5.97035
9.3156 80000085600002525 80000085600002522 80000085600002538 80000085600002521 4.66451770247 -9.15713 -2.4536 -1.4616
9.46285 80000085600002522 80000085600002521 80000085600002538 80000085600002520 4.42803373661 -20.305 0.00197753 4.83896
9.48692 80000085600002521 80000085600002518 80000085600002538 80000085600002517 3.93726108473 -22.9623 6.82492 -0.311984
9.53996 80000085600002518 80000085600002515 80000085600002538 80000085600002514 3.28303305796 -23.4514 -3.42349 -1.67093
9.01298 80000085600002824 80000085600002823 80000085600002835 80000085600002822 4.66451770247 0.111996 -7.19401 3.59118
9.04358 80000085600002823 80000085600002822 80000085600002835 80000085600002821 4.42803373661 2.91463 -6.33304 1.7822
9.05811 80000085600002822 80000085600002821 80000085600002835 80000085600002820 4.17683491473 2.55668 -5.38235 1.7752
9.09898 80000085600002821 80000085600002820 80000085600002835 80000085600002819 4.00794511147 -1.31623 -3.83362 1.66694
9.12912 80000085600002820 80000085600002819 80000085600002835 80000085600002818 3.93726108473 -0.285722 -2.08336 0.320893
9.16852 80000085600002819 80000085600002818 80000085600002835 80000085600002817 3.70877426464 0.375127 -2.37205 5.77302
9.18162 80000085600002818 80000085600002817 80000085600002835 80000085600002816 3.49086136926 0.918884 -3.91656 4.42134
9.20464 80000085600002817 80000085600002816 80000085600002835 80000085600002815 3.28303305796 0.664171 -3.3459 4.97449
9.26187 80000085600002816 80000085600002815 80000085600002835 80000085600002814 3.08482263583 0.347271 -1.09229 4.85112
9.2742 80000085600002815 80000085600002813 80000085600002835 80000085600002812 2.89578500573 0.979536 -5.78991 7.97149
9.29787 80000085600002813 80000085600002812 80000085600002835 80000085600002811 2.73314261732 -4.31405 -3.61282 8.90052
9.31874 80000085600002812 80000085600002811 80000085600002835 80000085600002810 2.5772902716 -4.09552 -5.71685 9.61336
9.33716 80000085600002811 80000085600002810 80000085600002835 80000085600002809 2.44422570455 -0.663065 -12.0337 33.1498
9.38277 80000085600002810 80000085600002809 80000085600002835 80000085600002808 2.31611074396 -2.69718 -10.1664 28.5915
9.40774 80000085600002809 80000085600002808 80000085600002835 80000085600002807 2.20792547238 -4.22039 -9.95475 28.2667
9.44914 80000085600002808 80000085600002806 80000085600002835 80000085600002805 2.00202813925 -5.78237 -10.868 18.518
9.45719 80000085600002806 80000085600002804 80000085600002835 80000085600002803 1.82268925262 -6.40318 -11.4424 18.0081
9.46955 80000085600002804 80000085600002803 80000085600002835 80000085600002802 1.74357057433 -4.60905 -10.4051 16.6444
9.48049 80000085600002803 80000085600002799 80000085600002835 80000085600002798 1.47197484527 -5.4191 -10.0753 9.53346
9.0066 80000085600002981 80000085600002980 80000085600002987 80000085600002979 5.84661374788 5.22203 -4.8985 -4.0225
9.0666 80000085600002980 80000085600002979 80000085600002987 80000085600002978 5.52976580795 6.13864 -5.25173 -3.55591
9.10415 80000085600002979 80000085600002978 80000085600002987 80000085600002977 5.22758097313 8.37651 -8.00296 -3.91585
9.19223 80000085600002978 80000085600002977 80000085600002987 80000085600002976 4.99593346816 15.1839 -10.2059 -1.13778
9.22651 80000085600002977 80000085600002975 80000085600002987 80000085600002974 4.66451770247 9.54999 -11.4321 -5.24943
9.24362 80000085600002975 80000085600002974 80000085600002987 80000085600002973 4.42803373661 10.6111 -12.6912 -4.41903
9.25101 80000085600002974 80000085600002973 80000085600002987 80000085600002972 4.17683491473 3.80754 -11.144 -5.04179
9.31083 80000085600002973 80000085600002971 80000085600002987 80000085600002970 3.93726108473 7.4556 -12.1095 2.16929
9.36622 80000085600002971 80000085600002970 80000085600002987 80000085600002969 3.70877426464 10.4249 -11.8808 8.29642
9.38277 80000085600002970 80000085600002969 80000085600002987 80000085600002968 3.49086136926 6.54862 -10.1362 6.93937
9.40646 80000085600002969 80000085600002968 80000085600002987 80000085600002967 3.28303305796 9.48357 -12.0921 10.3651
9.42893 80000085600002968 80000085600002967 80000085600002987 80000085600002966 3.08482263583 10.8952 -9.21016 0.65682
9.44564 80000085600002967 80000085600002966 80000085600002987 80000085600002965 3.00813107163 9.27455 -11.3632 6.70271
9.47505 80000085600002966 80000085600002965 80000085600002987 80000085600002964 2.89578500573 12.0498 -14.2368 2.51108
9.50973 80000085600002965 80000085600002964 80000085600002987 80000085600002963 2.73314261732 22.8655 -10.0614 -5.77311
9.53713 80000085600002964 80000085600002963 80000085600002987 80000085600002962 2.5772902716 27.7559 -12.1874 -10.7762
9.70363 80000085600002963 80000085600002962 80000085600002987 80000085600002961 2.44422570455 56.8075 -2.97644 -7.99524
9.74725 80000085600002962 80000085600002961 80000085600002987 80000085600002960 2.31611074396 68.7771 2.5757 17.6485
9.83721 80000085600002961 80000085600002960 80000085600002987 80000085600002959 2.20792547238 77.5106 -7.0583 37.8864
9.84847 80000085600002960 80000085600002959 80000085600002987 80000085600002958 2.1032696526 47.9034 -6.86042 8.96849
9.89288 80000085600002959 80000085600002958 80000085600002987 80000085600002957 2.00202813925 33.2325 -6.46842 15.2484
9.92276 80000085600002958 80000085600002957 80000085600002987 80000085600002956 1.90408954353 33.1901 -5.89314 23.4605
9.93431 80000085600002957 80000085600002956 80000085600002987 80000085600002955 1.82268925262 40.8629 -11.1283 22.6771
9.96191 80000085600002956 80000085600002955 80000085600002987 80000085600002954 1.74357057433 35.7163 -14.9225 30.9087
9.96511 80000085600002955 80000085600002954 80000085600002987 80000085600002953 1.66666955611 37.9252 -2.3696 28.2671
9.96652 80000085600002954 80000085600002953 80000085600002987 80000085600002952 1.60423452207 28.1574 -8.99613 23.4503
9.97663 80000085600002953 80000085600002952 80000085600002987 80000085600002951 1.53123902916 34.4356 -10.2671 17.9482
10.005 80000085600002952 80000085600002951 80000085600002987 80000085600002950 1.47197484527 42.6769 -11.8179 14.0497
10.0098 80000085600002951 80000085600002950 80000085600002987 80000085600002949 1.41409822037 33.4406 -20.674 -6.0074
10.0355 80000085600002950 80000085600002949 80000085600002987 80000085600002948 1.3575766674 49.9955 -30.1314 -18.1025
9.06378 80000085600003004 80000085600003003 80000085600003021 80000085600003002 3.00813107163 9.285 -8.60623 6.39131
9.05811 80000085600003277 80000085600003276 80000085600003292 80000085600003275 3.28303305796 -3.96421 6.44932 0.132518
9.18802 80000085600003276 80000085600003274 80000085600003292 80000085600003273 3.00813107163 -12.6142 4.89778 1.11816
9.21869 80000085600003274 80000085600003272 80000085600003292 80000085600003271 2.73314261732 -9.63557 6.37635 2.0134
9.24918 80000085600003272 80000085600003271 80000085600003292 80000085600003270 2.5772902716 -14.631 6.22621 0.870977
9.2929 80000085600003271 80000085600003270 80000085600003292 80000085600003269 2.44422570455 -10.6932 6.04771 -1.57522
9.31401 80000085600003270 80000085600003269 80000085600003292 80000085600003268 2.31611074396 -14.687 7.33372 7.69878
9.35048 80000085600003269 80000085600003268 80000085600003292 80000085600003267 2.20792547238 -12.5148 12.0306 7.53281
9.36902 80000085600003268 80000085600003266 80000085600003292 80000085600003265 2.00202813925 -11.7119 15.5234 5.65897
9.38547 80000085600003266 80000085600003264 80000085600003292 80000085600003263 1.82268925262 -26.4914 24.4615 -6.84065
9.38815 80000085600003264 80000085600003263 80000085600003292 80000085600003262 1.74357057433 -23.6691 28.4425 -6.08212
9.41909 80000085600003263 80000085600003261 80000085600003292 80000085600003260 1.60423452207 -26.3596 24.7606 -5.47414
9.42281 80000085600003261 80000085600003260 80000085600003292 80000085600003259 1.53123902916 -27.1077 26.3732 -0.350483
9.42771 80000085600003260 80000085600003257 80000085600003292 80000085600003256 1.3575766674 -40.7087 26.5674 -0.7651
9.00337 80000085600003477 80000085600003476 80000085600003483 80000085600003475 8.01217294887 -3.41957 2.85741 -1.20778
9.03463 80000085600003476 80000085600003475 80000085600003483 80000085600003474 7.59510714987 -3.47633 4.70873 1.56865
9.2862 80000085600003475 80000085600003473 80000085600003483 80000085600003472 7.00541704554 3.3702 -15.6822 13.1814
9.29951 80000085600003473 80000085600003471 80000085600003483 80000085600003470 6.49159774567 -1.45276 -14.6205 11.4491
9.3974 80000085600003471 80000085600003470 80000085600003483 80000085600003469 6.14490120342 -1.8143 -6.96325 3.11845
9.40389 80000085600003470 80000085600003469 80000085600003483 80000085600003468 6.01075739884 -1.81727 -9.50853 2.84458
9.45605 80000085600003469 80000085600003468 80000085600003483 80000085600003467 5.84661374788 -5.23764 -10.7573 2.88685
9.49326 80000085600003468 80000085600003467 80000085600003483 80000085600003466 5.52976580795 -4.48716 -11.7649 4.7451
9.53428 80000085600003467 80000085600003466 80000085600003483 80000085600003465 5.22758097313 -5.04484 -13.2217 7.73579
9.54558 80000085600003466 80000085600003464 80000085600003483 80000085600003463 4.93938066349 -4.21296 -8.32005 7.52526
9.63366 80000085600003464 80000085600003463 80000085600003483 80000085600003462 4.66451770247 -3.08639 -16.5947 9.82063
9.66017 80000085600003463 80000085600003462 80000085600003483 80000085600003461 4.42803373661 -2.41056 -13.6207 6.89575
9.6838 80000085600003462 80000085600003458 80000085600003483 80000085600003457 3.70877426464 -13.1144 -1.87173 12.3525
9.76669 80000085600003458 80000085600003456 80000085600003483 80000085600003455 3.08482263583 -20.821 -3.07104 -1.59723
9.77827 80000085600003456 80000085600003455 80000085600003483 80000085600003454 3.00813107163 -23.3269 -0.224165 -9.98682
9.81827 80000085600003455 80000085600003454 80000085600003483 80000085600003453 2.89578500573 -36.4898 4.34276 -28.5641
9.89078 80000085600003454 80000085600003453 80000085600003483 80000085600003452 2.73314261732 -42.6644 -3.19866 -39.426
9.92354 80000085600003453 80000085600003452 80000085600003483 80000085600003451 2.5772902716 -44.6335 -4.04587 -26.8484
9.93317 80000085600003452 80000085600003451 80000085600003483 80000085600003450 2.44422570455 -40.8702 -5.81327 -22.8479
9.95797 80000085600003451 80000085600003450 80000085600003483 80000085600003449 2.31611074396 -43.1655 -7.50439 -15.4247
9.98007 80000085600003450 80000085600003449 80000085600003483 80000085600003448 2.20792547238 -40.7583 -10.7162 -36.9698
10.0114 80000085600003449 80000085600003448 80000085600003483 80000085600003447 2.1032696526 -23.4592 -15.7705 -45.7237
10.0669 80000085600003448 80000085600003447 80000085600003483 80000085600003446 2.00202813925 -12.9413 -8.74293 -60.0976
10.1168 80000085600003447 80000085600003446 80000085600003483 80000085600003445 1.90408954353 16.6286 11.8944 -109.193
9.61742 80000085600003504 80000085600003503 80000085600003504 80000085600003456 3.28303305796 -11.5553 -1.65028 7.1848
9.01298 80000085600003527 80000085600003526 80000085600003535 80000085600003525 5.84661374788 2.02131 -3.61462 -4.16917
9.06939 80000085600003526 80000085600003525 80000085600003535 80000085600003524 5.52976580795 3.18076 -1.50009 -4.73233
9.13394 80000085600003525 80000085600003524 80000085600003535 80000085600003523 5.22758097313 5.30795 -0.563869 6.28997
9.17293 80000085600003524 80000085600003523 80000085600003535 80000085600003522 4.99593346816 5.27209 2.13543 11.3193
9.17293 80000085600003523 80000085600003522 80000085600003535 80000085600003521 4.93938066349 5.96987 2.74518 11.2098
9.20464 80000085600003522 80000085600003521 80000085600003535 80000085600003520 4.66451770247 4.93985 0.9318 5.8671
9.21671 80000085600003521 80000085600003520 80000085600003535 80000085600003519 4.42803373661 4.6065 1.44293 6.71172
9.21869 80000085600003520 80000085600003519 80000085600003535 80000085600003518 4.17683491473 3.01786 2.69453 9.14694
9.26896 80000085600003519 80000085600003518 80000085600003535 80000085600003517 4.00794511147 3.48529 3.47225 7.90625
9.27766 80000085600003518 80000085600003517 80000085600003535 80000085600003516 3.93726108473 2.18698 6.75791 9.43848
9.29622 80000085600003517 80000085600003516 80000085600003535 80000085600003515 3.70877426464 2.613 2.15058 3.60343
9.37595 80000085600003516 80000085600003514 80000085600003535 80000085600003513 3.28303305796 -7.58679 2.41391 -5.55234
9.00337 80000085600003676 80000085600003675 80000085600003687 80000085600003674 4.99593346816 -3.49222 -1.93288 5.13989
9.02855 80000085600003675 80000085600003673 80000085600003687 80000085600003672 4.66451770247 -3.48722 -0.820287 5.36658
9.02855 80000085600003673 80000085600003671 80000085600003687 80000085600003670 4.17683491473 -4.13231 -0.41773 3.74268
9.12178 80000085600003671 80000085600003668 80000085600003687 80000085600003667 3.70877426464 2.28842 7.09352 -4.91768
9.12424 80000085600003668 80000085600003666 80000085600003687 80000085600003665 3.28303305796 7.77316 7.64969 -0.447409
9.19223 80000085600003666 80000085600003665 80000085600003687 80000085600003664 3.08482263583 0.872216 4.12964 -6.37382
9.20055 80000085600003665 80000085600003662 80000085600003687 80000085600003661 2.73314261732 -3.22969 -0.0712473 -1.65175
9.30763 80000085600003662 80000085600003661 80000085600003687 80000085600003660 2.5772902716 2.98979 -15.7914 13.0641
9.33415 80000085600003661 80000085600003660 80000085600003687 80000085600003659 2.44422570455 7.30542 -17.4389 10.5947
9.36481 80000085600003660 80000085600003659 80000085600003687 80000085600003658 2.31611074396 5.4795 -25.0755 17.2235
9.44093 80000085600003659 80000085600003657 80000085600003687 80000085600003656 2.1032696526 1.02636 -31.245 21.308
9.44914 80000085600003657 80000085600003655 80000085600003687 80000085600003654 1.90408954353 1.43379 -20.8834 14.4144
9.45833 80000085600003655 80000085600003654 80000085600003687 80000085600003653 1.82268925262 -1.96942 -29.9166 19.6369
9.4606 80000085600003654 80000085600003652 80000085600003687 80000085600003651 1.66666955611 -6.06433 -21.9509 19.2433
9.4651 80000085600003652 80000085600003651 80000085600003687 80000085600003650 1.60423452207 -6.22398 -24.5913 18.9864
9.47832 80000085600003651 80000085600003650 80000085600003687 80000085600003649 1.53123902916 -4.953 -14.6654 16.6547
9.48157 80000085600003650 80000085600003649 80000085600003687 80000085600003648 1.47197484527 -1.40619 -16.0824 16.4268
