logMh | fpID | subhaloID | main leaf ID | descID |  z
9.0098 90000131100000087 90000131100000086 90000131100000098 90000131100000085 4.99593346816 3.6995 2.75992 0.595727
9.05811 90000131100000086 90000131100000084 90000131100000098 90000131100000083 4.66451770247 4.32527 5.27135 0.314485
9.09637 90000131100000084 90000131100000083 90000131100000098 90000131100000082 4.42803373661 2.97928 4.44004 -1.91264
9.2361 90000131100000083 90000131100000082 90000131100000098 90000131100000081 4.17683491473 11.8842 7.63625 -4.85944
9.24175 90000131100000082 90000131100000080 90000131100000098 90000131100000079 3.93726108473 13.4329 10.3924 -6.98598
9.2862 90000131100000080 90000131100000079 90000131100000098 90000131100000078 3.70877426464 22.7429 5.05209 -13.689
9.32497 90000131100000079 90000131100000078 90000131100000098 90000131100000077 3.49086136926 9.28029 -10.5608 -5.9361
9.8767 90000131100000078 90000131100000072 90000131100000098 90000131100000071 2.5772902716 -22.808 -41.8781 -32.9712
10.3316 90000131100000072 90000131100000070 90000131100000098 90000131100000069 2.31611074396 2.10681 -3.363 29.736
10.7834 90000131100000070 90000131100000067 90000131100000098 90000131100000066 2.00202813925 46.9727 -46.4238 -65.0004
10.7952 90000131100000067 90000131100000066 90000131100000098 90000131100000065 1.90408954353 27.44 -29.7689 -46.3513
10.8258 90000131100000066 90000131100000065 90000131100000098 90000131100000064 1.82268925262 26.5074 -29.1597 -40.8667
10.8466 90000131100000065 90000131100000057 90000131100000098 90000131100000056 1.30237845991 28.9183 7.9964 -52.1659
10.8494 90000131100000057 90000131100000056 90000131100000098 90000131100000055 1.24847261425 46.1454 -1.86436 -62.4619
10.8569 90000131100000056 90000131100000055 90000131100000098 90000131100000054 1.20625808078 34.9664 -5.89147 -58.3038
10.8883 90000131100000055 90000131100000054 90000131100000098 90000131100000053 1.15460271236 30.0588 -3.68491 -55.1434
10.9003 90000131100000054 90000131100000052 90000131100000098 90000131100000051 1.07445789455 36.6491 -4.60026 -60.6725
10.9037 90000131100000052 90000131100000046 90000131100000098 90000131100000045 0.886896937575 46.7373 -29.4537 -48.1068
10.9085 90000131100000046 90000131100000045 90000131100000098 90000131100000044 0.851470900625 49.2529 -41.3973 -45.0952
10.9202 90000131100000045 90000131100000043 90000131100000098 90000131100000042 0.791068248946 78.6411 -46.3735 -53.9441
10.9239 90000131100000043 90000131100000042 90000131100000098 90000131100000041 0.757441372616 106.094 -49.9392 -51.5732
10.9315 90000131100000042 90000131100000041 90000131100000098 90000131100000040 0.732636182022 95.9706 -49.1543 -47.3059
10.9391 90000131100000041 90000131100000040 90000131100000098 90000131100000039 0.700106353719 109.147 -50.7646 -35.9488
10.9422 90000131100000040 90000131100000039 90000131100000098 90000131100000038 0.676110411213 107.532 -50.5307 -29.0002
10.9589 90000131100000039 90000131100000038 90000131100000098 90000131100000037 0.644641840685 124.408 -43.1555 -12.8934
10.9713 90000131100000038 90000131100000037 90000131100000098 90000131100000036 0.621428745243 115.538 -44.5322 17.9395
10.9781 90000131100000037 90000131100000036 90000131100000098 90000131100000035 0.598543288188 89.6812 -29.2872 20.6517
10.9864 90000131100000036 90000131100000035 90000131100000098 90000131100000034 0.575980845108 100.32 -29.7041 53.9921
10.9888 90000131100000035 90000131100000034 90000131100000098 90000131100000033 0.546392183141 90.4055 -17.7636 63.8481
10.9988 90000131100000034 90000131100000033 90000131100000098 90000131100000032 0.524565820434 100.314 -2.75128 88.262
10.9997 90000131100000033 90000131100000032 90000131100000098 90000131100000031 0.503047523245 90.745 9.57058 94.4013
11.0084 90000131100000032 90000131100000031 90000131100000098 90000131100000030 0.481832943421 88.8265 6.93024 104.796
11.0149 90000131100000031 90000131100000030 90000131100000098 90000131100000029 0.460917794181 87.6818 8.84496 117.947
11.0255 90000131100000030 90000131100000029 90000131100000098 90000131100000028 0.440297849248 105.978 8.9994 117.199
11.0264 90000131100000029 90000131100000028 90000131100000098 90000131100000027 0.419968941997 98.2859 6.43948 103.971
11.0302 90000131100000028 90000131100000027 90000131100000098 90000131100000026 0.399926964614 99.6868 6.23372 80.133
11.0368 90000131100000027 90000131100000026 90000131100000098 90000131100000025 0.38016786726 98.0924 12.5426 71.6093
11.0414 90000131100000026 90000131100000025 90000131100000098 90000131100000024 0.360687657262 111.586 14.8421 70.5041
11.048 90000131100000025 90000131100000024 90000131100000098 90000131100000023 0.347853841858 110.895 12.0649 66.2881
11.0554 90000131100000024 90000131100000023 90000131100000098 90000131100000022 0.328829724206 102.086 11.4604 66.4224
11.0565 90000131100000023 90000131100000022 90000131100000098 90000131100000021 0.310074120128 101.878 8.6496 68.3325
11.0793 90000131100000022 90000131100000021 90000131100000098 90000131100000020 0.291583239722 114.589 43.09 58.1815
11.0868 90000131100000021 90000131100000020 90000131100000098 90000131100000019 0.273353346578 118.967 99.6066 48.2193
11.108 90000131100000020 90000131100000019 90000131100000098 90000131100000018 0.261343256161 129.669 171.439 24.7238
11.1087 90000131100000019 90000131100000018 90000131100000098 90000131100000017 0.243540181555 157.635 168.26 23.6476
11.1163 90000131100000018 90000131100000017 90000131100000098 90000131100000016 0.22598838626 140.215 152.34 13.3846
11.1175 90000131100000017 90000131100000015 90000131100000098 90000131100000014 0.197284182376 167.435 129.753 7.28002
11.1283 90000131100000015 90000131100000014 90000131100000098 90000131100000013 0.180385261706 176.602 189.748 -18.0724
11.1343 90000131100000014 90000131100000012 90000131100000098 90000131100000011 0.152748768902 158.854 227.847 -21.8606
11.1408 90000131100000012 90000131100000011 90000131100000098 90000131100000010 0.14187620397 166.109 231.185 -39.973
11.1488 90000131100000011 90000131100000010 90000131100000098 90000131100000009 0.125759332411 151.152 252.342 -17.9322
11.1691 90000131100000010 90000131100000009 90000131100000098 90000131100000008 0.109869940459 150.235 312.538 -42.7387
11.1863 90000131100000009 90000131100000007 90000131100000098 90000131100000006 0.0838844307975 177.703 368.061 -40.7973
11.2042 90000131100000007 90000131100000006 90000131100000098 90000131100000005 0.0736613846564 178.032 410.323 -53.1837
11.2321 90000131100000006 90000131100000005 90000131100000098 90000131100000004 0.0585073227945 203.455 464.897 -77.6155
11.2351 90000131100000005 90000131100000004 90000131100000098 90000131100000003 0.0485236299818 203.82 472.187 -68.121
11.2551 90000131100000004 90000131100000003 90000131100000098 90000131100000002 0.0337243718735 221.708 507.926 -81.5291
11.2666 90000131100000003 90000131100000002 90000131100000098 90000131100000001 0.0239744283828 228.459 535.564 -86.9499
11.2907 90000131100000002 90000131100000001 90000131100000098 90000131100000000 0.00952166696794 241.029 537.901 -95.7041
11.3175 90000131100000001 90000131100000000 90000131100000098 -1 2.22044604925e-16 250.559 569.696 -112.56
9.04062 90000131100000137 90000131100000136 90000131100000152 90000131100000135 5.52976580795 -1.71009 -0.0434838 -2.79128
9.08578 90000131100000136 90000131100000135 90000131100000152 90000131100000134 5.22758097313 -2.38725 0.746799 -0.812808
9.12178 90000131100000135 90000131100000134 90000131100000152 90000131100000133 4.99593346816 -8.61614 -4.20591 1.95314
9.2026 90000131100000134 90000131100000133 90000131100000152 90000131100000132 4.93938066349 -6.12391 -0.876219 2.13439
9.26008 90000131100000133 90000131100000131 90000131100000152 90000131100000130 4.42803373661 -6.48772 -9.1949 -1.72035
9.32031 90000131100000131 90000131100000130 90000131100000152 90000131100000129 4.17683491473 -9.33902 -10.3913 -2.72356
9.36763 90000131100000130 90000131100000129 90000131100000152 90000131100000128 4.00794511147 -10.4185 -11.1207 -2.56187
9.37732 90000131100000129 90000131100000128 90000131100000152 90000131100000127 3.93726108473 -8.18516 -10.9392 -1.82641
9.40518 90000131100000128 90000131100000127 90000131100000152 90000131100000126 3.70877426464 -9.90625 -12.2183 0.640926
9.43015 90000131100000127 90000131100000126 90000131100000152 90000131100000125 3.49086136926 -13.5448 -7.81052 1.06607
9.51475 90000131100000126 90000131100000125 90000131100000152 90000131100000124 3.28303305796 -14.9902 -19.3045 14.5556
9.63969 90000131100000125 90000131100000124 90000131100000152 90000131100000123 3.08482263583 -25.9372 -45.1721 32.6676
9.71825 90000131100000124 90000131100000122 90000131100000152 90000131100000121 2.89578500573 -63.2128 -67.563 44.8743
9.72691 90000131100000122 90000131100000121 90000131100000152 90000131100000120 2.73314261732 -39.0243 -56.7705 27.408
9.0316 90000131100000212 90000131100000211 90000131100000221 90000131100000210 5.52976580795 -14.7857 -6.92777 9.5334
9.08578 90000131100000211 90000131100000210 90000131100000221 90000131100000209 5.22758097313 -7.6478 -4.04675 5.32363
9.10415 90000131100000210 90000131100000207 90000131100000221 90000131100000206 4.66451770247 -4.68752 -4.46157 2.35606
9.15502 90000131100000207 90000131100000206 90000131100000221 90000131100000205 4.42803373661 0.844584 -1.33144 -0.253986
9.2342 90000131100000206 90000131100000205 90000131100000221 90000131100000204 4.17683491473 -6.17081 -8.30096 5.11849
9.39871 90000131100000205 90000131100000204 90000131100000221 90000131100000203 4.00794511147 -4.49131 -14.6011 16.2805
9.42771 90000131100000204 90000131100000202 90000131100000221 90000131100000201 3.70877426464 -17.1299 -21.3281 8.18439
9.48586 90000131100000202 90000131100000201 90000131100000221 90000131100000200 3.49086136926 -23.2013 -26.0311 6.87986
9.48905 90000131100000201 90000131100000197 90000131100000221 90000131100000196 2.89578500573 -24.4322 -12.3363 16.2368
9.56646 90000131100000197 90000131100000196 90000131100000221 90000131100000195 2.73314261732 -37.9937 -22.9743 6.09713
9.59972 90000131100000196 90000131100000195 90000131100000221 90000131100000194 2.5772902716 -26.9567 -19.6507 4.4405
9.65297 90000131100000195 90000131100000194 90000131100000221 90000131100000193 2.44422570455 -34.6173 -27.6085 -9.89428
9.01614 90000131100000278 90000131100000277 90000131100000285 90000131100000276 7.59510714987 4.58873 -0.278596 -1.46794
9.09111 90000131100000277 90000131100000276 90000131100000285 90000131100000275 7.23627606617 0.327903 -0.999703 -3.12259
9.18162 90000131100000276 90000131100000275 90000131100000285 90000131100000274 7.00541704554 5.98656 -1.94464 0.636138
9.23229 90000131100000275 90000131100000273 90000131100000285 90000131100000272 6.49159774567 16.0618 1.29021 0.398203
9.25648 90000131100000273 90000131100000272 90000131100000285 90000131100000271 6.14490120342 16.0339 1.90066 -0.34316
9.31401 90000131100000272 90000131100000271 90000131100000285 90000131100000270 6.01075739884 17.9283 3.10982 -1.17462
9.32342 90000131100000271 90000131100000270 90000131100000285 90000131100000269 5.84661374788 16.133 1.82245 0.809308
9.41659 90000131100000270 90000131100000269 90000131100000285 90000131100000268 5.52976580795 21.986 0.463873 3.45061
9.42527 90000131100000269 90000131100000268 90000131100000285 90000131100000267 5.22758097313 17.458 -0.72239 -2.34228
9.55296 90000131100000268 90000131100000267 90000131100000285 90000131100000266 4.99593346816 7.29999 1.19663 -17.9459
9.62831 90000131100000267 90000131100000264 90000131100000285 90000131100000263 4.42803373661 7.37051 -10.1861 -10.3791
9.7263 90000131100000264 90000131100000263 90000131100000285 90000131100000262 4.17683491473 -2.65195 -24.4474 -10.1722
9.77169 90000131100000263 90000131100000262 90000131100000285 90000131100000261 4.00794511147 -2.21713 -26.7442 -27.6779
9.82954 90000131100000262 90000131100000261 90000131100000285 90000131100000260 3.93726108473 -4.16129 -31.2771 -29.3756
9.90727 90000131100000261 90000131100000260 90000131100000285 90000131100000259 3.70877426464 -2.86723 -30.9858 -24.824
9.95833 90000131100000260 90000131100000259 90000131100000285 90000131100000258 3.49086136926 -7.05577 -36.5128 -20.6118
9.9787 90000131100000259 90000131100000258 90000131100000285 90000131100000257 3.28303305796 -5.24846 -35.4833 -20.6495
9.9932 90000131100000258 90000131100000256 90000131100000285 90000131100000255 3.00813107163 -9.36992 -37.1748 -16.1552
9.99585 90000131100000256 90000131100000254 90000131100000285 90000131100000253 2.73314261732 -17.2073 -32.3715 -6.615
10.6191 90000131100000254 90000131100000250 90000131100000285 90000131100000249 2.20792547238 31.6307 29.317 -50.5628
10.7385 90000131100000250 90000131100000249 90000131100000285 90000131100000248 2.1032696526 56.0925 -33.1573 -78.2689
9.00012 90000131100000347 90000131100000346 90000131100000351 90000131100000345 6.14490120342 0.386937 0.00928976 -2.14069
9.0316 90000131100000346 90000131100000345 90000131100000351 90000131100000344 6.01075739884 1.02376 0.15396 -3.63932
9.05235 90000131100000345 90000131100000344 90000131100000351 90000131100000343 5.84661374788 0.131625 0.624168 -3.1764
9.14344 90000131100000344 90000131100000343 90000131100000351 90000131100000342 5.52976580795 2.16087 -1.26192 -3.40234
9.16852 90000131100000343 90000131100000341 90000131100000351 90000131100000340 4.99593346816 5.5888 -1.63362 -5.67286
9.17073 90000131100000341 90000131100000340 90000131100000351 90000131100000339 4.93938066349 5.05594 -0.86942 -6.2227
9.25284 90000131100000340 90000131100000339 90000131100000351 90000131100000338 4.66451770247 5.44608 2.39526 -9.47329
9.35627 90000131100000339 90000131100000338 90000131100000351 90000131100000337 4.42803373661 5.9376 -17.2803 -9.97704
9.45946 90000131100000338 90000131100000337 90000131100000351 90000131100000336 4.17683491473 -1.63921 -24.4493 0.416806
9.51675 90000131100000337 90000131100000334 90000131100000351 90000131100000333 3.70877426464 -3.59594 -19.2923 -4.23731
9.54928 90000131100000334 90000131100000333 90000131100000351 90000131100000332 3.49086136926 3.17859 -20.6087 -1.50643
10.0763 90000131100000333 90000131100000326 90000131100000351 90000131100000250 2.44422570455 -66.8149 -30.6952 -15.5916
9.04653 90000131100000372 90000131100000371 90000131100000379 90000131100000370 4.17683491473 -6.04959 5.75093 3.47475
9.02239 90000131100000389 90000131100000388 90000131100000405 90000131100000387 3.28303305796 5.2062 3.37928 3.14603
9.92198 90000131100000388 90000131100000381 90000131100000405 90000131100000249 2.31611074396 28.1632 0.716096 -16.7137
9.07216 90000131100000407 90000131100000406 90000131100000425 90000131100000381 2.44422570455 10.4149 -3.52201 8.85898
9.0098 90000131100000440 90000131100000439 90000131100000453 90000131100000438 3.93726108473 -3.8494 -1.92638 0.46216
9.03463 90000131100000439 90000131100000437 90000131100000453 90000131100000436 3.49086136926 -1.8721 -3.97815 4.172
9.12424 90000131100000437 90000131100000436 90000131100000453 90000131100000435 3.28303305796 10.1834 -10.9943 5.41178
9.17729 90000131100000436 90000131100000435 90000131100000453 90000131100000434 3.08482263583 7.73798 -11.7998 3.76541
9.18589 90000131100000435 90000131100000434 90000131100000453 90000131100000433 3.00813107163 12.6055 -11.5827 5.11295
9.01928 90000131100000488 90000131100000487 90000131100000497 90000131100000486 7.23627606617 -1.73674 1.10665 -3.76556
9.04945 90000131100000487 90000131100000486 90000131100000497 90000131100000485 7.00541704554 -0.349469 0.849794 -4.11738
9.08578 90000131100000486 90000131100000485 90000131100000497 90000131100000484 6.85511726265 -0.306915 1.30974 -4.83378
9.1573 90000131100000485 90000131100000484 90000131100000497 90000131100000483 6.49159774567 -3.34509 2.55955 -2.97546
9.20055 90000131100000484 90000131100000483 90000131100000497 90000131100000482 6.14490120342 -2.70765 3.16527 -4.60536
9.20668 90000131100000483 90000131100000482 90000131100000497 90000131100000481 6.01075739884 -2.13037 5.1343 -4.00656
9.24918 90000131100000482 90000131100000481 90000131100000497 90000131100000480 5.84661374788 -2.74851 5.02788 -3.72431
9.30602 90000131100000481 90000131100000480 90000131100000497 90000131100000479 5.52976580795 -0.549102 5.64869 -7.55582
9.32651 90000131100000480 90000131100000477 90000131100000497 90000131100000476 4.93938066349 -1.65802 2.54794 -2.58507
9.36902 90000131100000477 90000131100000476 90000131100000497 90000131100000475 4.66451770247 -0.544923 -1.21291 3.38307
9.40646 90000131100000476 90000131100000475 90000131100000497 90000131100000474 4.42803373661 -1.256 3.78955 5.61948
9.45376 90000131100000475 90000131100000474 90000131100000497 90000131100000473 4.17683491473 -2.46386 0.194207 1.89828
9.45605 90000131100000474 90000131100000473 90000131100000497 90000131100000472 4.00794511147 0.132193 -0.82971 -2.09472
9.45833 90000131100000473 90000131100000472 90000131100000497 90000131100000471 3.93726108473 0.32555 0.283102 0.836929
9.49326 90000131100000472 90000131100000471 90000131100000497 90000131100000470 3.70877426464 -17.7119 1.80085 9.50268
9.52851 90000131100000471 90000131100000466 90000131100000497 90000131100000465 2.89578500573 -8.50243 3.17903 -1.69072
9.84194 90000131100000466 90000131100000464 90000131100000497 90000131100000463 2.5772902716 21.2402 11.1613 -1.34843
9.02548 90000131100000509 90000131100000508 90000131100000512 90000131100000507 4.66451770247 1.26673 1.7039 -1.16794
9.06096 90000131100000508 90000131100000506 90000131100000512 90000131100000505 4.17683491473 -0.295601 -2.00567 -1.96742
9.06378 90000131100000506 90000131100000504 90000131100000512 90000131100000503 3.93726108473 4.69993 0.695248 -2.00057
9.09898 90000131100000504 90000131100000503 90000131100000512 90000131100000502 3.70877426464 2.46803 -1.58514 0.842556
9.31243 90000131100000503 90000131100000502 90000131100000512 90000131100000501 3.49086136926 -2.48425 6.64857 1.75421
9.36622 90000131100000502 90000131100000501 90000131100000512 90000131100000500 3.28303305796 -1.32705 0.146816 10.7961
9.59394 90000131100000501 90000131100000499 90000131100000512 90000131100000498 3.00813107163 8.84715 44.1016 15.7412
9.04062 90000131100000533 90000131100000532 90000131100000548 90000131100000531 3.28303305796 -13.1888 -14.1119 8.4737
9.08309 90000131100000532 90000131100000531 90000131100000548 90000131100000530 3.08482263583 -14.3358 -10.0219 8.6798
9.09637 90000131100000531 90000131100000530 90000131100000548 90000131100000529 3.00813107163 -13.4166 -6.01199 8.59004
9.13394 90000131100000530 90000131100000528 90000131100000548 90000131100000527 2.73314261732 -12.4478 -4.88547 8.0143
9.04358 90000131100000581 90000131100000580 90000131100000587 90000131100000579 5.52976580795 0.421407 3.62792 2.10591
9.04945 90000131100000580 90000131100000577 90000131100000587 90000131100000576 4.93938066349 -1.6228 1.69584 -0.693425
9.05524 90000131100000577 90000131100000576 90000131100000587 90000131100000575 4.66451770247 -1.36672 0.00837339 1.09703
9.09898 90000131100000576 90000131100000575 90000131100000587 90000131100000574 4.42803373661 1.76903 2.16028 -0.352252
9.12178 90000131100000575 90000131100000574 90000131100000587 90000131100000573 4.17683491473 -0.757276 1.72218 -1.3827
9.15956 90000131100000574 90000131100000573 90000131100000587 90000131100000572 4.00794511147 -0.720031 4.51366 -4.57016
9.19641 90000131100000573 90000131100000568 90000131100000587 90000131100000567 3.08482263583 -0.111293 3.47347 -6.69839
9.2672 90000131100000568 90000131100000567 90000131100000587 90000131100000566 3.00813107163 -7.4563 -7.41553 -9.76399
9.34902 90000131100000567 90000131100000566 90000131100000587 90000131100000565 2.89578500573 -12.8454 -17.2819 -25.7255
9.39214 90000131100000566 90000131100000564 90000131100000587 90000131100000563 2.5772902716 -8.90309 -12.0357 -21.1679
9.42527 90000131100000564 90000131100000563 90000131100000587 90000131100000562 2.44422570455 -4.71637 -10.2939 -19.455
9.47396 90000131100000563 90000131100000562 90000131100000587 90000131100000561 2.31611074396 5.92728 -20.7466 -18.9239
9.00012 90000131100000715 90000131100000714 90000131100000726 90000131100000713 4.17683491473 -3.8426 -12.0828 1.74747
9.01928 90000131100000714 90000131100000712 90000131100000726 90000131100000711 3.93726108473 -1.14439 -12.7803 -1.64901
9.15273 90000131100000712 90000131100000711 90000131100000726 90000131100000710 3.70877426464 0.72215 -24.1121 0.056672
9.02855 90000131100000746 90000131100000745 90000131100000765 90000131100000744 1.47197484527 6.93799 31.0393 -20.1221
9.05811 90000131100000840 90000131100000839 90000131100000855 90000131100000838 4.93938066349 -5.63543 4.04273 11.8505
9.10671 90000131100000839 90000131100000838 90000131100000855 90000131100000837 4.66451770247 -1.52744 0.654005 10.5629
9.21272 90000131100000838 90000131100000837 90000131100000855 90000131100000836 4.42803373661 -0.193451 2.78209 10.6724
9.29622 90000131100000837 90000131100000836 90000131100000855 90000131100000835 4.17683491473 -5.61083 6.03016 10.0914
9.33415 90000131100000836 90000131100000835 90000131100000855 90000131100000834 4.00794511147 -5.74927 10.9151 8.38441
9.34461 90000131100000835 90000131100000834 90000131100000855 90000131100000833 3.93726108473 -7.43452 10.2435 7.8523
9.3634 90000131100000834 90000131100000833 90000131100000855 90000131100000832 3.70877426464 -9.20806 8.83385 6.7155
9.37457 90000131100000833 90000131100000830 90000131100000855 90000131100000829 3.08482263583 -14.209 11.5699 8.76426
9.38412 90000131100000830 90000131100000828 90000131100000855 90000131100000827 2.89578500573 -11.9123 11.919 9.21784
9.3974 90000131100000828 90000131100000827 90000131100000855 90000131100000826 2.73314261732 -11.5695 14.3139 8.47877
9.41784 90000131100000827 90000131100000826 90000131100000855 90000131100000825 2.5772902716 -11.4941 15.8568 10.616
9.42404 90000131100000826 90000131100000825 90000131100000855 90000131100000824 2.44422570455 -5.69067 9.39806 5.88223
9.48157 90000131100000825 90000131100000824 90000131100000855 90000131100000823 2.31611074396 -3.30198 5.11871 -2.37928
9.50771 90000131100000824 90000131100000823 90000131100000855 90000131100000822 2.20792547238 0.461612 1.43024 -0.910886
9.50973 90000131100000823 90000131100000822 90000131100000855 90000131100000821 2.1032696526 0.617463 2.28553 -1.17879
9.51475 90000131100000822 90000131100000821 90000131100000855 90000131100000820 2.00202813925 4.03921 -1.21093 -0.877125
9.53428 90000131100000821 90000131100000820 90000131100000855 90000131100000819 1.90408954353 -3.4932 -7.46858 1.37701
9.55931 90000131100000820 90000131100000819 90000131100000855 90000131100000818 1.82268925262 5.21312 -10.4468 -5.20287
9.57697 90000131100000819 90000131100000818 90000131100000855 90000131100000817 1.74357057433 5.96862 -12.0644 4.1329
9.03463 90000131100000918 90000131100000917 90000131100000927 90000131100000916 3.08482263583 -11.113 -0.173205 0.845468
9.04062 90000131100000917 90000131100000916 90000131100000927 90000131100000915 3.00813107163 -2.83125 3.03328 1.13167
9.04062 90000131100000916 90000131100000915 90000131100000927 90000131100000914 2.89578500573 -5.09473 -1.37082 4.75594
9.10671 90000131100000915 90000131100000914 90000131100000927 90000131100000913 2.73314261732 -5.12148 -3.23172 3.4304
9.13634 90000131100000914 90000131100000913 90000131100000927 90000131100000912 2.5772902716 -5.8049 1.36586 3.72255
9.13871 90000131100000913 90000131100000912 90000131100000927 90000131100000911 2.44422570455 -1.82536 2.34794 7.13987
9.14578 90000131100000912 90000131100000910 90000131100000927 90000131100000909 2.20792547238 -6.01357 7.97456 8.25987
9.17729 90000131100000910 90000131100000909 90000131100000927 90000131100000908 2.1032696526 -5.02132 7.49981 6.38825
9.18162 90000131100000909 90000131100000902 90000131100000927 90000131100000901 1.53123902916 3.77948 10.4253 -0.879455
9.00337 90000131100001033 90000131100001032 90000131100001044 90000131100001031 4.93938066349 1.55982 -1.63753 -1.03627
9.04358 90000131100001032 90000131100001030 90000131100001044 90000131100001029 4.42803373661 4.94577 -1.85058 -4.83729
9.06096 90000131100001030 90000131100001029 90000131100001044 90000131100001028 4.17683491473 3.88992 -3.22685 -3.40836
9.08845 90000131100001029 90000131100001028 90000131100001044 90000131100001027 4.00794511147 2.91262 0.574901 -3.63274
9.10157 90000131100001028 90000131100001024 90000131100001044 90000131100001023 3.28303305796 2.75873 0.0483522 -6.39759
9.12668 90000131100001024 90000131100001023 90000131100001044 90000131100001022 3.08482263583 -8.5703 3.71016 -0.156211
9.18589 90000131100001023 90000131100001020 90000131100001044 90000131100001019 2.73314261732 -9.25134 0.350329 5.11572
9.23229 90000131100001020 90000131100001017 90000131100001044 90000131100001016 2.31611074396 -8.08972 2.78205 -1.95
9.00337 90000131100001165 90000131100001164 90000131100001171 90000131100001163 7.00541704554 -1.86269 -3.27631 0.557578
9.02855 90000131100001164 90000131100001163 90000131100001171 90000131100001162 6.85511726265 -1.97349 -3.42901 -1.01251
9.05235 90000131100001163 90000131100001162 90000131100001171 90000131100001161 6.49159774567 -2.38852 -3.51585 0.0198029
9.05811 90000131100001162 90000131100001161 90000131100001171 90000131100001160 6.14490120342 -0.563445 -3.0954 -0.630582
9.11431 90000131100001161 90000131100001160 90000131100001171 90000131100001159 6.01075739884 -1.71472 -3.03211 -1.16738
9.11431 90000131100001160 90000131100001159 90000131100001171 90000131100001158 5.84661374788 -0.41589 -2.38851 -1.32516
9.13154 90000131100001159 90000131100001158 90000131100001171 90000131100001157 5.52976580795 -1.94038 -2.03245 -0.889006
9.16182 90000131100001158 90000131100001157 90000131100001171 90000131100001156 5.22758097313 -4.00346 -4.67256 -2.58317
9.17073 90000131100001157 90000131100001156 90000131100001171 90000131100001155 4.99593346816 -4.03279 2.9599 2.58396
9.18162 90000131100001156 90000131100001153 90000131100001171 90000131100001152 4.42803373661 -2.42731 0.0309424 0.460367
9.23037 90000131100001153 90000131100001149 90000131100001171 90000131100001148 3.70877426464 -2.10908 -2.21627 -1.57345
9.33716 90000131100001149 90000131100001148 90000131100001171 90000131100001147 3.49086136926 0.0332211 -10.2386 -10.3208
9.33866 90000131100001148 90000131100001147 90000131100001171 90000131100001146 3.28303305796 -2.88596 -9.14501 -9.03931
9.43974 90000131100001147 90000131100001146 90000131100001171 90000131100001145 3.08482263583 0.319436 -18.4184 -15.5238
9.48372 90000131100001146 90000131100001142 90000131100001171 90000131100001141 2.5772902716 2.60801 -20.8249 -10.2457
9.52851 90000131100001142 90000131100001140 90000131100001171 90000131100001139 2.31611074396 5.43722 -40.5872 0.593496
9.57175 90000131100001140 90000131100001139 90000131100001171 90000131100001138 2.20792547238 7.32921 -43.2662 -5.445
9.57697 90000131100001139 90000131100001135 90000131100001171 90000131100001134 1.82268925262 7.68805 -24.4792 -15.5233
9.58213 90000131100001135 90000131100001134 90000131100001171 90000131100001133 1.74357057433 4.01062 -19.3822 -13.4513
9.58553 90000131100001134 90000131100001132 90000131100001171 90000131100001131 1.60423452207 5.3094 -22.6701 -15.1768
9.01298 90000131100001183 90000131100001182 90000131100001197 90000131100001181 3.93726108473 14.7181 -29.0738 -19.9902
9.07492 90000131100001293 90000131100001292 90000131100001310 90000131100001291 1.53123902916 21.3777 10.1448 -1.06226
