logMh | fpID | subhaloID | main leaf ID | descID |  z
9.0098 30000000011040886 30000000011040885 30000000011040887 30000000011040884 11.4973879548 1.45013 -0.251912 -1.47634
9.11179 30000000011040885 30000000011040884 30000000011040887 30000000011040883 10.9190331982 0.0821666 -0.208328 -0.861345
9.22845 30000000011040884 30000000011040883 30000000011040887 30000000011040882 10.3674435724 -0.618612 -3.59478 2.65598
9.30923 30000000011040883 30000000011040882 30000000011040887 30000000011040881 9.99659046619 -1.89828 -6.85829 3.89021
9.35194 30000000011040882 30000000011040881 30000000011040887 30000000011040880 9.84138043947 -2.36952 -6.56945 1.837
9.41534 30000000011040881 30000000011040880 30000000011040887 30000000011040879 9.38877127194 -1.70576 -3.58728 -0.954639
9.46397 30000000011040880 30000000011040879 30000000011040887 30000000011040878 9.00233985416 -3.25332 -5.7882 -1.23165
9.47724 30000000011040879 30000000011040878 30000000011040887 30000000011040877 8.9079991856 -2.62446 -4.71361 -1.36996
9.55387 30000000011040878 30000000011040877 30000000011040887 30000000011040876 8.44947629437 -2.87896 -4.6668 -1.56801
9.58298 30000000011040877 30000000011040876 30000000011040887 30000000011040875 8.01217294887 -2.37515 -2.85049 -2.1488
9.67629 30000000011040876 30000000011040875 30000000011040887 30000000011040874 7.59510714987 -6.19426 2.50829 -13.9067
9.78636 30000000011040875 30000000011040874 30000000011040887 30000000011040873 7.23627606617 -6.98023 7.81161 -23.6104
9.84381 30000000011040874 30000000011040873 30000000011040887 30000000011040872 7.00541704554 -13.7767 13.718 -32.8496
9.8549 30000000011040873 30000000011040872 30000000011040887 30000000011040871 6.85511726265 -11.2447 15.9504 -30.7219
9.98449 30000000011040872 30000000011040871 30000000011040887 30000000011040870 6.49159774567 16.387 23.5731 4.46133
10.0024 30000000011040871 30000000011040870 30000000011040887 30000000011040869 6.14490120342 -2.05664 11.5855 -9.19725
10.0538 30000000011040870 30000000011040869 30000000011040887 30000000011040868 6.01075739884 8.76167 18.9983 0.8942
10.0552 30000000011040869 30000000011040868 30000000011040887 30000000011040867 5.84661374788 12.6617 18.0077 1.7247
10.1313 30000000011040868 30000000011040867 30000000011040887 30000000011040866 5.52976580795 -7.67589 29.0728 -16.5428
10.2209 30000000011040867 30000000011040866 30000000011040887 30000000011040865 5.22758097313 -0.470253 27.5417 -13.6334
10.2622 30000000011040866 30000000011040865 30000000011040887 30000000011040864 4.99593346816 6.99807 22.5172 -12.4747
10.2775 30000000011040865 30000000011040864 30000000011040887 30000000011040863 4.93938066349 8.22163 22.5424 -10.8985
10.3104 30000000011040864 30000000011040863 30000000011040887 30000000011040862 4.66451770247 10.2962 25.1419 -13.4275
10.3352 30000000011040863 30000000011040862 30000000011040887 30000000011040861 4.42803373661 3.21435 27.2427 -18.2028
10.3787 30000000011040862 30000000011040861 30000000011040887 30000000011040860 4.17683491473 -0.900462 36.6449 -24.3877
10.4122 30000000011040861 30000000011040860 30000000011040887 30000000011040859 4.00794511147 1.06747 38.0219 -22.5848
10.4399 30000000011040860 30000000011040859 30000000011040887 30000000011040858 3.93726108473 0.533104 39.4418 -31.7743
10.5199 30000000011040859 30000000011040858 30000000011040887 30000000011040857 3.70877426464 50.0684 19.0088 41.0494
10.6018 30000000011040858 30000000011040857 30000000011040887 30000000011040856 3.49086136926 61.4611 16.5859 65.5432
10.6619 30000000011040857 30000000011040856 30000000011040887 30000000011040855 3.28303305796 59.215 29.429 83.6737
10.7469 30000000011040856 30000000011040855 30000000011040887 30000000011040854 3.08482263583 130.253 59.5531 106.693
10.7487 30000000011040855 30000000011040854 30000000011040887 30000000011040853 3.00813107163 155.242 60.8078 99.3049
10.8362 30000000011040854 30000000011040852 30000000011040887 30000000011040851 2.73314261732 110.254 57.1024 103.887
10.9429 30000000011040852 30000000011040851 30000000011040887 30000000011040850 2.5772902716 -55.1935 -53.5395 125.944
11.0016 30000000011040851 30000000011040850 30000000011040887 30000000011040849 2.44422570455 -138.721 -113.128 159.854
11.0481 30000000011040850 30000000011040849 30000000011040887 30000000011040848 2.31611074396 -118.857 -113.212 145.013
11.0945 30000000011040849 30000000011040848 30000000011040887 30000000011040847 2.20792547238 -210.791 -159.991 172.349
11.1232 30000000011040848 30000000011040846 30000000011040887 30000000011040845 2.00202813925 -215.583 -137.392 132.578
11.142 30000000011040846 30000000011040845 30000000011040887 30000000011040844 1.90408954353 -233.579 -136.239 84.608
11.1677 30000000011040845 30000000011040844 30000000011040887 30000000011040843 1.82268925262 -191.682 -120.023 4.05063
11.2061 30000000011040844 30000000011040843 30000000011040887 30000000011040842 1.74357057433 -132.616 -128.622 -31.7818
11.227 30000000011040843 30000000011040842 30000000011040887 30000000011040841 1.66666955611 -69.0166 -107.999 -54.9008
11.3142 30000000011040842 30000000011040841 30000000011040887 30000000011040840 1.60423452207 237.172 -25.4916 51.9194
11.3866 30000000011040841 30000000011040840 30000000011040887 30000000011040839 1.53123902916 435.197 76.1111 179.672
11.4098 30000000011040840 30000000011040839 30000000011040887 30000000011040838 1.47197484527 457.484 93.5457 200.633
11.439 30000000011040839 30000000011040838 30000000011040887 30000000011040837 1.41409822037 393.905 47.6501 196.054
11.5452 30000000011040838 30000000011040837 30000000011040887 30000000011040836 1.3575766674 308.262 220.798 -3.58528
11.5802 30000000011040837 30000000011040836 30000000011040887 30000000011040835 1.30237845991 276.327 277.893 -105.622
11.59 30000000011040836 30000000011040835 30000000011040887 30000000011040834 1.24847261425 291.798 343.515 -139.077
11.6087 30000000011040835 30000000011040834 30000000011040887 30000000011040833 1.20625808078 253.49 391.189 -197.189
11.6519 30000000011040834 30000000011040833 30000000011040887 30000000011040832 1.15460271236 187.877 450.518 -238.199
11.6558 30000000011040833 30000000011040831 30000000011040887 30000000011040830 1.07445789455 190.585 480.304 -227.209
11.6669 30000000011040831 30000000011040830 30000000011040887 30000000011040829 1.03551044566 150.779 536.456 -241.313
11.6813 30000000011040830 30000000011040829 30000000011040887 30000000011040828 0.997294225782 154.095 521.335 -248.179
11.6833 30000000011040829 30000000011040828 30000000011040887 30000000011040827 0.987852810816 163.664 527.089 -210.737
11.6989 30000000011040828 30000000011040827 30000000011040887 30000000011040826 0.950531351585 165.835 531.037 -177.597
11.7128 30000000011040827 30000000011040826 30000000011040887 30000000011040825 0.923000816178 197.326 514.403 -133.59
11.7324 30000000011040826 30000000011040825 30000000011040887 30000000011040824 0.886896937575 151.012 392.275 -68.1551
11.7467 30000000011040825 30000000011040824 30000000011040887 30000000011040823 0.851470900625 150.659 370.423 -17.2423
11.7539 30000000011040824 30000000011040823 30000000011040887 30000000011040822 0.816709979012 131.156 303.225 10.9909
11.7643 30000000011040823 30000000011040822 30000000011040887 30000000011040821 0.791068248946 101.049 240.8 35.9404
11.7844 30000000011040822 30000000011040821 30000000011040887 30000000011040820 0.757441372616 44.4673 167.244 28.7532
11.7944 30000000011040821 30000000011040820 30000000011040887 30000000011040819 0.732636182022 16.6071 162.427 -6.3112
11.8022 30000000011040820 30000000011040819 30000000011040887 30000000011040818 0.700106353719 -25.2268 115.757 -10.2394
11.8113 30000000011040819 30000000011040818 30000000011040887 30000000011040817 0.676110411213 -58.7789 61.1879 -5.80385
11.812 30000000011040818 30000000011040817 30000000011040887 30000000011040816 0.644641840685 -71.7636 24.3975 -49.5521
11.8221 30000000011040817 30000000011040816 30000000011040887 30000000011040815 0.621428745243 -103.713 -92.0263 12.3821
11.8393 30000000011040816 30000000011040815 30000000011040887 30000000011040814 0.598543288188 -134.437 -204.843 84.1486
11.8656 30000000011040815 30000000011040814 30000000011040887 30000000011040813 0.575980845108 -172.463 -327.343 141.273
11.8726 30000000011040814 30000000011040813 30000000011040887 30000000011040812 0.546392183141 -150.068 -356.901 195.411
11.8809 30000000011040813 30000000011040810 30000000011040887 30000000011040809 0.481832943421 -106.403 -405.715 262.175
11.8866 30000000011040810 30000000011040809 30000000011040887 30000000011040808 0.460917794181 -130.152 -433.499 248.152
11.8944 30000000011040809 30000000011040808 30000000011040887 30000000011040807 0.440297849248 -133.085 -420.104 244.969
11.9048 30000000011040808 30000000011040807 30000000011040887 30000000011040806 0.419968941997 -123.804 -376.025 254.816
11.9092 30000000011040807 30000000011040806 30000000011040887 30000000011040805 0.399926964614 -123.881 -360.446 232.885
11.9124 30000000011040806 30000000011040803 30000000011040887 30000000011040802 0.347853841858 -88.269 -253.198 168.8
11.9165 30000000011040803 30000000011040787 30000000011040887 30000000011040786 0.0994018026302 -89.7452 227.46 -131.623
11.9287 30000000011040787 30000000011040786 30000000011040887 30000000011040785 0.0838844307975 -88.8446 268.95 -195.628
9.01298 30000000011040913 30000000011040912 30000000011040919 30000000011040911 8.44947629437 5.02183 -3.43951 -14.3977
9.04358 30000000011040912 30000000011040911 30000000011040919 30000000011040910 8.01217294887 -2.40501 -4.52652 -4.79356
9.18589 30000000011040911 30000000011040910 30000000011040919 30000000011040909 7.59510714987 -9.91379 -4.69912 -6.31635
9.23988 30000000011040910 30000000011040909 30000000011040919 30000000011040908 7.23627606617 -7.17641 -3.07511 -0.829048
9.04358 30000000011040925 30000000011040924 30000000011040933 30000000011040923 6.49159774567 -1.91255 14.6791 7.30789
9.10671 30000000011040924 30000000011040923 30000000011040933 30000000011040922 6.14490120342 2.51949 12.2606 8.34949
9.14344 30000000011040923 30000000011040922 30000000011040933 30000000011040921 6.01075739884 -1.57493 7.03542 8.59647
9.24362 30000000011040938 30000000011040937 30000000011040943 30000000011040936 6.14490120342 -6.39832 7.63105 -5.5741
9.09375 30000000011040954 30000000011040953 30000000011040956 30000000011040952 7.00541704554 -8.9453 21.9521 -7.84948
9.16182 30000000011040953 30000000011040952 30000000011040956 30000000011040951 6.85511726265 -3.01539 14.1543 -6.4669
9.31717 30000000011040952 30000000011040951 30000000011040956 30000000011040950 6.49159774567 -4.92729 13.8602 0.483219
9.32187 30000000011040951 30000000011040949 30000000011040956 30000000011040948 6.01075739884 -8.38666 -7.53741 8.7629
9.39214 30000000011040949 30000000011040947 30000000011040956 30000000011040946 5.52976580795 -11.8035 -22.6852 7.15674
9.02548 30000000011041012 30000000011041011 30000000011041021 30000000011041010 5.84661374788 12.6321 -11.3958 10.8834
9.15502 30000000011041011 30000000011041010 30000000011041021 30000000011041009 5.22758097313 11.3326 -12.7805 10.1271
9.23988 30000000011041010 30000000011041009 30000000011041021 30000000011041008 4.99593346816 8.23076 -16.704 9.43061
9.24175 30000000011041009 30000000011041008 30000000011041021 30000000011041007 4.93938066349 8.0557 -16.5269 7.75787
9.31083 30000000011041008 30000000011041007 30000000011041021 30000000011041006 4.66451770247 7.61628 -15.1275 8.21084
9.31243 30000000011041007 30000000011041006 30000000011041021 30000000011041005 4.42803373661 5.89007 -12.9918 7.22543
9.10671 30000000011041023 30000000011041022 30000000011041030 30000000011041010 5.52976580795 9.92787 -15.9549 10.0242
9.04653 30000000011041056 30000000011041055 30000000011041071 30000000011041054 3.70877426464 -1.88498 -2.11296 0.543076
9.04358 30000000011041124 30000000011041123 30000000011041134 30000000011041122 6.85511726265 -2.25943 1.45491 -3.68851
9.11179 30000000011041123 30000000011041122 30000000011041134 30000000011041121 6.49159774567 -6.62503 4.23389 -2.65611
9.17073 30000000011041122 30000000011041121 30000000011041134 30000000011041120 6.14490120342 -6.61615 2.50367 1.67894
9.17073 30000000011041121 30000000011041120 30000000011041134 30000000011041119 6.01075739884 -3.10672 4.78538 0.112886
9.19848 30000000011041120 30000000011041119 30000000011041134 30000000011041118 5.84661374788 -3.55418 7.65212 -2.78254
9.31717 30000000011041119 30000000011041118 30000000011041134 30000000011041117 5.52976580795 1.46718 9.91948 -8.79118
9.41909 30000000011041118 30000000011041117 30000000011041134 30000000011041116 5.22758097313 2.05033 11.8573 -9.96158
9.43257 30000000011041117 30000000011041116 30000000011041134 30000000011041115 4.99593346816 3.44233 12.3415 -10.7248
9.44797 30000000011041116 30000000011041115 30000000011041134 30000000011041114 4.93938066349 -0.450084 13.8946 -8.28037
9.46844 30000000011041115 30000000011041114 30000000011041134 30000000011041113 4.66451770247 1.20072 14.267 -7.40647
9.47505 30000000011041114 30000000011041113 30000000011041134 30000000011041112 4.42803373661 -0.943511 15.6479 -10.274
9.48049 30000000011041113 30000000011041112 30000000011041134 30000000011041111 4.17683491473 1.40297 8.15794 -6.40795
9.18589 30000000011041253 30000000011041252 30000000011041255 30000000011041251 7.23627606617 -0.361316 9.94142 9.22855
9.23037 30000000011041252 30000000011041251 30000000011041255 30000000011041250 7.00541704554 -2.4846 9.6339 8.31785
9.26365 30000000011041251 30000000011041250 30000000011041255 30000000011041249 6.85511726265 -2.70181 8.50041 6.94534
9.30763 30000000011041250 30000000011041249 30000000011041255 30000000011041248 6.49159774567 -3.21184 8.81328 3.88658
9.42404 30000000011041249 30000000011041248 30000000011041255 30000000011041247 6.14490120342 -1.81354 13.7987 2.79406
9.50669 30000000011041248 30000000011041247 30000000011041255 30000000011041246 6.01075739884 -2.91319 22.6705 7.04139
9.50771 30000000011041247 30000000011041246 30000000011041255 30000000011041245 5.84661374788 -6.95758 23.0478 4.21327
9.6838 30000000011041246 30000000011041245 30000000011041255 30000000011041244 5.52976580795 -2.61238 12.4598 0.903414
9.80261 30000000011041245 30000000011041244 30000000011041255 30000000011041243 5.22758097313 5.79969 5.61864 -3.36147
9.84708 30000000011041244 30000000011041243 30000000011041255 30000000011041242 4.99593346816 6.53384 7.36866 1.41715
9.86259 30000000011041243 30000000011041241 30000000011041255 30000000011041240 4.66451770247 4.88498 10.9727 2.67296
9.96652 30000000011041241 30000000011041238 30000000011041255 30000000011041237 4.00794511147 -4.95964 -8.99276 17.2178
9.00337 30000000011041359 30000000011041358 30000000011041382 30000000011041357 2.00202813925 -8.88925 -9.58651 -9.51003
9.01614 30000000011041440 30000000011041439 30000000011041451 30000000011041438 6.49159774567 -0.0352048 2.66115 -0.183651
9.04358 30000000011041439 30000000011041438 30000000011041451 30000000011041437 6.14490120342 2.4671 0.78064 -1.74076
9.09375 30000000011041438 30000000011041436 30000000011041451 30000000011041435 5.84661374788 2.76797 -1.53985 -3.15211
9.1663 30000000011041436 30000000011041435 30000000011041451 30000000011041434 5.52976580795 0.286199 -4.22507 -3.03095
9.19641 30000000011041435 30000000011041434 30000000011041451 30000000011041433 5.22758097313 1.64716 -0.154513 -3.06051
9.27072 30000000011041434 30000000011041433 30000000011041451 30000000011041432 4.99593346816 9.2188 -1.58039 -4.48126
9.29622 30000000011041433 30000000011041431 30000000011041451 30000000011041430 4.66451770247 10.6046 0.0531211 -8.05535
9.3044 30000000011041431 30000000011041429 30000000011041451 30000000011041428 4.17683491473 11.4796 0.822628 -9.97381
9.30763 30000000011041429 30000000011041428 30000000011041451 30000000011041427 4.00794511147 11.1793 3.66325 -7.60217
9.32187 30000000011041428 30000000011041427 30000000011041451 30000000011041426 3.93726108473 17.4249 2.09578 -11.39
9.34313 30000000011041427 30000000011041425 30000000011041451 30000000011041424 3.49086136926 16.9021 -1.66173 -9.5469
9.08038 30000000011041501 30000000011041500 30000000011041504 30000000011041499 10.3674435724 -3.19396 -2.71163 0.0406802
9.09637 30000000011041500 30000000011041498 30000000011041504 30000000011041497 9.84138043947 -1.68485 -7.03795 0.230485
9.22066 30000000011041498 30000000011041497 30000000011041504 30000000011041496 9.38877127194 -4.74156 -4.76937 -0.0451792
9.22457 30000000011041497 30000000011041496 30000000011041504 30000000011041495 9.00233985416 0.990424 1.03751 -0.666244
9.2929 30000000011041496 30000000011041495 30000000011041504 30000000011041494 8.9079991856 -1.30886 -0.474528 -0.326182
9.35194 30000000011041495 30000000011041494 30000000011041504 30000000011041493 8.44947629437 -2.1291 -2.13476 0.177487
9.41408 30000000011041494 30000000011041493 30000000011041504 30000000011041492 8.01217294887 -3.34283 -1.62094 -0.169752
9.48479 30000000011041493 30000000011041492 30000000011041504 30000000011041491 7.59510714987 -3.90304 -3.74598 0.665134
9.52267 30000000011041492 30000000011041491 30000000011041504 30000000011041490 7.23627606617 -4.12767 -2.91423 -0.281407
9.54185 30000000011041491 30000000011041490 30000000011041504 30000000011041489 7.00541704554 -5.55667 -3.89636 1.07713
9.57262 30000000011041490 30000000011041489 30000000011041504 30000000011041488 6.85511726265 -4.06609 -2.68575 2.03764
9.64268 30000000011041489 30000000011041488 30000000011041504 30000000011041487 6.49159774567 -2.93779 -3.53666 2.21169
9.6804 30000000011041488 30000000011041487 30000000011041504 30000000011041486 6.14490120342 -3.55551 -4.34146 1.89596
9.68717 30000000011041487 30000000011041486 30000000011041504 30000000011041485 6.01075739884 -2.82989 -7.21014 3.07077
9.76332 30000000011041486 30000000011041484 30000000011041504 30000000011041483 5.52976580795 -4.43886 -5.02319 2.24641
9.80209 30000000011041484 30000000011041483 30000000011041504 30000000011041482 5.22758097313 -4.5955 -6.39316 3.5553
9.81578 30000000011041483 30000000011041482 30000000011041504 30000000011041481 4.99593346816 -5.11903 -6.68779 3.81015
9.85989 30000000011041482 30000000011041480 30000000011041504 30000000011041479 4.66451770247 2.26265 -13.463 5.27025
9.86527 30000000011041480 30000000011041479 30000000011041504 30000000011041478 4.42803373661 7.17971 -22.5577 12.2601
9.90075 30000000011041479 30000000011041478 30000000011041504 30000000011041477 4.17683491473 1.81544 -19.0743 5.46506
9.91488 30000000011041478 30000000011041477 30000000011041504 30000000011041476 4.00794511147 0.603874 -13.107 -0.152711
9.94704 30000000011041477 30000000011041476 30000000011041504 30000000011041475 3.93726108473 7.4496 -12.0962 3.72165
10.1176 30000000011041476 30000000011041475 30000000011041504 30000000011041474 3.70877426464 8.60217 15.9547 -27.2619
10.2992 30000000011041475 30000000011041474 30000000011041504 30000000011041473 3.49086136926 35.6649 -44.5601 18.511
10.3451 30000000011041474 30000000011041473 30000000011041504 30000000011041472 3.28303305796 29.2159 7.54579 -34.4921
10.4291 30000000011041473 30000000011041472 30000000011041504 30000000011041471 3.08482263583 41.7735 1.98782 -25.7024
10.4612 30000000011041472 30000000011041470 30000000011041504 30000000011041469 2.89578500573 38.6148 -10.7557 -24.942
9.04062 30000000011041526 30000000011041525 30000000011041532 30000000011041524 6.01075739884 3.19801 -17.0472 3.92573
9.19848 30000000011041525 30000000011041524 30000000011041532 30000000011041523 5.84661374788 7.20368 -15.705 -2.52491
9.29622 30000000011041524 30000000011041523 30000000011041532 30000000011041522 5.52976580795 3.38044 -20.2374 12.8694
9.35914 30000000011041523 30000000011041522 30000000011041532 30000000011041521 5.22758097313 3.87816 -16.8197 12.7398
9.3974 30000000011041522 30000000011041521 30000000011041532 30000000011041520 4.99593346816 3.5237 -12.8255 13.8874
9.41408 30000000011041521 30000000011041520 30000000011041532 30000000011041519 4.93938066349 2.70141 -10.8595 14.1732
9.48586 30000000011041520 30000000011041519 30000000011041532 30000000011041518 4.66451770247 -1.60902 -3.49895 10.774
9.53618 30000000011041519 30000000011041518 30000000011041532 30000000011041517 4.42803373661 -0.519088 -4.77209 7.22149
9.59972 30000000011041518 30000000011041517 30000000011041532 30000000011041516 4.17683491473 3.28743 -7.70128 1.68985
9.64638 30000000011041517 30000000011041516 30000000011041532 30000000011041515 4.00794511147 7.40355 -13.4887 -1.76372
9.67284 30000000011041516 30000000011041515 30000000011041532 30000000011041514 3.93726108473 6.09599 -14.7019 -8.08166
9.00337 30000000011041577 30000000011041576 30000000011041581 30000000011041575 6.14490120342 -4.44325 4.56981 21.857
9.04945 30000000011041576 30000000011041575 30000000011041581 30000000011041574 6.01075739884 -8.67235 3.9494 21.0247
9.07216 30000000011041575 30000000011041574 30000000011041581 30000000011041573 5.84661374788 -8.04527 2.22119 19.0609
9.17729 30000000011041574 30000000011041573 30000000011041581 30000000011041572 5.52976580795 -8.60767 6.23899 26.6066
9.2811 30000000011041573 30000000011041572 30000000011041581 30000000011041571 5.22758097313 -11.154 2.12279 26.775
9.43617 30000000011041572 30000000011041571 30000000011041581 30000000011041570 4.99593346816 -8.72638 5.88405 62.521
9.46733 30000000011041571 30000000011041570 30000000011041581 30000000011041569 4.93938066349 -7.35044 6.84833 59.7985
9.47176 30000000011041570 30000000011041567 30000000011041581 30000000011041566 4.17683491473 2.38126 6.84309 28.8218
9.47396 30000000011041567 30000000011041566 30000000011041581 30000000011041565 4.00794511147 2.6196 3.43549 26.4103
9.14344 30000000011041771 30000000011041770 30000000011041791 30000000011041769 2.20792547238 22.3043 -0.720002 -6.38647
9.17293 30000000011041770 30000000011041767 30000000011041791 30000000011041766 1.82268925262 17.2664 0.775272 -5.36214
9.17946 30000000011041767 30000000011041766 30000000011041791 30000000011041765 1.74357057433 17.9883 3.34446 -7.08345
9.06378 30000000011041859 30000000011041858 30000000011041872 30000000011041857 3.49086136926 -1.53236 -4.02292 0.921268
9.04653 30000000011041899 30000000011041898 30000000011041912 30000000011041897 3.28303305796 23.8916 -8.65061 1.10993
9.0098 30000000011041927 30000000011041926 30000000011041936 30000000011041925 2.1032696526 -5.18342 1.11484 -1.27905
9.04062 30000000011042100 30000000011042099 30000000011042105 30000000011042098 7.59510714987 -9.26496 -13.7625 -4.88061
9.17946 30000000011042099 30000000011042098 30000000011042105 30000000011042097 7.23627606617 -9.92035 -4.89571 -3.59443
9.19223 30000000011042098 30000000011042097 30000000011042105 30000000011042096 7.00541704554 -10.6362 -9.03325 -3.29553
9.24733 30000000011042097 30000000011042096 30000000011042105 30000000011042095 6.85511726265 -9.74695 -6.60476 -3.01708
9.27766 30000000011042096 30000000011042094 30000000011042105 30000000011042093 6.14490120342 -6.61938 -8.56637 -3.45178
9.48905 30000000011042094 30000000011042093 30000000011042105 30000000011042092 6.01075739884 -2.01917 -11.8965 -3.50495
9.70363 30000000011042093 30000000011042092 30000000011042105 30000000011042091 5.84661374788 15.3072 -47.789 14.4633
9.83863 30000000011042092 30000000011042090 30000000011042105 30000000011042089 5.22758097313 0.354204 -39.0728 14.9257
9.96262 30000000011042090 30000000011042089 30000000011042105 30000000011042088 4.99593346816 -13.9236 -30.2103 6.12322
10.0072 30000000011042089 30000000011042086 30000000011042105 30000000011042085 4.42803373661 -19.6727 -10.9723 4.04898
10.094 30000000011042086 30000000011042085 30000000011042105 30000000011042084 4.17683491473 -27.4294 -46.2825 -21.0595
10.169 30000000011042085 30000000011042084 30000000011042105 30000000011042083 4.00794511147 -9.69878 -58.1699 -20.0814
10.1931 30000000011042084 30000000011042083 30000000011042105 30000000011042082 3.93726108473 -6.88051 -40.8131 -12.6955
10.2051 30000000011042083 30000000011042082 30000000011042105 30000000011042081 3.70877426464 -6.448 -17.8425 6.49685
10.3112 30000000011042082 30000000011042081 30000000011042105 30000000011042080 3.49086136926 -4.09668 -26.9812 -21.1479
10.3784 30000000011042081 30000000011042080 30000000011042105 30000000011042079 3.28303305796 -12.0828 -70.8807 -46.2287
10.4573 30000000011042080 30000000011042079 30000000011042105 30000000011042078 3.08482263583 -1.06656 -82.2089 -63.3787
10.4781 30000000011042079 30000000011042078 30000000011042105 30000000011042077 3.00813107163 7.59466 -75.3993 -54.1044
10.5005 30000000011042078 30000000011042077 30000000011042105 30000000011042076 2.89578500573 13.0471 -54.5949 -23.8213
10.521 30000000011042077 30000000011042076 30000000011042105 30000000011042075 2.73314261732 13.4116 -40.177 -18.7099
10.5252 30000000011042076 30000000011042075 30000000011042105 30000000011042074 2.5772902716 -3.46952 -32.4612 -8.18517
10.5878 30000000011042075 30000000011042074 30000000011042105 30000000011042073 2.44422570455 -2.30259 -27.4357 -11.1227
10.6214 30000000011042074 30000000011042072 30000000011042105 30000000011042071 2.20792547238 -15.5413 -44.6177 -31.6062
10.6691 30000000011042072 30000000011042071 30000000011042105 30000000011042070 2.1032696526 -21.6147 -50.2275 -52.2916
10.6773 30000000011042071 30000000011042070 30000000011042105 30000000011042069 2.00202813925 -17.7488 -42.5665 -53.3626
10.7312 30000000011042070 30000000011042069 30000000011042105 30000000011042068 1.90408954353 -29.8512 10.6425 -70.8111
10.7598 30000000011042069 30000000011042068 30000000011042105 30000000011042067 1.82268925262 -64.9275 -10.3387 -86.3653
11.0112 30000000011042068 30000000011042067 30000000011042105 30000000011042066 1.74357057433 -290.394 -48.7263 -34.4378
11.0282 30000000011042067 30000000011042066 30000000011042105 30000000011042065 1.66666955611 -295.501 -33.4391 -46.2171
11.0331 30000000011042066 30000000011042064 30000000011042105 30000000011042063 1.53123902916 -305.255 -50.1627 -66.2506
11.0504 30000000011042064 30000000011042063 30000000011042105 30000000011042062 1.47197484527 -310.095 -76.8309 -103.493
11.6598 30000000011042063 30000000011042056 30000000011042105 30000000011040830 1.11415056377 193.516 497.384 -246.64
9.01298 30000000011042124 30000000011042123 30000000011042130 30000000011042122 8.44947629437 0.975661 2.36519 -0.220968
9.13871 30000000011042123 30000000011042122 30000000011042130 30000000011042121 8.01217294887 2.24447 -2.88899 0.934689
9.30278 30000000011042122 30000000011042121 30000000011042130 30000000011042120 7.59510714987 4.94435 -12.678 0.596823
9.46733 30000000011042121 30000000011042120 30000000011042130 30000000011042119 7.23627606617 1.26777 -4.80298 2.30427
9.48265 30000000011042120 30000000011042119 30000000011042130 30000000011042118 7.00541704554 -4.11249 1.07767 -0.407804
9.52169 30000000011042119 30000000011042118 30000000011042130 30000000011042117 6.85511726265 -17.0472 5.50407 -10.6013
9.02855 30000000011042162 30000000011042161 30000000011042165 30000000011042160 6.49159774567 -1.11679 6.15214 -2.5365
9.04945 30000000011042161 30000000011042160 30000000011042165 30000000011042159 6.14490120342 -0.147219 5.82563 -2.5371
9.06096 30000000011042160 30000000011042159 30000000011042165 30000000011042158 6.01075739884 1.2036 5.89944 -3.13638
9.0666 30000000011042159 30000000011042157 30000000011042165 30000000011042156 5.52976580795 2.03157 5.33548 -3.70841
9.0666 30000000011042220 30000000011042219 30000000011042227 30000000011042218 6.01075739884 -7.1147 -13.3033 7.19095
9.13871 30000000011042219 30000000011042218 30000000011042227 30000000011042217 5.84661374788 -9.73052 -17.7866 13.8507
9.2811 30000000011042218 30000000011042216 30000000011042227 30000000011042215 5.22758097313 -8.22194 -6.13966 -0.254936
9.30115 30000000011042216 30000000011042215 30000000011042227 30000000011042214 4.99593346816 -7.57995 -5.70144 -1.05426
9.34016 30000000011042215 30000000011042214 30000000011042227 30000000011042213 4.93938066349 -9.00073 -5.59254 0.0168114
9.38681 30000000011042214 30000000011042213 30000000011042227 30000000011042212 4.66451770247 -9.38634 -7.29178 -2.91961
9.44093 30000000011042213 30000000011042212 30000000011042227 30000000011042211 4.42803373661 -5.65515 -5.68463 -5.13798
9.11681 30000000011042267 30000000011042266 30000000011042272 30000000011042265 7.00541704554 -2.70265 11.2685 4.30496
9.12668 30000000011042266 30000000011042265 30000000011042272 30000000011042264 6.85511726265 -3.24282 11.1603 5.20724
9.23037 30000000011042265 30000000011042264 30000000011042272 30000000011042263 6.49159774567 0.574607 7.73594 -3.16181
9.27594 30000000011042264 30000000011042263 30000000011042272 30000000011042262 6.14490120342 1.22628 5.14453 -2.90084
9.30923 30000000011042263 30000000011042262 30000000011042272 30000000011042261 6.01075739884 4.64337 3.74442 -6.56738
9.32805 30000000011042262 30000000011042261 30000000011042272 30000000011042260 5.84661374788 2.65149 2.54829 -7.00654
9.35627 30000000011042261 30000000011042260 30000000011042272 30000000011042259 5.52976580795 2.30578 4.36615 -8.78014
9.42157 30000000011042260 30000000011042259 30000000011042272 30000000011042258 5.22758097313 -0.888852 6.86068 -5.66722
9.42281 30000000011042259 30000000011042257 30000000011042272 30000000011042256 4.93938066349 0.265796 4.77448 -1.39338
9.43497 30000000011042257 30000000011042256 30000000011042272 30000000011042255 4.66451770247 3.58567 5.16535 -4.51718
9.47286 30000000011042256 30000000011042254 30000000011042272 30000000011042253 4.17683491473 -0.650234 5.53618 -12.2295
9.1573 30000000011042317 30000000011042316 30000000011042318 30000000011042315 7.23627606617 -10.338 -15.6317 10.9553
9.18802 30000000011042316 30000000011042305 30000000011042318 30000000011042304 4.66451770247 -4.16711 -3.62411 8.05001
9.19848 30000000011042305 30000000011042304 30000000011042318 30000000011042303 4.42803373661 -2.24408 -18.6476 2.60063
9.38681 30000000011042304 30000000011042303 30000000011042318 30000000011042302 4.17683491473 1.30861 -12.223 0.395577
9.44564 30000000011042303 30000000011042300 30000000011042318 30000000011042299 3.70877426464 7.85637 -18.8699 -4.52988
9.52267 30000000011042300 30000000011042299 30000000011042318 30000000011042298 3.49086136926 16.1868 -26.917 -1.0385
9.07492 30000000011042538 30000000011042537 30000000011042545 30000000011042536 8.44947629437 -0.538392 7.65196 -10.7691
9.07766 30000000011042537 30000000011042536 30000000011042545 30000000011042535 8.01217294887 -0.628914 3.47167 -7.39415
9.1193 30000000011042536 30000000011042535 30000000011042545 30000000011042534 7.59510714987 4.02542 3.40037 -11.0345
9.14108 30000000011042535 30000000011042534 30000000011042545 30000000011042533 7.23627606617 0.18457 5.9127 -7.29867
9.18376 30000000011042534 30000000011042533 30000000011042545 30000000011042532 7.00541704554 1.38438 4.97525 -9.18439
9.21472 30000000011042533 30000000011042532 30000000011042545 30000000011042531 6.85511726265 1.34637 2.21441 -9.29929
9.38277 30000000011042532 30000000011042531 30000000011042545 30000000011042530 6.49159774567 2.12985 4.60965 -16.4886
9.42281 30000000011042531 30000000011042530 30000000011042545 30000000011042529 6.14490120342 2.1954 2.27262 -18.3935
9.54372 30000000011042530 30000000011042527 30000000011042545 30000000011042526 5.52976580795 -2.66013 -11.6181 -19.1392
9.57956 30000000011042527 30000000011042526 30000000011042545 30000000011042525 5.22758097313 -3.65435 -11.4474 -20.2383
9.63894 30000000011042526 30000000011042525 30000000011042545 30000000011042524 4.99593346816 -10.4025 -6.77379 -12.1723
9.67005 30000000011042525 30000000011042524 30000000011042545 30000000011042523 4.93938066349 -18.134 -10.4415 -7.38875
9.78368 30000000011042524 30000000011042523 30000000011042545 30000000011042522 4.66451770247 -24.3782 -4.11341 2.71196
9.84615 30000000011042523 30000000011042522 30000000011042545 30000000011042521 4.42803373661 -26.8655 -2.50124 -2.18172
9.97387 30000000011042522 30000000011042521 30000000011042545 30000000011042520 4.17683491473 -29.2236 -7.64698 5.46931
10.0439 30000000011042521 30000000011042520 30000000011042545 30000000011042519 4.00794511147 -14.9939 5.59324 -18.7433
10.0911 30000000011042520 30000000011042519 30000000011042545 30000000011042518 3.93726108473 -19.865 -8.19876 -8.46152
10.202 30000000011042519 30000000011042518 30000000011042545 30000000011042517 3.70877426464 -25.7726 4.73997 49.3996
10.3326 30000000011042518 30000000011042517 30000000011042545 30000000011042516 3.49086136926 -41.9429 2.2977 99.2265
10.3616 30000000011042517 30000000011042516 30000000011042545 30000000011042515 3.28303305796 -32.6507 5.16157 88.4191
10.4012 30000000011042516 30000000011042515 30000000011042545 30000000011042514 3.08482263583 -32.7834 9.22132 86.2011
10.4254 30000000011042515 30000000011042514 30000000011042545 30000000011042513 3.00813107163 -31.4189 14.1676 83.0546
10.4401 30000000011042514 30000000011042513 30000000011042545 30000000011042512 2.89578500573 -28.7131 12.3918 76.2513
10.4604 30000000011042513 30000000011042512 30000000011042545 30000000011042511 2.73314261732 -15.891 19.9944 81.2419
10.4692 30000000011042512 30000000011042511 30000000011042545 30000000011042510 2.5772902716 -15.4634 18.4233 60.6557
9.07766 30000000011042565 30000000011042564 30000000011042574 30000000011042563 5.22758097313 -1.01489 1.95842 -6.244
9.01298 30000000011042611 30000000011042610 30000000011042620 30000000011042609 5.84661374788 3.75333 3.61615 -10.4257
9.09898 30000000011042610 30000000011042609 30000000011042620 30000000011042608 5.52976580795 5.92315 7.49991 -13.0972
9.10926 30000000011042609 30000000011042608 30000000011042620 30000000011042607 5.22758097313 4.48639 5.52034 -13.9415
9.12424 30000000011042608 30000000011042607 30000000011042620 30000000011042606 4.99593346816 3.36887 9.44248 -12.1773
9.15042 30000000011042607 30000000011042606 30000000011042620 30000000011042605 4.93938066349 2.03019 7.75906 -11.168
9.07216 30000000011042654 30000000011042653 30000000011042661 30000000011042652 8.01217294887 -4.07525 -2.39142 0.201518
9.08038 30000000011042653 30000000011042652 30000000011042661 30000000011042651 7.59510714987 -2.71106 -3.4393 -0.0954596
9.16852 30000000011042652 30000000011042651 30000000011042661 30000000011042650 7.23627606617 -1.27336 -1.10856 0.329791
9.25828 30000000011042651 30000000011042650 30000000011042661 30000000011042649 7.00541704554 -4.7854 1.63091 -0.519932
9.2811 30000000011042650 30000000011042649 30000000011042661 30000000011042648 6.85511726265 -4.93251 4.54969 2.49251
9.29787 30000000011042649 30000000011042648 30000000011042661 30000000011042647 6.49159774567 -5.01566 3.60971 2.25679
9.33415 30000000011042648 30000000011042647 30000000011042661 30000000011042646 6.14490120342 -5.83063 2.10995 0.251608
9.36199 30000000011042647 30000000011042646 30000000011042661 30000000011042645 6.01075739884 -6.51016 -0.33023 -0.698209
9.39871 30000000011042646 30000000011042645 30000000011042661 30000000011042644 5.84661374788 -5.04588 0.245081 -0.934193
9.44681 30000000011042645 30000000011042644 30000000011042661 30000000011042643 5.52976580795 -3.08798 -1.21136 3.82859
9.4964 30000000011042644 30000000011042642 30000000011042661 30000000011042641 4.99593346816 -3.91673 -0.387318 6.64784
9.51175 30000000011042642 30000000011042641 30000000011042661 30000000011042640 4.93938066349 -2.68078 -2.93595 4.74139
9.62523 30000000011042641 30000000011042639 30000000011042661 30000000011042638 4.42803373661 14.537 3.55306 -7.4151
9.01614 30000000011042732 30000000011042731 30000000011042747 30000000011042730 5.52976580795 0.977106 6.05314 -0.168344
9.0666 30000000011042731 30000000011042730 30000000011042747 30000000011042729 5.22758097313 -0.503767 7.71782 -0.247121
9.09637 30000000011042730 30000000011042729 30000000011042747 30000000011042728 4.99593346816 4.52842 6.85583 -1.40713
9.15273 30000000011042729 30000000011042728 30000000011042747 30000000011042727 4.93938066349 3.39286 3.14286 -1.52458
9.20668 30000000011042728 30000000011042727 30000000011042747 30000000011042726 4.66451770247 8.44632 -0.191081 -5.47715
9.2361 30000000011042727 30000000011042725 30000000011042747 30000000011042724 4.17683491473 3.9054 -0.838965 0.790874
9.01298 30000000011042794 30000000011042793 30000000011042799 30000000011042792 8.44947629437 0.999545 -0.463424 6.87663
9.02548 30000000011042793 30000000011042792 30000000011042799 30000000011042791 8.01217294887 0.951809 -0.134657 6.52736
9.07766 30000000011042792 30000000011042791 30000000011042799 30000000011042790 7.59510714987 2.62046 -0.410709 5.67073
9.17293 30000000011042791 30000000011042790 30000000011042799 30000000011042789 7.23627606617 2.41398 3.04064 5.94085
9.18376 30000000011042790 30000000011042789 30000000011042799 30000000011042788 7.00541704554 1.50419 0.951758 6.8775
9.25648 30000000011042789 30000000011042788 30000000011042799 30000000011042787 6.85511726265 4.8124 3.37118 3.83331
9.4026 30000000011042788 30000000011042787 30000000011042799 30000000011042786 6.49159774567 4.11114 8.59632 9.58682
9.41909 30000000011042787 30000000011042786 30000000011042799 30000000011042785 6.14490120342 -1.91348 6.04181 7.53526
9.4651 30000000011042786 30000000011042785 30000000011042799 30000000011042784 6.01075739884 -0.590537 10.5349 10.0208
9.46955 30000000011042785 30000000011042784 30000000011042799 30000000011042783 5.84661374788 1.55957 10.0716 10.5127
9.50771 30000000011042784 30000000011042783 30000000011042799 30000000011042782 5.52976580795 -1.70281 9.65327 9.84149
9.55113 30000000011042783 30000000011042782 30000000011042799 30000000011042781 5.22758097313 -3.63608 8.12561 8.25984
9.61977 30000000011042782 30000000011042781 30000000011042799 30000000011042780 4.99593346816 -4.16822 14.8679 6.49574
9.62677 30000000011042781 30000000011042780 30000000011042799 30000000011042779 4.93938066349 -5.21264 15.6156 8.24656
9.76557 30000000011042780 30000000011042779 30000000011042799 30000000011042778 4.66451770247 3.83041 13.1308 -3.77912
9.83721 30000000011042779 30000000011042778 30000000011042799 30000000011042777 4.42803373661 2.66516 15.9972 -6.33182
9.86482 30000000011042778 30000000011042777 30000000011042799 30000000011042776 4.17683491473 2.50769 19.5883 -7.76945
9.90321 30000000011042777 30000000011042776 30000000011042799 30000000011042775 4.00794511147 2.63417 21.0789 -6.03813
9.91449 30000000011042776 30000000011042775 30000000011042799 30000000011042774 3.93726108473 6.35173 18.5955 -7.31445
9.92664 30000000011042775 30000000011042774 30000000011042799 30000000011042773 3.70877426464 7.26165 13.3335 -9.27872
9.93847 30000000011042774 30000000011042769 30000000011042799 30000000011042768 2.89578500573 6.46066 11.5497 0.815328
9.96298 30000000011042769 30000000011042768 30000000011042799 30000000011042767 2.73314261732 1.67146 7.51151 -5.95815
9.1193 30000000011042811 30000000011042810 30000000011042820 30000000011042809 5.52976580795 7.5483 1.33498 -3.22221
9.12424 30000000011042888 30000000011042887 30000000011042900 30000000011042886 5.22758097313 11.7367 -7.62577 -7.21649
9.14578 30000000011042887 30000000011042886 30000000011042900 30000000011042885 4.99593346816 10.1298 -7.19602 -9.8437
9.21072 30000000011042886 30000000011042884 30000000011042900 30000000011042883 4.66451770247 9.06119 -9.96108 -10.9582
9.32651 30000000011042884 30000000011042882 30000000011042900 30000000011042881 4.17683491473 23.7892 -7.31237 -5.216
9.35194 30000000011042882 30000000011042876 30000000011042900 30000000011042875 3.08482263583 9.02909 -0.878552 -12.6004
9.35914 30000000011042876 30000000011042875 30000000011042900 30000000011042874 3.00813107163 12.2625 -4.06303 -9.31443
9.37319 30000000011042875 30000000011042873 30000000011042900 30000000011042872 2.73314261732 16.4132 5.02942 -18.8539
9.02855 30000000011042929 30000000011042928 30000000011042945 30000000011042927 3.93726108473 -2.64394 -0.579655 1.95308
9.05235 30000000011042928 30000000011042927 30000000011042945 30000000011042926 3.70877426464 -3.31145 2.75552 1.57882
9.06378 30000000011042927 30000000011042926 30000000011042945 30000000011042925 3.49086136926 -0.187747 2.07837 0.812571
9.08845 30000000011042926 30000000011042920 30000000011042945 30000000011042919 2.5772902716 2.90918 -5.24513 4.78638
9.10415 30000000011043063 30000000011043062 30000000011043086 30000000011043061 2.00202813925 -28.5932 2.36362 -1.041
9.12424 30000000011043062 30000000011043061 30000000011043086 30000000011043060 1.90408954353 -30.264 5.23454 1.07286
9.12424 30000000011043061 30000000011043060 30000000011043086 30000000011043059 1.82268925262 -27.8622 0.382481 -4.15709
9.13154 30000000011043060 30000000011043059 30000000011043086 30000000011043058 1.74357057433 -23.7549 2.02758 -4.36765
9.06939 30000000011043495 30000000011043494 30000000011043498 30000000011043493 10.3674435724 -0.672994 -2.01387 3.86985
9.20055 30000000011043494 30000000011043493 30000000011043498 30000000011043492 9.99659046619 0.778029 -2.02844 5.32621
9.3156 30000000011043493 30000000011043491 30000000011043498 30000000011043490 9.38877127194 1.21773 0.295988 5.45619
9.33716 30000000011043491 30000000011043490 30000000011043498 30000000011043489 9.00233985416 0.355086 0.0586576 4.47658
9.36902 30000000011043490 30000000011043489 30000000011043498 30000000011043488 8.9079991856 0.647414 1.39328 3.72326
9.44447 30000000011043489 30000000011043488 30000000011043498 30000000011043487 8.44947629437 1.02251 3.39127 5.56521
9.50669 30000000011043488 30000000011043487 30000000011043498 30000000011043486 8.01217294887 5.79499 6.54763 1.82509
9.54744 30000000011043487 30000000011043486 30000000011043498 30000000011043485 7.59510714987 3.89176 7.69423 -1.21325
9.66159 30000000011043486 30000000011043485 30000000011043498 30000000011043484 7.23627606617 6.88186 19.4478 -2.97071
9.7378 30000000011043485 30000000011043484 30000000011043498 30000000011043483 7.00541704554 8.23824 20.478 -3.56768
9.76613 30000000011043484 30000000011043483 30000000011043498 30000000011043482 6.85511726265 9.80785 20.0515 -0.220481
9.84985 30000000011043483 30000000011043482 30000000011043498 30000000011043481 6.49159774567 8.53384 17.3057 -1.80897
9.88101 30000000011043482 30000000011043481 30000000011043498 30000000011043480 6.14490120342 7.91949 19.7417 -1.27061
9.91884 30000000011043481 30000000011043479 30000000011043498 30000000011043478 5.84661374788 5.73166 18.6965 -3.25423
9.9612 30000000011043479 30000000011043478 30000000011043498 30000000011043477 5.52976580795 6.36681 20.5476 -4.96155
9.98415 30000000011043478 30000000011043477 30000000011043498 30000000011043476 5.22758097313 10.1988 21.7837 -0.540456
10.1432 30000000011043477 30000000011043474 30000000011043498 30000000011043473 4.66451770247 6.41028 56.8116 27.5794
10.2541 30000000011043474 30000000011043473 30000000011043498 30000000011043472 4.42803373661 0.811551 45.4026 31.3587
10.3643 30000000011043473 30000000011043472 30000000011043498 30000000011043471 4.17683491473 2.73138 46.9685 43.3816
10.4095 30000000011043472 30000000011043471 30000000011043498 30000000011043470 4.00794511147 -1.00872 42.151 45.4783
10.4247 30000000011043471 30000000011043470 30000000011043498 30000000011043469 3.93726108473 0.455717 44.3212 35.082
10.4951 30000000011043470 30000000011043469 30000000011043498 30000000011043468 3.70877426464 -17.0193 51.3498 31.7139
10.5204 30000000011043469 30000000011043468 30000000011043498 30000000011043467 3.49086136926 -22.416 50.5278 21.1433
10.5655 30000000011043468 30000000011043467 30000000011043498 30000000011043466 3.28303305796 -31.6484 65.0315 15.8906
10.6127 30000000011043467 30000000011043466 30000000011043498 30000000011043465 3.08482263583 -34.9231 59.8398 28.5296
10.6162 30000000011043466 30000000011043465 30000000011043498 30000000011043464 3.00813107163 -23.8363 61.6419 31.7475
10.6311 30000000011043465 30000000011043464 30000000011043498 30000000011043463 2.89578500573 -11.5055 68.3522 36.1109
10.665 30000000011043464 30000000011043463 30000000011043498 30000000011043462 2.73314261732 -11.6796 63.1361 61.8795
10.6868 30000000011043463 30000000011043462 30000000011043498 30000000011043461 2.5772902716 -8.36088 62.3851 88.3316
10.7168 30000000011043462 30000000011043461 30000000011043498 30000000011043460 2.44422570455 -17.4266 73.8078 99.3475
10.7596 30000000011043461 30000000011043460 30000000011043498 30000000011043459 2.31611074396 -29.3489 82.1707 131.384
10.7716 30000000011043460 30000000011043459 30000000011043498 30000000011043458 2.20792547238 -43.3115 101.463 137.273
10.7903 30000000011043459 30000000011043458 30000000011043498 30000000011043457 2.1032696526 -54.6614 127.999 155.801
10.8273 30000000011043458 30000000011043457 30000000011043498 30000000011043456 2.00202813925 -77.6543 116.328 146.85
10.8614 30000000011043457 30000000011043456 30000000011043498 30000000011043455 1.90408954353 -89.649 115.253 170.235
9.03763 30000000011043507 30000000011043506 30000000011043517 30000000011043505 8.44947629437 -3.46724 -5.54038 1.44268
9.07766 30000000011043506 30000000011043505 30000000011043517 30000000011043504 8.01217294887 -1.61307 -1.5971 2.74418
9.89036 30000000011043520 30000000011043519 30000000011043520 30000000011043479 6.01075739884 7.79559 20.828 -1.75306
9.05811 30000000011043529 30000000011043528 30000000011043539 30000000011043527 6.85511726265 6.08097 4.72582 5.83385
9.42404 30000000011043569 30000000011043568 30000000011043578 30000000011043567 7.00541704554 1.94607 -3.89297 -0.810586
9.44564 30000000011043568 30000000011043567 30000000011043578 30000000011043566 6.85511726265 3.33189 -2.3551 4.51035
9.64932 30000000011043567 30000000011043566 30000000011043578 30000000011043565 6.49159774567 -1.87961 -10.5453 -12.4281
9.76836 30000000011043566 30000000011043565 30000000011043578 30000000011043564 6.14490120342 -9.40069 4.3722 -20.5171
9.77935 30000000011043565 30000000011043564 30000000011043578 30000000011043563 6.01075739884 -14.2933 14.2973 -23.4143
9.80466 30000000011043564 30000000011043563 30000000011043578 30000000011043562 5.84661374788 -15.1459 9.99804 -24.0854
9.81926 30000000011043563 30000000011043562 30000000011043578 30000000011043561 5.52976580795 -15.8977 12.997 -25.0673
9.85808 30000000011043562 30000000011043561 30000000011043578 30000000011043560 5.22758097313 -17.938 16.8364 -18.5688
9.89538 30000000011043561 30000000011043560 30000000011043578 30000000011043559 4.99593346816 -16.0261 12.9859 -18.3073
9.12668 30000000011043580 30000000011043579 30000000011043584 30000000011043568 7.23627606617 6.87746 -3.94431 -1.06129
9.0066 30000000011043627 30000000011043626 30000000011043634 30000000011043625 5.22758097313 -0.463201 -0.0669861 3.4002
9.07216 30000000011043626 30000000011043625 30000000011043634 30000000011043624 4.99593346816 0.806692 -3.4275 2.12933
9.16407 30000000011043625 30000000011043624 30000000011043634 30000000011043623 4.93938066349 -1.79613 -8.19697 -19.651
9.25828 30000000011043624 30000000011043623 30000000011043634 30000000011043622 4.66451770247 4.71131 -6.06257 -10.665
9.01614 30000000011043681 30000000011043680 30000000011043691 30000000011043679 6.85511726265 0.625246 3.08888 -2.42109
9.08038 30000000011043680 30000000011043679 30000000011043691 30000000011043678 6.49159774567 -2.24133 -1.59527 -3.2112
9.10671 30000000011043679 30000000011043678 30000000011043691 30000000011043677 6.14490120342 -4.30216 -2.30662 -3.0225
9.10671 30000000011043678 30000000011043677 30000000011043691 30000000011043676 6.01075739884 -4.21231 -1.69683 -3.14727
9.12424 30000000011043677 30000000011043676 30000000011043691 30000000011043675 5.84661374788 -2.95369 -1.0337 -3.68645
9.15956 30000000011043676 30000000011043674 30000000011043691 30000000011043673 5.22758097313 -3.62553 -1.94976 -4.38438
9.20668 30000000011043674 30000000011043673 30000000011043691 30000000011043672 4.99593346816 -1.34432 -5.1048 -5.7412
9.22845 30000000011043673 30000000011043672 30000000011043691 30000000011043671 4.93938066349 1.03907 -5.97697 -14.3573
9.23037 30000000011043672 30000000011043671 30000000011043691 30000000011043670 4.66451770247 1.41497 -1.37919 -8.47065
9.25284 30000000011043671 30000000011043670 30000000011043691 30000000011043669 4.42803373661 -0.290444 -2.45712 -5.333
9.26896 30000000011043670 30000000011043669 30000000011043691 30000000011043668 4.17683491473 -0.186096 -4.50232 -2.90028
9.26896 30000000011043669 30000000011043668 30000000011043691 30000000011043667 4.00794511147 1.7406 -8.76591 -4.37403
9.26896 30000000011043668 30000000011043667 30000000011043691 30000000011043666 3.93726108473 1.43487 -8.20547 -2.56984
9.29457 30000000011043667 30000000011043666 30000000011043691 30000000011043665 3.70877426464 -4.02469 -2.83153 -3.19672
9.04653 30000000011043769 30000000011043768 30000000011043776 30000000011043767 6.01075739884 0.999282 9.02071 -2.63481
9.2087 30000000011043768 30000000011043767 30000000011043776 30000000011043766 5.84661374788 0.135335 2.11875 -6.06129
9.25284 30000000011043767 30000000011043765 30000000011043776 30000000011043764 5.22758097313 -2.24699 3.51097 -3.27109
9.2828 30000000011043765 30000000011043764 30000000011043776 30000000011043763 4.99593346816 0.125543 4.32976 -4.46921
9.2929 30000000011043764 30000000011043763 30000000011043776 30000000011043762 4.93938066349 -0.865607 4.39958 -2.94334
9.31083 30000000011043763 30000000011043762 30000000011043776 30000000011043761 4.66451770247 -0.484957 -0.0469453 -2.90026
9.33263 30000000011043762 30000000011043761 30000000011043776 30000000011043760 4.42803373661 1.2767 -0.248974 -4.11317
9.36622 30000000011043761 30000000011043760 30000000011043776 30000000011043759 4.17683491473 -0.26767 1.74641 1.06528
9.36763 30000000011043760 30000000011043759 30000000011043776 30000000011043758 4.00794511147 -1.13697 1.84726 -0.702373
9.38547 30000000011043759 30000000011043758 30000000011043776 30000000011043757 3.93726108473 -0.251 3.52563 1.33941
9.3974 30000000011043758 30000000011043756 30000000011043776 30000000011043755 3.49086136926 -2.73914 3.62811 0.82422
9.40902 30000000011043756 30000000011043755 30000000011043776 30000000011043754 3.28303305796 -5.1105 3.45829 3.38707
9.43257 30000000011043755 30000000011043753 30000000011043776 30000000011043752 3.00813107163 -0.150776 5.37794 1.03702
9.47066 30000000011043753 30000000011043752 30000000011043776 30000000011043751 2.89578500573 -3.36589 5.86727 4.02895
9.50872 30000000011043752 30000000011043750 30000000011043776 30000000011043749 2.5772902716 -6.12341 4.41714 9.1636
10.0847 30000000011043790 30000000011043789 30000000011043790 30000000011043788 1.03551044566 9.05544 38.1612 -40.4305
9.01614 30000000011044424 30000000011044423 30000000011044441 30000000011044422 2.73314261732 9.12432 -12.6724 -7.34316
9.05811 30000000011044423 30000000011044422 30000000011044441 30000000011044421 2.5772902716 11.0508 -15.8341 -7.8369
9.1193 30000000011044615 30000000011044614 30000000011044626 30000000011044613 4.17683491473 19.1782 7.40255 -2.91071
9.14811 30000000011044614 30000000011044613 30000000011044626 30000000011044612 4.00794511147 16.1069 7.68615 -4.64106
9.19641 30000000011044613 30000000011044611 30000000011044626 30000000011044610 3.70877426464 12.4538 1.23221 0.170046
9.24175 30000000011044611 30000000011044610 30000000011044626 30000000011044609 3.49086136926 9.04646 1.1602 5.55172
9.26896 30000000011044610 30000000011044609 30000000011044626 30000000011044608 3.28303305796 12.6146 3.54841 4.94994
9.29951 30000000011044609 30000000011044608 30000000011044626 30000000011044607 3.08482263583 12.1616 3.1812 5.56769
9.30602 30000000011044608 30000000011044607 30000000011044626 30000000011044606 3.00813107163 13.5656 4.66394 2.24284
9.04945 30000000011044709 30000000011044708 30000000011044714 30000000011044707 7.23627606617 -6.67173 11.7231 -13.8971
9.06096 30000000011044708 30000000011044707 30000000011044714 30000000011044706 7.00541704554 -6.32243 10.4429 -12.0636
9.07492 30000000011044707 30000000011044706 30000000011044714 30000000011044705 6.85511726265 -5.95096 10.8409 -12.6701
9.10157 30000000011044706 30000000011044705 30000000011044714 30000000011044704 6.49159774567 -4.29719 8.62335 -8.71251
9.16182 30000000011044705 30000000011044704 30000000011044714 30000000011044703 6.14490120342 -0.296887 8.62453 -8.35863
9.2087 30000000011044704 30000000011044702 30000000011044714 30000000011044701 5.84661374788 4.53876 8.58307 -4.8363
9.43856 30000000011044702 30000000011044701 30000000011044714 30000000011044700 5.52976580795 -13.1547 11.7767 3.91142
9.61504 30000000011044701 30000000011044700 30000000011044714 30000000011044699 5.22758097313 -18.7918 16.3206 -1.31319
9.64712 30000000011044700 30000000011044699 30000000011044714 30000000011044698 4.99593346816 -34.6919 18.219 10.6822
9.75017 30000000011044699 30000000011044698 30000000011044714 30000000011044697 4.93938066349 -43.8903 48.1968 -4.31569
9.86348 30000000011044698 30000000011044697 30000000011044714 30000000011044696 4.66451770247 7.70631 12.7947 11.9709
10.0489 30000000011044697 30000000011044696 30000000011044714 30000000011044695 4.42803373661 36.5057 15.2463 2.00184
10.1143 30000000011044696 30000000011044695 30000000011044714 30000000011044694 4.17683491473 35.202 1.07247 21.1084
10.1568 30000000011044695 30000000011044692 30000000011044714 30000000011044691 3.70877426464 -1.48664 -26.4744 37.28
10.2698 30000000011044692 30000000011044690 30000000011044714 30000000011044689 3.28303305796 49.4678 -10.698 28.0552
10.2932 30000000011044690 30000000011044689 30000000011044714 30000000011044688 3.08482263583 81.1496 21.877 11.5799
10.3566 30000000011044689 30000000011044688 30000000011044714 30000000011044687 3.00813107163 97.6409 54.6984 -9.74917
10.375 30000000011044688 30000000011044687 30000000011044714 30000000011044686 2.89578500573 151.948 34.1519 4.25263
10.4129 30000000011044687 30000000011044686 30000000011044714 30000000011044685 2.73314261732 159.227 31.2135 11.5678
10.503 30000000011044686 30000000011044685 30000000011044714 30000000011044684 2.5772902716 183.102 70.1826 -13.5257
10.5538 30000000011044685 30000000011044684 30000000011044714 30000000011044683 2.44422570455 158.837 114.236 -61.566
10.6261 30000000011044684 30000000011044683 30000000011044714 30000000011044682 2.31611074396 165.429 63.7935 -57.8678
10.7156 30000000011044683 30000000011044682 30000000011044714 30000000011044681 2.20792547238 163.397 75.1208 -97.0074
10.7563 30000000011044682 30000000011044681 30000000011044714 30000000011044680 2.1032696526 158.733 48.3192 -86.2417
10.8199 30000000011044681 30000000011044680 30000000011044714 30000000011044679 2.00202813925 154.196 17.0039 -77.9999
10.8358 30000000011044680 30000000011044679 30000000011044714 30000000011044678 1.90408954353 176.571 32.86 -82.9554
10.8902 30000000011044679 30000000011044678 30000000011044714 30000000011044677 1.82268925262 167.809 25.9851 -78.0327
10.9003 30000000011044678 30000000011044677 30000000011044714 30000000011044676 1.74357057433 162.925 61.7011 -110.488
10.9182 30000000011044677 30000000011044676 30000000011044714 30000000011044675 1.66666955611 113.514 61.1064 -99.9795
10.9354 30000000011044676 30000000011044675 30000000011044714 30000000011044674 1.60423452207 90.7287 54.807 -92.5012
10.9373 30000000011044675 30000000011044674 30000000011044714 30000000011044673 1.53123902916 90.4751 67.1826 -96.4956
10.9544 30000000011044674 30000000011044673 30000000011044714 30000000011044672 1.47197484527 93.9027 52.7355 -96.4393
10.9643 30000000011044673 30000000011044672 30000000011044714 30000000011044671 1.41409822037 70.0809 67.7912 -137.117
10.9895 30000000011044672 30000000011044671 30000000011044714 30000000011044670 1.3575766674 103.622 38.8289 -158.809
10.9901 30000000011044671 30000000011044670 30000000011044714 30000000011044669 1.30237845991 147.917 -4.24596 -143.847
11.005 30000000011044670 30000000011044669 30000000011044714 30000000011044668 1.24847261425 142.284 -2.1875 -172.184
11.0236 30000000011044669 30000000011044668 30000000011044714 30000000011044667 1.20625808078 125.174 4.5673 -189.26
11.0302 30000000011044668 30000000011044667 30000000011044714 30000000011044666 1.15460271236 122.153 -7.46048 -189.072
11.0407 30000000011044667 30000000011044666 30000000011044714 30000000011044665 1.11415056377 137.829 -29.1367 -162.579
11.0418 30000000011044666 30000000011044665 30000000011044714 30000000011044664 1.07445789455 142.761 -18.7564 -157.444
9.01298 30000000011044789 30000000011044788 30000000011044799 30000000011044787 7.59510714987 6.54682 2.59427 6.44551
9.08309 30000000011044788 30000000011044787 30000000011044799 30000000011044786 7.23627606617 -1.83243 -0.30596 6.19947
9.10157 30000000011044787 30000000011044786 30000000011044799 30000000011044785 7.00541704554 3.23307 2.3527 6.85455
9.13871 30000000011044786 30000000011044784 30000000011044799 30000000011044783 6.49159774567 2.21628 3.43593 6.91776
9.15956 30000000011044784 30000000011044783 30000000011044799 30000000011044782 6.14490120342 2.79351 0.340964 6.50164
9.16182 30000000011044783 30000000011044781 30000000011044799 30000000011044780 5.84661374788 6.59501 0.569261 4.75982
10.2051 30000000011044781 30000000011044771 30000000011044799 30000000011044770 3.49086136926 38.6508 -9.50123 30.1416
9.1573 30000000011044832 30000000011044831 30000000011044841 30000000011044830 7.00541704554 -3.97889 15.1484 9.68537
9.21869 30000000011044831 30000000011044828 30000000011044841 30000000011044827 6.14490120342 -0.101443 7.89451 3.58615
9.25648 30000000011044828 30000000011044827 30000000011044841 30000000011044826 6.01075739884 -0.313883 8.62408 2.63168
9.2828 30000000011044827 30000000011044826 30000000011044841 30000000011044825 5.84661374788 -0.525775 8.33683 1.57739
9.35483 30000000011044826 30000000011044825 30000000011044841 30000000011044824 5.52976580795 -1.8104 11.5982 4.2878
9.3974 30000000011044825 30000000011044824 30000000011044841 30000000011044823 5.22758097313 -2.25737 11.4588 0.96854
9.41156 30000000011044824 30000000011044823 30000000011044841 30000000011044822 4.99593346816 -2.94893 11.092 2.51414
9.10415 30000000011044982 30000000011044981 30000000011044987 30000000011044980 7.23627606617 0.0963603 4.00493 -4.81451
9.11431 30000000011044981 30000000011044980 30000000011044987 30000000011044979 7.00541704554 -7.64013 -2.20579 -1.95546
9.24548 30000000011044980 30000000011044979 30000000011044987 30000000011044978 6.85511726265 5.86695 -9.8707 -1.46625
9.32342 30000000011044979 30000000011044978 30000000011044987 30000000011044977 6.49159774567 0.220654 -6.31663 0.988885
9.4026 30000000011044978 30000000011044977 30000000011044987 30000000011044976 6.14490120342 2.30051 -8.895 4.17805
9.53236 30000000011044977 30000000011044975 30000000011044987 30000000011044974 5.84661374788 7.03389 -14.239 9.34534
9.54558 30000000011044975 30000000011044972 30000000011044987 30000000011044971 4.99593346816 17.3514 1.65337 5.49101
9.56911 30000000011044972 30000000011044969 30000000011044987 30000000011044968 4.42803373661 12.2566 9.51307 6.69459
9.59059 30000000011044969 30000000011044965 30000000011044987 30000000011044964 3.70877426464 4.96619 2.56623 8.61584
9.6449 30000000011044965 30000000011044964 30000000011044987 30000000011044963 3.49086136926 16.4078 -3.87232 1.2526
9.72136 30000000011044964 30000000011044959 30000000011044987 30000000011044958 2.73314261732 51.2434 14.7978 -40.3021
9.11431 30000000011045007 30000000011045006 30000000011045021 30000000011045005 4.17683491473 8.01311 0.836033 -4.70212
9.1193 30000000011045006 30000000011045004 30000000011045021 30000000011045003 3.93726108473 5.16148 1.13427 -3.06373
9.06378 30000000011045026 30000000011045025 30000000011045041 30000000011045024 2.44422570455 0.625286 7.58583 -12.4533
9.12668 30000000011045094 30000000011045093 30000000011045099 30000000011045092 6.01075739884 17.1702 -8.70107 -8.0218
9.13154 30000000011045093 30000000011045092 30000000011045099 30000000011045091 5.84661374788 16.1047 -7.14763 -7.32421
9.21272 30000000011045092 30000000011045089 30000000011045099 30000000011045088 4.99593346816 11.383 0.315102 -4.5911
9.23037 30000000011045089 30000000011045088 30000000011045099 30000000011045087 4.93938066349 9.96326 -3.54002 -4.53372
9.39214 30000000011045088 30000000011045085 30000000011045099 30000000011045084 4.17683491473 37.5323 14.4793 -28.6469
9.43257 30000000011045085 30000000011045084 30000000011045099 30000000011045083 4.00794511147 34.6045 9.63692 -22.7721
9.0098 30000000011045126 30000000011045125 30000000011045137 30000000011045124 3.70877426464 -6.16618 3.78057 -1.29144
9.0316 30000000011045125 30000000011045122 30000000011045137 30000000011045121 3.08482263583 -4.78556 2.9707 -0.383172
9.17729 30000000011045178 30000000011045177 30000000011045184 30000000011045176 6.14490120342 -9.86096 6.86848 -8.1827
9.32958 30000000011045177 30000000011045176 30000000011045184 30000000011045175 6.01075739884 -8.99032 4.36805 -14.1286
9.32958 30000000011045176 30000000011045172 30000000011045184 30000000011045171 4.99593346816 7.74318 -10.4048 -5.44325
9.37869 30000000011045172 30000000011045171 30000000011045184 30000000011045170 4.93938066349 -0.216878 -11.9875 -3.92442
9.48265 30000000011045171 30000000011045170 30000000011045184 30000000011045169 4.66451770247 1.3671 -8.1174 -3.13211
9.50973 30000000011045170 30000000011045169 30000000011045184 30000000011045168 4.42803373661 2.38732 -11.7939 -4.45712
9.63894 30000000011045169 30000000011045168 30000000011045184 30000000011045167 4.17683491473 24.7953 16.1179 -10.6854
9.68515 30000000011045168 30000000011045167 30000000011045184 30000000011045166 4.00794511147 19.5738 14.6375 -10.8526
9.68851 30000000011045167 30000000011045166 30000000011045184 30000000011045165 3.93726108473 14.9915 23.7652 -7.70974
9.03763 30000000011045248 30000000011045247 30000000011045249 30000000011045246 3.08482263583 -3.07739 6.33993 -0.273898
9.06096 30000000011045275 30000000011045274 30000000011045285 30000000011045273 4.66451770247 4.3414 -3.50195 -7.64662
9.08309 30000000011045274 30000000011045273 30000000011045285 30000000011045272 4.42803373661 2.2028 -1.45557 -4.07919
9.19013 30000000011045273 30000000011045272 30000000011045285 30000000011045271 4.17683491473 3.85202 -2.02244 -4.68512
9.19641 30000000011045272 30000000011045270 30000000011045285 30000000011045269 3.93726108473 3.72191 1.17616 -2.92805
9.29951 30000000011045270 30000000011045269 30000000011045285 30000000011045268 3.70877426464 -2.46161 6.0968 -5.75785
9.32031 30000000011045269 30000000011045267 30000000011045285 30000000011045266 3.28303305796 -4.28006 6.40288 -8.79969
9.34902 30000000011045267 30000000011045266 30000000011045285 30000000011045265 3.08482263583 14.3973 -1.73783 -4.39524
9.38277 30000000011045266 30000000011045263 30000000011045285 30000000011045262 2.73314261732 7.97436 -3.64429 0.705333
9.38412 30000000011045263 30000000011045262 30000000011045285 30000000011045261 2.5772902716 6.74995 -6.55521 4.89724
9.06378 30000000011045426 30000000011045425 30000000011045438 30000000011045424 4.42803373661 -3.31995 3.11995 -4.85703
9.43856 30000000011045425 30000000011045422 30000000011045438 30000000011045421 3.70877426464 13.5941 3.7182 -21.7142
9.4606 30000000011045422 30000000011045421 30000000011045438 30000000011045420 3.49086136926 -2.43955 -1.59794 6.52463
9.59477 30000000011045421 30000000011045420 30000000011045438 30000000011045419 3.28303305796 -7.49616 4.82898 -2.22443
9.78582 30000000011045420 30000000011045418 30000000011045438 30000000011045417 3.00813107163 -12.1242 -3.35621 -33.4446
9.90524 30000000011045418 30000000011045416 30000000011045438 30000000011045415 2.73314261732 -13.9973 -27.8128 -58.6242
9.37319 30000000011045470 30000000011045469 30000000011045480 30000000011045468 4.66451770247 4.45276 12.4364 3.02995
9.01298 30000000011045504 30000000011045503 30000000011045509 30000000011045502 6.14490120342 8.3347 -1.45304 0.0491246
9.02855 30000000011045503 30000000011045501 30000000011045509 30000000011045500 5.84661374788 6.09746 -2.25625 -2.8542
9.18802 30000000011045501 30000000011045499 30000000011045509 30000000011045498 5.22758097313 3.74229 -6.5356 -5.14606
9.39871 30000000011045499 30000000011045497 30000000011045509 30000000011045496 4.93938066349 -13.3477 -24.9897 32.0458
9.52365 30000000011045497 30000000011045492 30000000011045509 30000000011045491 3.93726108473 -4.35572 -7.11165 24.57
9.04945 30000000011045533 30000000011045532 30000000011045541 30000000011045531 4.93938066349 -4.96049 17.0107 9.46471
9.19433 30000000011045532 30000000011045529 30000000011045541 30000000011045528 4.00794511147 8.08205 3.95883 -9.11671
9.05811 30000000011045583 30000000011045582 30000000011045601 30000000011045581 4.17683491473 -8.96535 -4.05324 11.7889
9.06939 30000000011045582 30000000011045581 30000000011045601 30000000011045580 4.00794511147 -9.66074 -4.55546 10.8525
9.09898 30000000011045581 30000000011045580 30000000011045601 30000000011045579 3.93726108473 -10.0105 -4.97106 14.4318
9.15502 30000000011045580 30000000011045579 30000000011045601 30000000011045578 3.70877426464 -7.80218 -2.28929 13.5117
9.22066 30000000011045579 30000000011045578 30000000011045601 30000000011045577 3.49086136926 -13.2205 -2.02789 10.5686
9.53713 30000000011045578 30000000011045572 30000000011045601 30000000011045571 2.5772902716 -9.82562 -13.1016 -36.6242
9.07492 30000000011045693 30000000011045692 30000000011045705 30000000011045691 4.66451770247 0.221871 9.2149 -12.6139
9.12912 30000000011045692 30000000011045691 30000000011045705 30000000011045690 4.42803373661 -2.24829 11.6227 -14.9032
9.13394 30000000011045691 30000000011045690 30000000011045705 30000000011045689 4.17683491473 -2.18618 10.1105 -13.8234
9.25648 30000000011045690 30000000011045689 30000000011045705 30000000011045688 4.00794511147 -21.4201 15.5342 -1.48828
9.29124 30000000011045689 30000000011045688 30000000011045705 30000000011045687 3.93726108473 -15.9557 14.3001 -2.60514
9.42771 30000000011045688 30000000011045687 30000000011045705 30000000011045686 3.70877426464 -20.3689 17.8324 -3.37676
9.46172 30000000011045687 30000000011045686 30000000011045705 30000000011045685 3.49086136926 -27.4087 7.35985 -12.0797
9.49221 30000000011045686 30000000011045685 30000000011045705 30000000011045684 3.28303305796 -17.0015 14.5711 -9.76633
9.5026 30000000011045685 30000000011045682 30000000011045705 30000000011045681 2.89578500573 -22.6386 12.9729 -4.09437
9.52657 30000000011045682 30000000011045681 30000000011045705 30000000011045680 2.73314261732 -22.7726 15.4885 -7.39545
9.00012 30000000011045808 30000000011045807 30000000011045818 30000000011045806 3.08482263583 -3.84342 1.36876 4.51206
9.0098 30000000011045807 30000000011045805 30000000011045818 30000000011045804 2.89578500573 -3.13304 0.291659 6.64051
9.03463 30000000011045805 30000000011045804 30000000011045818 30000000011045803 2.73314261732 -3.75415 1.24814 7.14843
9.06096 30000000011045804 30000000011045802 30000000011045818 30000000011045801 2.44422570455 -6.05016 2.69311 3.57135
9.0098 30000000011046072 30000000011046071 30000000011046092 30000000011046070 4.66451770247 2.13895 2.3354 1.91663
9.03463 30000000011046071 30000000011046070 30000000011046092 30000000011046069 4.42803373661 1.40854 8.38425 2.87
9.08038 30000000011046070 30000000011046069 30000000011046092 30000000011046068 4.17683491473 -0.348659 4.90896 0.182368
9.09898 30000000011046069 30000000011046065 30000000011046092 30000000011046064 3.49086136926 -3.60845 4.20025 -0.212022
9.10671 30000000011046065 30000000011046063 30000000011046092 30000000011046062 3.08482263583 1.11961 0.208065 -2.65744
9.13154 30000000011046063 30000000011046061 30000000011046092 30000000011046060 2.89578500573 1.90636 1.89212 -1.99361
9.17946 30000000011046061 30000000011046058 30000000011046092 30000000011046057 2.44422570455 10.9586 7.03483 -2.51946
9.18802 30000000011046058 30000000011046057 30000000011046092 30000000011046056 2.31611074396 3.8244 0.730103 -4.50794
9.25828 30000000011046057 30000000011046053 30000000011046092 30000000011046052 1.90408954353 -0.516041 -0.704221 -6.82923
9.20668 30000000011046413 30000000011046412 30000000011046418 30000000011046411 6.14490120342 -14.7117 -10.8622 -7.28233
9.34756 30000000011046412 30000000011046408 30000000011046418 30000000011046407 5.22758097313 -8.13746 -12.1723 -7.72349
9.41659 30000000011046408 30000000011046407 30000000011046418 30000000011046406 4.99593346816 -4.66483 -9.80433 -8.94164
9.44914 30000000011046407 30000000011046405 30000000011046418 30000000011046404 4.66451770247 -3.68504 -9.28626 -5.82331
9.49951 30000000011046405 30000000011046404 30000000011046418 30000000011046403 4.42803373661 -4.44607 -11.6036 -2.1346
9.50567 30000000011046404 30000000011046403 30000000011046418 30000000011046402 4.17683491473 -6.56222 -14.7056 -5.68574
9.53332 30000000011046403 30000000011046402 30000000011046418 30000000011046401 4.00794511147 -6.77672 -11.1627 -7.86512
9.56379 30000000011046402 30000000011046400 30000000011046418 30000000011046399 3.70877426464 -0.817685 -8.50236 -6.77601
9.58127 30000000011046400 30000000011046398 30000000011046418 30000000011046397 3.28303305796 -1.97288 -3.81211 -0.240495
9.59394 30000000011046398 30000000011046397 30000000011046418 30000000011046396 3.08482263583 -1.76142 -5.93259 1.08103
9.62056 30000000011046397 30000000011046396 30000000011046418 30000000011046395 3.00813107163 8.00613 -3.19491 -4.7304
9.67629 30000000011046396 30000000011046394 30000000011046418 30000000011046393 2.73314261732 5.95373 -7.34708 -13.5278
9.68851 30000000011046394 30000000011046393 30000000011046418 30000000011046392 2.5772902716 4.81294 -3.76783 -11.519
9.72136 30000000011046393 30000000011046392 30000000011046418 30000000011046391 2.44422570455 6.31901 -7.81287 -15.7908
9.7342 30000000011046392 30000000011046391 30000000011046418 30000000011046390 2.31611074396 8.56601 -5.98035 -12.6972
9.77279 30000000011046391 30000000011046390 30000000011046418 30000000011046389 2.20792547238 14.224 -0.369874 -16.5945
9.80517 30000000011046390 30000000011046389 30000000011046418 30000000011046388 2.1032696526 14.7424 1.93829 -18.0858
9.04653 30000000011046513 30000000011046512 30000000011046526 30000000011046511 2.31611074396 10.9139 14.6961 21.0793
9.07216 30000000011046512 30000000011046508 30000000011046526 30000000011046507 1.90408954353 6.21296 8.44871 11.6554
9.08309 30000000011046508 30000000011046507 30000000011046526 30000000011046506 1.82268925262 9.73992 10.5364 17.9888
9.09111 30000000011046507 30000000011046506 30000000011046526 30000000011046505 1.74357057433 11.2458 8.24971 11.7256
9.13871 30000000011046506 30000000011046504 30000000011046526 30000000011046503 1.60423452207 11.7357 8.06344 13.6841
9.33566 30000000011046504 30000000011046503 30000000011046526 30000000011046502 1.53123902916 7.51876 12.8289 -12.0134
9.34609 30000000011046503 30000000011046501 30000000011046526 30000000011046500 1.41409822037 19.1093 17.2608 -14.9622
9.00012 30000000011046663 30000000011046662 30000000011046670 30000000011046661 5.84661374788 6.72088 10.015 3.67097
9.04945 30000000011046662 30000000011046661 30000000011046670 30000000011046660 5.52976580795 6.74859 10.3487 8.77837
9.08845 30000000011046661 30000000011046660 30000000011046670 30000000011046659 5.22758097313 9.51423 10.9886 7.80684
9.16182 30000000011046660 30000000011046659 30000000011046670 30000000011046658 4.99593346816 -1.73431 13.1184 6.25356
9.22066 30000000011046659 30000000011046657 30000000011046670 30000000011046656 4.66451770247 -2.60843 12.0608 3.3653
9.22457 30000000011046657 30000000011046656 30000000011046670 30000000011046655 4.42803373661 -1.35363 12.5106 -0.624783
9.3044 30000000011046656 30000000011046655 30000000011046670 30000000011046654 4.17683491473 2.26724 15.8396 4.04916
9.31243 30000000011046655 30000000011046654 30000000011046670 30000000011046653 4.00794511147 5.05483 12.0038 4.50932
9.37732 30000000011046654 30000000011046653 30000000011046670 30000000011046652 3.93726108473 -2.03605 18.5309 1.01671
9.38948 30000000011046653 30000000011046652 30000000011046670 30000000011046651 3.70877426464 2.26213 14.1968 0.52219
9.48479 30000000011046652 30000000011046651 30000000011046670 30000000011046650 3.49086136926 12.6761 16.2948 -4.69043
9.53332 30000000011046651 30000000011046650 30000000011046670 30000000011046649 3.28303305796 11.5818 32.7053 -18.1488
9.58807 30000000011046650 30000000011046649 30000000011046670 30000000011046648 3.08482263583 28.7064 3.51675 -68.0969
9.66936 30000000011046649 30000000011046648 30000000011046670 30000000011046647 3.00813107163 24.0742 30.7973 -45.9096
9.01928 30000000011046675 30000000011046674 30000000011046684 30000000011046673 3.70877426464 11.9802 2.9574 21.8637
