logMh | fpID | subhaloID | main leaf ID | descID |  z
9.02548 90000002100000096 90000002100000095 90000002100000103 90000002100000094 7.59510714987 -0.805108 2.53921 -8.54199
9.04945 90000002100000095 90000002100000094 90000002100000103 90000002100000093 7.23627606617 -0.799442 2.22577 -6.85185
9.06096 90000002100000094 90000002100000093 90000002100000103 90000002100000092 7.00541704554 0.564114 1.31796 -6.87413
9.09637 90000002100000093 90000002100000091 90000002100000103 90000002100000090 6.49159774567 2.3096 0.574365 -4.63991
9.16182 90000002100000091 90000002100000090 90000002100000103 90000002100000089 6.14490120342 0.973629 -0.550087 -3.74601
9.20668 90000002100000090 90000002100000089 90000002100000103 90000002100000088 6.01075739884 0.713714 2.86639 -8.71639
9.31717 90000002100000089 90000002100000088 90000002100000103 90000002100000087 5.84661374788 -3.69846 4.71558 4.73646
9.57436 90000002100000088 90000002100000083 90000002100000103 90000002100000082 4.66451770247 -14.2563 29.2299 -10.691
9.60624 90000002100000083 90000002100000082 90000002100000103 90000002100000081 4.42803373661 -12.3359 25.6806 -10.9383
9.65514 90000002100000082 90000002100000081 90000002100000103 90000002100000080 4.17683491473 -9.36082 27.4475 -6.01454
9.7263 90000002100000081 90000002100000080 90000002100000103 90000002100000079 4.00794511147 -3.54648 42.0846 -6.6785
9.73118 90000002100000080 90000002100000079 90000002100000103 90000002100000078 3.93726108473 -7.00218 43.4941 -9.79295
9.78902 90000002100000079 90000002100000078 90000002100000103 90000002100000077 3.70877426464 -2.89451 48.869 10.1098
9.94667 90000002100000078 90000002100000077 90000002100000103 90000002100000076 3.49086136926 3.58803 65.4325 29.8133
9.97004 90000002100000077 90000002100000076 90000002100000103 90000002100000075 3.28303305796 -3.19352 57.9535 12.0147
10.0595 90000002100000076 90000002100000075 90000002100000103 90000002100000074 3.08482263583 -6.43432 36.2523 11.1209
10.0746 90000002100000075 90000002100000074 90000002100000103 90000002100000073 3.00813107163 -6.97099 38.3893 7.98346
10.1247 90000002100000074 90000002100000073 90000002100000103 90000002100000072 2.89578500573 4.02012 19.9745 9.45458
10.181 90000002100000073 90000002100000072 90000002100000103 90000002100000071 2.73314261732 29.7065 2.68251 21.2582
10.2705 90000002100000072 90000002100000071 90000002100000103 90000002100000070 2.5772902716 53.3633 -8.20077 35.073
10.339 90000002100000071 90000002100000070 90000002100000103 90000002100000069 2.44422570455 52.3709 -9.69314 34.7791
10.401 90000002100000070 90000002100000069 90000002100000103 90000002100000068 2.31611074396 43.1672 -11.9593 55.85
10.4658 90000002100000069 90000002100000068 90000002100000103 90000002100000067 2.20792547238 62.3182 11.9714 76.2283
10.5088 90000002100000068 90000002100000067 90000002100000103 90000002100000066 2.1032696526 55.5304 41.3602 83.9122
10.5462 90000002100000067 90000002100000066 90000002100000103 90000002100000065 2.00202813925 60.4836 26.2329 111.396
10.5685 90000002100000066 90000002100000065 90000002100000103 90000002100000064 1.90408954353 62.9334 11.3499 95.6753
10.5913 90000002100000065 90000002100000064 90000002100000103 90000002100000063 1.82268925262 67.1605 16.3194 94.0483
10.6095 90000002100000064 90000002100000063 90000002100000103 90000002100000062 1.74357057433 73.437 21.3256 93.2813
10.6514 90000002100000063 90000002100000062 90000002100000103 90000002100000061 1.66666955611 80.2197 6.30742 91.3306
10.6761 90000002100000062 90000002100000061 90000002100000103 90000002100000060 1.60423452207 80.6812 5.56507 125.487
10.7041 90000002100000061 90000002100000060 90000002100000103 90000002100000059 1.53123902916 102.68 17.9412 112.147
10.732 90000002100000060 90000002100000059 90000002100000103 90000002100000058 1.47197484527 108.541 21.619 109.945
10.7718 90000002100000059 90000002100000058 90000002100000103 90000002100000057 1.41409822037 139.88 -2.60698 70.3673
10.8716 90000002100000058 90000002100000057 90000002100000103 90000002100000056 1.3575766674 268.858 -40.7287 18.9576
10.9977 90000002100000057 90000002100000056 90000002100000103 90000002100000055 1.30237845991 353.706 -61.4056 3.58492
11.0419 90000002100000056 90000002100000055 90000002100000103 90000002100000054 1.24847261425 341.656 -61.3585 3.23773
11.0753 90000002100000055 90000002100000052 90000002100000103 90000002100000051 1.11415056377 378.203 -79.5958 20.5989
11.0844 90000002100000052 90000002100000051 90000002100000103 90000002100000050 1.07445789455 410.937 -76.2455 18.5712
11.1091 90000002100000051 90000002100000049 90000002100000103 90000002100000048 0.987852810816 376.827 -75.455 41.9611
11.1103 90000002100000049 90000002100000028 90000002100000103 90000002100000027 0.419968941997 316.41 -32.5854 118.543
11.1144 90000002100000028 90000002100000027 90000002100000103 90000002100000026 0.399926964614 319.744 -34.0555 128.634
11.1197 90000002100000027 90000002100000023 90000002100000103 90000002100000022 0.328829724206 342.273 -17.5325 118.986
11.1218 90000002100000023 90000002100000021 90000002100000103 90000002100000020 0.291583239722 343.058 -13.4933 139.18
11.1457 90000002100000021 90000002100000020 90000002100000103 90000002100000019 0.273353346578 347.338 38.5323 117.214
11.1654 90000002100000020 90000002100000018 90000002100000103 90000002100000017 0.243540181555 331.049 -9.24718 111.959
11.179 90000002100000018 90000002100000017 90000002100000103 90000002100000016 0.22598838626 341.555 -47.4163 93.2806
11.1864 90000002100000017 90000002100000016 90000002100000103 90000002100000015 0.214425035514 339.125 -27.529 111.68
11.1927 90000002100000016 90000002100000015 90000002100000103 90000002100000014 0.197284182376 327.717 -42.8354 100.729
11.2091 90000002100000015 90000002100000014 90000002100000103 90000002100000013 0.180385261706 332.93 -61.0802 81.1448
11.21 90000002100000014 90000002100000013 90000002100000103 90000002100000012 0.169252033244 320.529 -48.1709 113.888
11.2316 90000002100000013 90000002100000012 90000002100000103 90000002100000011 0.152748768902 334.025 -92.4528 92.7521
11.2396 90000002100000012 90000002100000011 90000002100000103 90000002100000010 0.14187620397 338.669 -134.84 60.4562
11.248 90000002100000011 90000002100000010 90000002100000103 90000002100000009 0.125759332411 334.557 -183.357 28.9293
11.2555 90000002100000010 90000002100000009 90000002100000103 90000002100000008 0.109869940459 329.736 -207.084 37.1429
11.264 90000002100000009 90000002100000008 90000002100000103 90000002100000007 0.0994018026302 320.143 -214.133 40.0483
11.2673 90000002100000008 90000002100000007 90000002100000103 90000002100000006 0.0838844307975 326.58 -257.053 21.1636
11.2809 90000002100000007 90000002100000006 90000002100000103 90000002100000005 0.0736613846564 338.259 -295.943 18.9136
11.2937 90000002100000006 90000002100000005 90000002100000103 90000002100000004 0.0585073227945 340.839 -338.343 -0.00745259
11.3075 90000002100000005 90000002100000004 90000002100000103 90000002100000003 0.0485236299818 329.227 -351.948 13.5608
11.3248 90000002100000004 90000002100000003 90000002100000103 90000002100000002 0.0337243718735 327.265 -397.814 -8.60752
11.3378 90000002100000003 90000002100000002 90000002100000103 90000002100000001 0.0239744283828 321.423 -416.966 23.4803
9.0066 90000002100000112 90000002100000111 90000002100000120 90000002100000110 6.14490120342 4.44145 6.57373 -12.5567
9.30115 90000002100000111 90000002100000107 90000002100000120 90000002100000106 5.22758097313 -5.35116 18.6505 -3.39707
9.37732 90000002100000107 90000002100000106 90000002100000120 90000002100000105 4.99593346816 -6.50279 16.1983 -3.78077
9.37732 90000002100000106 90000002100000105 90000002100000120 90000002100000083 4.93938066349 -9.45899 16.0995 -3.98733
9.09111 90000002100000136 90000002100000135 90000002100000141 90000002100000134 6.14490120342 6.22422 8.79785 11.805
9.12178 90000002100000135 90000002100000133 90000002100000141 90000002100000132 5.84661374788 4.20704 7.88673 8.86158
9.15956 90000002100000133 90000002100000132 90000002100000141 90000002100000131 5.52976580795 2.88814 8.38467 7.68025
9.21472 90000002100000132 90000002100000131 90000002100000141 90000002100000130 5.22758097313 2.70585 7.47337 9.0008
9.23229 90000002100000131 90000002100000130 90000002100000141 90000002100000129 4.99593346816 5.58653 8.72118 5.15626
9.28788 90000002100000130 90000002100000127 90000002100000141 90000002100000126 4.42803373661 5.59345 8.12647 10.4028
9.28788 90000002100000127 90000002100000126 90000002100000141 90000002100000125 4.17683491473 9.88603 7.27496 16.5391
9.08309 90000002100000173 90000002100000172 90000002100000187 90000002100000171 3.70877426464 -11.8798 4.72115 -3.69252
9.08309 90000002100000172 90000002100000171 90000002100000187 90000002100000170 3.49086136926 -11.8681 3.85854 -3.56221
9.12668 90000002100000171 90000002100000170 90000002100000187 90000002100000169 3.28303305796 -12.0714 3.50094 -7.7598
9.04653 90000002100000258 90000002100000257 90000002100000265 90000002100000256 3.93726108473 -1.54184 10.5528 8.98244
9.09111 90000002100000257 90000002100000256 90000002100000265 90000002100000255 3.70877426464 0.0675483 10.54 14.2237
9.18802 90000002100000256 90000002100000252 90000002100000265 90000002100000251 3.00813107163 31.6307 28.0302 2.32366
9.16407 90000002100000292 90000002100000291 90000002100000310 90000002100000290 2.5772902716 21.3029 -19.9984 -6.45065
9.2087 90000002100000291 90000002100000290 90000002100000310 90000002100000289 2.44422570455 26.9135 -28.8148 -9.76837
9.18802 90000002100000370 90000002100000369 90000002100000375 90000002100000368 6.49159774567 -3.68659 -0.379712 -3.03161
9.21072 90000002100000369 90000002100000368 90000002100000375 90000002100000367 6.14490120342 -3.26351 4.5828 -1.24837
9.23988 90000002100000368 90000002100000365 90000002100000375 90000002100000364 5.52976580795 -3.7123 1.70821 1.59231
9.2811 90000002100000365 90000002100000364 90000002100000375 90000002100000363 5.22758097313 -6.04286 3.99599 2.5029
9.32497 90000002100000364 90000002100000363 90000002100000375 90000002100000362 4.99593346816 -5.5706 4.39887 -1.82591
9.36763 90000002100000363 90000002100000361 90000002100000375 90000002100000360 4.66451770247 -1.86072 5.69005 -5.68857
9.61425 90000002100000361 90000002100000359 90000002100000375 90000002100000358 4.17683491473 2.84608 14.9032 -20.9927
9.62134 90000002100000359 90000002100000357 90000002100000375 90000002100000356 3.93726108473 2.13913 13.2503 -18.8116
9.69118 90000002100000357 90000002100000356 90000002100000375 90000002100000355 3.70877426464 4.63934 9.15076 -19.6192
9.717 90000002100000356 90000002100000355 90000002100000375 90000002100000354 3.49086136926 10.8465 7.6683 -32.0153
9.736 90000002100000355 90000002100000354 90000002100000375 90000002100000353 3.28303305796 6.82907 16.1337 -29.8432
9.75364 90000002100000354 90000002100000352 90000002100000375 90000002100000351 3.00813107163 4.85086 22.6775 -15.4888
9.79166 90000002100000352 90000002100000351 90000002100000375 90000002100000350 2.89578500573 3.63124 33.2833 -17.9127
9.81678 90000002100000351 90000002100000350 90000002100000375 90000002100000349 2.73314261732 5.97078 24.4569 -24.0037
9.05235 90000002100000390 90000002100000389 90000002100000395 90000002100000388 6.49159774567 5.4074 5.50597 0.515446
9.07766 90000002100000389 90000002100000388 90000002100000395 90000002100000387 6.14490120342 5.16852 4.01567 0.462243
9.09375 90000002100000388 90000002100000387 90000002100000395 90000002100000386 6.01075739884 5.01075 5.16579 0.650403
9.12668 90000002100000387 90000002100000386 90000002100000395 90000002100000385 5.84661374788 6.83476 6.87011 1.01235
9.2026 90000002100000386 90000002100000385 90000002100000395 90000002100000384 5.52976580795 3.22577 7.16762 7.43931
9.22262 90000002100000385 90000002100000383 90000002100000395 90000002100000382 4.99593346816 3.76674 3.44469 9.48471
9.51275 90000002100000383 90000002100000380 90000002100000395 90000002100000359 4.42803373661 3.03683 13.4021 -22.0821
9.00012 90000002100000472 90000002100000471 90000002100000491 90000002100000470 2.00202813925 10.9555 -1.59698 9.42569
11.1072 90000002100000494 90000002100000493 90000002100000494 90000002100000492 1.03551044566 420.986 -72.9885 29.1426
11.1088 90000002100000493 90000002100000492 90000002100000494 90000002100000049 0.997294225782 375.659 -81.6843 42.3099
9.00012 90000002100000534 90000002100000533 90000002100000544 90000002100000532 5.84661374788 -2.30701 3.31836 -4.062
9.02239 90000002100000533 90000002100000532 90000002100000544 90000002100000531 5.52976580795 -1.18799 2.52326 -4.41701
9.02855 90000002100000532 90000002100000531 90000002100000544 90000002100000530 5.22758097313 -2.29564 3.38404 -4.1088
9.1573 90000002100000531 90000002100000530 90000002100000544 90000002100000529 4.99593346816 -7.41711 6.14113 0.282151
9.22845 90000002100000530 90000002100000528 90000002100000544 90000002100000527 4.66451770247 -5.82543 7.79006 -0.479215
9.23229 90000002100000528 90000002100000527 90000002100000544 90000002100000526 4.42803373661 -5.07525 8.31667 2.0464
9.25648 90000002100000527 90000002100000526 90000002100000544 90000002100000525 4.17683491473 -4.95115 7.85268 -3.49077
9.33566 90000002100000526 90000002100000523 90000002100000544 90000002100000522 3.70877426464 -8.5996 14.749 -4.30822
9.37595 90000002100000523 90000002100000522 90000002100000544 90000002100000521 3.49086136926 -7.242 12.0505 2.46295
9.43974 90000002100000522 90000002100000521 90000002100000544 90000002100000520 3.28303305796 -4.15633 10.7438 -0.565994
9.48799 90000002100000521 90000002100000520 90000002100000544 90000002100000519 3.08482263583 -7.01121 10.0824 -7.97453
9.53332 90000002100000520 90000002100000519 90000002100000544 90000002100000518 3.00813107163 -11.6362 9.23625 -6.73299
9.60299 90000002100000519 90000002100000518 90000002100000544 90000002100000517 2.89578500573 -12.0751 12.6929 -8.70576
9.62212 90000002100000518 90000002100000517 90000002100000544 90000002100000516 2.73314261732 -11.9729 14.3895 -8.0739
9.65224 90000002100000517 90000002100000516 90000002100000544 90000002100000515 2.5772902716 -18.5123 8.69883 -16.6906
9.73239 90000002100000516 90000002100000515 90000002100000544 90000002100000514 2.44422570455 -25.3878 20.9669 -11.4081
9.19013 90000002100000667 90000002100000666 90000002100000676 90000002100000665 4.66451770247 -4.19016 12.1345 8.37122
9.19433 90000002100000666 90000002100000665 90000002100000676 90000002100000664 4.42803373661 -5.85317 12.4761 8.80253
9.2026 90000002100000665 90000002100000664 90000002100000676 90000002100000663 4.17683491473 1.90709 10.2491 7.41305
9.20464 90000002100000664 90000002100000663 90000002100000676 90000002100000662 4.00794511147 1.84804 8.85904 8.57757
9.22066 90000002100000663 90000002100000662 90000002100000676 90000002100000661 3.93726108473 0.86303 6.9986 6.89073
9.22845 90000002100000662 90000002100000661 90000002100000676 90000002100000660 3.70877426464 -4.75993 3.05487 9.93119
9.27246 90000002100000661 90000002100000660 90000002100000676 90000002100000659 3.49086136926 -4.80784 -2.88839 11.6289
9.32187 90000002100000660 90000002100000659 90000002100000676 90000002100000658 3.28303305796 -1.31595 -1.14571 5.73919
9.36763 90000002100000659 90000002100000658 90000002100000676 90000002100000657 3.08482263583 3.65366 0.257625 7.50519
9.36763 90000002100000658 90000002100000656 90000002100000676 90000002100000655 2.89578500573 0.934368 -6.11536 7.19604
9.38815 90000002100000656 90000002100000655 90000002100000676 90000002100000654 2.73314261732 0.0553366 -3.67165 4.69823
9.39346 90000002100000655 90000002100000654 90000002100000676 90000002100000653 2.5772902716 1.36134 1.38907 3.96685
9.39478 90000002100000654 90000002100000648 90000002100000676 90000002100000647 1.90408954353 -8.89746 3.74869 7.82933
9.40646 90000002100000648 90000002100000647 90000002100000676 90000002100000646 1.82268925262 -13.9279 1.70772 10.2949
9.41156 90000002100000647 90000002100000645 90000002100000676 90000002100000644 1.66666955611 -7.77208 0.308212 11.036
9.04358 90000002100000679 90000002100000678 90000002100000681 90000002100000677 4.99593346816 7.55121 13.2189 11.6911
9.12668 90000002100000724 90000002100000723 90000002100000733 90000002100000722 4.99593346816 -1.75193 13.6751 16.8358
9.32497 90000002100000723 90000002100000722 90000002100000733 90000002100000721 4.93938066349 0.365994 16.9326 -8.45678
9.51275 90000002100000722 90000002100000720 90000002100000733 90000002100000719 4.42803373661 -26.867 25.4822 -6.30537
9.54372 90000002100000720 90000002100000719 90000002100000733 90000002100000718 4.17683491473 -14.8972 26.8513 -14.4333
9.60381 90000002100000719 90000002100000718 90000002100000733 90000002100000717 4.00794511147 -21.6358 25.3817 -7.49803
9.68717 90000002100000718 90000002100000716 90000002100000733 90000002100000715 3.70877426464 -7.23174 31.2891 16.4249
9.74314 90000002100000716 90000002100000715 90000002100000733 90000002100000714 3.49086136926 -24.823 28.6519 -4.84416
9.81728 90000002100000715 90000002100000714 90000002100000733 90000002100000713 3.28303305796 -23.1592 26.3922 24.3496
9.86749 90000002100000714 90000002100000713 90000002100000733 90000002100000712 3.08482263583 -18.802 12.8527 15.5807
9.87972 90000002100000713 90000002100000712 90000002100000733 90000002100000711 3.00813107163 -15.2256 13.1649 19.841
9.89036 90000002100000712 90000002100000711 90000002100000733 90000002100000710 2.89578500573 -19.1616 14.3722 20.8921
10.0171 90000002100000711 90000002100000710 90000002100000733 90000002100000709 2.73314261732 -15.5395 -21.6504 0.0134542
10.043 90000002100000710 90000002100000709 90000002100000733 90000002100000708 2.5772902716 -8.71557 9.5484 2.16724
10.0652 90000002100000709 90000002100000708 90000002100000733 90000002100000707 2.44422570455 -1.51784 15.2966 -0.209328
10.1427 90000002100000708 90000002100000707 90000002100000733 90000002100000706 2.31611074396 -9.26332 -2.09551 -2.24387
10.1956 90000002100000707 90000002100000706 90000002100000733 90000002100000705 2.20792547238 -4.47834 10.7638 -10.9621
10.2545 90000002100000706 90000002100000705 90000002100000733 90000002100000704 2.1032696526 22.8493 51.9456 29.4817
10.2771 90000002100000705 90000002100000704 90000002100000733 90000002100000703 2.00202813925 29.6506 68.1185 47.9406
10.3576 90000002100000704 90000002100000703 90000002100000733 90000002100000702 1.90408954353 46.4566 110.301 95.52
10.4081 90000002100000703 90000002100000701 90000002100000733 90000002100000700 1.74357057433 54.4186 123.815 59.8792
10.4406 90000002100000701 90000002100000700 90000002100000733 90000002100000699 1.66666955611 52.5235 130.368 27.9931
10.455 90000002100000700 90000002100000699 90000002100000733 90000002100000698 1.60423452207 54.4519 113.274 35.0429
11.0266 90000002100000699 90000002100000692 90000002100000733 90000002100000691 1.20625808078 351.631 -47.2134 30.3788
11.0382 90000002100000692 90000002100000691 90000002100000733 90000002100000690 1.15460271236 371.176 -55.1184 26.2277
9.01614 90000002100000846 90000002100000845 90000002100000858 90000002100000844 4.66451770247 0.732253 -0.571765 -2.58425
9.05524 90000002100000845 90000002100000844 90000002100000858 90000002100000843 4.42803373661 0.872143 -4.4304 0.194198
9.09111 90000002100000844 90000002100000843 90000002100000858 90000002100000842 4.17683491473 -3.17464 -6.63329 -7.56183
9.17073 90000002100000843 90000002100000842 90000002100000858 90000002100000841 4.00794511147 -9.9362 -8.30111 -2.94474
9.21472 90000002100000842 90000002100000840 90000002100000858 90000002100000839 3.70877426464 -7.68535 -10.4056 -0.92451
9.23799 90000002100000840 90000002100000838 90000002100000858 90000002100000837 3.28303305796 -8.736 -10.341 -2.94225
9.31874 90000002100000838 90000002100000837 90000002100000858 90000002100000836 3.08482263583 -18.2329 -15.2642 1.41781
9.0316 90000002100000889 90000002100000888 90000002100000899 90000002100000887 2.73314261732 4.40161 1.79 -3.40077
9.2361 90000002100000888 90000002100000887 90000002100000899 90000002100000886 2.5772902716 5.90495 19.5229 -11.8086
9.2672 90000002100000887 90000002100000886 90000002100000899 90000002100000885 2.44422570455 7.54399 14.1681 -10.3949
9.27594 90000002100000886 90000002100000885 90000002100000899 90000002100000884 2.31611074396 6.71291 12.9703 -8.44886
9.32031 90000002100000885 90000002100000884 90000002100000899 90000002100000883 2.20792547238 14.3831 -5.25424 -27.1233
9.01614 90000002100000926 90000002100000925 90000002100000932 90000002100000924 2.44422570455 -1.28915 5.36075 0.945153
9.02855 90000002100000925 90000002100000923 90000002100000932 90000002100000922 2.20792547238 -6.03635 -2.96803 -9.26894
9.03763 90000002100000923 90000002100000922 90000002100000932 90000002100000921 2.1032696526 -3.22114 -0.283285 -9.88685
9.05524 90000002100000922 90000002100000920 90000002100000932 90000002100000919 1.90408954353 -3.1717 3.79949 -8.03518
9.05524 90000002100000920 90000002100000918 90000002100000932 90000002100000917 1.74357057433 -4.44794 -0.495171 -9.66754
9.08309 90000002100000918 90000002100000916 90000002100000932 90000002100000915 1.60423452207 -8.20734 0.759573 -9.41487
9.13154 90000002100000916 90000002100000915 90000002100000932 90000002100000914 1.53123902916 -9.06848 7.12028 -17.0601
9.05524 90000002100001047 90000002100001046 90000002100001059 90000002100001045 3.70877426464 5.47245 8.60575 29.3249
9.15273 90000002100001046 90000002100001045 90000002100001059 90000002100001044 3.49086136926 -1.1268 11.7126 26.8567
9.18589 90000002100001045 90000002100001044 90000002100001059 90000002100001043 3.28303305796 4.29135 7.04579 32.245
9.22457 90000002100001044 90000002100001043 90000002100001059 90000002100001042 3.08482263583 -4.82304 10.7312 31.0312
9.2672 90000002100001043 90000002100001042 90000002100001059 90000002100001041 3.00813107163 0.488775 14.5364 35.5745
9.30115 90000002100001042 90000002100001041 90000002100001059 90000002100001040 2.89578500573 -3.8052 12.2158 34.1996
9.34609 90000002100001041 90000002100001037 90000002100001059 90000002100001036 2.31611074396 6.51467 12.1618 29.9917
9.36763 90000002100001037 90000002100001036 90000002100001059 90000002100001035 2.20792547238 4.80967 12.0474 29.3409
9.37732 90000002100001036 90000002100001034 90000002100001059 90000002100001033 2.00202813925 -1.83285 16.6621 27.0625
9.38005 90000002100001034 90000002100001033 90000002100001059 90000002100001032 1.90408954353 5.25266 10.2049 22.3579
9.42281 90000002100001033 90000002100001031 90000002100001059 90000002100001030 1.74357057433 -4.91399 20.5495 26.1392
9.43015 90000002100001031 90000002100001030 90000002100001059 90000002100001029 1.66666955611 -5.25988 19.3622 28.3474
9.45145 90000002100001030 90000002100001029 90000002100001059 90000002100001028 1.60423452207 -2.68154 22.569 27.4842
9.45946 90000002100001029 90000002100001028 90000002100001059 90000002100001027 1.53123902916 -5.72802 24.0745 27.1949
9.0098 90000002100001274 90000002100001273 90000002100001288 90000002100001272 3.93726108473 -9.03148 0.477991 3.95474
9.11179 90000002100001273 90000002100001272 90000002100001288 90000002100001271 3.70877426464 -9.6521 4.72789 3.14441
9.11681 90000002100001272 90000002100001268 90000002100001288 90000002100001267 3.00813107163 -12.5447 4.19071 2.20423
9.1573 90000002100001440 90000002100001439 90000002100001446 90000002100001438 4.66451770247 3.9522 -9.76054 -4.79083
9.20055 90000002100001439 90000002100001438 90000002100001446 90000002100001437 4.42803373661 2.10209 -11.9158 3.78941
9.51873 90000002100001438 90000002100001437 90000002100001446 90000002100001436 4.17683491473 9.35889 10.9999 7.54289
9.63214 90000002100001437 90000002100001435 90000002100001446 90000002100001434 3.93726108473 13.6619 -3.97933 4.91944
9.69843 90000002100001435 90000002100001431 90000002100001446 90000002100001430 3.08482263583 10.2588 -5.19917 -1.17861
9.7336 90000002100001431 90000002100001428 90000002100001446 90000002100001427 2.73314261732 9.89517 2.83044 -5.93745
9.78902 90000002100001428 90000002100001427 90000002100001446 90000002100001426 2.5772902716 1.90523 13.8868 -7.25431
9.80312 90000002100001427 90000002100001426 90000002100001446 90000002100001425 2.44422570455 7.13946 1.56276 -6.43139
9.82124 90000002100001426 90000002100001421 90000002100001446 90000002100001420 1.90408954353 12.4678 24.6567 -3.92584
9.82517 90000002100001421 90000002100001420 90000002100001446 90000002100001419 1.82268925262 11.5091 17.1145 -6.21653
9.83531 90000002100001420 90000002100001418 90000002100001446 90000002100001417 1.66666955611 0.346541 11.1061 -12.7463
9.84194 90000002100001418 90000002100001417 90000002100001446 90000002100001416 1.60423452207 -7.0277 16.4348 -13.2245
9.85444 90000002100001417 90000002100001415 90000002100001446 90000002100001414 1.47197484527 -9.42315 5.67474 -16.9991
9.86304 90000002100001415 90000002100001414 90000002100001446 90000002100001413 1.41409822037 -6.39918 10.3232 -17.0672
9.87713 90000002100001414 90000002100001413 90000002100001446 90000002100001412 1.3575766674 -2.50566 17.0418 -9.76477
9.90402 90000002100001413 90000002100001412 90000002100001446 90000002100001411 1.30237845991 -4.0267 15.1153 -14.272
9.08038 90000002100001468 90000002100001467 90000002100001478 90000002100001466 4.00794511147 2.09271 -30.9656 -2.2248
