logMh | fpID | subhaloID | main leaf ID | descID |  z
9.0316 80000086000000096 80000086000000095 80000086000000098 80000086000000094 7.23627606617 -2.90941 -0.48932 6.35103
9.17946 80000086000000095 80000086000000094 80000086000000098 80000086000000093 7.00541704554 -1.93863 -1.46973 5.9982
9.31874 80000086000000094 80000086000000093 80000086000000098 80000086000000092 6.85511726265 -6.59568 -16.6186 5.19275
9.36763 80000086000000093 80000086000000092 80000086000000098 80000086000000091 6.49159774567 -6.29007 -17.2216 4.26999
9.49326 80000086000000092 80000086000000091 80000086000000098 80000086000000090 6.14490120342 -4.1333 -17.1236 2.00941
9.50872 80000086000000091 80000086000000090 80000086000000098 80000086000000089 6.01075739884 -4.89256 -14.8165 0.271021
9.53996 80000086000000090 80000086000000089 80000086000000098 80000086000000088 5.84661374788 -5.00777 -17.6953 -3.88925
9.60624 80000086000000089 80000086000000088 80000086000000098 80000086000000087 5.52976580795 -5.76425 -17.2051 -5.59766
9.71005 80000086000000088 80000086000000087 80000086000000098 80000086000000086 5.22758097313 -7.17273 -22.8833 -4.68695
9.78206 80000086000000087 80000086000000086 80000086000000098 80000086000000085 4.99593346816 -11.251 -30.8647 6.45146
9.81877 80000086000000086 80000086000000085 80000086000000098 80000086000000084 4.93938066349 -23.1438 -37.9419 8.10313
9.84661 80000086000000085 80000086000000084 80000086000000098 80000086000000083 4.66451770247 -20.7897 -34.7451 10.6285
9.87014 80000086000000084 80000086000000083 80000086000000098 80000086000000082 4.42803373661 -16.139 -37.8361 16.9067
9.90767 80000086000000083 80000086000000082 80000086000000098 80000086000000081 4.17683491473 -17.608 -40.7483 19.0973
9.94184 80000086000000082 80000086000000081 80000086000000098 80000086000000080 4.00794511147 -7.37323 -43.6888 22.1551
9.94851 80000086000000081 80000086000000080 80000086000000098 80000086000000079 3.93726108473 -8.50082 -46.8902 22.6314
10.2579 80000086000000080 80000086000000078 80000086000000098 80000086000000077 3.49086136926 -32.1759 -55.4078 44.5835
10.3297 80000086000000078 80000086000000077 80000086000000098 80000086000000076 3.28303305796 -28.2118 -45.2563 55.3725
10.4326 80000086000000077 80000086000000076 80000086000000098 80000086000000075 3.08482263583 -29.2876 -33.3238 49.0639
10.474 80000086000000076 80000086000000075 80000086000000098 80000086000000074 3.00813107163 -52.4409 -45.6115 30.9653
10.5326 80000086000000075 80000086000000074 80000086000000098 80000086000000073 2.89578500573 -61.3327 -63.4508 14.2133
10.6861 80000086000000074 80000086000000073 80000086000000098 80000086000000072 2.73314261732 -128.377 -166.863 -31.1458
10.715 80000086000000073 80000086000000072 80000086000000098 80000086000000071 2.5772902716 -111.804 -208.958 -48.6015
10.7317 80000086000000072 80000086000000071 80000086000000098 80000086000000070 2.44422570455 -118.273 -209.078 -27.248
10.8144 80000086000000071 80000086000000070 80000086000000098 80000086000000069 2.31611074396 -93.9979 -237.147 -11.5805
10.8298 80000086000000070 80000086000000069 80000086000000098 80000086000000068 2.20792547238 -62.9147 -272.316 0.26019
10.883 80000086000000069 80000086000000068 80000086000000098 80000086000000067 2.1032696526 -79.5918 -257.609 26.0188
10.9073 80000086000000068 80000086000000064 80000086000000098 80000086000000063 1.74357057433 -53.3883 -352.977 -1.69741
10.9277 80000086000000064 80000086000000063 80000086000000098 80000086000000062 1.66666955611 -113.54 -258.634 -8.25695
10.9431 80000086000000063 80000086000000062 80000086000000098 80000086000000061 1.60423452207 -106.191 -252.733 -12.8443
10.967 80000086000000062 80000086000000059 80000086000000098 80000086000000058 1.41409822037 -190.731 -197.246 -26.7025
10.9819 80000086000000059 80000086000000058 80000086000000098 80000086000000057 1.3575766674 -176.981 -180.018 -27.3192
11.0223 80000086000000058 80000086000000057 80000086000000098 80000086000000056 1.30237845991 -249.016 -109.738 -81.3418
11.0494 80000086000000057 80000086000000056 80000086000000098 80000086000000055 1.24847261425 -248.366 -71.7775 -32.0614
11.0689 80000086000000056 80000086000000055 80000086000000098 80000086000000054 1.20625808078 -241.913 -88.8469 -87.8725
11.0757 80000086000000055 80000086000000054 80000086000000098 80000086000000053 1.15460271236 -235.096 -109.427 -55.8263
11.0787 80000086000000054 80000086000000053 80000086000000098 80000086000000052 1.11415056377 -223.618 -110.464 -60.6136
11.1276 80000086000000053 80000086000000052 80000086000000098 80000086000000051 1.07445789455 -268.307 -26.5166 -110.701
11.2028 80000086000000052 80000086000000051 80000086000000098 80000086000000050 1.03551044566 -284.88 112.02 -282.902
11.235 80000086000000051 80000086000000050 80000086000000098 80000086000000049 0.997294225782 -231.969 131.121 -263.896
11.2566 80000086000000050 80000086000000048 80000086000000098 80000086000000047 0.950531351585 -190.743 118.418 -277.205
11.2665 80000086000000048 80000086000000047 80000086000000098 80000086000000046 0.923000816178 -215.856 131.703 -298.037
11.3144 80000086000000047 80000086000000046 80000086000000098 80000086000000045 0.886896937575 -229.488 205.08 -402.888
11.3327 80000086000000046 80000086000000045 80000086000000098 80000086000000044 0.851470900625 -204.506 240.881 -384.601
11.3564 80000086000000045 80000086000000044 80000086000000098 80000086000000043 0.816709979012 -183.475 281.059 -390.727
11.3819 80000086000000044 80000086000000043 80000086000000098 80000086000000042 0.791068248946 -174.373 307.412 -386.288
11.4099 80000086000000043 80000086000000042 80000086000000098 80000086000000041 0.757441372616 -171.012 336.183 -432.11
11.4195 80000086000000042 80000086000000041 80000086000000098 80000086000000040 0.732636182022 -154.021 341.94 -422.982
11.4275 80000086000000041 80000086000000040 80000086000000098 80000086000000039 0.700106353719 -155.053 355.264 -422.725
11.4338 80000086000000040 80000086000000037 80000086000000098 80000086000000036 0.621428745243 -148.538 298.424 -412.501
11.4419 80000086000000037 80000086000000036 80000086000000098 80000086000000035 0.598543288188 -148.627 302.079 -427.627
11.4535 80000086000000036 80000086000000035 80000086000000098 80000086000000034 0.575980845108 -138.338 318.905 -425.594
11.4696 80000086000000035 80000086000000034 80000086000000098 80000086000000033 0.546392183141 -110.426 281.757 -436.833
11.4764 80000086000000034 80000086000000033 80000086000000098 80000086000000032 0.524565820434 -92.872 261.04 -440.908
11.4849 80000086000000033 80000086000000032 80000086000000098 80000086000000031 0.503047523245 -91.035 258.464 -459.016
11.485 80000086000000032 80000086000000031 80000086000000098 80000086000000030 0.481832943421 -79.7453 202.579 -448.845
11.4916 80000086000000031 80000086000000030 80000086000000098 80000086000000029 0.460917794181 -62.4619 225.109 -469.818
11.4953 80000086000000030 80000086000000029 80000086000000098 80000086000000028 0.440297849248 -49.0481 184.267 -478.661
11.5114 80000086000000029 80000086000000026 80000086000000098 80000086000000025 0.38016786726 4.08116 127.382 -451.771
11.5124 80000086000000026 80000086000000024 80000086000000098 80000086000000023 0.347853841858 -14.3849 87.8871 -464.956
11.5181 80000086000000024 80000086000000020 80000086000000098 80000086000000019 0.273353346578 24.3264 143.083 -420.179
11.5254 80000086000000020 80000086000000019 80000086000000098 80000086000000018 0.261343256161 35.8944 135.085 -432.652
11.5298 80000086000000019 80000086000000018 80000086000000098 80000086000000017 0.243540181555 53.3888 135.087 -444.292
11.536 80000086000000018 80000086000000017 80000086000000098 80000086000000016 0.22598838626 65.4289 142.219 -451.967
11.5381 80000086000000017 80000086000000016 80000086000000098 80000086000000015 0.214425035514 49.8715 152.156 -456.641
11.5495 80000086000000016 80000086000000015 80000086000000098 80000086000000014 0.197284182376 77.0796 135.766 -456.104
11.5542 80000086000000015 80000086000000014 80000086000000098 80000086000000013 0.180385261706 70.6921 136.681 -473.766
11.5564 80000086000000014 80000086000000012 80000086000000098 80000086000000011 0.152748768902 85.8018 142.651 -483.693
11.5599 80000086000000012 80000086000000010 80000086000000098 80000086000000009 0.125759332411 101.879 64.8022 -495.592
11.5694 80000086000000010 80000086000000009 80000086000000098 80000086000000008 0.109869940459 125.961 0.646545 -509.019
11.5757 80000086000000009 80000086000000008 80000086000000098 80000086000000007 0.0994018026302 144.435 -89.731 -549.494
11.5798 80000086000000008 80000086000000006 80000086000000098 80000086000000005 0.0736613846564 153.891 -95.4689 -488.787
11.5832 80000086000000006 80000086000000005 80000086000000098 80000086000000004 0.0585073227945 153.092 -133.791 -483.832
11.5845 80000086000000005 80000086000000004 80000086000000098 80000086000000003 0.0485236299818 168.117 -135.621 -514.917
11.5925 80000086000000004 80000086000000003 80000086000000098 80000086000000002 0.0337243718735 176.668 -195.761 -506.181
11.595 80000086000000003 80000086000000002 80000086000000098 80000086000000001 0.0239744283828 172.83 -175.168 -517.542
11.6013 80000086000000002 80000086000000000 80000086000000098 -1 2.22044604925e-16 205.765 -214.819 -543.458
9.01928 80000086000000182 80000086000000181 80000086000000192 80000086000000180 6.49159774567 7.41979 5.18451 -1.72778
9.15502 80000086000000181 80000086000000180 80000086000000192 80000086000000179 6.14490120342 10.5636 -0.115342 2.53324
9.23988 80000086000000180 80000086000000179 80000086000000192 80000086000000178 6.01075739884 7.47029 5.21725 -1.47665
9.23988 80000086000000179 80000086000000177 80000086000000192 80000086000000176 5.52976580795 5.10919 4.64508 -1.6767
9.34016 80000086000000177 80000086000000176 80000086000000192 80000086000000175 5.22758097313 4.63609 16.9947 -10.2407
9.40131 80000086000000176 80000086000000173 80000086000000192 80000086000000172 4.66451770247 10.6364 19.9812 -9.31259
9.44329 80000086000000173 80000086000000172 80000086000000192 80000086000000171 4.42803373661 5.10128 13.7473 -5.80968
9.47176 80000086000000172 80000086000000171 80000086000000192 80000086000000170 4.17683491473 5.74083 15.0591 -6.34064
10.1327 80000086000000210 80000086000000209 80000086000000210 80000086000000167 3.70877426464 1.80648 -60.2833 24.5559
9.10671 80000086000000268 80000086000000267 80000086000000277 80000086000000266 3.49086136926 -5.28713 2.93219 -4.99005
9.1573 80000086000000267 80000086000000266 80000086000000277 80000086000000265 3.28303305796 -1.84913 3.49293 1.66703
9.21072 80000086000000266 80000086000000265 80000086000000277 80000086000000264 3.08482263583 -3.5852 -0.537986 4.1398
9.21272 80000086000000265 80000086000000264 80000086000000277 80000086000000263 3.00813107163 -5.70218 3.86302 -1.63842
9.26365 80000086000000264 80000086000000262 80000086000000277 80000086000000261 2.73314261732 1.75137 3.97391 -0.233087
9.2828 80000086000000262 80000086000000261 80000086000000277 80000086000000260 2.5772902716 2.37598 3.40225 -0.348038
9.0066 80000086000000303 80000086000000302 80000086000000310 80000086000000301 3.49086136926 2.60283 3.01594 1.94997
9.04358 80000086000000302 80000086000000301 80000086000000310 80000086000000300 3.28303305796 3.48805 -0.243354 3.92235
9.07492 80000086000000301 80000086000000300 80000086000000310 80000086000000299 3.08482263583 2.04068 0.879552 2.08503
9.08309 80000086000000300 80000086000000299 80000086000000310 80000086000000298 3.00813107163 4.18733 0.966544 3.00887
9.09898 80000086000000299 80000086000000298 80000086000000310 80000086000000297 2.89578500573 7.20596 3.83099 2.68004
9.13871 80000086000000375 80000086000000374 80000086000000379 80000086000000373 6.14490120342 5.39729 3.28646 3.08856
9.23988 80000086000000374 80000086000000372 80000086000000379 80000086000000371 5.84661374788 4.91198 6.49937 3.52005
9.42157 80000086000000372 80000086000000370 80000086000000379 80000086000000369 5.22758097313 8.37764 -1.52453 4.35677
9.4651 80000086000000370 80000086000000369 80000086000000379 80000086000000368 4.99593346816 8.66329 -1.52052 5.56609
9.46844 80000086000000369 80000086000000368 80000086000000379 80000086000000367 4.93938066349 7.0953 -1.72575 7.49072
9.56468 80000086000000368 80000086000000367 80000086000000379 80000086000000366 4.66451770247 10.4883 -0.910906 -1.56686
9.58127 80000086000000367 80000086000000366 80000086000000379 80000086000000365 4.42803373661 12.8307 0.712555 1.60094
9.59477 80000086000000366 80000086000000364 80000086000000379 80000086000000363 4.00794511147 5.97384 2.77335 -0.728013
9.63214 80000086000000364 80000086000000363 80000086000000379 80000086000000362 3.93726108473 9.64308 7.62211 0.244858
9.64342 80000086000000363 80000086000000362 80000086000000379 80000086000000361 3.70877426464 9.21604 7.9392 5.19507
9.69184 80000086000000362 80000086000000361 80000086000000379 80000086000000360 3.49086136926 12.8072 5.32231 10.7399
9.78314 80000086000000361 80000086000000360 80000086000000379 80000086000000359 3.28303305796 9.73074 16.9341 8.98844
9.84334 80000086000000360 80000086000000359 80000086000000379 80000086000000358 3.08482263583 12.2774 21.7053 9.76641
9.31717 80000086000000381 80000086000000380 80000086000000388 80000086000000370 5.52976580795 11.4927 -1.21078 7.58183
9.0666 80000086000000427 80000086000000426 80000086000000436 80000086000000425 5.52976580795 -5.88913 -2.51478 -15.9317
9.14578 80000086000000426 80000086000000424 80000086000000436 80000086000000423 4.99593346816 -5.95431 -1.32002 -11.6094
9.14811 80000086000000424 80000086000000423 80000086000000436 80000086000000422 4.93938066349 -4.93093 -3.32866 -12.143
9.19641 80000086000000423 80000086000000422 80000086000000436 80000086000000421 4.66451770247 -6.21664 -2.75371 -10.8311
9.34461 80000086000000422 80000086000000421 80000086000000436 80000086000000420 4.42803373661 -12.2236 0.173679 -13.6538
9.37457 80000086000000421 80000086000000419 80000086000000436 80000086000000418 4.00794511147 -8.22345 -1.67496 -11.484
9.40131 80000086000000419 80000086000000418 80000086000000436 80000086000000417 3.93726108473 -10.8556 -8.50405 -9.2408
9.41156 80000086000000418 80000086000000417 80000086000000436 80000086000000416 3.70877426464 -9.65961 -4.06465 -8.76618
9.45261 80000086000000417 80000086000000416 80000086000000436 80000086000000415 3.49086136926 -7.6362 -3.86916 -9.58854
9.14108 80000086000000479 80000086000000478 80000086000000489 80000086000000477 4.99593346816 -30.0497 10.328 -5.98493
9.17729 80000086000000478 80000086000000475 80000086000000489 80000086000000474 4.42803373661 -23.7352 6.95035 -7.49132
9.17729 80000086000000475 80000086000000474 80000086000000489 80000086000000473 4.17683491473 -18.6 5.16538 -8.3121
9.22457 80000086000000474 80000086000000473 80000086000000489 80000086000000472 4.00794511147 -15.0116 5.11785 -9.43043
9.22651 80000086000000473 80000086000000472 80000086000000489 80000086000000471 3.93726108473 -17.6768 2.91953 -9.22819
9.25648 80000086000000472 80000086000000470 80000086000000489 80000086000000469 3.49086136926 -20.517 6.85102 -8.19303
9.0316 80000086000000593 80000086000000592 80000086000000599 80000086000000591 6.01075739884 11.3851 -5.36671 13.9972
9.13394 80000086000000592 80000086000000590 80000086000000599 80000086000000589 5.52976580795 14.1439 -12.5501 13.4175
9.19433 80000086000000590 80000086000000589 80000086000000599 80000086000000588 5.22758097313 16.251 -11.9911 14.3798
9.21671 80000086000000589 80000086000000588 80000086000000599 80000086000000587 4.99593346816 11.7367 -11.3653 10.876
9.23037 80000086000000588 80000086000000587 80000086000000599 80000086000000586 4.93938066349 8.68744 -12.2179 11.116
9.2929 80000086000000587 80000086000000586 80000086000000599 80000086000000585 4.66451770247 6.61723 -7.04901 10.3277
9.40389 80000086000000586 80000086000000585 80000086000000599 80000086000000584 4.42803373661 9.01142 4.86983 3.3047
9.51175 80000086000000585 80000086000000584 80000086000000599 80000086000000583 4.17683491473 0.675747 -12.6611 -6.47377
9.60705 80000086000000584 80000086000000583 80000086000000599 80000086000000582 4.00794511147 -9.08051 25.4934 -8.1933
9.7336 80000086000000583 80000086000000580 80000086000000599 80000086000000579 3.49086136926 -16.21 38.2074 -9.47817
9.75479 80000086000000580 80000086000000579 80000086000000599 80000086000000578 3.28303305796 -0.828433 7.86773 -7.64891
9.83435 80000086000000579 80000086000000578 80000086000000599 80000086000000577 3.08482263583 8.33939 -8.06502 1.01891
9.10671 80000086000000628 80000086000000627 80000086000000637 80000086000000626 5.52976580795 8.68478 4.12477 6.11446
9.22066 80000086000000627 80000086000000623 80000086000000637 80000086000000622 4.66451770247 10.295 0.554094 8.28336
9.22262 80000086000000623 80000086000000622 80000086000000637 80000086000000621 4.42803373661 9.35875 1.61961 4.97689
9.2845 80000086000000622 80000086000000621 80000086000000637 80000086000000620 4.17683491473 11.9551 4.46851 6.2291
9.33263 80000086000000621 80000086000000620 80000086000000637 80000086000000619 4.00794511147 12.8323 -1.48485 9.35315
9.35627 80000086000000620 80000086000000619 80000086000000637 80000086000000618 3.93726108473 13.0093 6.22342 6.95055
9.37869 80000086000000619 80000086000000618 80000086000000637 80000086000000617 3.70877426464 10.3707 4.22522 11.2714
9.14578 80000086000000888 80000086000000887 80000086000000900 80000086000000886 4.66451770247 -1.42499 7.50476 1.67251
9.17512 80000086000000887 80000086000000886 80000086000000900 80000086000000885 4.42803373661 -0.628345 8.82599 3.14789
9.22262 80000086000000886 80000086000000885 80000086000000900 80000086000000884 4.17683491473 2.78828 8.79494 0.770116
9.22262 80000086000000885 80000086000000884 80000086000000900 80000086000000883 4.00794511147 2.47867 10.8258 1.7792
9.2361 80000086000000884 80000086000000883 80000086000000900 80000086000000882 3.93726108473 1.45575 10.9761 0.808401
9.24362 80000086000000883 80000086000000882 80000086000000900 80000086000000881 3.70877426464 0.319101 10.4702 0.511036
9.27072 80000086000000882 80000086000000880 80000086000000900 80000086000000879 3.28303305796 -3.74344 14.0614 6.59164
9.27766 80000086000000880 80000086000000879 80000086000000900 80000086000000878 3.08482263583 -4.25907 10.8953 5.51288
9.28956 80000086000000879 80000086000000876 80000086000000900 80000086000000875 2.73314261732 -4.19242 11.7962 10.262
9.06939 80000086000000939 80000086000000938 80000086000000956 80000086000000937 3.70877426464 -5.28587 7.35186 12.7648
9.10415 80000086000000938 80000086000000937 80000086000000956 80000086000000936 3.49086136926 -2.41655 6.21979 9.90718
9.13154 80000086000000937 80000086000000935 80000086000000956 80000086000000934 3.08482263583 1.19343 4.99845 10.966
9.13154 80000086000000935 80000086000000933 80000086000000956 80000086000000932 2.89578500573 -0.658898 3.91136 9.58935
9.13871 80000086000000933 80000086000000932 80000086000000956 80000086000000931 2.73314261732 -2.14723 5.97836 8.45115
9.15502 80000086000000932 80000086000000931 80000086000000956 80000086000000930 2.5772902716 -2.69455 2.17635 6.01228
9.15956 80000086000000931 80000086000000930 80000086000000956 80000086000000929 2.44422570455 -5.20394 3.72709 10.1308
9.2087 80000086000000930 80000086000000929 80000086000000956 80000086000000928 2.31611074396 -1.40032 10.0033 10.3851
9.01614 80000086000001000 80000086000000999 80000086000001012 80000086000000998 5.84661374788 0.921381 3.38014 -7.50509
9.09898 80000086000000999 80000086000000998 80000086000001012 80000086000000997 5.52976580795 4.11457 1.69589 -5.75143
9.14108 80000086000000998 80000086000000997 80000086000001012 80000086000000996 5.22758097313 2.40792 1.72354 -8.7719
9.17293 80000086000000997 80000086000000996 80000086000001012 80000086000000995 4.99593346816 2.29297 5.22665 -10.3119
9.24733 80000086000000996 80000086000000994 80000086000001012 80000086000000993 4.66451770247 -0.25925 7.5384 -9.66076
9.2862 80000086000000994 80000086000000988 80000086000001012 80000086000000987 3.49086136926 2.16125 2.72007 -11.2408
9.09898 80000086000001262 80000086000001261 80000086000001267 80000086000001260 4.17683491473 -14.7397 8.75673 30.0037
9.13871 80000086000001261 80000086000001259 80000086000001267 80000086000001258 3.93726108473 -11.7062 4.72764 26.7404
9.24733 80000086000001259 80000086000001258 80000086000001267 80000086000001257 3.70877426464 -10.3974 15.4566 7.65263
9.29622 80000086000001258 80000086000001257 80000086000001267 80000086000001256 3.49086136926 -5.61083 16.1543 6.26539
9.0098 80000086000001376 80000086000001375 80000086000001393 80000086000001374 3.08482263583 -0.0467374 -0.289703 3.41248
9.03463 80000086000001375 80000086000001373 80000086000001393 80000086000001372 2.89578500573 -1.58706 3.01815 3.78812
9.14811 80000086000001461 80000086000001460 80000086000001473 80000086000001459 3.70877426464 13.5365 7.01134 1.30743
9.21869 80000086000001460 80000086000001459 80000086000001473 80000086000001458 3.49086136926 1.39861 2.06532 -4.1422
9.25648 80000086000001459 80000086000001458 80000086000001473 80000086000001457 3.28303305796 0.28578 4.32458 -3.63805
9.2672 80000086000001458 80000086000001457 80000086000001473 80000086000001456 3.08482263583 -2.32456 7.57646 -6.05144
9.2828 80000086000001457 80000086000001456 80000086000001473 80000086000001455 3.00813107163 -2.18174 5.20977 -1.63531
9.30115 80000086000001456 80000086000001455 80000086000001473 80000086000001454 2.89578500573 -1.37565 3.315 -0.373845
9.42649 80000086000001455 80000086000001451 80000086000001473 80000086000001450 2.31611074396 28.9452 59.9642 -20.9829
9.00012 80000086000001582 80000086000001581 80000086000001590 80000086000001580 8.9079991856 -1.30434 -0.66296 -1.51273
9.08309 80000086000001581 80000086000001580 80000086000001590 80000086000001579 8.44947629437 4.01716 3.1024 0.544889
9.17729 80000086000001580 80000086000001579 80000086000001590 80000086000001578 8.01217294887 0.821288 3.20098 -5.24979
9.21869 80000086000001579 80000086000001578 80000086000001590 80000086000001577 7.59510714987 -1.47907 0.458711 -5.06782
9.23037 80000086000001578 80000086000001577 80000086000001590 80000086000001576 7.23627606617 -1.70683 0.264682 -5.34949
9.23229 80000086000001577 80000086000001576 80000086000001590 80000086000001575 7.00541704554 -1.61646 0.307091 -5.18479
9.23229 80000086000001576 80000086000001575 80000086000001590 80000086000001574 6.85511726265 -2.73081 -0.0123765 -5.9278
9.26365 80000086000001575 80000086000001574 80000086000001590 80000086000001573 6.49159774567 -1.4933 -1.77773 -6.61572
9.33415 80000086000001574 80000086000001573 80000086000001590 80000086000001572 6.14490120342 -3.71718 -1.38315 -7.60169
9.40518 80000086000001573 80000086000001570 80000086000001590 80000086000001569 5.52976580795 -2.39858 -6.01009 -2.70722
9.42527 80000086000001570 80000086000001568 80000086000001590 80000086000001567 4.99593346816 -9.92772 -3.49489 -7.25869
9.43974 80000086000001568 80000086000001567 80000086000001590 80000086000001566 4.93938066349 -11.0135 -2.96898 -8.53516
9.4651 80000086000001567 80000086000001566 80000086000001590 80000086000001565 4.66451770247 -9.97354 -4.02439 -9.52637
9.50567 80000086000001566 80000086000001565 80000086000001590 80000086000001564 4.42803373661 -4.32666 -0.989723 -5.19067
9.56735 80000086000001565 80000086000001561 80000086000001590 80000086000001560 3.70877426464 -3.64927 3.01293 -4.5991
9.59059 80000086000001561 80000086000001560 80000086000001590 80000086000001559 3.49086136926 -0.346256 -5.30582 -8.75254
9.63819 80000086000001560 80000086000001559 80000086000001590 80000086000001558 3.28303305796 -1.12137 -3.22774 -8.32789
9.67835 80000086000001559 80000086000001558 80000086000001590 80000086000001557 3.08482263583 -3.42075 -9.07737 -8.7224
9.7354 80000086000001558 80000086000001556 80000086000001590 80000086000001555 2.89578500573 -3.66379 -10.1496 -9.17806
9.74137 80000086000001556 80000086000001555 80000086000001590 80000086000001554 2.73314261732 -1.15434 -7.47199 -4.21195
9.75306 80000086000001555 80000086000001554 80000086000001590 80000086000001553 2.5772902716 0.806788 -6.57066 -8.60472
9.75765 80000086000001554 80000086000001553 80000086000001590 80000086000001552 2.44422570455 -0.578899 -9.57349 -7.95406
9.79899 80000086000001553 80000086000001552 80000086000001590 80000086000001551 2.31611074396 5.49136 -13.6445 -7.81765
9.83291 80000086000001552 80000086000001551 80000086000001590 80000086000001550 2.20792547238 -4.89198 -13.9519 -12.9974
9.09375 80000086000001764 80000086000001763 80000086000001775 80000086000001762 3.70877426464 4.91576 1.79455 -9.31514
9.09637 80000086000001763 80000086000001762 80000086000001775 80000086000001761 3.49086136926 8.15924 0.471523 -5.05323
9.14108 80000086000001762 80000086000001761 80000086000001775 80000086000001760 3.28303305796 9.47198 0.437504 -1.5004
9.15273 80000086000001761 80000086000001760 80000086000001775 80000086000001759 3.08482263583 8.73601 1.33307 -2.56696
9.15956 80000086000001760 80000086000001759 80000086000001775 80000086000001758 3.00813107163 7.57118 3.58657 -3.21299
9.21671 80000086000001759 80000086000001758 80000086000001775 80000086000001757 2.89578500573 7.03723 1.06675 -5.27475
9.23037 80000086000001758 80000086000001757 80000086000001775 80000086000001756 2.73314261732 13.7634 9.6732 -7.60974
9.23229 80000086000001757 80000086000001756 80000086000001775 80000086000001755 2.5772902716 12.7229 6.18478 -5.92308
9.29951 80000086000001756 80000086000001755 80000086000001775 80000086000001754 2.44422570455 12.1397 2.11128 -3.93033
9.32187 80000086000001755 80000086000001754 80000086000001775 80000086000001753 2.31611074396 11.9973 4.06387 -4.51524
9.34016 80000086000001754 80000086000001753 80000086000001775 80000086000001752 2.20792547238 11.248 5.17241 -4.18882
9.02548 80000086000001919 80000086000001918 80000086000001923 80000086000001917 9.38877127194 4.18366 0.48054 2.13455
9.10415 80000086000001918 80000086000001917 80000086000001923 80000086000001916 9.00233985416 2.10077 2.32355 0.124444
9.11179 80000086000001917 80000086000001916 80000086000001923 80000086000001915 8.9079991856 2.21372 -0.229102 0.515898
9.16182 80000086000001916 80000086000001915 80000086000001923 80000086000001914 8.44947629437 0.401022 1.83207 -0.0922951
9.2087 80000086000001915 80000086000001914 80000086000001923 80000086000001913 8.01217294887 1.36272 2.01077 0.22339
9.25466 80000086000001914 80000086000001913 80000086000001923 80000086000001912 7.59510714987 5.2211 2.34493 -2.94442
9.37869 80000086000001913 80000086000001912 80000086000001923 80000086000001911 7.23627606617 -0.674328 2.60465 -1.05994
9.40646 80000086000001912 80000086000001910 80000086000001923 80000086000001909 6.85511726265 1.39232 2.19079 -3.1155
9.48049 80000086000001910 80000086000001909 80000086000001923 80000086000001908 6.49159774567 -9.04743 5.11001 -13.4176
9.51074 80000086000001909 80000086000001908 80000086000001923 80000086000001907 6.14490120342 -3.6989 -4.39267 -11.3336
9.52948 80000086000001908 80000086000001907 80000086000001923 80000086000001906 6.01075739884 -4.27705 -3.69887 -10.0492
9.57783 80000086000001907 80000086000001906 80000086000001923 80000086000001905 5.84661374788 1.15647 -5.28372 -12.3166
9.65005 80000086000001906 80000086000001905 80000086000001923 80000086000001904 5.52976580795 -4.17416 3.46528 -19.2786
9.67353 80000086000001905 80000086000001904 80000086000001923 80000086000001903 5.22758097313 -0.145746 -1.98835 -19.3911
9.67835 80000086000001904 80000086000001903 80000086000001923 80000086000001902 4.99593346816 3.78184 2.0002 -20.6368
9.67904 80000086000001903 80000086000001902 80000086000001923 80000086000001901 4.93938066349 2.34488 5.41672 -17.6666
9.78475 80000086000001902 80000086000001901 80000086000001923 80000086000001900 4.66451770247 3.05785 15.1162 -13.9141
9.81976 80000086000001901 80000086000001900 80000086000001923 80000086000001899 4.42803373661 9.13638 26.1251 -15.9001
9.84099 80000086000001900 80000086000001899 80000086000001923 80000086000001898 4.17683491473 14.4106 28.0156 -16.0976
9.91766 80000086000001899 80000086000001898 80000086000001923 80000086000001897 4.00794511147 26.5607 44.7063 -23.9901
9.94704 80000086000001898 80000086000001897 80000086000001923 80000086000001896 3.93726108473 15.7263 35.697 -16.3875
10.0866 80000086000001897 80000086000001896 80000086000001923 80000086000001895 3.70877426464 61.3168 51.8262 -8.53627
10.2145 80000086000001896 80000086000001895 80000086000001923 80000086000001894 3.49086136926 46.45 69.8821 -2.95345
10.2431 80000086000001895 80000086000001894 80000086000001923 80000086000001893 3.28303305796 39.6809 64.4133 -1.84153
10.3016 80000086000001894 80000086000001893 80000086000001923 80000086000001892 3.08482263583 44.5379 62.4266 -4.01144
10.3161 80000086000001893 80000086000001891 80000086000001923 80000086000001890 2.89578500573 33.448 59.7545 -13.7266
10.3236 80000086000001891 80000086000001882 80000086000001923 80000086000001881 1.82268925262 23.7168 69.0276 -1.96075
10.3515 80000086000001882 80000086000001881 80000086000001923 80000086000001880 1.74357057433 32.8514 64.8925 10.2206
10.3553 80000086000001881 80000086000001879 80000086000001923 80000086000001878 1.60423452207 13.2839 65.316 2.26479
10.3911 80000086000001879 80000086000001878 80000086000001923 80000086000001877 1.53123902916 24.9499 59.9029 4.77073
10.4004 80000086000001878 80000086000001877 80000086000001923 80000086000001876 1.47197484527 31.2189 59.0168 -4.31422
9.11179 80000086000002006 80000086000002005 80000086000002019 80000086000002004 6.14490120342 6.08858 -0.979219 -1.30531
9.19848 80000086000002005 80000086000002002 80000086000002019 80000086000002001 5.52976580795 5.95185 1.18264 0.358431
9.22651 80000086000002002 80000086000002000 80000086000002019 80000086000001999 4.99593346816 6.0734 -0.114618 -0.57329
9.22651 80000086000002000 80000086000001999 80000086000002019 80000086000001998 4.93938066349 5.71749 -0.487597 -1.03742
9.2342 80000086000001999 80000086000001998 80000086000002019 80000086000001997 4.66451770247 5.55747 -0.540401 -0.223108
9.27072 80000086000001998 80000086000001997 80000086000002019 80000086000001996 4.42803373661 8.39767 0.573916 -0.328099
9.32805 80000086000001997 80000086000001996 80000086000002019 80000086000001995 4.17683491473 6.70661 1.24905 4.93125
9.37457 80000086000001996 80000086000001995 80000086000002019 80000086000001994 4.00794511147 6.62712 -13.5291 8.12484
9.02548 80000086000002039 80000086000002038 80000086000002048 80000086000002037 7.00541704554 4.37947 -1.47553 6.32438
9.16407 80000086000002038 80000086000002028 80000086000002048 80000086000002027 4.66451770247 7.59032 3.0509 7.00973
9.20668 80000086000002028 80000086000002027 80000086000002048 80000086000002026 4.42803373661 2.22641 5.47644 1.82654
9.21869 80000086000002027 80000086000002026 80000086000002048 80000086000002025 4.17683491473 2.33951 6.26506 0.622943
9.27938 80000086000002026 80000086000002025 80000086000002048 80000086000002024 4.00794511147 2.12341 1.89228 1.4879
9.22457 80000086000002120 80000086000002119 80000086000002131 80000086000002118 6.85511726265 -0.882556 -19.9007 2.00874
9.39609 80000086000002119 80000086000002118 80000086000002131 80000086000002117 6.49159774567 6.39139 -4.99655 -21.8377
9.5256 80000086000002118 80000086000002117 80000086000002131 80000086000002116 6.14490120342 3.24592 6.02431 -17.7445
9.59477 80000086000002117 80000086000002116 80000086000002131 80000086000002115 6.01075739884 1.29228 4.87779 -18.2087
9.61346 80000086000002116 80000086000002115 80000086000002131 80000086000002114 5.84661374788 1.48444 3.21073 -20.5289
9.717 80000086000002115 80000086000002114 80000086000002131 80000086000002113 5.52976580795 -0.708148 -9.07786 -18.1965
9.78044 80000086000002114 80000086000002112 80000086000002131 80000086000002111 4.99593346816 -2.96398 -8.66103 -15.0371
9.85899 80000086000002112 80000086000002110 80000086000002131 80000086000002109 4.66451770247 -7.57555 -42.8109 -32.2695
9.89869 80000086000002110 80000086000002109 80000086000002131 80000086000002108 4.42803373661 7.09939 -24.5455 -18.0748
10.023 80000086000002109 80000086000002108 80000086000002131 80000086000002107 4.17683491473 21.8445 21.7871 14.6974
10.0618 80000086000002108 80000086000002107 80000086000002131 80000086000002106 4.00794511147 18.0291 15.2405 18.3837
10.0727 80000086000002107 80000086000002106 80000086000002131 80000086000002105 3.93726108473 10.1991 5.76551 18.696
10.0961 80000086000002106 80000086000002105 80000086000002131 80000086000002104 3.70877426464 19.2934 10.4549 38.358
10.1173 80000086000002105 80000086000002104 80000086000002131 80000086000002103 3.49086136926 35.9305 5.04964 44.9175
10.1458 80000086000002104 80000086000002103 80000086000002131 80000086000002102 3.28303305796 38.1284 -12.4576 37.0356
10.1736 80000086000002103 80000086000002102 80000086000002131 80000086000002101 3.08482263583 37.0827 -6.356 43.481
10.1769 80000086000002102 80000086000002091 80000086000002131 80000086000002090 1.82268925262 43.0482 -7.27009 24.3555
10.1977 80000086000002091 80000086000002090 80000086000002131 80000086000002089 1.74357057433 43.0688 -5.55743 20.1272
10.2163 80000086000002090 80000086000002089 80000086000002131 80000086000002088 1.66666955611 49.45 -6.27689 18.0415
10.2325 80000086000002089 80000086000002088 80000086000002131 80000086000002087 1.60423452207 49.5144 -8.65932 22.8281
10.2594 80000086000002088 80000086000002087 80000086000002131 80000086000002086 1.53123902916 44.0853 -11.902 23.8132
10.2638 80000086000002087 80000086000002086 80000086000002131 80000086000002085 1.47197484527 43.4707 1.65422 27.762
10.2789 80000086000002086 80000086000002085 80000086000002131 80000086000002084 1.41409822037 49.3198 -10.0508 21.0641
10.2854 80000086000002085 80000086000002084 80000086000002131 80000086000002083 1.3575766674 39.8128 -5.97912 20.4432
10.3088 80000086000002084 80000086000002083 80000086000002131 80000086000002082 1.30237845991 53.0152 -10.2129 20.7727
10.322 80000086000002083 80000086000002082 80000086000002131 80000086000002081 1.24847261425 46.9566 -13.2804 8.25222
10.3326 80000086000002082 80000086000002081 80000086000002131 80000086000002080 1.20625808078 37.2627 -8.0245 1.64243
10.3406 80000086000002081 80000086000002080 80000086000002131 80000086000002079 1.15460271236 37.1961 -4.83194 5.86262
10.3478 80000086000002080 80000086000002079 80000086000002131 80000086000002078 1.11415056377 48.2377 -4.8733 0.721829
10.3579 80000086000002079 80000086000002078 80000086000002131 80000086000002077 1.07445789455 38.483 -12.7773 0.724775
9.04062 80000086000002178 80000086000002177 80000086000002184 80000086000002176 5.22758097313 6.20282 3.39033 6.74159
9.2845 80000086000002177 80000086000002176 80000086000002184 80000086000002175 4.99593346816 -4.87603 11.5771 3.26804
