logMh | fpID | subhaloID | main leaf ID | descID |  z
9.03463 90000293900000093 90000293900000092 90000293900000103 90000293900000091 6.49159774567 -1.7583 -2.26634 2.76566
9.05811 90000293900000092 90000293900000091 90000293900000103 90000293900000090 6.14490120342 -4.93978 -0.848236 3.5265
9.06939 90000293900000091 90000293900000090 90000293900000103 90000293900000089 6.01075739884 -6.14477 -0.129049 1.54308
9.09898 90000293900000090 90000293900000089 90000293900000103 90000293900000088 5.84661374788 -6.55263 -0.492446 3.07582
9.17293 90000293900000089 90000293900000088 90000293900000103 90000293900000087 5.52976580795 -9.81824 -0.126569 2.47567
9.19433 90000293900000088 90000293900000087 90000293900000103 90000293900000086 5.22758097313 -8.37957 1.42231 -3.49089
9.56911 90000293900000087 90000293900000082 90000293900000103 90000293900000081 4.17683491473 19.3423 9.63761 -24.9553
9.61504 90000293900000082 90000293900000081 90000293900000103 90000293900000080 4.00794511147 16.0921 10.4173 -19.8775
9.63894 90000293900000081 90000293900000080 90000293900000103 90000293900000079 3.93726108473 19.0445 12.2026 -22.3289
9.69051 90000293900000080 90000293900000079 90000293900000103 90000293900000078 3.70877426464 10.1566 17.2847 -23.3969
9.81278 90000293900000079 90000293900000078 90000293900000103 90000293900000077 3.49086136926 26.68 14.6571 -36.9568
9.88868 90000293900000078 90000293900000077 90000293900000103 90000293900000076 3.28303305796 21.2825 14.2953 -42.1811
9.94925 90000293900000077 90000293900000076 90000293900000103 90000293900000075 3.08482263583 20.1136 12.0728 -46.2402
9.96652 90000293900000076 90000293900000075 90000293900000103 90000293900000074 3.00813107163 17.0953 12.3653 -46.0841
9.99121 90000293900000075 90000293900000074 90000293900000103 90000293900000073 2.89578500573 24.2782 7.56257 -50.4153
10.0439 90000293900000074 90000293900000073 90000293900000103 90000293900000072 2.73314261732 10.0642 13.5263 -37.1335
10.0711 90000293900000073 90000293900000072 90000293900000103 90000293900000071 2.5772902716 12.86 10.5689 -40.6848
10.0985 90000293900000072 90000293900000071 90000293900000103 90000293900000070 2.44422570455 22.9331 3.17767 -40.5338
10.1366 90000293900000071 90000293900000070 90000293900000103 90000293900000069 2.31611074396 9.34391 -2.05757 -38.7559
10.1602 90000293900000070 90000293900000069 90000293900000103 90000293900000068 2.20792547238 19.4651 -11.1732 -32.8721
10.1782 90000293900000069 90000293900000068 90000293900000103 90000293900000067 2.1032696526 19.6362 -13.6434 -28.6609
10.2462 90000293900000068 90000293900000067 90000293900000103 90000293900000066 2.00202813925 -18.022 -15.4617 -33.7423
10.2947 90000293900000067 90000293900000066 90000293900000103 90000293900000065 1.90408954353 -32.2639 -13.2146 -38.2455
10.3358 90000293900000066 90000293900000065 90000293900000103 90000293900000064 1.82268925262 -34.0857 -24.5501 -39.0727
10.3708 90000293900000065 90000293900000064 90000293900000103 90000293900000063 1.74357057433 -41.7938 -31.5068 -40.6563
10.4314 90000293900000064 90000293900000063 90000293900000103 90000293900000062 1.66666955611 -49.2419 -23.9607 -59.979
10.4736 90000293900000063 90000293900000062 90000293900000103 90000293900000061 1.60423452207 -57.8893 -15.5169 -70.2028
10.4818 90000293900000062 90000293900000061 90000293900000103 90000293900000060 1.53123902916 -53.5833 -18.2927 -68.1344
10.4831 90000293900000061 90000293900000060 90000293900000103 90000293900000059 1.47197484527 -46.6156 -12.4912 -61.1941
10.494 90000293900000060 90000293900000059 90000293900000103 90000293900000058 1.41409822037 -54.4449 -10.3881 -50.4851
10.5433 90000293900000059 90000293900000058 90000293900000103 90000293900000057 1.3575766674 -54.2111 -30.449 -8.6758
10.585 90000293900000058 90000293900000057 90000293900000103 90000293900000056 1.30237845991 -65.4254 -57.3393 56.6226
10.6112 90000293900000057 90000293900000056 90000293900000103 90000293900000055 1.24847261425 -62.3764 -57.2307 66.9111
10.6282 90000293900000056 90000293900000053 90000293900000103 90000293900000052 1.11415056377 -49.99 -68.7273 69.7516
10.659 90000293900000053 90000293900000052 90000293900000103 90000293900000051 1.07445789455 -52.824 -72.2838 75.3213
10.6592 90000293900000052 90000293900000050 90000293900000103 90000293900000049 0.997294225782 -35.8526 -70.2433 38.4173
10.6684 90000293900000050 90000293900000049 90000293900000103 90000293900000048 0.987852810816 -31.4684 -70.3479 42.4327
10.6949 90000293900000049 90000293900000048 90000293900000103 90000293900000047 0.950531351585 -28.2409 -54.8415 26.6977
10.7089 90000293900000048 90000293900000047 90000293900000103 90000293900000046 0.923000816178 -21.9422 -39.0083 -8.42605
10.734 90000293900000047 90000293900000046 90000293900000103 90000293900000045 0.886896937575 -27.1618 -27.8335 -8.64998
10.7502 90000293900000046 90000293900000042 90000293900000103 90000293900000041 0.757441372616 -3.50496 -39.359 -14.3374
10.7555 90000293900000042 90000293900000041 90000293900000103 90000293900000040 0.732636182022 -11.74 -45.8077 -7.69834
10.7709 90000293900000041 90000293900000040 90000293900000103 90000293900000039 0.700106353719 -8.74364 -51.3387 -3.73919
10.7853 90000293900000040 90000293900000038 90000293900000103 90000293900000037 0.644641840685 12.0057 -67.5499 26.7842
10.7857 90000293900000038 90000293900000037 90000293900000103 90000293900000036 0.621428745243 44.5004 -74.7776 57.2411
10.7865 90000293900000037 90000293900000036 90000293900000103 90000293900000035 0.598543288188 21.7067 -70.0896 49.1795
10.7917 90000293900000036 90000293900000035 90000293900000103 90000293900000034 0.575980845108 42.9098 -66.8289 35.4989
10.7997 90000293900000035 90000293900000034 90000293900000103 90000293900000033 0.546392183141 68.4284 -73.104 58.9586
10.8107 90000293900000034 90000293900000033 90000293900000103 90000293900000032 0.524565820434 65.2315 -75.0114 57.8075
10.8165 90000293900000033 90000293900000032 90000293900000103 90000293900000031 0.503047523245 79.2456 -82.5911 70.8052
10.8248 90000293900000032 90000293900000031 90000293900000103 90000293900000030 0.481832943421 102.041 -85.481 64.3316
10.8483 90000293900000031 90000293900000030 90000293900000103 90000293900000029 0.460917794181 153.718 -71.4299 78.7501
10.8487 90000293900000030 90000293900000029 90000293900000103 90000293900000028 0.440297849248 148.321 -65.4866 88.4402
10.8708 90000293900000029 90000293900000028 90000293900000103 90000293900000027 0.419968941997 196.262 -71.5412 127.115
10.8813 90000293900000028 90000293900000027 90000293900000103 90000293900000026 0.399926964614 207.121 -74.8587 126.543
10.8947 90000293900000027 90000293900000026 90000293900000103 90000293900000025 0.38016786726 234.252 -90.5234 155.82
10.9209 90000293900000026 90000293900000025 90000293900000103 90000293900000024 0.360687657262 273.038 -117.366 165.677
10.9249 90000293900000025 90000293900000024 90000293900000103 90000293900000023 0.347853841858 253.089 -102.233 162.744
10.9303 90000293900000024 90000293900000023 90000293900000103 90000293900000022 0.328829724206 247.867 -118.154 165.162
10.9481 90000293900000023 90000293900000022 90000293900000103 90000293900000021 0.310074120128 293.328 -139.792 167.347
10.9578 90000293900000022 90000293900000021 90000293900000103 90000293900000020 0.291583239722 237.145 -118.173 163.629
10.9806 90000293900000021 90000293900000020 90000293900000103 90000293900000019 0.273353346578 212.931 -153.166 163.744
10.998 90000293900000020 90000293900000019 90000293900000103 90000293900000018 0.261343256161 269.503 -165.955 150.637
11.0232 90000293900000019 90000293900000018 90000293900000103 90000293900000017 0.243540181555 256.087 -225.868 152.303
11.0404 90000293900000018 90000293900000017 90000293900000103 90000293900000016 0.22598838626 239.276 -228.845 152.383
11.0461 90000293900000017 90000293900000016 90000293900000103 90000293900000015 0.214425035514 258.71 -258.083 155.051
11.0731 90000293900000016 90000293900000014 90000293900000103 90000293900000013 0.180385261706 239.261 -302.539 140.445
11.085 90000293900000014 90000293900000013 90000293900000103 90000293900000012 0.169252033244 247.082 -329.473 138.035
11.092 90000293900000013 90000293900000007 90000293900000103 90000293900000006 0.0838844307975 300.16 -305.798 126.182
11.0925 90000293900000007 90000293900000006 90000293900000103 90000293900000005 0.0736613846564 279.361 -276.838 135.099
11.0974 90000293900000006 90000293900000003 90000293900000103 90000293900000002 0.0337243718735 276.89 -277.968 131.479
9.02855 90000293900000111 90000293900000110 90000293900000116 90000293900000109 5.84661374788 -8.65793 -0.284458 -9.5672
9.29951 90000293900000110 90000293900000107 90000293900000116 90000293900000106 4.99593346816 8.59021 2.70104 -20.4499
9.32651 90000293900000107 90000293900000105 90000293900000116 90000293900000104 4.66451770247 10.4167 5.3345 -19.3599
9.46397 90000293900000105 90000293900000104 90000293900000116 90000293900000082 4.42803373661 12.5071 11.7567 -20.2742
9.01614 90000293900000140 90000293900000139 90000293900000145 90000293900000138 4.66451770247 8.21415 -10.1753 2.90528
9.10926 90000293900000139 90000293900000137 90000293900000145 90000293900000136 4.17683491473 2.81492 -6.97036 -0.266736
9.17293 90000293900000137 90000293900000136 90000293900000145 90000293900000135 4.00794511147 -2.54259 -2.72988 0.276046
9.10157 90000293900000196 90000293900000195 90000293900000209 90000293900000194 2.44422570455 4.34602 -19.8159 -11.6333
9.15273 90000293900000195 90000293900000193 90000293900000209 90000293900000192 2.20792547238 -4.96594 -11.6012 -2.15856
9.00337 90000293900000295 90000293900000294 90000293900000301 90000293900000293 6.01075739884 -0.559206 -0.0134822 6.31398
9.04062 90000293900000294 90000293900000293 90000293900000301 90000293900000292 5.84661374788 -1.80036 -1.8186 7.73768
9.13634 90000293900000293 90000293900000292 90000293900000301 90000293900000291 5.52976580795 -0.391004 -1.08136 7.39616
9.2087 90000293900000292 90000293900000291 90000293900000301 90000293900000290 5.22758097313 -4.22677 -14.5534 1.16474
9.29787 90000293900000291 90000293900000290 90000293900000301 90000293900000289 4.99593346816 -3.90576 -11.561 1.67699
9.3044 90000293900000290 90000293900000289 90000293900000301 90000293900000288 4.93938066349 -4.61332 -10.9689 0.786502
9.38141 90000293900000289 90000293900000288 90000293900000301 90000293900000287 4.66451770247 2.39408 -4.50548 10.1492
9.39214 90000293900000288 90000293900000287 90000293900000301 90000293900000286 4.42803373661 1.1859 -4.4666 8.46649
9.4606 90000293900000287 90000293900000286 90000293900000301 90000293900000285 4.17683491473 -0.681079 -8.83916 9.38114
9.48049 90000293900000286 90000293900000285 90000293900000301 90000293900000284 4.00794511147 2.0739 -11.852 14.2649
9.48586 90000293900000285 90000293900000284 90000293900000301 90000293900000283 3.93726108473 1.03857 -14.2763 14.1616
9.52657 90000293900000284 90000293900000282 90000293900000301 90000293900000281 3.49086136926 0.237157 -19.4835 19.7987
9.54278 90000293900000282 90000293900000281 90000293900000301 90000293900000280 3.28303305796 2.68056 -17.4579 17.98
9.57869 90000293900000281 90000293900000279 90000293900000301 90000293900000278 3.00813107163 3.25028 -21.0545 8.66585
9.59807 90000293900000279 90000293900000277 90000293900000301 90000293900000276 2.73314261732 2.24433 -11.2094 0.826146
9.63442 90000293900000277 90000293900000275 90000293900000301 90000293900000274 2.44422570455 1.4954 -12.8472 -9.57609
9.02548 90000293900000464 90000293900000463 90000293900000482 90000293900000462 2.1032696526 -2.46934 1.87385 -3.03036
9.02855 90000293900000463 90000293900000461 90000293900000482 90000293900000460 1.90408954353 0.315419 1.81721 -7.10094
9.07216 90000293900000461 90000293900000460 90000293900000482 90000293900000459 1.82268925262 -0.932871 1.89285 -5.58831
9.21869 90000293900000525 90000293900000524 90000293900000530 90000293900000523 3.49086136926 16.4106 -14.3125 -8.42278
9.25648 90000293900000524 90000293900000522 90000293900000530 90000293900000521 3.08482263583 0.254411 -6.06263 22.4746
9.27594 90000293900000522 90000293900000521 90000293900000530 90000293900000520 3.00813107163 0.556434 -5.82415 15.0219
9.32651 90000293900000521 90000293900000520 90000293900000530 90000293900000519 2.89578500573 2.63779 -7.89509 9.41035
9.32805 90000293900000520 90000293900000519 90000293900000530 90000293900000518 2.73314261732 5.14483 -12.1411 8.34631
9.40518 90000293900000519 90000293900000518 90000293900000530 90000293900000517 2.5772902716 29.267 -28.8469 1.8826
9.43497 90000293900000518 90000293900000516 90000293900000530 90000293900000515 2.31611074396 37.615 -29.0602 4.9282
9.47176 90000293900000516 90000293900000515 90000293900000530 90000293900000514 2.20792547238 16.3245 -5.50436 -3.40406
9.4964 90000293900000515 90000293900000513 90000293900000530 90000293900000512 2.00202813925 16.818 -10.6758 -6.32685
9.82809 90000293900000513 90000293900000511 90000293900000530 90000293900000510 1.82268925262 55.1553 14.6685 -44.0521
9.0316 90000293900000607 90000293900000606 90000293900000610 90000293900000605 4.42803373661 1.60142 4.07791 1.28179
9.03463 90000293900000606 90000293900000605 90000293900000610 90000293900000604 4.17683491473 1.99273 0.881517 -0.913655
9.04062 90000293900000605 90000293900000604 90000293900000610 90000293900000603 4.00794511147 0.917487 2.39923 1.69456
9.04062 90000293900000604 90000293900000603 90000293900000610 90000293900000602 3.93726108473 0.598604 1.43614 0.180008
9.05235 90000293900000603 90000293900000602 90000293900000610 90000293900000601 3.70877426464 -0.709053 1.29978 0.622832
9.10926 90000293900000602 90000293900000601 90000293900000610 90000293900000600 3.49086136926 0.815205 0.435685 -4.86072
9.11179 90000293900000601 90000293900000600 90000293900000610 90000293900000599 3.28303305796 -1.65302 1.2674 -0.616175
9.14811 90000293900000600 90000293900000599 90000293900000610 90000293900000598 3.08482263583 1.11948 -2.8426 -4.16304
9.17512 90000293900000599 90000293900000598 90000293900000610 90000293900000597 3.00813107163 1.7298 0.0352214 -3.65085
9.19641 90000293900000598 90000293900000596 90000293900000610 90000293900000595 2.73314261732 2.01277 -0.0791395 -1.54082
9.23229 90000293900000596 90000293900000595 90000293900000610 90000293900000594 2.5772902716 2.97217 -6.27139 1.24197
9.41909 90000293900000595 90000293900000589 90000293900000610 90000293900000588 1.90408954353 8.16222 -11.5746 -5.29927
9.60381 90000293900000589 90000293900000582 90000293900000610 90000293900000581 1.3575766674 36.8439 31.694 -45.2916
11.072 90000293900000680 90000293900000679 90000293900000746 90000293900000014 0.197284182376 174.492 -366.135 168.691
9.07492 90000293900000858 90000293900000857 90000293900000865 90000293900000856 7.59510714987 -5.27305 -7.34846 4.38042
9.09898 90000293900000857 90000293900000856 90000293900000865 90000293900000855 7.23627606617 -5.11486 -6.24929 4.61255
9.18376 90000293900000856 90000293900000855 90000293900000865 90000293900000854 7.00541704554 -12.4965 -3.7779 8.22864
9.20464 90000293900000855 90000293900000853 90000293900000865 90000293900000852 6.49159774567 -4.96839 -6.97558 9.6126
9.29951 90000293900000853 90000293900000852 90000293900000865 90000293900000851 6.14490120342 2.78243 -9.56441 8.93869
9.33866 90000293900000852 90000293900000851 90000293900000865 90000293900000850 6.01075739884 4.3003 -7.79777 8.66369
9.42404 90000293900000851 90000293900000850 90000293900000865 90000293900000849 5.84661374788 -2.48282 -9.04763 19.8948
9.51275 90000293900000850 90000293900000849 90000293900000865 90000293900000848 5.52976580795 -8.78333 -12.149 23.734
9.55841 90000293900000849 90000293900000848 90000293900000865 90000293900000847 5.22758097313 -14.3051 -11.7563 22.3109
9.58298 90000293900000848 90000293900000847 90000293900000865 90000293900000846 4.99593346816 -12.2727 -10.6507 22.8384
9.60543 90000293900000847 90000293900000846 90000293900000865 90000293900000845 4.93938066349 -8.25943 -11.6208 23.1633
9.63969 90000293900000846 90000293900000845 90000293900000865 90000293900000844 4.66451770247 -10.1122 -1.975 15.8105
9.64342 90000293900000845 90000293900000844 90000293900000865 90000293900000843 4.42803373661 -9.94657 -1.60498 16.9041
9.64416 90000293900000844 90000293900000843 90000293900000865 90000293900000842 4.17683491473 -6.63416 -1.43729 11.6248
9.69974 90000293900000843 90000293900000842 90000293900000865 90000293900000841 4.00794511147 -14.5123 -3.30834 17.6701
9.70299 90000293900000842 90000293900000841 90000293900000865 90000293900000840 3.93726108473 -15.711 -6.54497 17.3703
9.7348 90000293900000841 90000293900000839 90000293900000865 90000293900000838 3.49086136926 -9.18667 -8.30281 14.2882
9.7678 90000293900000839 90000293900000836 90000293900000865 90000293900000835 3.00813107163 -12.4449 -22.251 15.5728
9.7678 90000293900000836 90000293900000835 90000293900000865 90000293900000834 2.89578500573 -16.1635 -13.8502 15.2686
9.80363 90000293900000835 90000293900000834 90000293900000865 90000293900000833 2.73314261732 -15.714 -6.68697 13.8527
9.84521 90000293900000834 90000293900000833 90000293900000865 90000293900000832 2.5772902716 -13.0133 4.7296 15.57
9.8666 90000293900000833 90000293900000832 90000293900000865 90000293900000831 2.44422570455 -11.0408 -3.41895 10.0418
9.88144 90000293900000832 90000293900000831 90000293900000865 90000293900000830 2.31611074396 -17.9355 -6.53813 16.1712
9.8891 90000293900000831 90000293900000830 90000293900000865 90000293900000829 2.20792547238 3.97096 -8.87289 8.57152
9.89246 90000293900000830 90000293900000829 90000293900000865 90000293900000828 2.1032696526 5.45323 -2.35486 15.5357
9.90888 90000293900000829 90000293900000828 90000293900000865 90000293900000827 2.00202813925 5.6739 2.03204 18.4309
9.92159 90000293900000828 90000293900000827 90000293900000865 90000293900000826 1.90408954353 11.3166 -3.39631 19.7137
9.93772 90000293900000827 90000293900000826 90000293900000865 90000293900000825 1.82268925262 12.1454 -7.4207 17.0924
9.94593 90000293900000826 90000293900000825 90000293900000865 90000293900000824 1.74357057433 13.8478 -2.44801 19.6411
9.97422 90000293900000825 90000293900000824 90000293900000865 90000293900000823 1.66666955611 17.0697 -0.873963 20.2878
9.98075 90000293900000824 90000293900000823 90000293900000865 90000293900000822 1.60423452207 20.8303 -5.25905 17.4745
9.98483 90000293900000823 90000293900000822 90000293900000865 90000293900000821 1.53123902916 21.5419 -3.74025 17.0725
10.0152 90000293900000822 90000293900000821 90000293900000865 90000293900000820 1.47197484527 22.0077 -6.22067 15.0722
10.0155 90000293900000821 90000293900000820 90000293900000865 90000293900000819 1.41409822037 23.7532 -8.35083 16.2606
10.0292 90000293900000820 90000293900000819 90000293900000865 90000293900000818 1.3575766674 25.7505 -10.9071 10.4854
10.037 90000293900000819 90000293900000818 90000293900000865 90000293900000817 1.30237845991 22.4245 -9.13694 8.66024
10.0558 90000293900000818 90000293900000817 90000293900000865 90000293900000816 1.24847261425 18.9384 -9.60263 10.8958
10.0643 90000293900000817 90000293900000816 90000293900000865 90000293900000815 1.20625808078 21.5304 -12.5987 24.81
10.0844 90000293900000816 90000293900000815 90000293900000865 90000293900000814 1.15460271236 22.3826 -5.57537 26.127
10.1003 90000293900000815 90000293900000814 90000293900000865 90000293900000813 1.11415056377 22.8945 -2.61396 24.9833
10.1054 90000293900000814 90000293900000813 90000293900000865 90000293900000812 1.07445789455 24.6105 -1.11056 26.8746
10.111 90000293900000813 90000293900000812 90000293900000865 90000293900000811 1.03551044566 28.9687 7.40164 29.1117
10.1115 90000293900000812 90000293900000811 90000293900000865 90000293900000810 0.997294225782 29.2924 4.5171 27.8276
10.1218 90000293900000811 90000293900000810 90000293900000865 90000293900000809 0.987852810816 31.8827 0.14199 31.0475
10.1311 90000293900000810 90000293900000808 90000293900000865 90000293900000807 0.923000816178 35.4127 2.44818 27.8804
10.1335 90000293900000808 90000293900000807 90000293900000865 90000293900000806 0.886896937575 36.475 6.39394 23.5589
10.149 90000293900000807 90000293900000806 90000293900000865 90000293900000805 0.851470900625 44.947 12.0843 24.2635
10.1532 90000293900000806 90000293900000805 90000293900000865 90000293900000804 0.816709979012 37.1266 1.6552 23.2916
10.1536 90000293900000805 90000293900000803 90000293900000865 90000293900000802 0.757441372616 44.8658 1.69162 18.8031
10.1562 90000293900000803 90000293900000802 90000293900000865 90000293900000801 0.732636182022 38.3196 -1.87715 14.7441
10.1587 90000293900000802 90000293900000801 90000293900000865 90000293900000800 0.700106353719 42.9913 -7.92434 21.7317
10.1712 90000293900000801 90000293900000800 90000293900000865 90000293900000799 0.676110411213 42.7631 -4.50726 17.7717
11.0854 90000293900000800 90000293900000774 90000293900000865 90000293900000011 0.152748768902 267.948 -338.872 140.782
9.01614 90000293900001024 90000293900001023 90000293900001030 90000293900001022 4.93938066349 -10.4068 7.61326 -1.66663
9.05524 90000293900001023 90000293900001021 90000293900001030 90000293900001020 4.42803373661 -12.7479 12.7702 -5.89815
9.10415 90000293900001021 90000293900001020 90000293900001030 90000293900001019 4.17683491473 -9.49431 12.4368 -6.99087
9.16407 90000293900001020 90000293900001017 90000293900001030 90000293900001016 3.70877426464 -6.51556 11.3988 -0.93199
9.24548 90000293900001017 90000293900001016 90000293900001030 90000293900001015 3.49086136926 -9.80027 12.9466 8.33487
9.25648 90000293900001016 90000293900001015 90000293900001030 90000293900001014 3.28303305796 -10.5451 13.7366 6.97726
9.32342 90000293900001015 90000293900001014 90000293900001030 90000293900001013 3.08482263583 -4.99842 15.9351 5.6059
9.33111 90000293900001014 90000293900001013 90000293900001030 90000293900001012 3.00813107163 -6.48222 19.1501 6.72189
9.33566 90000293900001013 90000293900001012 90000293900001030 90000293900001011 2.89578500573 -5.40779 17.3436 1.57541
9.36902 90000293900001012 90000293900001011 90000293900001030 90000293900001010 2.73314261732 -4.44913 13.2944 4.22576
9.38277 90000293900001011 90000293900001010 90000293900001030 90000293900001009 2.5772902716 -3.3798 13.8252 2.76868
9.40518 90000293900001010 90000293900001007 90000293900001030 90000293900001006 2.20792547238 -7.0794 7.17475 4.6791
9.42281 90000293900001007 90000293900001005 90000293900001030 90000293900001004 2.00202813925 -7.55577 5.61734 4.24135
9.44681 90000293900001005 90000293900001004 90000293900001030 90000293900001003 1.90408954353 1.13014 12.8257 4.14829
9.66514 90000293900001004 90000293900001003 90000293900001030 90000293900001002 1.82268925262 32.734 52.4145 -0.97416
9.73239 90000293900001003 90000293900000998 90000293900001030 90000293900000997 1.47197484527 27.4421 45.2074 5.1502
9.7348 90000293900000998 90000293900000995 90000293900001030 90000293900000994 1.30237845991 29.6792 42.4555 3.60237
9.7455 90000293900000995 90000293900000994 90000293900001030 90000293900000993 1.24847261425 31.8468 39.1789 0.782563
9.78475 90000293900000994 90000293900000993 90000293900001030 90000293900000992 1.20625808078 25.0819 37.5609 0.238458
9.78849 90000293900000993 90000293900000992 90000293900001030 90000293900000991 1.15460271236 25.9963 38.9271 -1.84996
9.00012 90000293900001064 90000293900001063 90000293900001076 90000293900001062 4.66451770247 8.20735 -3.33871 -10.4577
9.01298 90000293900001063 90000293900001059 90000293900001076 90000293900001058 3.93726108473 2.86404 -6.07961 0.374059
9.03463 90000293900001059 90000293900001057 90000293900001076 90000293900001056 3.49086136926 8.06034 -7.37326 -1.68565
9.05811 90000293900001057 90000293900001056 90000293900001076 90000293900001055 3.28303305796 8.14465 -3.13401 -2.34033
9.10157 90000293900001056 90000293900001055 90000293900001076 90000293900001054 3.08482263583 8.21532 -3.92733 0.539433
9.12178 90000293900001055 90000293900001054 90000293900001076 90000293900001053 3.00813107163 6.64535 -3.1129 -3.45221
9.13634 90000293900001054 90000293900001053 90000293900001076 90000293900001052 2.89578500573 7.32113 -2.32762 -0.62253
9.13634 90000293900001053 90000293900001052 90000293900001076 90000293900001051 2.73314261732 6.64894 -3.8233 -0.0770839
9.14811 90000293900001052 90000293900001051 90000293900001076 90000293900001050 2.5772902716 6.88466 -1.70052 -1.55977
9.16182 90000293900001051 90000293900001050 90000293900001076 90000293900001049 2.44422570455 3.36708 -4.7046 3.19228
9.17073 90000293900001050 90000293900001049 90000293900001076 90000293900001048 2.31611074396 9.51771 0.463411 4.05316
9.19641 90000293900001049 90000293900001048 90000293900001076 90000293900001047 2.20792547238 8.99557 -1.24394 5.71374
9.22066 90000293900001048 90000293900001047 90000293900001076 90000293900001046 2.1032696526 5.24597 -3.91863 6.47057
9.27938 90000293900001078 90000293900001077 90000293900001078 90000293900000009 0.125759332411 -1.68841 -0.140814 3.73851
9.02548 90000293900001139 90000293900001138 90000293900001152 90000293900001137 1.74357057433 8.499 2.82321 -7.31546
9.04945 90000293900001138 90000293900001137 90000293900001152 90000293900001136 1.66666955611 7.59197 4.18881 -4.89524
9.07766 90000293900001137 90000293900001135 90000293900001152 90000293900001134 1.53123902916 9.71758 1.1487 -8.12144
9.13154 90000293900001135 90000293900001134 90000293900001152 90000293900001133 1.47197484527 9.16047 -0.734702 -6.54778
9.15956 90000293900001134 90000293900001133 90000293900001152 90000293900001132 1.41409822037 12.6866 -4.76584 -6.28418
9.17293 90000293900001133 90000293900001132 90000293900001152 90000293900001131 1.3575766674 11.8569 -3.53475 -5.25816
9.17946 90000293900001132 90000293900001130 90000293900001152 90000293900001129 1.24847261425 8.01908 0.272993 -8.57704
9.18589 90000293900001130 90000293900001129 90000293900001152 90000293900001128 1.20625808078 9.68202 -1.07206 -6.19481
9.19641 90000293900001129 90000293900001128 90000293900001152 90000293900001127 1.15460271236 7.02581 -5.96544 -7.28326
9.21072 90000293900001128 90000293900001127 90000293900001152 90000293900001126 1.11415056377 9.77687 -8.955 -4.13498
