logMh | fpID | subhaloID | main leaf ID | descID |  z
9.01928 60000002600144947 60000002600144946 60000002600144951 60000002600144945 9.84138043947 5.65209 3.91398 -8.35511
9.12424 60000002600144946 60000002600144944 60000002600144951 60000002600144943 9.00233985416 7.90738 -0.139461 -10.0096
9.13154 60000002600144944 60000002600144943 60000002600144951 60000002600144942 8.9079991856 7.34034 0.11736 -9.57261
9.17946 60000002600144943 60000002600144942 60000002600144951 60000002600144941 8.44947629437 6.09125 -0.553179 -6.21155
9.23799 60000002600144942 60000002600144941 60000002600144951 60000002600144940 8.01217294887 7.77117 -0.45498 -3.52406
9.30278 60000002600144941 60000002600144940 60000002600144951 60000002600144939 7.59510714987 8.98243 -0.750824 -4.4763
9.34756 60000002600144940 60000002600144939 60000002600144951 60000002600144938 7.23627606617 11.1126 -0.728016 -6.12052
9.38412 60000002600144939 60000002600144938 60000002600144951 60000002600144937 7.00541704554 12.591 -1.2409 -1.59691
9.41534 60000002600144938 60000002600144936 60000002600144951 60000002600144935 6.49159774567 15.5619 1.56199 -15.353
9.87886 60000002600144936 60000002600144931 60000002600144951 60000002600144930 5.22758097313 36.1015 19.9326 -34.0217
9.90443 60000002600144931 60000002600144930 60000002600144951 60000002600144929 4.99593346816 35.1958 18.1509 -36.6974
9.91845 60000002600144930 60000002600144929 60000002600144951 60000002600144928 4.93938066349 32.7482 12.8761 -25.7421
9.97594 60000002600144929 60000002600144928 60000002600144951 60000002600144927 4.66451770247 36.1326 23.6789 -32.2785
9.99848 60000002600144928 60000002600144927 60000002600144951 60000002600144926 4.42803373661 33.8207 22.7656 -33.2981
10.0385 60000002600144927 60000002600144926 60000002600144951 60000002600144925 4.17683491473 34.2809 21.6597 -35.5598
10.0979 60000002600144926 60000002600144923 60000002600144951 60000002600144922 3.70877426464 34.0617 12.7576 -48.4842
10.1161 60000002600144923 60000002600144922 60000002600144951 60000002600144921 3.49086136926 34.3071 19.0482 -39.8282
10.1223 60000002600144922 60000002600144921 60000002600144951 60000002600144920 3.28303305796 35.851 23.2447 -51.3743
10.1918 60000002600144921 60000002600144920 60000002600144951 60000002600144919 3.08482263583 31.5886 28.9873 -58.528
10.2173 60000002600144920 60000002600144919 60000002600144951 60000002600144918 3.00813107163 24.4619 13.2936 -56.4262
10.2721 60000002600144919 60000002600144918 60000002600144951 60000002600144917 2.89578500573 24.5305 7.93154 -66.0788
10.2845 60000002600144918 60000002600144917 60000002600144951 60000002600144916 2.73314261732 36.697 18.3132 -55.8457
10.3415 60000002600144917 60000002600144916 60000002600144951 60000002600144915 2.5772902716 56.3647 15.3146 -43.7
10.3652 60000002600144916 60000002600144915 60000002600144951 60000002600144914 2.44422570455 53.1217 17.8785 -47.0198
10.4327 60000002600144915 60000002600144914 60000002600144951 60000002600144913 2.31611074396 64.8216 2.20262 -17.8786
10.4579 60000002600144914 60000002600144913 60000002600144951 60000002600144912 2.20792547238 53.9643 -29.5689 -24.6439
10.5243 60000002600144913 60000002600144912 60000002600144951 60000002600144911 2.1032696526 32.1281 -27.1948 -49.6375
10.8046 60000002600144912 60000002600144909 60000002600144951 60000002600144908 1.82268925262 47.433 -112.15 -27.2452
10.9467 60000002600144909 60000002600144908 60000002600144951 60000002600144907 1.74357057433 79.5766 -176.923 33.9457
10.9915 60000002600144908 60000002600144907 60000002600144951 60000002600144906 1.66666955611 176.968 -140.757 102.788
11.0583 60000002600144907 60000002600144906 60000002600144951 60000002600144905 1.60423452207 263.252 -126.932 181.987
11.1544 60000002600144906 60000002600144905 60000002600144951 60000002600144904 1.53123902916 428.188 93.4922 374.231
11.232 60000002600144905 60000002600144904 60000002600144951 60000002600144903 1.47197484527 475.122 280.104 546.977
11.3161 60000002600144904 60000002600144903 60000002600144951 60000002600144902 1.41409822037 448.418 556.32 643.196
11.3204 60000002600144903 60000002600144901 60000002600144951 60000002600144900 1.30237845991 464.773 517.468 632.43
11.4805 60000002600144901 60000002600144900 60000002600144951 60000002600144899 1.24847261425 539.958 881.536 710.758
11.4867 60000002600144900 60000002600144899 60000002600144951 60000002600144898 1.20625808078 513.964 835.018 694.461
11.5935 60000002600144899 60000002600144898 60000002600144951 60000002600144897 1.15460271236 516.003 854.346 610.15
11.6195 60000002600144898 60000002600144895 60000002600144951 60000002600144894 1.03551044566 501.363 701.207 580.195
11.62 60000002600144895 60000002600144891 60000002600144951 60000002600144890 0.923000816178 525.921 687.557 574.785
11.629 60000002600144891 60000002600144890 60000002600144951 60000002600144889 0.886896937575 520.159 687.887 529.606
11.6631 60000002600144890 60000002600144886 60000002600144951 60000002600144885 0.757441372616 429.789 489.245 442.204
11.6721 60000002600144886 60000002600144882 60000002600144951 60000002600144881 0.644641840685 390.433 387.087 450.479
11.6729 60000002600144882 60000002600144881 60000002600144951 60000002600144880 0.621428745243 429.814 381.143 434.632
11.6779 60000002600144881 60000002600144880 60000002600144951 60000002600144879 0.598543288188 427.379 312.643 465.3
11.6922 60000002600144880 60000002600144879 60000002600144951 60000002600144878 0.575980845108 441.891 325.274 453.022
11.7016 60000002600144879 60000002600144878 60000002600144951 60000002600144877 0.546392183141 454.406 261.711 407.742
11.703 60000002600144878 60000002600144877 60000002600144951 60000002600144876 0.524565820434 470.448 212.281 383.962
11.7103 60000002600144877 60000002600144876 60000002600144951 60000002600144875 0.503047523245 467.253 151.35 379.766
11.7203 60000002600144876 60000002600144875 60000002600144951 60000002600144874 0.481832943421 462.839 95.9748 314.344
11.7246 60000002600144875 60000002600144874 60000002600144951 60000002600144873 0.460917794181 468.42 105.361 300.85
11.7366 60000002600144874 60000002600144873 60000002600144951 60000002600144872 0.440297849248 442.669 47.582 284.81
11.7449 60000002600144873 60000002600144872 60000002600144951 60000002600144871 0.419968941997 410.594 80.7501 285.509
11.7601 60000002600144872 60000002600144871 60000002600144951 60000002600144870 0.399926964614 435.239 -29.5848 227.945
11.7642 60000002600144871 60000002600144870 60000002600144951 60000002600144869 0.38016786726 469.196 -71.9974 234.103
11.7745 60000002600144870 60000002600144869 60000002600144951 60000002600144868 0.360687657262 472.717 -56.0538 259.104
11.7822 60000002600144869 60000002600144868 60000002600144951 60000002600144867 0.347853841858 449.082 -54.2507 270.955
11.7909 60000002600144868 60000002600144867 60000002600144951 60000002600144866 0.328829724206 427.275 -131.267 283.81
11.7973 60000002600144867 60000002600144866 60000002600144951 60000002600144865 0.310074120128 419.256 -154.626 317.22
11.8093 60000002600144866 60000002600144864 60000002600144951 60000002600144863 0.273353346578 364.964 107.424 479.214
11.8157 60000002600144864 60000002600144863 60000002600144951 60000002600144862 0.261343256161 337.01 156.839 502.066
11.8176 60000002600144863 60000002600144862 60000002600144951 60000002600144861 0.243540181555 325.388 196.935 493.223
11.825 60000002600144862 60000002600144861 60000002600144951 60000002600144860 0.22598838626 353.701 213.469 515.134
11.8327 60000002600144861 60000002600144860 60000002600144951 60000002600144859 0.214425035514 345.922 256.003 542.159
11.8398 60000002600144860 60000002600144859 60000002600144951 60000002600144858 0.197284182376 329.462 256.442 529.399
11.8426 60000002600144859 60000002600144858 60000002600144951 60000002600144857 0.180385261706 324.462 276.766 541.914
11.8441 60000002600144858 60000002600144857 60000002600144951 60000002600144856 0.169252033244 317.634 233.364 567.201
11.8492 60000002600144857 60000002600144856 60000002600144951 60000002600144855 0.152748768902 285.647 226.508 558.921
11.8539 60000002600144856 60000002600144855 60000002600144951 60000002600144854 0.14187620397 272.954 262.796 584.385
11.8543 60000002600144855 60000002600144854 60000002600144951 60000002600144853 0.125759332411 264.827 269.985 609.858
11.8554 60000002600144854 60000002600144853 60000002600144951 60000002600144852 0.109869940459 250.924 266.271 641.555
11.8576 60000002600144853 60000002600144852 60000002600144951 60000002600144851 0.0994018026302 252.716 256.082 639.016
11.8761 60000002600144852 60000002600144845 60000002600144951 60000002600144844 0.00952166696794 194.174 194.943 618.791
11.8802 60000002600144845 60000002600144844 60000002600144951 -1 2.22044604925e-16 193.302 159.904 614.54
9.0316 60000002600144969 60000002600144968 60000002600144976 60000002600144967 8.01217294887 -4.96358 -0.854823 2.6756
9.04062 60000002600144968 60000002600144967 60000002600144976 60000002600144966 7.59510714987 -3.61008 1.18436 2.55738
9.05811 60000002600144967 60000002600144966 60000002600144976 60000002600144965 7.23627606617 -4.86822 0.120343 1.01135
9.11179 60000002600144966 60000002600144965 60000002600144976 60000002600144964 7.00541704554 -5.5765 -0.809462 -1.02962
9.15042 60000002600144965 60000002600144964 60000002600144976 60000002600144963 6.85511726265 -6.08727 -3.02322 2.87741
9.49744 60000002600144964 60000002600144962 60000002600144976 60000002600144961 6.14490120342 15.8662 4.79011 -25.1475
9.61026 60000002600144962 60000002600144961 60000002600144976 60000002600144960 6.01075739884 23.4499 -3.29181 -24.0682
9.63518 60000002600144961 60000002600144960 60000002600144976 60000002600144959 5.84661374788 25.2328 -2.78836 -22.843
9.69184 60000002600144960 60000002600144959 60000002600144976 60000002600144958 5.52976580795 23.4275 5.00427 -28.0644
9.01298 60000002600145029 60000002600145028 60000002600145034 60000002600145027 6.49159774567 7.00765 3.60702 -0.493206
9.0666 60000002600145028 60000002600145027 60000002600145034 60000002600145026 6.14490120342 8.46297 7.82962 2.1509
9.08578 60000002600145027 60000002600145026 60000002600145034 60000002600145025 6.01075739884 7.3708 5.16534 -2.49961
9.1193 60000002600145026 60000002600145025 60000002600145034 60000002600145024 5.84661374788 9.57702 9.29704 0.652556
9.14344 60000002600145025 60000002600145024 60000002600145034 60000002600145023 5.52976580795 8.44117 7.35894 -0.861048
9.1573 60000002600145024 60000002600145023 60000002600145034 60000002600145022 5.22758097313 9.33563 7.22786 -0.701943
9.18376 60000002600145023 60000002600145022 60000002600145034 60000002600145021 4.99593346816 14.0719 7.43133 -0.645482
9.19848 60000002600145022 60000002600145021 60000002600145034 60000002600145020 4.93938066349 11.6435 6.45015 -1.88124
9.20464 60000002600145021 60000002600145019 60000002600145034 60000002600145018 4.42803373661 12.4474 9.50886 1.38168
9.34756 60000002600145019 60000002600145018 60000002600145034 60000002600145017 4.17683491473 15.5154 23.8926 5.22465
9.36056 60000002600145018 60000002600145016 60000002600145034 60000002600145015 3.93726108473 15.0701 21.2783 -1.01583
9.02239 60000002600145292 60000002600145291 60000002600145296 60000002600145290 6.49159774567 -1.09918 -1.10722 1.72265
9.02855 60000002600145291 60000002600145290 60000002600145296 60000002600145289 6.14490120342 -0.441779 -0.703044 0.871668
9.09375 60000002600145290 60000002600145289 60000002600145296 60000002600145288 6.01075739884 -2.88943 0.497604 2.44663
9.12668 60000002600145289 60000002600145288 60000002600145296 60000002600145287 5.84661374788 -0.719877 0.70163 0.550968
9.33415 60000002600145288 60000002600145287 60000002600145296 60000002600145286 5.52976580795 -1.45713 -12.2338 10.9897
9.49011 60000002600145287 60000002600145286 60000002600145296 60000002600145285 5.22758097313 -8.34893 -13.4637 2.26627
9.53332 60000002600145286 60000002600145285 60000002600145296 60000002600145284 4.99593346816 -3.70749 -14.1316 -1.07658
9.53332 60000002600145285 60000002600145284 60000002600145296 60000002600145283 4.93938066349 -2.03678 -14.4601 -3.19356
9.66514 60000002600145284 60000002600145283 60000002600145296 60000002600145282 4.66451770247 -4.78493 -9.59484 0.699049
9.80466 60000002600145283 60000002600145282 60000002600145296 60000002600145281 4.42803373661 -3.37345 -19.2804 -13.489
9.9028 60000002600145282 60000002600145281 60000002600145296 60000002600145280 4.17683491473 -7.79597 -19.2101 -0.601794
9.99717 60000002600145281 60000002600145280 60000002600145296 60000002600145279 4.00794511147 -4.55508 -3.01435 9.10434
10.0227 60000002600145280 60000002600145279 60000002600145296 60000002600145278 3.93726108473 -0.400127 -7.7431 5.52323
10.1361 60000002600145279 60000002600145278 60000002600145296 60000002600145277 3.70877426464 -0.721967 -7.14825 28.828
10.1901 60000002600145278 60000002600145277 60000002600145296 60000002600145276 3.49086136926 2.30145 -4.42158 19.2137
10.2332 60000002600145277 60000002600145276 60000002600145296 60000002600145275 3.28303305796 9.02713 -11.3347 28.2037
10.2716 60000002600145276 60000002600145275 60000002600145296 60000002600145274 3.08482263583 -5.3487 -15.3934 30.9449
10.2939 60000002600145275 60000002600145274 60000002600145296 60000002600145273 3.00813107163 -3.89255 -11.5094 25.5958
10.3055 60000002600145274 60000002600145273 60000002600145296 60000002600145272 2.89578500573 -3.96221 -7.92277 27.6191
10.3326 60000002600145273 60000002600145271 60000002600145296 60000002600145270 2.5772902716 -8.28869 14.9836 7.68462
10.3451 60000002600145271 60000002600145270 60000002600145296 60000002600145269 2.44422570455 17.7095 22.8201 5.4356
10.3603 60000002600145270 60000002600145268 60000002600145296 60000002600145267 2.20792547238 29.7139 23.3213 4.07171
10.6231 60000002600145268 60000002600145266 60000002600145296 60000002600145265 2.00202813925 46.3515 -23.0877 -8.63517
10.6751 60000002600145266 60000002600145265 60000002600145296 60000002600145264 1.90408954353 34.8562 -43.2009 -12.5679
9.0098 60000002600145373 60000002600145372 60000002600145382 60000002600145371 5.22758097313 1.60075 4.02598 2.3597
9.01614 60000002600145513 60000002600145512 60000002600145521 60000002600145511 7.23627606617 -3.37451 2.8934 5.22279
9.02239 60000002600145512 60000002600145511 60000002600145521 60000002600145510 7.00541704554 -4.41051 3.6609 4.65499
9.0666 60000002600145511 60000002600145510 60000002600145521 60000002600145509 6.85511726265 -3.74832 2.52829 3.10775
9.08845 60000002600145510 60000002600145509 60000002600145521 60000002600145508 6.49159774567 -4.69934 2.21743 7.32026
9.11681 60000002600145509 60000002600145508 60000002600145521 60000002600145507 6.14490120342 -2.36971 2.78662 6.24577
9.13394 60000002600145508 60000002600145507 60000002600145521 60000002600145506 6.01075739884 -1.9555 1.29409 4.71298
9.15273 60000002600145507 60000002600145505 60000002600145521 60000002600145504 5.52976580795 -0.723791 0.730253 4.46054
9.1663 60000002600145505 60000002600145504 60000002600145521 60000002600145503 5.22758097313 -1.71457 0.0609991 2.63728
9.1663 60000002600145504 60000002600145503 60000002600145521 60000002600145502 4.99593346816 -1.903 0.655469 5.57392
9.22845 60000002600145503 60000002600145502 60000002600145521 60000002600145501 4.93938066349 -7.41575 -1.05518 3.67101
9.26365 60000002600145502 60000002600145501 60000002600145521 60000002600145500 4.66451770247 -6.53311 -2.54719 4.08794
9.31083 60000002600145501 60000002600145500 60000002600145521 60000002600145499 4.42803373661 -7.84486 -4.13585 -0.891476
9.31083 60000002600145500 60000002600145495 60000002600145521 60000002600145494 3.49086136926 -2.73999 -0.292552 0.633684
9.35483 60000002600145495 60000002600145493 60000002600145521 60000002600145492 3.08482263583 -3.26349 2.20033 -5.56812
9.0066 60000002600145574 60000002600145573 60000002600145584 60000002600145572 3.00813107163 2.44914 -4.51334 7.52234
9.01614 60000002600145573 60000002600145571 60000002600145584 60000002600145570 2.73314261732 4.10978 1.70847 -4.90291
9.16852 60000002600145787 60000002600145786 60000002600145793 60000002600145785 8.01217294887 1.11477 14.2223 1.72594
9.17946 60000002600145786 60000002600145785 60000002600145793 60000002600145784 7.59510714987 -0.942289 9.68964 3.35266
9.24918 60000002600145785 60000002600145784 60000002600145793 60000002600145783 7.23627606617 0.124043 12.3381 1.74263
9.30115 60000002600145784 60000002600145783 60000002600145793 60000002600145782 7.00541704554 -0.396514 13.017 -5.57353
9.40001 60000002600145783 60000002600145782 60000002600145793 60000002600145781 6.85511726265 7.12822 11.7914 -15.1117
9.43377 60000002600145782 60000002600145781 60000002600145793 60000002600145780 6.49159774567 -2.80592 9.33733 -11.5114
9.48799 60000002600145781 60000002600145780 60000002600145793 60000002600145779 6.14490120342 3.16849 12.5531 -10.1586
9.49431 60000002600145780 60000002600145779 60000002600145793 60000002600145778 6.01075739884 2.92727 7.96715 -9.33307
9.56557 60000002600145779 60000002600145778 60000002600145793 60000002600145777 5.84661374788 -0.785439 2.14168 -11.2171
9.58723 60000002600145778 60000002600145777 60000002600145793 60000002600145776 5.52976580795 1.37779 1.81625 -5.36627
9.62368 60000002600145777 60000002600145776 60000002600145793 60000002600145775 5.22758097313 3.46091 -8.66938 2.51885
9.73959 60000002600145776 60000002600145775 60000002600145793 60000002600145774 4.99593346816 -5.36334 -37.2438 7.5732
9.7799 60000002600145775 60000002600145774 60000002600145793 60000002600145773 4.93938066349 -5.17044 -35.5601 8.96824
9.83673 60000002600145774 60000002600145773 60000002600145793 60000002600145772 4.66451770247 4.99085 -37.2277 7.18476
9.85627 60000002600145773 60000002600145772 60000002600145793 60000002600145771 4.42803373661 9.51279 -33.1481 17.1558
9.87496 60000002600145772 60000002600145771 60000002600145793 60000002600145770 4.17683491473 10.6643 -29.7224 23.8965
9.92896 60000002600145771 60000002600145770 60000002600145793 60000002600145769 4.00794511147 13.2251 -6.24862 9.60864
9.9396 60000002600145770 60000002600145769 60000002600145793 60000002600145768 3.93726108473 9.8266 -21.1396 12.8472
10.013 60000002600145769 60000002600145768 60000002600145793 60000002600145767 3.70877426464 16.5611 8.86969 6.12211
10.0208 60000002600145768 60000002600145767 60000002600145793 60000002600145766 3.49086136926 10.1969 2.77377 -3.95849
10.0621 60000002600145767 60000002600145766 60000002600145793 60000002600145765 3.28303305796 16.6426 4.32415 0.301539
10.0948 60000002600145766 60000002600145765 60000002600145793 60000002600145764 3.08482263583 30.5559 13.3444 3.87801
10.1181 60000002600145765 60000002600145764 60000002600145793 60000002600145763 3.00813107163 31.0766 10.4622 11.272
10.1394 60000002600145764 60000002600145763 60000002600145793 60000002600145762 2.89578500573 33.4732 18.0779 17.1161
10.1801 60000002600145763 60000002600145762 60000002600145793 60000002600145761 2.73314261732 29.1639 10.356 5.81945
10.1954 60000002600145762 60000002600145761 60000002600145793 60000002600145760 2.5772902716 37.6431 24.7377 -4.65267
10.2329 60000002600145761 60000002600145760 60000002600145793 60000002600145759 2.44422570455 42.4708 11.3829 22.8226
10.2534 60000002600145760 60000002600145759 60000002600145793 60000002600145758 2.31611074396 33.4568 9.98266 15.2707
10.2828 60000002600145759 60000002600145758 60000002600145793 60000002600145757 2.20792547238 36.3888 6.89529 15.9361
10.3091 60000002600145758 60000002600145757 60000002600145793 60000002600145756 2.1032696526 26.6912 13.1213 13.7356
10.3259 60000002600145757 60000002600145756 60000002600145793 60000002600145755 2.00202813925 35.8882 5.84332 27.9181
10.3284 60000002600145756 60000002600145754 60000002600145793 60000002600145753 1.82268925262 39.2078 3.71818 36.7913
9.05524 60000002600145820 60000002600145819 60000002600145828 60000002600145818 6.01075739884 -1.90635 -4.8241 8.77098
9.08038 60000002600145819 60000002600145817 60000002600145828 60000002600145816 5.52976580795 -3.57963 -1.76271 11.1985
9.02548 60000002600146076 60000002600146075 60000002600146083 60000002600146074 7.23627606617 -1.7959 2.89579 4.27677
9.03463 60000002600146075 60000002600146074 60000002600146083 60000002600146073 7.00541704554 -0.951774 4.13183 1.94291
9.04358 60000002600146074 60000002600146073 60000002600146083 60000002600146072 6.85511726265 -1.26083 5.01333 1.53766
9.08038 60000002600146073 60000002600146072 60000002600146083 60000002600146071 6.49159774567 -1.26664 0.666617 1.39101
9.21869 60000002600146072 60000002600146071 60000002600146083 60000002600146070 6.14490120342 5.12177 -1.91571 -4.98687
9.31717 60000002600146071 60000002600146069 60000002600146083 60000002600146068 5.84661374788 0.540253 -1.17031 -2.54802
9.33866 60000002600146069 60000002600146068 60000002600146083 60000002600146067 5.52976580795 0.811979 0.961904 -15.0272
9.5931 60000002600146068 60000002600146067 60000002600146083 60000002600146066 5.22758097313 -4.22173 -16.0012 -9.4367
9.74255 60000002600146067 60000002600146066 60000002600146083 60000002600146065 4.99593346816 12.6124 27.8785 14.9196
9.76275 60000002600146066 60000002600146065 60000002600146083 60000002600146064 4.93938066349 10.4479 12.7132 24.1829
9.83339 60000002600146065 60000002600146061 60000002600146083 60000002600146060 4.00794511147 -7.45387 26.7318 29.7096
9.89371 60000002600146061 60000002600146060 60000002600146083 60000002600146059 3.93726108473 -16.0614 31.811 60.4681
10.0744 60000002600146060 60000002600146059 60000002600146083 60000002600146058 3.70877426464 -15.9688 22.8696 90.0544
10.1654 60000002600146059 60000002600146058 60000002600146083 60000002600146057 3.49086136926 -13.9303 27.5266 124.566
10.2179 60000002600146058 60000002600146057 60000002600146083 60000002600146056 3.28303305796 -13.2466 16.5301 119.255
10.3481 60000002600146057 60000002600146054 60000002600146083 60000002600146053 2.89578500573 -3.94034 -0.646623 71.3069
10.4786 60000002600146054 60000002600146052 60000002600146083 60000002600146051 2.5772902716 -8.39426 -8.89077 46.0538
10.4886 60000002600146052 60000002600146051 60000002600146083 60000002600146050 2.44422570455 -14.4278 -11.8919 39.6051
10.5441 60000002600146051 60000002600146050 60000002600146083 60000002600146049 2.31611074396 5.6845 -19.0053 38.8094
10.5591 60000002600146050 60000002600146049 60000002600146083 60000002600146048 2.20792547238 0.843308 -33.5448 48.1273
10.5787 60000002600146049 60000002600146048 60000002600146083 60000002600146047 2.1032696526 12.7746 -37.164 57.4495
10.5834 60000002600146048 60000002600146047 60000002600146083 60000002600146046 2.00202813925 35.2016 -41.1433 41.8757
9.12668 60000002600146101 60000002600146100 60000002600146116 60000002600146099 4.66451770247 -18.2389 -7.66968 -4.5573
9.02855 60000002600146151 60000002600146150 60000002600146158 60000002600146149 7.59510714987 -0.495354 -4.14108 2.93847
9.05811 60000002600146150 60000002600146149 60000002600146158 60000002600146148 7.23627606617 -1.54606 -3.51596 4.4163
9.11431 60000002600146149 60000002600146148 60000002600146158 60000002600146147 7.00541704554 -0.339979 -2.94074 3.80458
9.22651 60000002600146148 60000002600146146 60000002600146158 60000002600146145 6.49159774567 -0.186496 -5.0824 4.34993
9.26896 60000002600146146 60000002600146145 60000002600146158 60000002600146144 6.14490120342 0.780619 -3.92542 5.33762
9.34902 60000002600146145 60000002600146143 60000002600146158 60000002600146142 5.84661374788 11.4444 -2.6663 11.9225
9.45833 60000002600146143 60000002600146142 60000002600146158 60000002600146141 5.52976580795 8.34127 3.26851 14.3685
9.5207 60000002600146142 60000002600146141 60000002600146158 60000002600146140 5.22758097313 5.97959 3.52979 15.0418
9.61026 60000002600146141 60000002600146140 60000002600146158 60000002600146139 4.99593346816 8.14307 -0.271069 9.29987
9.62754 60000002600146140 60000002600146139 60000002600146158 60000002600146138 4.93938066349 7.9061 0.0227008 9.11832
9.69051 60000002600146139 60000002600146138 60000002600146158 60000002600146137 4.66451770247 9.63158 -4.71761 13.3472
9.71005 60000002600146138 60000002600146137 60000002600146158 60000002600146136 4.42803373661 9.36305 -4.98046 13.8483
10.2599 60000002600146137 60000002600146130 60000002600146158 60000002600146129 3.08482263583 -16.4239 8.50659 113.994
10.3302 60000002600146130 60000002600146129 60000002600146158 60000002600146128 3.00813107163 -11.3176 1.5108 90.1733
10.3929 60000002600146129 60000002600146128 60000002600146158 60000002600146052 2.73314261732 -3.48591 -9.52765 66.6379
9.02855 60000002600146231 60000002600146230 60000002600146233 60000002600146229 7.23627606617 -0.267025 4.94214 2.67788
9.08578 60000002600146230 60000002600146229 60000002600146233 60000002600146228 7.00541704554 -0.345984 2.96946 3.71648
9.10415 60000002600146229 60000002600146228 60000002600146233 60000002600146227 6.85511726265 0.327171 2.99796 2.8872
9.21072 60000002600146228 60000002600146227 60000002600146233 60000002600146226 6.49159774567 -3.74291 -0.937831 -5.89197
9.23037 60000002600146227 60000002600146226 60000002600146233 60000002600146225 6.14490120342 0.545703 -3.86793 4.8552
9.31243 60000002600146226 60000002600146225 60000002600146233 60000002600146224 6.01075739884 1.33148 -0.238165 7.8521
9.35627 60000002600146225 60000002600146224 60000002600146233 60000002600146223 5.84661374788 0.557179 -1.5486 10.6467
9.40774 60000002600146224 60000002600146223 60000002600146233 60000002600146222 5.52976580795 -7.88492 1.43662 15.1562
9.51972 60000002600146223 60000002600146222 60000002600146233 60000002600146221 5.22758097313 -7.08891 0.909789 10.9848
9.52365 60000002600146222 60000002600146221 60000002600146233 60000002600146220 4.99593346816 -8.38522 3.45439 12.6856
9.55204 60000002600146221 60000002600146220 60000002600146233 60000002600146219 4.93938066349 -8.98743 5.18413 11.0117
9.58041 60000002600146220 60000002600146219 60000002600146233 60000002600146218 4.66451770247 -5.9716 7.35367 10.3662
9.59972 60000002600146219 60000002600146218 60000002600146233 60000002600146217 4.42803373661 -3.3788 6.64539 4.98223
9.61106 60000002600146218 60000002600146217 60000002600146233 60000002600146216 4.17683491473 -5.01956 7.76734 7.88262
9.64785 60000002600146217 60000002600146215 60000002600146233 60000002600146214 3.93726108473 -1.92721 -3.16382 9.00471
9.65297 60000002600146215 60000002600146211 60000002600146233 60000002600146210 3.08482263583 -2.12327 -4.64807 4.8759
9.27594 60000002600146286 60000002600146285 60000002600146302 60000002600146284 3.28303305796 2.45928 -10.8221 9.74692
9.27938 60000002600146285 60000002600146284 60000002600146302 60000002600146283 3.08482263583 3.99626 -5.2616 6.55858
9.29124 60000002600146284 60000002600146283 60000002600146302 60000002600146282 3.00813107163 3.48369 -0.818092 6.49867
9.36056 60000002600146283 60000002600146282 60000002600146302 60000002600146281 2.89578500573 2.24693 -1.474 3.16756
9.39609 60000002600146282 60000002600146281 60000002600146302 60000002600146280 2.73314261732 0.384123 -4.4921 3.35102
9.01928 60000002600146304 60000002600146303 60000002600146318 60000002600146285 3.49086136926 10.53 9.36874 3.26512
9.0316 60000002600146557 60000002600146556 60000002600146563 60000002600146555 7.59510714987 0.377344 0.218332 3.86702
9.14344 60000002600146556 60000002600146555 60000002600146563 60000002600146554 7.23627606617 -3.99041 -2.30435 5.74249
9.27938 60000002600146555 60000002600146554 60000002600146563 60000002600146553 7.00541704554 1.13387 -7.45705 3.20881
9.30763 60000002600146554 60000002600146553 60000002600146563 60000002600146552 6.85511726265 2.25003 -6.51355 7.14573
9.51175 60000002600146553 60000002600146552 60000002600146563 60000002600146551 6.49159774567 8.49743 -6.84027 3.51645
9.54836 60000002600146552 60000002600146551 60000002600146563 60000002600146550 6.14490120342 8.58825 -5.06846 6.52379
9.57349 60000002600146551 60000002600146550 60000002600146563 60000002600146549 6.01075739884 6.73426 -6.2299 6.33186
9.58553 60000002600146550 60000002600146549 60000002600146563 60000002600146548 5.84661374788 8.05325 -5.32394 6.209
9.65586 60000002600146549 60000002600146548 60000002600146563 60000002600146547 5.52976580795 -2.96117 -8.62283 1.52609
9.76388 60000002600146548 60000002600146547 60000002600146563 60000002600146546 5.22758097313 1.49329 -9.34422 -3.01542
9.90239 60000002600146547 60000002600146546 60000002600146563 60000002600146545 4.99593346816 15.6782 -0.648115 -2.98439
10.0165 60000002600146546 60000002600146545 60000002600146563 60000002600146544 4.93938066349 -2.12902 11.1372 -4.41416
10.0567 60000002600146545 60000002600146544 60000002600146563 60000002600146543 4.66451770247 -8.11111 -7.19598 -8.577
10.3039 60000002600146544 60000002600146542 60000002600146563 60000002600146541 4.17683491473 -34.6965 35.7213 -0.279238
10.3348 60000002600146542 60000002600146541 60000002600146563 60000002600146540 4.00794511147 -39.786 24.1735 -6.33428
10.3455 60000002600146541 60000002600146540 60000002600146563 60000002600146539 3.93726108473 -36.0935 22.6431 -2.14363
10.4067 60000002600146540 60000002600146539 60000002600146563 60000002600146538 3.70877426464 -45.2028 33.6054 -0.821802
10.4502 60000002600146539 60000002600146538 60000002600146563 60000002600146537 3.49086136926 -63.6724 31.6069 -5.00474
10.4757 60000002600146538 60000002600146537 60000002600146563 60000002600146536 3.28303305796 -78.6394 42.9591 -10.6454
10.5076 60000002600146537 60000002600146536 60000002600146563 60000002600146535 3.08482263583 -81.9981 37.1605 -9.99277
10.5142 60000002600146536 60000002600146535 60000002600146563 60000002600146534 3.00813107163 -86.5019 35.7353 -10.729
10.5208 60000002600146535 60000002600146534 60000002600146563 60000002600146533 2.89578500573 -80.7158 42.5816 -13.2336
10.9306 60000002600146534 60000002600146525 60000002600146563 60000002600146524 1.82268925262 -515.282 -90.3098 295.593
11.0519 60000002600146525 60000002600146521 60000002600146563 60000002600146520 1.53123902916 -385.191 -228.017 175.926
11.6106 60000002600146521 60000002600146513 60000002600146563 60000002600146512 1.11415056377 588.507 781.626 556.284
11.6667 60000002600146513 60000002600146504 60000002600146563 60000002600146503 0.816709979012 504.086 572.718 452.294
9.04945 60000002600146580 60000002600146579 60000002600146584 60000002600146578 6.14490120342 -6.01497 0.951498 -1.79584
9.13394 60000002600146579 60000002600146578 60000002600146584 60000002600146577 6.01075739884 -5.16396 1.13595 2.41089
9.14578 60000002600146578 60000002600146577 60000002600146584 60000002600146576 5.84661374788 -7.01962 3.21555 2.47053
9.16852 60000002600146577 60000002600146576 60000002600146584 60000002600146575 5.52976580795 -7.9207 3.5314 1.47264
10.1502 60000002600146600 60000002600146599 60000002600146600 60000002600146542 4.42803373661 -8.44704 12.8965 -0.461986
9.03463 60000002600146685 60000002600146684 60000002600146688 60000002600146683 6.49159774567 15.0373 10.3482 -0.00226528
9.43136 60000002600146684 60000002600146683 60000002600146688 60000002600146682 6.14490120342 10.0596 -4.54739 3.41664
9.53236 60000002600146683 60000002600146681 60000002600146688 60000002600146680 5.84661374788 0.519574 -11.1833 2.71657
9.56999 60000002600146681 60000002600146680 60000002600146688 60000002600146679 5.52976580795 5.32862 -8.83703 -0.462962
9.62056 60000002600146680 60000002600146679 60000002600146688 60000002600146678 5.22758097313 -2.11632 -9.36678 -0.472241
9.06096 60000002600146724 60000002600146723 60000002600146732 60000002600146722 5.52976580795 -4.75403 -2.84387 -7.87485
9.13154 60000002600146723 60000002600146722 60000002600146732 60000002600146721 5.22758097313 -6.06761 -3.61492 -8.96752
9.21472 60000002600146722 60000002600146721 60000002600146732 60000002600146720 4.99593346816 -6.80079 -2.01219 -6.77285
9.33415 60000002600146721 60000002600146718 60000002600146732 60000002600146717 4.42803373661 0.532534 12.656 -0.548972
9.09637 60000002600146749 60000002600146748 60000002600146752 60000002600146747 5.22758097313 -2.29285 19.5895 -0.809748
9.1193 60000002600146748 60000002600146747 60000002600146752 60000002600146746 4.99593346816 -2.46489 18.3413 0.691495
9.16852 60000002600146747 60000002600146746 60000002600146752 60000002600146745 4.93938066349 -4.19341 15.7259 0.481671
9.21272 60000002600146746 60000002600146745 60000002600146752 60000002600146744 4.66451770247 1.17441 12.29 -0.906204
9.24918 60000002600146745 60000002600146744 60000002600146752 60000002600146743 4.42803373661 -2.87716 6.20783 -6.3101
9.32342 60000002600146744 60000002600146742 60000002600146752 60000002600146741 4.00794511147 3.20102 15.9817 -1.16766
9.01298 60000002600146774 60000002600146773 60000002600146786 60000002600146772 3.70877426464 -6.12875 2.75291 -6.52355
9.01614 60000002600146773 60000002600146772 60000002600146786 60000002600146771 3.49086136926 -3.5636 0.116655 -7.85459
9.0666 60000002600146772 60000002600146771 60000002600146786 60000002600146770 3.28303305796 -12.0157 3.03941 -12.5961
9.09111 60000002600146771 60000002600146769 60000002600146786 60000002600146768 3.00813107163 -13.1137 7.00766 -6.67022
9.16852 60000002600146769 60000002600146767 60000002600146786 60000002600146766 2.73314261732 -3.47372 8.87389 -10.906
9.01928 60000002600146797 60000002600146796 60000002600146806 60000002600146795 3.28303305796 9.13709 -2.54469 -8.20297
9.08845 60000002600146796 60000002600146794 60000002600146806 60000002600146793 3.00813107163 1.51975 -6.31868 -5.36933
9.00337 60000002600146872 60000002600146871 60000002600146876 60000002600146870 6.14490120342 2.56543 2.77652 -3.39825
9.07766 60000002600146871 60000002600146870 60000002600146876 60000002600146869 6.01075739884 5.35172 -3.76269 0.255077
9.2026 60000002600146870 60000002600146869 60000002600146876 60000002600146868 5.84661374788 1.52099 -5.14847 0.460998
9.25828 60000002600146869 60000002600146868 60000002600146876 60000002600146867 5.52976580795 1.47212 -3.84962 -5.7891
9.31874 60000002600146868 60000002600146867 60000002600146876 60000002600146866 5.22758097313 -0.697456 -6.55812 -2.82418
9.43257 60000002600146867 60000002600146866 60000002600146876 60000002600146865 4.99593346816 -8.73936 -10.4005 10.9289
9.76557 60000002600146866 60000002600146864 60000002600146876 60000002600146863 4.66451770247 27.1909 11.1225 -2.07089
10.0666 60000002600146864 60000002600146862 60000002600146876 60000002600146861 4.17683491473 18.9457 1.49239 -8.94219
10.1453 60000002600146862 60000002600146861 60000002600146876 60000002600146860 4.00794511147 2.48183 -9.47864 -0.666019
10.201 60000002600146861 60000002600146860 60000002600146876 60000002600146859 3.93726108473 -4.68545 -5.4653 11.6501
10.3186 60000002600146860 60000002600146859 60000002600146876 60000002600146858 3.70877426464 -9.55009 -7.47304 16.1249
10.3265 60000002600146859 60000002600146858 60000002600146876 60000002600146857 3.49086136926 -3.62327 -3.29425 12.5905
10.3873 60000002600146858 60000002600146857 60000002600146876 60000002600146856 3.28303305796 -2.13614 -4.1558 0.796186
10.3996 60000002600146857 60000002600146856 60000002600146876 60000002600146855 3.08482263583 -6.05803 -8.00125 -4.80652
10.4061 60000002600146856 60000002600146855 60000002600146876 60000002600146854 3.00813107163 -6.5035 -10.9964 -1.46706
10.415 60000002600146855 60000002600146853 60000002600146876 60000002600146852 2.73314261732 -53.315 -22.5944 -1.27746
10.458 60000002600146853 60000002600146852 60000002600146876 60000002600146851 2.5772902716 -106.263 -16.682 52.0331
10.5095 60000002600146852 60000002600146851 60000002600146876 60000002600146850 2.44422570455 -124.382 -28.8714 78.4059
10.5703 60000002600146851 60000002600146850 60000002600146876 60000002600146849 2.31611074396 -89.9879 -46.7639 49.767
10.6091 60000002600146850 60000002600146849 60000002600146876 60000002600146848 2.20792547238 -135.773 -47.3653 69.179
10.6691 60000002600146849 60000002600146848 60000002600146876 60000002600146847 2.1032696526 -108.908 -44.9265 26.4864
10.7919 60000002600146848 60000002600146847 60000002600146876 60000002600146846 2.00202813925 -201.139 -11.1611 56.6168
10.9066 60000002600146847 60000002600146846 60000002600146876 60000002600146845 1.90408954353 -411.038 -81.2073 147.293
11.0133 60000002600146846 60000002600146843 60000002600146876 60000002600146842 1.66666955611 -333.256 -173.239 159.748
11.0334 60000002600146843 60000002600146842 60000002600146876 60000002600146841 1.60423452207 -347.22 -200.383 223.464
10.0218 60000002600146879 60000002600146878 60000002600146892 60000002600146862 4.42803373661 19.3401 -4.32685 -31.8065
9.0066 60000002600146933 60000002600146932 60000002600146943 60000002600146931 5.52976580795 -0.912697 4.1766 0.766593
9.0316 60000002600146932 60000002600146931 60000002600146943 60000002600146930 5.22758097313 2.17348 -0.760975 -8.03727
9.08845 60000002600146931 60000002600146930 60000002600146943 60000002600146929 4.99593346816 2.00646 -1.12078 -13.6975
9.15502 60000002600146930 60000002600146929 60000002600146943 60000002600146928 4.93938066349 10.0531 -0.441718 -16.8835
9.00012 60000002600146979 60000002600146978 60000002600146986 60000002600146977 7.59510714987 0.262885 2.02295 2.2979
9.19433 60000002600146978 60000002600146977 60000002600146986 60000002600146976 7.23627606617 -3.76782 -1.5492 1.60579
9.30923 60000002600146977 60000002600146976 60000002600146986 60000002600146975 7.00541704554 10.4989 5.06605 7.71017
9.39346 60000002600146976 60000002600146975 60000002600146986 60000002600146974 6.85511726265 7.59905 6.42728 17.4492
9.43617 60000002600146975 60000002600146974 60000002600146986 60000002600146973 6.49159774567 8.33352 7.51163 17.5048
9.55113 60000002600146974 60000002600146973 60000002600146986 60000002600146972 6.14490120342 -2.59806 -1.46401 7.93903
9.56911 60000002600146973 60000002600146972 60000002600146986 60000002600146971 6.01075739884 -0.483427 1.87306 -1.55971
9.62523 60000002600146972 60000002600146971 60000002600146986 60000002600146970 5.84661374788 6.46718 3.68375 7.41989
9.65369 60000002600146971 60000002600146970 60000002600146986 60000002600146969 5.52976580795 7.74989 4.24717 10.047
9.76444 60000002600146970 60000002600146969 60000002600146986 60000002600146968 5.22758097313 -1.62334 -2.78141 -0.261558
9.81076 60000002600146969 60000002600146968 60000002600146986 60000002600146967 4.99593346816 -29.318 -17.6376 -25.384
9.83387 60000002600146968 60000002600146967 60000002600146986 60000002600146966 4.93938066349 -26.5749 -16.9335 -21.6264
9.09111 60000002600147049 60000002600147048 60000002600147055 60000002600147047 3.70877426464 2.49237 14.3328 0.17512
9.09637 60000002600147048 60000002600147047 60000002600147055 60000002600147046 3.49086136926 4.19505 15.8207 1.46126
9.10157 60000002600147047 60000002600147046 60000002600147055 60000002600147045 3.28303305796 3.64522 10.6037 5.01365
9.12912 60000002600147046 60000002600147045 60000002600147055 60000002600147044 3.08482263583 6.60747 18.1105 8.75961
9.03763 60000002600147175 60000002600147174 60000002600147182 60000002600147173 6.49159774567 -4.24195 -1.38181 7.35018
9.10157 60000002600147174 60000002600147173 60000002600147182 60000002600147172 6.14490120342 -4.13302 -3.92006 6.36531
9.14578 60000002600147173 60000002600147172 60000002600147182 60000002600147171 6.01075739884 -0.537211 -6.48749 6.35937
9.18802 60000002600147172 60000002600147171 60000002600147182 60000002600147170 5.84661374788 -1.76467 -6.76238 3.12377
9.26543 60000002600147171 60000002600147170 60000002600147182 60000002600147169 5.52976580795 9.60394 0.549163 -3.08046
9.32651 60000002600147170 60000002600147169 60000002600147182 60000002600147168 5.22758097313 3.91859 -2.07225 0.331282
9.37457 60000002600147169 60000002600147168 60000002600147182 60000002600147167 4.99593346816 5.15792 -4.42824 1.3447
9.38948 60000002600147168 60000002600147167 60000002600147182 60000002600147166 4.93938066349 5.10179 -2.44747 1.99514
9.44329 60000002600147167 60000002600147166 60000002600147182 60000002600147165 4.66451770247 2.13796 -0.106899 9.26185
9.51774 60000002600147166 60000002600147165 60000002600147182 60000002600147164 4.42803373661 -3.27873 8.71849 13.7978
9.58041 60000002600147165 60000002600147164 60000002600147182 60000002600147163 4.17683491473 -6.17025 6.3122 12.0095
9.61584 60000002600147164 60000002600147163 60000002600147182 60000002600147162 4.00794511147 -6.40392 6.00894 12.6463
9.64638 60000002600147163 60000002600147162 60000002600147182 60000002600147161 3.93726108473 -1.47543 3.26029 6.55096
9.69712 60000002600147162 60000002600147161 60000002600147182 60000002600147160 3.70877426464 3.36084 -7.57269 1.33241
9.71385 60000002600147161 60000002600147160 60000002600147182 60000002600147159 3.49086136926 3.00552 -2.80483 1.52123
9.76836 60000002600147160 60000002600147159 60000002600147182 60000002600147158 3.28303305796 4.07872 -14.5235 -3.32281
9.78475 60000002600147159 60000002600147158 60000002600147182 60000002600147157 3.08482263583 3.8026 -8.54082 -7.11025
9.81778 60000002600147158 60000002600147157 60000002600147182 60000002600147156 3.00813107163 -1.49977 -4.81153 -2.34907
9.84847 60000002600147157 60000002600147156 60000002600147182 60000002600147155 2.89578500573 1.58311 -5.24428 -0.83153
9.87843 60000002600147156 60000002600147155 60000002600147182 60000002600147154 2.73314261732 1.96339 -20.9653 -8.1093
9.92934 60000002600147155 60000002600147154 60000002600147182 60000002600147153 2.5772902716 8.63697 -15.9288 -13.5775
9.95833 60000002600147154 60000002600147153 60000002600147182 60000002600147152 2.44422570455 27.5995 -12.3975 -26.3669
9.9975 60000002600147153 60000002600147152 60000002600147182 60000002600147151 2.31611074396 20.7481 -16.0775 -32.606
10.0361 60000002600147152 60000002600147151 60000002600147182 60000002600147150 2.20792547238 25.7208 -7.26168 -55.8382
9.0316 60000002600147259 60000002600147258 60000002600147272 60000002600147257 4.00794511147 6.91699 -7.16268 -6.69578
9.08038 60000002600147258 60000002600147256 60000002600147272 60000002600147255 3.70877426464 10.9558 -8.98887 -7.36328
9.09898 60000002600147256 60000002600147254 60000002600147272 60000002600147253 3.28303305796 11.8154 -13.7751 -9.75604
9.11431 60000002600147254 60000002600147253 60000002600147272 60000002600147252 3.08482263583 7.60032 -13.2397 -7.14716
9.14811 60000002600147253 60000002600147252 60000002600147272 60000002600147251 3.00813107163 5.47954 -16.3236 -9.99937
9.15956 60000002600147252 60000002600147251 60000002600147272 60000002600147250 2.89578500573 3.24125 -15.1353 -9.86388
9.43015 60000002600147356 60000002600147355 60000002600147366 60000002600147354 4.99593346816 -7.21359 -1.34699 -30.5134
9.44093 60000002600147355 60000002600147353 60000002600147366 60000002600147352 4.66451770247 -16.1029 -3.09659 -16.9654
9.53332 60000002600147353 60000002600147352 60000002600147366 60000002600147351 4.42803373661 -10.8678 0.25012 -16.0721
9.57436 60000002600147352 60000002600147351 60000002600147366 60000002600147350 4.17683491473 -14.5378 1.78412 -29.0707
9.5989 60000002600147351 60000002600147350 60000002600147366 60000002600147349 4.00794511147 -9.77459 -0.542355 -22.8942
9.63744 60000002600147350 60000002600147349 60000002600147366 60000002600147348 3.93726108473 -16.9816 -1.40124 -36.729
9.63969 60000002600147349 60000002600147348 60000002600147366 60000002600147347 3.70877426464 -18.2748 -3.33049 -33.471
9.65005 60000002600147348 60000002600147347 60000002600147366 60000002600147346 3.49086136926 -13.6995 -1.27105 -29.0397
9.73299 60000002600147347 60000002600147346 60000002600147366 60000002600147345 3.28303305796 1.42554 4.19235 -14.3096
9.74018 60000002600147346 60000002600147345 60000002600147366 60000002600147344 3.08482263583 -9.55429 4.25461 -45.2877
9.79114 60000002600147345 60000002600147343 60000002600147366 60000002600147342 2.89578500573 -20.3701 -12.5381 -26.3316
9.8237 60000002600147343 60000002600147340 60000002600147366 60000002600147339 2.44422570455 5.13748 -4.56384 -36.6728
9.00012 60000002600147422 60000002600147421 60000002600147433 60000002600147420 4.99593346816 -9.02789 -4.20611 -0.920517
9.05811 60000002600147421 60000002600147419 60000002600147433 60000002600147418 4.66451770247 -6.1285 -4.78348 -1.24363
9.08845 60000002600147419 60000002600147418 60000002600147433 60000002600147417 4.42803373661 -6.29285 -2.21061 -1.93438
9.08845 60000002600147418 60000002600147416 60000002600147433 60000002600147415 4.00794511147 -10.5618 -7.83919 -0.627878
9.14108 60000002600147416 60000002600147415 60000002600147433 60000002600147414 3.93726108473 -7.93061 -5.13193 -0.946938
9.1663 60000002600147415 60000002600147414 60000002600147433 60000002600147413 3.70877426464 -10.0165 -6.50039 0.319056
9.16852 60000002600147414 60000002600147413 60000002600147433 60000002600147412 3.49086136926 -7.44222 -7.50491 -2.3848
9.17512 60000002600147413 60000002600147412 60000002600147433 60000002600147411 3.28303305796 -9.45466 -7.24879 -0.739624
9.17729 60000002600147412 60000002600147408 60000002600147433 60000002600147407 2.73314261732 -10.7233 -1.61768 -2.8039
9.26008 60000002600147408 60000002600147407 60000002600147433 60000002600147406 2.5772902716 -9.84612 -9.77431 -0.497214
9.26543 60000002600147407 60000002600147406 60000002600147433 60000002600147405 2.44422570455 -8.37954 -7.552 0.353097
9.26543 60000002600147406 60000002600147405 60000002600147433 60000002600147404 2.31611074396 -10.4793 -7.32823 -0.474702
9.35048 60000002600147405 60000002600147404 60000002600147433 60000002600147403 2.20792547238 -7.84591 -5.69019 2.78298
9.04945 60000002600147541 60000002600147540 60000002600147545 60000002600147539 7.23627606617 0.867928 -2.10082 -1.20009
9.1193 60000002600147540 60000002600147539 60000002600147545 60000002600147538 7.00541704554 0.442063 -4.97407 -1.63969
9.19223 60000002600147539 60000002600147538 60000002600147545 60000002600147537 6.85511726265 3.53996 -6.54642 -5.77348
9.2828 60000002600147538 60000002600147537 60000002600147545 60000002600147536 6.49159774567 5.73368 -4.49499 -3.69759
9.3156 60000002600147537 60000002600147536 60000002600147545 60000002600147535 6.14490120342 4.98814 -6.08682 -3.05681
9.35627 60000002600147536 60000002600147535 60000002600147545 60000002600147534 6.01075739884 2.63979 -4.92353 0.156116
9.43136 60000002600147535 60000002600147534 60000002600147545 60000002600147533 5.84661374788 9.33297 -4.55295 -3.88344
9.46733 60000002600147534 60000002600147533 60000002600147545 60000002600147532 5.52976580795 6.57626 -8.90334 -0.542712
9.59143 60000002600147533 60000002600147532 60000002600147545 60000002600147531 5.22758097313 8.14368 -13.4516 -2.68834
9.75248 60000002600147532 60000002600147531 60000002600147545 60000002600147530 4.99593346816 -0.665154 -39.3516 8.73359
9.76049 60000002600147531 60000002600147529 60000002600147545 60000002600147528 4.66451770247 8.87704 2.88068 -8.01413
9.80874 60000002600147529 60000002600147528 60000002600147545 60000002600147527 4.42803373661 -4.19337 -0.12527 5.81683
9.83816 60000002600147528 60000002600147527 60000002600147545 60000002600147526 4.17683491473 3.1911 12.9363 -3.62672
9.89371 60000002600147527 60000002600147526 60000002600147545 60000002600147525 4.00794511147 -8.90994 -8.65015 10.4164
9.94815 60000002600147526 60000002600147524 60000002600147545 60000002600147523 3.70877426464 -7.01811 -10.9162 9.83154
10.0804 60000002600147524 60000002600147523 60000002600147545 60000002600147522 3.49086136926 29.3321 -0.365921 -17.9288
10.1636 60000002600147523 60000002600147522 60000002600147545 60000002600147521 3.28303305796 38.2547 3.62048 -22.6473
10.2119 60000002600147522 60000002600147521 60000002600147545 60000002600147520 3.08482263583 20.1181 4.25055 -2.24012
10.246 60000002600147521 60000002600147520 60000002600147545 60000002600147519 3.00813107163 20.9064 -0.827002 0.982583
10.2576 60000002600147520 60000002600147519 60000002600147545 60000002600147518 2.89578500573 26.6117 -18.7466 6.62312
10.2894 60000002600147519 60000002600147518 60000002600147545 60000002600147517 2.73314261732 22.9784 -7.40806 -3.80479
10.2965 60000002600147518 60000002600147516 60000002600147545 60000002600147515 2.44422570455 22.35 -0.900166 -20.1194
10.3256 60000002600147516 60000002600147515 60000002600147545 60000002600147514 2.31611074396 28.2481 -8.63386 -17.5488
11.6801 60000002600147515 60000002600147490 60000002600147545 60000002600146502 0.791068248946 443.863 511.116 445.767
9.04358 60000002600147667 60000002600147666 60000002600147670 60000002600147665 5.22758097313 -0.88487 2.9592 -7.86844
9.08309 60000002600147666 60000002600147665 60000002600147670 60000002600147664 4.99593346816 -2.72178 0.37788 -4.30874
9.11431 60000002600147665 60000002600147664 60000002600147670 60000002600147663 4.93938066349 -3.14449 1.87218 -7.58568
9.14811 60000002600147664 60000002600147663 60000002600147670 60000002600147662 4.66451770247 -4.48273 1.32357 -6.59699
9.14811 60000002600147663 60000002600147662 60000002600147670 60000002600147661 4.42803373661 -4.41522 0.285141 -2.9435
9.2342 60000002600147662 60000002600147661 60000002600147670 60000002600147660 4.17683491473 -8.21783 4.73325 -3.94013
9.24733 60000002600147661 60000002600147660 60000002600147670 60000002600147659 4.00794511147 -7.74655 2.03829 -2.9751
9.24733 60000002600147660 60000002600147659 60000002600147670 60000002600147658 3.93726108473 -8.56664 2.45481 -2.56663
9.03463 60000002600147706 60000002600147705 60000002600147713 60000002600147704 5.84661374788 0.700206 5.62564 1.44996
9.03463 60000002600147705 60000002600147700 60000002600147713 60000002600147699 4.66451770247 -0.644221 -0.60359 0.320615
11.6439 60000002600147716 60000002600147715 60000002600147727 60000002600147490 0.851470900625 509.776 641.147 514.839
9.01298 60000002600147971 60000002600147970 60000002600147994 60000002600147969 1.30237845991 -22.7255 -0.335046 1.65069
9.01298 60000002600147970 60000002600147968 60000002600147994 60000002600147967 1.20625808078 -25.0133 -3.45501 3.49463
9.01298 60000002600147968 60000002600147965 60000002600147994 60000002600147964 1.07445789455 -20.9409 -3.85486 2.4467
9.02548 60000002600147965 60000002600147964 60000002600147994 60000002600147963 1.03551044566 -20.6592 -3.69495 3.33197
9.0316 60000002600147964 60000002600147961 60000002600147994 60000002600147960 0.950531351585 -13.4077 1.15008 5.9297
9.04062 60000002600147961 60000002600147960 60000002600147994 60000002600147959 0.923000816178 -13.9112 2.5293 6.46182
9.05811 60000002600147960 60000002600147956 60000002600147994 60000002600147955 0.791068248946 -15.8891 -0.950209 5.97877
9.01614 60000002600148297 60000002600148296 60000002600148306 60000002600148295 4.99593346816 4.25914 -4.67041 6.09166
9.13154 60000002600148296 60000002600148293 60000002600148306 60000002600148292 4.42803373661 11.458 -10.0202 3.71305
9.13154 60000002600148293 60000002600148292 60000002600148306 60000002600148291 4.17683491473 11.1247 -11.0765 1.9471
9.18162 60000002600148292 60000002600148291 60000002600148306 60000002600148290 4.00794511147 10.5889 -10.839 2.06303
9.18589 60000002600148291 60000002600148290 60000002600148306 60000002600148289 3.93726108473 12.2239 -9.97136 1.38958
9.22066 60000002600148290 60000002600148289 60000002600148306 60000002600148288 3.70877426464 9.03321 -10.84 0.638608
9.25101 60000002600148289 60000002600148288 60000002600148306 60000002600148287 3.49086136926 10.8141 -7.78257 1.70924
9.26365 60000002600148288 60000002600148285 60000002600148306 60000002600148284 3.00813107163 9.46105 -6.44548 1.10344
9.2811 60000002600148285 60000002600148283 60000002600148306 60000002600148282 2.73314261732 5.41753 0.269039 4.15044
9.21671 60000002600148378 60000002600148377 60000002600148386 60000002600148376 5.52976580795 -9.2303 -6.8014 -28.6645
9.2811 60000002600148377 60000002600148376 60000002600148386 60000002600148375 5.22758097313 -5.08348 -3.93027 -16.0778
9.43617 60000002600148376 60000002600148375 60000002600148386 60000002600148374 4.99593346816 6.51258 -7.48819 -11.2856
9.46955 60000002600148375 60000002600148373 60000002600148386 60000002600148372 4.66451770247 -9.72926 -4.33376 -11.1015
9.55841 60000002600148373 60000002600148372 60000002600148386 60000002600148371 4.42803373661 -5.81514 -3.66006 -14.8797
9.68447 60000002600148372 60000002600148371 60000002600148386 60000002600148370 4.17683491473 -11.878 -5.92729 -23.4442
9.7226 60000002600148371 60000002600148370 60000002600148386 60000002600148369 4.00794511147 -11.9081 -6.7202 -22.2811
9.7455 60000002600148370 60000002600148368 60000002600148386 60000002600148367 3.70877426464 -17.3173 -5.06062 -18.4486
9.84052 60000002600148368 60000002600148367 60000002600148386 60000002600148366 3.49086136926 -20.9866 0.691597 -15.6606
10.1392 60000002600148367 60000002600148365 60000002600148386 60000002600148364 3.08482263583 -56.9126 5.39596 -71.164
10.1432 60000002600148365 60000002600148364 60000002600148386 60000002600148363 3.00813107163 -58.6877 1.4317 -80.036
10.1721 60000002600148364 60000002600148363 60000002600148386 60000002600148362 2.89578500573 -59.175 -1.22107 -89.3951
10.2599 60000002600148363 60000002600148362 60000002600148386 60000002600148361 2.73314261732 -71.4307 -7.07281 -127.45
10.2859 60000002600148362 60000002600148361 60000002600148386 60000002600148360 2.5772902716 -91.5866 -4.86704 -133.452
10.3245 60000002600148361 60000002600148359 60000002600148386 60000002600148358 2.31611074396 -89.8494 -5.0392 -136.237
10.3393 60000002600148359 60000002600148356 60000002600148386 60000002600148355 2.00202813925 -92.8695 -5.12108 -134.983
10.355 60000002600148356 60000002600148355 60000002600148386 60000002600148354 1.90408954353 -90.5303 -8.34359 -132.563
10.3669 60000002600148355 60000002600148351 60000002600148386 60000002600148350 1.60423452207 -77.4188 -25.8939 -96.3996
10.3708 60000002600148351 60000002600148344 60000002600148386 60000002600148343 1.20625808078 -78.7474 -10.2409 -79.4371
10.3777 60000002600148344 60000002600148341 60000002600148386 60000002600148340 1.07445789455 -94.3631 -27.9485 -68.8469
9.01614 60000002600148429 60000002600148428 60000002600148431 60000002600148427 4.99593346816 0.340571 -11.2928 -5.43359
9.01928 60000002600148428 60000002600148427 60000002600148431 60000002600148426 4.93938066349 0.509045 -11.1837 -4.59527
9.22457 60000002600148427 60000002600148426 60000002600148431 60000002600148425 4.66451770247 -9.78124 -9.51846 -2.48516
9.35194 60000002600148426 60000002600148425 60000002600148431 60000002600148424 4.42803373661 -11.7899 -1.55031 -7.34152
9.49951 60000002600148425 60000002600148424 60000002600148431 60000002600148423 4.17683491473 -14.2278 4.68213 -14.7367
9.52169 60000002600148424 60000002600148423 60000002600148431 60000002600148422 4.00794511147 -16.8034 7.09595 -9.80407
9.52851 60000002600148423 60000002600148422 60000002600148431 60000002600148421 3.93726108473 -16.3839 7.13681 -10.1551
9.69647 60000002600148422 60000002600148421 60000002600148431 60000002600148420 3.70877426464 -20.6669 10.7919 -32.4928
9.96405 60000002600148421 60000002600148419 60000002600148431 60000002600148365 3.28303305796 -56.7302 17.1281 -82.9632
9.00012 60000002600148461 60000002600148460 60000002600148470 60000002600148459 5.22758097313 -0.319498 8.09882 2.11643
9.09637 60000002600148460 60000002600148459 60000002600148470 60000002600148458 4.99593346816 -3.29348 1.9785 3.53236
9.12178 60000002600148459 60000002600148458 60000002600148470 60000002600148457 4.93938066349 -2.41586 1.56945 4.22457
9.14811 60000002600148458 60000002600148457 60000002600148470 60000002600148456 4.66451770247 -4.72903 10.2512 3.21612
9.21472 60000002600148457 60000002600148456 60000002600148470 60000002600148455 4.42803373661 0.715983 10.1964 5.07621
9.21671 60000002600148456 60000002600148455 60000002600148470 60000002600148454 4.17683491473 -0.815878 8.22915 5.66678
9.22066 60000002600148455 60000002600148454 60000002600148470 60000002600148453 4.00794511147 -0.258873 8.46567 5.18366
9.24175 60000002600148454 60000002600148453 60000002600148470 60000002600148452 3.93726108473 -0.373404 7.48667 4.85631
9.09111 60000002600148552 60000002600148551 60000002600148563 60000002600148550 6.14490120342 1.85182 5.08852 1.15499
9.13154 60000002600148551 60000002600148548 60000002600148563 60000002600148547 5.52976580795 4.89455 2.02265 0.552797
9.17729 60000002600148548 60000002600148546 60000002600148563 60000002600148545 4.99593346816 5.80918 4.04853 -1.29758
9.19433 60000002600148546 60000002600148544 60000002600148563 60000002600148543 4.66451770247 3.54181 5.19041 0.734736
9.20668 60000002600148544 60000002600148543 60000002600148563 60000002600148542 4.42803373661 2.19141 3.00627 1.18871
9.23037 60000002600148543 60000002600148542 60000002600148563 60000002600148541 4.17683491473 2.3785 3.56402 1.33536
9.31717 60000002600148542 60000002600148541 60000002600148563 60000002600148540 4.00794511147 -14.2705 4.41817 8.98295
9.38141 60000002600148541 60000002600148540 60000002600148563 60000002600148539 3.93726108473 -16.5278 10.2802 10.3362
9.43737 60000002600148540 60000002600148539 60000002600148563 60000002600148538 3.70877426464 -18.7936 12.806 11.0481
9.54836 60000002600148539 60000002600148538 60000002600148563 60000002600148537 3.49086136926 -25.0422 4.34836 12.2593
9.58723 60000002600148538 60000002600148537 60000002600148563 60000002600148536 3.28303305796 -15.6239 -35.3474 -3.16566
9.67767 60000002600148537 60000002600148536 60000002600148563 60000002600148535 3.08482263583 -24.3613 -20.6435 4.44334
9.1193 60000002600148662 60000002600148661 60000002600148671 60000002600148660 4.99593346816 5.21369 3.64213 3.27608
9.23988 60000002600148661 60000002600148660 60000002600148671 60000002600148659 4.93938066349 5.99469 0.253967 0.744332
9.24548 60000002600148660 60000002600148656 60000002600148671 60000002600148655 4.00794511147 2.31403 3.60138 2.92484
9.30278 60000002600148656 60000002600148654 60000002600148671 60000002600148653 3.70877426464 -1.42682 3.47172 4.83516
9.32805 60000002600148654 60000002600148652 60000002600148671 60000002600148651 3.28303305796 -1.7682 5.48469 10.0105
9.33866 60000002600148652 60000002600148651 60000002600148671 60000002600148650 3.08482263583 3.95881 6.88755 7.65461
9.37595 60000002600148651 60000002600148650 60000002600148671 60000002600148649 3.00813107163 4.34763 -0.793625 1.76262
9.41029 60000002600148650 60000002600148649 60000002600148671 60000002600148648 2.89578500573 8.03193 -4.56937 4.48068
9.43974 60000002600148649 60000002600148648 60000002600148671 60000002600148647 2.73314261732 1.33628 -11.4565 1.49233
9.49431 60000002600148648 60000002600148646 60000002600148671 60000002600148645 2.44422570455 9.50767 -15.4752 2.56493
9.5256 60000002600148646 60000002600148645 60000002600148671 60000002600148644 2.31611074396 10.2683 -12.8684 1.82887
9.0066 60000002600148817 60000002600148816 60000002600148830 60000002600148815 4.00794511147 -1.45504 2.88368 5.72581
9.02855 60000002600148816 60000002600148815 60000002600148830 60000002600148814 3.93726108473 -0.922147 3.33958 3.93444
9.05524 60000002600148815 60000002600148814 60000002600148830 60000002600148813 3.70877426464 0.912128 -0.585983 6.44223
9.12668 60000002600148814 60000002600148813 60000002600148830 60000002600148812 3.49086136926 -1.88125 -1.76284 5.19663
9.13394 60000002600148813 60000002600148812 60000002600148830 60000002600148811 3.28303305796 -1.7626 -1.69675 3.76855
9.17729 60000002600148812 60000002600148811 60000002600148830 60000002600148810 3.08482263583 -1.7451 -3.99976 3.68088
9.19848 60000002600148811 60000002600148809 60000002600148830 60000002600148808 2.89578500573 0.557497 -3.44967 3.12157
9.20668 60000002600148809 60000002600148806 60000002600148830 60000002600148805 2.44422570455 0.164788 -0.907331 5.24377
9.22066 60000002600148806 60000002600148805 60000002600148830 60000002600148804 2.31611074396 -0.784131 1.78989 2.31154
9.22066 60000002600148805 60000002600148804 60000002600148830 60000002600148803 2.20792547238 -2.87064 -0.646126 -3.27654
9.2361 60000002600148804 60000002600148801 60000002600148830 60000002600148800 1.90408954353 -2.07161 -0.37265 4.99578
9.24175 60000002600148801 60000002600148800 60000002600148830 60000002600148799 1.82268925262 -2.46835 -6.49046 6.40875
9.25101 60000002600148800 60000002600148799 60000002600148830 60000002600148798 1.74357057433 -0.117419 -5.40166 4.01886
9.26365 60000002600148799 60000002600148798 60000002600148830 60000002600148797 1.66666955611 -0.825214 -6.58593 1.69232
9.26543 60000002600148798 60000002600148796 60000002600148830 60000002600148795 1.53123902916 2.16929 -6.48606 -0.0570795
9.27594 60000002600148796 60000002600148795 60000002600148830 60000002600148794 1.47197484527 2.47819 -5.04353 -2.98013
9.2862 60000002600148795 60000002600148793 60000002600148830 60000002600148792 1.3575766674 5.47909 -5.62848 -1.03989
9.2862 60000002600148793 60000002600148792 60000002600148830 60000002600148791 1.30237845991 3.64836 -8.77291 -4.16658
9.2862 60000002600148792 60000002600148791 60000002600148830 60000002600148790 1.24847261425 3.1797 -4.73528 -2.05262
9.28788 60000002600148791 60000002600148790 60000002600148830 60000002600148789 1.20625808078 3.55433 -5.32272 -2.7002
9.31083 60000002600148790 60000002600148789 60000002600148830 60000002600148788 1.15460271236 6.03832 -3.09239 -5.28645
9.32031 60000002600148789 60000002600148787 60000002600148830 60000002600148786 1.07445789455 1.39139 1.27814 -1.03851
9.07216 60000002600149079 60000002600149078 60000002600149099 60000002600149077 3.93726108473 11.2473 7.0752 -1.09849
9.12668 60000002600149078 60000002600149074 60000002600149099 60000002600149073 3.08482263583 5.79701 0.296626 -2.97768
9.15273 60000002600149074 60000002600149072 60000002600149099 60000002600149071 2.89578500573 4.01656 1.87281 -1.40112
9.22066 60000002600149072 60000002600149071 60000002600149099 60000002600149070 2.73314261732 -1.56845 4.93336 -2.28676
9.22845 60000002600149071 60000002600149068 60000002600149099 60000002600149067 2.31611074396 15.8271 11.6003 -6.87487
9.32805 60000002600149068 60000002600149067 60000002600149099 60000002600149066 2.20792547238 -1.11 18.3019 -3.24653
9.34609 60000002600149067 60000002600149066 60000002600149099 60000002600149065 2.1032696526 2.55854 20.5348 -6.53564
9.0098 60000002600149194 60000002600149193 60000002600149209 60000002600149192 4.00794511147 0.173784 4.43613 0.71947
9.03463 60000002600149193 60000002600149192 60000002600149209 60000002600149191 3.93726108473 0.407644 1.91763 0.18777
9.08309 60000002600149192 60000002600149190 60000002600149209 60000002600149189 3.49086136926 0.448788 -0.619353 -0.296743
9.17293 60000002600149190 60000002600149188 60000002600149209 60000002600149187 3.08482263583 -0.824719 1.69281 1.45766
9.18162 60000002600149188 60000002600149186 60000002600149209 60000002600149185 2.89578500573 -0.952271 2.96049 0.70915
9.19641 60000002600149186 60000002600149184 60000002600149209 60000002600149183 2.5772902716 -3.18311 1.74504 2.88663
9.22651 60000002600149184 60000002600149183 60000002600149209 60000002600149182 2.44422570455 -1.38454 0.501069 -0.14771
9.25101 60000002600149183 60000002600149182 60000002600149209 60000002600149181 2.31611074396 -4.46017 0.51414 -1.52189
9.25466 60000002600149182 60000002600149178 60000002600149209 60000002600149177 1.90408954353 -3.36669 -5.73351 7.03163
9.27246 60000002600149178 60000002600149177 60000002600149209 60000002600149176 1.82268925262 -6.79434 -5.17616 6.98779
9.27938 60000002600149177 60000002600149175 60000002600149209 60000002600149174 1.66666955611 -5.28254 -3.65663 11.409
9.09111 60000002600149292 60000002600149291 60000002600149299 60000002600149290 5.52976580795 2.07692 -2.28151 11.9796
9.13154 60000002600149291 60000002600149290 60000002600149299 60000002600149289 5.22758097313 -3.36225 -3.76478 9.60228
9.13634 60000002600149290 60000002600149289 60000002600149299 60000002600149288 4.99593346816 0.0903871 -3.94949 12.3796
9.14344 60000002600149289 60000002600149288 60000002600149299 60000002600149287 4.93938066349 -2.06069 -2.48294 12.9767
9.14578 60000002600149288 60000002600149287 60000002600149299 60000002600149286 4.66451770247 -1.53667 -4.29065 13.8331
9.1663 60000002600149287 60000002600149286 60000002600149299 60000002600149285 4.42803373661 -1.34883 -4.37494 13.6557
9.16852 60000002600149286 60000002600149285 60000002600149299 60000002600149284 4.17683491473 -0.227492 -5.78481 10.7175
9.20668 60000002600149285 60000002600149284 60000002600149299 60000002600149283 4.00794511147 0.420668 -6.82058 15.798
9.21671 60000002600149284 60000002600149283 60000002600149299 60000002600149282 3.93726108473 0.354274 -7.7058 13.905
9.26008 60000002600149283 60000002600149280 60000002600149299 60000002600149279 3.28303305796 -5.25609 -4.64381 14.6774
9.27246 60000002600149280 60000002600149279 60000002600149299 60000002600149278 3.08482263583 -2.29038 -2.32129 14.156
9.27594 60000002600149279 60000002600149278 60000002600149299 60000002600149277 3.00813107163 -2.20057 -4.32114 15.8614
9.29787 60000002600149278 60000002600149277 60000002600149299 60000002600149276 2.89578500573 -3.72311 -8.36646 16.3472
9.31717 60000002600149277 60000002600149276 60000002600149299 60000002600149275 2.73314261732 -8.17212 -4.80026 21.022
9.05235 60000002600149684 60000002600149683 60000002600149693 60000002600149682 5.22758097313 -2.4873 -4.24653 3.22412
9.09898 60000002600149683 60000002600149681 60000002600149693 60000002600149680 4.93938066349 -3.03677 -4.84046 3.10439
9.19848 60000002600149681 60000002600149680 60000002600149693 60000002600149679 4.66451770247 -5.67254 -2.46696 4.55572
9.22066 60000002600149680 60000002600149679 60000002600149693 60000002600149678 4.42803373661 -4.83027 -0.409615 2.5287
9.22457 60000002600149679 60000002600149677 60000002600149693 60000002600149676 4.00794511147 -4.40556 -4.22239 3.30597
9.24362 60000002600149677 60000002600149675 60000002600149693 60000002600149674 3.70877426464 -2.54693 -0.427326 2.42918
9.27072 60000002600149675 60000002600149674 60000002600149693 60000002600149673 3.49086136926 -1.69552 -0.675759 1.67669
9.34461 60000002600149674 60000002600149667 60000002600149693 60000002600149666 2.44422570455 -10.8648 -12.3028 3.23553
9.35627 60000002600149667 60000002600149664 60000002600149693 60000002600149663 2.1032696526 -14.4144 -6.82183 3.68511
9.38141 60000002600149664 60000002600149663 60000002600149693 60000002600149662 2.00202813925 -13.8349 -4.85773 -0.312441
9.38412 60000002600149663 60000002600149661 60000002600149693 60000002600149660 1.82268925262 -8.44042 -8.11092 2.00859
