logMh | fpID | subhaloID | main leaf ID | descID |  z
9.05235 90000107000000096 90000107000000095 90000107000000101 90000107000000094 7.23627606617 -6.1471 4.95444 3.41194
9.08038 90000107000000095 90000107000000094 90000107000000101 90000107000000093 7.00541704554 -6.83349 6.02706 2.98902
9.30923 90000107000000094 90000107000000093 90000107000000101 90000107000000092 6.85511726265 13.2935 -2.76524 7.42231
9.42033 90000107000000093 90000107000000091 90000107000000101 90000107000000090 6.14490120342 10.6774 1.32301 6.50303
9.42281 90000107000000091 90000107000000090 90000107000000101 90000107000000089 6.01075739884 7.98938 4.08214 2.29391
9.46285 90000107000000090 90000107000000089 90000107000000101 90000107000000088 5.84661374788 7.61943 -3.2375 4.89999
9.4964 90000107000000089 90000107000000088 90000107000000101 90000107000000087 5.52976580795 6.92606 -4.57768 1.76145
9.60705 90000107000000088 90000107000000087 90000107000000101 90000107000000086 5.22758097313 -1.62657 -1.1406 -0.909744
9.76444 90000107000000087 90000107000000086 90000107000000101 90000107000000085 4.99593346816 -18.7727 8.43853 -9.70881
9.76724 90000107000000086 90000107000000084 90000107000000101 90000107000000083 4.66451770247 7.74665 -3.42812 4.61767
9.79534 90000107000000084 90000107000000083 90000107000000101 90000107000000082 4.42803373661 2.15548 -1.61726 13.778
9.88952 90000107000000083 90000107000000082 90000107000000101 90000107000000081 4.17683491473 -26.8856 8.7285 10.6677
9.95941 90000107000000082 90000107000000081 90000107000000101 90000107000000080 4.00794511147 -24.9507 0.0925505 16.5725
10.0082 90000107000000081 90000107000000080 90000107000000101 90000107000000079 3.93726108473 -8.3479 -6.2451 8.82998
10.0313 90000107000000080 90000107000000079 90000107000000101 90000107000000078 3.70877426464 5.52861 -8.10347 15.2197
10.1714 90000107000000079 90000107000000078 90000107000000101 90000107000000077 3.49086136926 33.8129 -7.48026 16.4069
10.2545 90000107000000078 90000107000000077 90000107000000101 90000107000000076 3.28303305796 52.4836 -1.37135 -2.4713
10.3418 90000107000000077 90000107000000076 90000107000000101 90000107000000075 3.08482263583 73.2671 -13.664 5.37593
10.4422 90000107000000076 90000107000000075 90000107000000101 90000107000000074 3.00813107163 53.4967 -10.7867 -3.91746
10.4896 90000107000000075 90000107000000074 90000107000000101 90000107000000073 2.89578500573 64.6213 -19.1691 7.10727
10.5933 90000107000000074 90000107000000073 90000107000000101 90000107000000072 2.73314261732 76.5427 2.0488 27.1161
10.7555 90000107000000073 90000107000000072 90000107000000101 90000107000000071 2.5772902716 47.7114 -0.840115 74.5784
10.8153 90000107000000072 90000107000000071 90000107000000101 90000107000000070 2.44422570455 65.117 43.3232 57.8944
10.8651 90000107000000071 90000107000000070 90000107000000101 90000107000000069 2.31611074396 53.7612 36.2957 57.2842
10.9054 90000107000000070 90000107000000068 90000107000000101 90000107000000067 2.1032696526 38.9042 -4.9902 56.5032
10.9193 90000107000000068 90000107000000067 90000107000000101 90000107000000066 2.00202813925 34.3382 -19.748 36.1588
10.9264 90000107000000067 90000107000000066 90000107000000101 90000107000000065 1.90408954353 14.1873 -1.3669 -14.7962
10.9352 90000107000000066 90000107000000065 90000107000000101 90000107000000064 1.82268925262 9.47945 19.3661 -50.7811
10.9613 90000107000000065 90000107000000064 90000107000000101 90000107000000063 1.74357057433 -12.1155 21.1342 -92.7844
10.9862 90000107000000064 90000107000000063 90000107000000101 90000107000000062 1.66666955611 -30.9073 24.7313 -133.981
11.0152 90000107000000063 90000107000000062 90000107000000101 90000107000000061 1.60423452207 -57.7253 23.5592 -155.389
11.0315 90000107000000062 90000107000000060 90000107000000101 90000107000000059 1.47197484527 -84.9539 65.3733 -131.182
11.064 90000107000000060 90000107000000059 90000107000000101 90000107000000058 1.41409822037 -102.435 49.541 -178.76
11.0751 90000107000000059 90000107000000058 90000107000000101 90000107000000057 1.3575766674 -103.412 31.0487 -168.571
11.0936 90000107000000058 90000107000000057 90000107000000101 90000107000000056 1.30237845991 -102.154 7.13142 -175.779
11.1071 90000107000000057 90000107000000056 90000107000000101 90000107000000055 1.24847261425 -99.5465 -5.40836 -158.709
11.1136 90000107000000056 90000107000000055 90000107000000101 90000107000000054 1.20625808078 -84.4821 -14.3578 -161.9
11.1257 90000107000000055 90000107000000054 90000107000000101 90000107000000053 1.15460271236 -86.0874 -0.12743 -160.804
11.1348 90000107000000054 90000107000000053 90000107000000101 90000107000000052 1.11415056377 -97.5372 -6.44579 -145.936
11.1468 90000107000000053 90000107000000052 90000107000000101 90000107000000051 1.07445789455 -88.675 -15.9019 -144.477
11.1509 90000107000000052 90000107000000050 90000107000000101 90000107000000049 0.997294225782 -84.7134 -22.3833 -137.516
11.1559 90000107000000050 90000107000000048 90000107000000101 90000107000000047 0.950531351585 -94.1328 -46.5228 -144.835
11.1585 90000107000000048 90000107000000047 90000107000000101 90000107000000046 0.923000816178 -79.9111 -35.9136 -138.433
11.1586 90000107000000047 90000107000000045 90000107000000101 90000107000000044 0.851470900625 -91.9171 5.70317 -116.992
11.16 90000107000000045 90000107000000044 90000107000000101 90000107000000043 0.816709979012 -94.1673 9.19774 -111.292
11.1668 90000107000000044 90000107000000043 90000107000000101 90000107000000042 0.791068248946 -85.8714 12.0688 -113.035
11.1682 90000107000000043 90000107000000042 90000107000000101 90000107000000041 0.757441372616 -87.8359 10.4909 -113.767
11.1757 90000107000000042 90000107000000041 90000107000000101 90000107000000040 0.732636182022 -93.3529 13.7565 -112.28
11.1813 90000107000000041 90000107000000040 90000107000000101 90000107000000039 0.700106353719 -102.139 0.376859 -106.038
11.1845 90000107000000040 90000107000000038 90000107000000101 90000107000000037 0.644641840685 -98.4595 0.986556 -118.183
11.1892 90000107000000038 90000107000000037 90000107000000101 90000107000000036 0.621428745243 -100.017 2.04553 -120.644
11.1902 90000107000000037 90000107000000036 90000107000000101 90000107000000035 0.598543288188 -90.8853 1.59899 -105.549
11.2005 90000107000000036 90000107000000035 90000107000000101 90000107000000034 0.575980845108 -106.985 0.26031 -105.03
11.2008 90000107000000035 90000107000000034 90000107000000101 90000107000000033 0.546392183141 -96.7337 9.17358 -101.15
11.2009 90000107000000034 90000107000000033 90000107000000101 90000107000000032 0.524565820434 -96.7291 5.94192 -98.9942
11.209 90000107000000033 90000107000000032 90000107000000101 90000107000000031 0.503047523245 -96.637 9.15518 -106.291
11.2156 90000107000000032 90000107000000030 90000107000000101 90000107000000029 0.460917794181 -92.9876 2.62317 -101.953
11.221 90000107000000030 90000107000000029 90000107000000101 90000107000000028 0.440297849248 -86.8255 4.65237 -111.24
11.2337 90000107000000029 90000107000000028 90000107000000101 90000107000000027 0.419968941997 -100.255 3.979 -78.7278
11.2368 90000107000000028 90000107000000027 90000107000000101 90000107000000026 0.399926964614 -97.747 -1.29814 -90.6421
11.2428 90000107000000027 90000107000000026 90000107000000101 90000107000000025 0.38016786726 -97.674 -3.24545 -75.1277
11.2482 90000107000000026 90000107000000024 90000107000000101 90000107000000023 0.347853841858 -98.8916 5.45215 -71.0424
11.2548 90000107000000024 90000107000000023 90000107000000101 90000107000000022 0.328829724206 -103.68 2.08093 -64.4943
11.2598 90000107000000023 90000107000000022 90000107000000101 90000107000000021 0.310074120128 -105.238 15.1069 -59.383
11.265 90000107000000022 90000107000000021 90000107000000101 90000107000000020 0.291583239722 -113.252 11.2864 -53.5863
11.2783 90000107000000021 90000107000000020 90000107000000101 90000107000000019 0.273353346578 -108.847 37.3417 -49.2654
11.2872 90000107000000020 90000107000000019 90000107000000101 90000107000000018 0.261343256161 -94.7753 51.4012 -27.5839
11.2938 90000107000000019 90000107000000018 90000107000000101 90000107000000017 0.243540181555 -99.5604 55.5274 -27.7036
11.3022 90000107000000018 90000107000000017 90000107000000101 90000107000000016 0.22598838626 -107.123 53.8101 -21.3642
11.3036 90000107000000017 90000107000000016 90000107000000101 90000107000000015 0.214425035514 -96.8362 70.6204 -14.9684
11.3101 90000107000000016 90000107000000015 90000107000000101 90000107000000014 0.197284182376 -90.2068 66.8301 -5.36729
11.3189 90000107000000015 90000107000000014 90000107000000101 90000107000000013 0.180385261706 -96.2344 68.7563 3.38961
11.3264 90000107000000014 90000107000000013 90000107000000101 90000107000000012 0.169252033244 -109.658 45.7519 -15.1594
11.3357 90000107000000013 90000107000000012 90000107000000101 90000107000000011 0.152748768902 -87.2729 80.2173 7.03304
11.3359 90000107000000012 90000107000000011 90000107000000101 90000107000000010 0.14187620397 -87.9366 76.4931 22.531
11.3394 90000107000000011 90000107000000010 90000107000000101 90000107000000009 0.125759332411 -82.5171 88.9033 13.2158
11.342 90000107000000010 90000107000000009 90000107000000101 90000107000000008 0.109869940459 -84.8733 84.9209 3.00294
11.3436 90000107000000009 90000107000000008 90000107000000101 90000107000000007 0.0994018026302 -70.7245 95.4347 6.62912
11.3439 90000107000000008 90000107000000007 90000107000000101 90000107000000006 0.0838844307975 -55.4664 93.2355 -1.72829
11.348 90000107000000007 90000107000000006 90000107000000101 90000107000000005 0.0736613846564 -57.1428 110.549 4.19518
11.3534 90000107000000006 90000107000000005 90000107000000101 90000107000000004 0.0585073227945 -48.282 95.4827 -9.88304
11.356 90000107000000005 90000107000000004 90000107000000101 90000107000000003 0.0485236299818 -57.3939 89.5229 -22.2368
11.3635 90000107000000004 90000107000000003 90000107000000101 90000107000000002 0.0337243718735 -44.5368 101.59 -3.55835
11.3644 90000107000000003 90000107000000002 90000107000000101 90000107000000001 0.0239744283828 -50.7395 95.3694 2.06524
11.3679 90000107000000002 90000107000000001 90000107000000101 90000107000000000 0.00952166696794 -46.8193 95.9241 -0.487683
11.3743 90000107000000001 90000107000000000 90000107000000101 -1 2.22044604925e-16 -60.9549 66.2306 -17.5776
9.0066 90000107000000122 90000107000000121 90000107000000128 90000107000000120 5.52976580795 41.7577 -15.3117 16.7569
9.01298 90000107000000188 90000107000000187 90000107000000197 90000107000000186 6.01075739884 -3.66137 -1.52276 -2.19279
9.02855 90000107000000187 90000107000000185 90000107000000197 90000107000000184 5.52976580795 -1.72199 -1.80511 -1.98172
9.19641 90000107000000185 90000107000000184 90000107000000197 90000107000000183 5.22758097313 -0.824244 -17.1322 -18.0532
9.2811 90000107000000184 90000107000000182 90000107000000197 90000107000000181 4.93938066349 -10.6251 -18.3591 -26.7495
9.00012 90000107000000255 90000107000000254 90000107000000264 90000107000000253 4.42803373661 7.06154 -2.38447 -1.61062
9.04653 90000107000000254 90000107000000253 90000107000000264 90000107000000252 4.17683491473 9.93424 -0.84616 0.156389
9.09637 90000107000000253 90000107000000252 90000107000000264 90000107000000251 4.00794511147 8.64112 -0.733682 -10.422
9.11681 90000107000000252 90000107000000251 90000107000000264 90000107000000250 3.93726108473 9.16644 0.104453 -10.958
9.13394 90000107000000251 90000107000000250 90000107000000264 90000107000000249 3.70877426464 10.127 -0.937533 -10.1586
9.13871 90000107000000303 90000107000000302 90000107000000310 90000107000000301 5.52976580795 -6.37674 -9.38223 9.49018
9.34165 90000107000000302 90000107000000301 90000107000000310 90000107000000300 5.22758097313 3.28146 -14.7044 4.0719
9.38277 90000107000000301 90000107000000300 90000107000000310 90000107000000299 4.99593346816 5.78083 -12.446 4.77706
9.4606 90000107000000300 90000107000000299 90000107000000310 90000107000000298 4.93938066349 8.034 -20.5386 2.42553
9.58127 90000107000000299 90000107000000298 90000107000000310 90000107000000297 4.66451770247 5.59303 -11.2931 7.21098
9.58891 90000107000000298 90000107000000297 90000107000000310 90000107000000296 4.42803373661 11.0014 -10.1742 7.73311
9.62523 90000107000000297 90000107000000296 90000107000000310 90000107000000295 4.17683491473 9.58036 -5.25393 11.0951
9.63442 90000107000000296 90000107000000295 90000107000000310 90000107000000294 4.00794511147 10.0414 -9.7231 11.1632
9.66866 90000107000000295 90000107000000292 90000107000000310 90000107000000291 3.49086136926 10.1796 -2.21495 5.74246
9.79587 90000107000000292 90000107000000291 90000107000000310 90000107000000290 3.28303305796 8.31031 0.0052616 3.1181
9.04358 90000107000000360 90000107000000359 90000107000000375 90000107000000358 3.49086136926 -0.315057 4.12618 4.07199
9.2845 90000107000000359 90000107000000356 90000107000000375 90000107000000355 3.00813107163 -1.67354 -8.51479 5.03873
9.04358 90000107000000401 90000107000000400 90000107000000409 90000107000000399 4.42803373661 16.3805 -5.06332 3.72599
9.05524 90000107000000400 90000107000000398 90000107000000409 90000107000000397 4.00794511147 11.5151 -3.29584 3.60248
9.12424 90000107000000398 90000107000000395 90000107000000409 90000107000000394 3.49086136926 0.232606 1.27082 1.63896
9.05235 90000107000000451 90000107000000450 90000107000000454 90000107000000449 6.49159774567 4.5344 2.88976 15.8162
9.18589 90000107000000450 90000107000000449 90000107000000454 90000107000000448 6.14490120342 8.79285 11.2691 13.6751
9.21869 90000107000000449 90000107000000448 90000107000000454 90000107000000447 6.01075739884 7.73671 10.394 12.9935
9.2742 90000107000000448 90000107000000447 90000107000000454 90000107000000446 5.84661374788 6.28165 8.00148 11.8036
9.34461 90000107000000447 90000107000000446 90000107000000454 90000107000000445 5.52976580795 4.41513 10.8684 12.9436
9.41784 90000107000000446 90000107000000445 90000107000000454 90000107000000444 5.22758097313 8.59492 9.24835 8.79621
9.43856 90000107000000445 90000107000000444 90000107000000454 90000107000000443 4.99593346816 10.4038 6.41674 5.35999
9.44797 90000107000000444 90000107000000443 90000107000000454 90000107000000442 4.93938066349 8.25823 6.43125 7.2615
9.56911 90000107000000443 90000107000000442 90000107000000454 90000107000000441 4.66451770247 13.8323 18.5523 -1.53232
9.58383 90000107000000442 90000107000000441 90000107000000454 90000107000000440 4.42803373661 14.2783 24.1403 -7.74898
9.63744 90000107000000441 90000107000000440 90000107000000454 90000107000000439 4.17683491473 20.3284 22.0994 1.92842
9.65005 90000107000000440 90000107000000438 90000107000000454 90000107000000437 3.93726108473 25.7455 12.8901 14.8526
9.73299 90000107000000438 90000107000000437 90000107000000454 90000107000000436 3.70877426464 38.2683 7.50594 27.9189
9.83769 90000107000000437 90000107000000434 90000107000000454 90000107000000433 3.08482263583 23.5147 8.57914 37.0475
9.3044 90000107000000535 90000107000000534 90000107000000544 90000107000000533 5.22758097313 11.5285 -8.08371 2.36695
9.33716 90000107000000534 90000107000000533 90000107000000544 90000107000000532 4.99593346816 12.9871 -7.42817 3.75856
9.44681 90000107000000533 90000107000000530 90000107000000544 90000107000000529 4.42803373661 2.89971 -7.30268 19.5362
9.61266 90000107000000530 90000107000000529 90000107000000544 90000107000000528 4.17683491473 -12.3651 -10.6222 33.8789
9.67005 90000107000000529 90000107000000528 90000107000000544 90000107000000527 4.00794511147 -15.3334 -3.80929 39.8173
9.67145 90000107000000528 90000107000000527 90000107000000544 90000107000000526 3.93726108473 -13.7472 -5.13049 38.257
9.78582 90000107000000527 90000107000000526 90000107000000544 90000107000000525 3.70877426464 -7.81566 -3.42917 24.9157
9.85763 90000107000000526 90000107000000525 90000107000000544 90000107000000524 3.49086136926 -0.67876 -2.96103 23.6613
9.92041 90000107000000525 90000107000000524 90000107000000544 90000107000000523 3.28303305796 -10.6502 -2.84289 12.7819
9.94333 90000107000000524 90000107000000523 90000107000000544 90000107000000522 3.08482263583 -11.4505 -3.93444 17.1541
9.96262 90000107000000523 90000107000000522 90000107000000544 90000107000000521 3.00813107163 -12.9961 -5.72132 14.1304
9.01928 90000107000000562 90000107000000561 90000107000000571 90000107000000560 4.99593346816 0.0530354 2.75628 0.419965
9.02548 90000107000000561 90000107000000560 90000107000000571 90000107000000559 4.93938066349 -3.17667 -0.382813 -0.165534
9.08309 90000107000000560 90000107000000559 90000107000000571 90000107000000558 4.66451770247 5.69283 6.13585 1.08847
9.08578 90000107000000587 90000107000000586 90000107000000600 90000107000000585 5.22758097313 5.81782 -6.08145 1.49991
9.2026 90000107000000586 90000107000000583 90000107000000600 90000107000000582 4.66451770247 12.0369 1.69597 5.75992
9.21072 90000107000000583 90000107000000582 90000107000000600 90000107000000581 4.42803373661 11.3127 2.18722 3.53078
9.24918 90000107000000582 90000107000000581 90000107000000600 90000107000000580 4.17683491473 14.1575 3.07089 7.26987
9.89704 90000107000000581 90000107000000574 90000107000000600 90000107000000520 2.89578500573 1.295 -2.02793 16.4144
9.03463 90000107000000616 90000107000000615 90000107000000632 90000107000000614 4.17683491473 -6.71641 -2.52722 -1.64813
9.06939 90000107000000615 90000107000000613 90000107000000632 90000107000000612 3.93726108473 -6.70784 -0.393781 0.978273
9.09375 90000107000000613 90000107000000612 90000107000000632 90000107000000611 3.70877426464 -6.81933 0.327385 -3.09118
9.10415 90000107000000612 90000107000000611 90000107000000632 90000107000000610 3.49086136926 -8.10286 4.21841 -5.15048
9.0066 90000107000000735 90000107000000734 90000107000000741 90000107000000733 4.00794511147 3.89629 -3.31669 -1.63953
9.01298 90000107000000734 90000107000000733 90000107000000741 90000107000000732 3.93726108473 5.56822 -4.83638 -1.40193
9.02548 90000107000000733 90000107000000732 90000107000000741 90000107000000731 3.70877426464 3.98447 -3.75254 -2.25193
9.03763 90000107000000732 90000107000000731 90000107000000741 90000107000000730 3.49086136926 4.45595 -3.9489 -5.66913
9.04062 90000107000000731 90000107000000730 90000107000000741 90000107000000729 3.28303305796 6.49803 -4.00426 -4.49314
9.12424 90000107000000730 90000107000000725 90000107000000741 90000107000000724 2.5772902716 8.69834 -3.60934 -17.2394
9.1663 90000107000000725 90000107000000723 90000107000000741 90000107000000722 2.31611074396 -4.27426 -6.65116 -17.0385
9.01298 90000107000000757 90000107000000756 90000107000000769 90000107000000755 2.89578500573 2.0771 -2.6798 4.32893
9.05524 90000107000000756 90000107000000755 90000107000000769 90000107000000754 2.73314261732 5.0665 -2.70301 6.00966
9.09111 90000107000000755 90000107000000753 90000107000000769 90000107000000752 2.44422570455 3.77212 -0.0328643 4.39038
9.07216 90000107000000807 90000107000000806 90000107000000813 90000107000000805 4.00794511147 13.554 0.24666 -25.0741
9.07492 90000107000000806 90000107000000805 90000107000000813 90000107000000804 3.93726108473 21.0116 0.269947 -29.0545
9.15502 90000107000000805 90000107000000804 90000107000000813 90000107000000803 3.70877426464 9.76082 4.17875 -4.31058
9.22845 90000107000000804 90000107000000803 90000107000000813 90000107000000802 3.49086136926 8.27509 0.991715 -1.90226
9.3156 90000107000000803 90000107000000802 90000107000000813 90000107000000801 3.28303305796 22.1255 -0.0122354 -17.7886
9.35914 90000107000000802 90000107000000801 90000107000000813 90000107000000800 3.08482263583 18.4096 1.88746 -19.244
9.39346 90000107000000801 90000107000000800 90000107000000813 90000107000000799 3.00813107163 17.1805 2.44215 -21.7715
9.06939 90000107000000919 90000107000000918 90000107000000930 90000107000000917 3.70877426464 -3.20609 -9.15622 1.05609
9.15273 90000107000000918 90000107000000917 90000107000000930 90000107000000916 3.49086136926 -3.36782 -4.34462 5.45979
9.2811 90000107000000917 90000107000000916 90000107000000930 90000107000000915 3.28303305796 -1.90821 -3.33411 6.9499
9.32497 90000107000000916 90000107000000915 90000107000000930 90000107000000914 3.08482263583 -1.11643 0.186493 15.4987
9.38141 90000107000000915 90000107000000913 90000107000000930 90000107000000912 2.89578500573 5.43807 8.75233 15.8557
9.42404 90000107000000913 90000107000000910 90000107000000930 90000107000000909 2.44422570455 7.30372 32.5368 3.05864
9.2862 90000107000000936 90000107000000935 90000107000000952 90000107000000934 3.00813107163 4.64495 -1.16653 16.7923
9.00337 90000107000001011 90000107000001010 90000107000001026 90000107000001009 4.00794511147 -5.12834 4.8002 0.772965
9.0066 90000107000001010 90000107000001009 90000107000001026 90000107000001008 3.93726108473 -6.16221 5.04444 2.87846
9.09637 90000107000001009 90000107000001008 90000107000001026 90000107000001007 3.70877426464 -9.71248 -6.58261 11.0093
9.13394 90000107000001008 90000107000001007 90000107000001026 90000107000001006 3.49086136926 -10.0908 -6.03567 10.0028
9.13394 90000107000001007 90000107000001004 90000107000001026 90000107000001003 3.00813107163 -0.938821 -4.94532 13.9159
9.14578 90000107000001004 90000107000001003 90000107000001026 90000107000001002 2.89578500573 -5.05202 -4.9083 13.7759
9.1663 90000107000001003 90000107000001002 90000107000001026 90000107000001001 2.73314261732 -5.38946 -9.32375 11.802
9.16852 90000107000001002 90000107000001000 90000107000001026 90000107000000999 2.44422570455 -6.84763 -7.97794 8.99349
9.19013 90000107000001000 90000107000000999 90000107000001026 90000107000000998 2.31611074396 -11.8313 -17.4833 11.2568
9.05811 90000107000001211 90000107000001210 90000107000001218 90000107000001209 8.01217294887 -3.56396 3.31301 -0.295342
9.26008 90000107000001210 90000107000001209 90000107000001218 90000107000001208 7.59510714987 -4.23366 4.27327 1.49214
9.37732 90000107000001209 90000107000001208 90000107000001218 90000107000001207 7.23627606617 -1.28951 11.2401 3.5811
9.39609 90000107000001208 90000107000001207 90000107000001218 90000107000001206 7.00541704554 -3.10036 5.62822 0.454762
9.41659 90000107000001207 90000107000001206 90000107000001218 90000107000001205 6.85511726265 -2.91679 7.65643 0.871343
9.49536 90000107000001206 90000107000001205 90000107000001218 90000107000001204 6.49159774567 1.5508 1.35778 -4.90314
9.58383 90000107000001205 90000107000001204 90000107000001218 90000107000001203 6.14490120342 2.28165 3.59608 -4.03225
9.60866 90000107000001204 90000107000001203 90000107000001218 90000107000001202 6.01075739884 1.81782 3.33861 -5.21447
9.67491 90000107000001203 90000107000001202 90000107000001218 90000107000001201 5.84661374788 -6.05752 -3.69697 -10.0132
9.76163 90000107000001202 90000107000001201 90000107000001218 90000107000001200 5.52976580795 -13.1664 -10.6625 -15.1541
9.79482 90000107000001201 90000107000001200 90000107000001218 90000107000001199 5.22758097313 -6.93536 -12.7738 -13.0354
9.79899 90000107000001200 90000107000001198 90000107000001218 90000107000001197 4.93938066349 -8.05064 -15.3775 -13.5593
9.83435 90000107000001198 90000107000001197 90000107000001218 90000107000001196 4.66451770247 -15.4454 -14.6259 -12.2892
9.87234 90000107000001197 90000107000001196 90000107000001218 90000107000001195 4.42803373661 -10.6427 -7.00922 -12.1968
9.89911 90000107000001196 90000107000001195 90000107000001218 90000107000001194 4.17683491473 -10.0783 -5.48149 -14.0686
9.93658 90000107000001195 90000107000001194 90000107000001218 90000107000001193 4.00794511147 -15.0773 -7.43063 -19.6439
9.93658 90000107000001194 90000107000001193 90000107000001218 90000107000001192 3.93726108473 -15.1422 -11.2723 -18.1872
9.95761 90000107000001193 90000107000001192 90000107000001218 90000107000001191 3.70877426464 -24.0135 -14.4252 -21.4741
9.97352 90000107000001192 90000107000001191 90000107000001218 90000107000001190 3.49086136926 -18.2786 -5.49479 -16.7521
9.99154 90000107000001191 90000107000001189 90000107000001218 90000107000001188 3.08482263583 -18.7892 -15.0621 -14.3101
10.004 90000107000001189 90000107000001188 90000107000001218 90000107000001187 3.00813107163 -6.03795 -10.8147 -9.78621
10.0334 90000107000001188 90000107000001187 90000107000001218 90000107000001186 2.89578500573 -8.7502 -9.23185 -13.43
10.0558 90000107000001187 90000107000001186 90000107000001218 90000107000001185 2.73314261732 -22.7017 -9.66897 -24.5542
10.0624 90000107000001186 90000107000001182 90000107000001218 90000107000001181 2.20792547238 -34.4778 -1.08689 -41.3554
10.0691 90000107000001182 90000107000001180 90000107000001218 90000107000001179 2.00202813925 -29.747 -3.17968 -41.4149
9.05524 90000107000001321 90000107000001320 90000107000001329 90000107000001319 4.42803373661 7.73814 -3.21098 15.6835
9.19433 90000107000001320 90000107000001319 90000107000001329 90000107000001318 4.17683491473 4.61293 -9.11712 9.17366
9.25648 90000107000001319 90000107000001318 90000107000001329 90000107000001317 4.00794511147 -2.49216 -19.917 12.1237
9.2845 90000107000001318 90000107000001317 90000107000001329 90000107000001316 3.93726108473 -2.14465 -17.8652 11.9971
9.29951 90000107000001317 90000107000001316 90000107000001329 90000107000001315 3.70877426464 -3.73412 -13.8586 10.392
9.32651 90000107000001316 90000107000001315 90000107000001329 90000107000001314 3.49086136926 -6.64786 -12.9696 11.9408
9.3634 90000107000001315 90000107000001314 90000107000001329 90000107000001313 3.28303305796 -1.19235 -16.0614 8.33808
9.51675 90000107000001314 90000107000001313 90000107000001329 90000107000001312 3.08482263583 -0.0173255 -22.5834 14.777
9.53428 90000107000001313 90000107000001312 90000107000001329 90000107000001311 3.00813107163 -2.95077 -21.4085 15.8863
9.55841 90000107000001312 90000107000001311 90000107000001329 90000107000001310 2.89578500573 -2.28731 -11.7359 11.9247
9.60624 90000107000001311 90000107000001308 90000107000001329 90000107000001307 2.44422570455 -5.87678 -15.9609 17.8084
9.04062 90000107000001397 90000107000001396 90000107000001411 90000107000001395 4.17683491473 5.58052 1.22024 3.77906
9.04062 90000107000001396 90000107000001395 90000107000001411 90000107000001394 4.00794511147 4.71855 2.65328 4.01401
9.04358 90000107000001395 90000107000001393 90000107000001411 90000107000001392 3.70877426464 5.44985 1.61275 5.2208
9.05524 90000107000001393 90000107000001391 90000107000001411 90000107000001390 3.28303305796 4.92267 4.68558 3.54252
9.0666 90000107000001391 90000107000001390 90000107000001411 90000107000001389 3.08482263583 8.14845 6.70397 2.50523
9.10415 90000107000001390 90000107000001389 90000107000001411 90000107000001388 3.00813107163 8.19664 5.18462 6.68528
9.1663 90000107000001389 90000107000001384 90000107000001411 90000107000001383 2.31611074396 6.6712 0.64646 3.1272
9.18162 90000107000001384 90000107000001383 90000107000001411 90000107000001382 2.20792547238 7.16916 -0.907936 3.31579
9.2087 90000107000001383 90000107000001382 90000107000001411 90000107000001381 2.1032696526 7.12902 -0.0610231 5.05325
9.22651 90000107000001382 90000107000001381 90000107000001411 90000107000001380 2.00202813925 10.154 0.890581 8.86088
9.25284 90000107000001381 90000107000001378 90000107000001411 90000107000001377 1.74357057433 8.85469 4.70064 3.80097
9.25828 90000107000001378 90000107000001377 90000107000001411 90000107000001376 1.66666955611 9.23637 4.37269 4.80383
9.26187 90000107000001377 90000107000001375 90000107000001411 90000107000001374 1.53123902916 8.07637 0.729088 7.84782
9.00012 90000107000001438 90000107000001437 90000107000001466 90000107000001436 1.11415056377 -14.5094 -14.9978 -8.73983
9.01298 90000107000001437 90000107000001435 90000107000001466 90000107000001434 1.03551044566 -14.5557 -14.6474 -6.33913
9.02548 90000107000001435 90000107000001433 90000107000001466 90000107000001432 0.987852810816 -15.5837 -14.0905 -7.84841
9.02548 90000107000001433 90000107000001428 90000107000001466 90000107000001427 0.816709979012 -11.5774 -13.3053 -5.10442
9.02855 90000107000001428 90000107000001422 90000107000001466 90000107000001421 0.644641840685 -13.9953 -12.8994 -6.79104
9.0316 90000107000001422 90000107000001420 90000107000001466 90000107000001419 0.598543288188 -14.1828 -10.9715 -6.22869
9.0316 90000107000001420 90000107000001419 90000107000001466 90000107000001418 0.575980845108 -16.5848 -9.82739 -8.32618
9.0098 90000107000001544 90000107000001543 90000107000001553 90000107000001542 5.52976580795 1.00721 -5.44307 -10.0914
9.05235 90000107000001543 90000107000001542 90000107000001553 90000107000001541 5.22758097313 1.00463 -5.86174 -10.9492
9.08038 90000107000001542 90000107000001541 90000107000001553 90000107000001540 4.99593346816 0.338058 -5.65897 -9.26555
9.08578 90000107000001541 90000107000001540 90000107000001553 90000107000001539 4.93938066349 -0.0311974 -5.29004 -7.95366
9.1193 90000107000001540 90000107000001539 90000107000001553 90000107000001538 4.66451770247 2.02869 -5.32926 -8.19219
9.16852 90000107000001539 90000107000001538 90000107000001553 90000107000001537 4.42803373661 3.61956 -5.02593 -8.52318
9.24918 90000107000001538 90000107000001537 90000107000001553 90000107000001536 4.17683491473 3.26938 -2.6864 -3.65108
9.2742 90000107000001537 90000107000001536 90000107000001553 90000107000001535 4.00794511147 0.88716 0.712353 -3.14335
9.2929 90000107000001536 90000107000001535 90000107000001553 90000107000001534 3.93726108473 -2.08013 1.34153 -2.50995
9.31874 90000107000001535 90000107000001534 90000107000001553 90000107000001533 3.70877426464 -0.393972 4.96093 -3.30769
9.32497 90000107000001534 90000107000001533 90000107000001553 90000107000001532 3.49086136926 4.51556 4.93197 -2.32027
9.38277 90000107000001533 90000107000001532 90000107000001553 90000107000001531 3.28303305796 5.74215 8.14106 -2.98175
9.39478 90000107000001532 90000107000001530 90000107000001553 90000107000001529 3.00813107163 7.45912 7.28992 2.88795
9.42033 90000107000001530 90000107000001529 90000107000001553 90000107000001528 2.89578500573 4.04149 7.83508 -1.6361
9.45946 90000107000001529 90000107000001524 90000107000001553 90000107000001523 2.20792547238 1.41332 22.1182 -3.6167
9.46955 90000107000001524 90000107000001523 90000107000001553 90000107000001522 2.1032696526 -2.41526 3.62172 3.17707
9.57349 90000107000001523 90000107000001521 90000107000001553 90000107000001520 1.90408954353 -9.55033 26.9718 -7.52514
9.64044 90000107000001521 90000107000001520 90000107000001553 90000107000001519 1.82268925262 -8.4967 30.1373 -14.3513
9.66795 90000107000001520 90000107000001517 90000107000001553 90000107000001516 1.60423452207 -7.43885 32.2113 -10.8062
9.69778 90000107000001517 90000107000001516 90000107000001553 90000107000001515 1.53123902916 -15.097 43.9014 -13.0499
9.69778 90000107000001516 90000107000001515 90000107000001553 90000107000001514 1.47197484527 -12.9088 31.8969 -18.6317
9.01614 90000107000001939 90000107000001938 90000107000001970 90000107000001937 0.328829724206 -2.47212 -12.0219 -10.0476
