logMh | fpID | subhaloID | main leaf ID | descID |  z
9.01298 80000295500000095 80000295500000094 80000295500000098 80000295500000093 7.00541704554 -1.61765 -2.65529 -5.05256
9.09637 80000295500000094 80000295500000092 80000295500000098 80000295500000091 6.49159774567 0.346138 -1.89251 -4.79505
9.32497 80000295500000092 80000295500000091 80000295500000098 80000295500000090 6.14490120342 7.50179 13.847 -8.84813
9.36481 80000295500000091 80000295500000090 80000295500000098 80000295500000089 6.01075739884 6.83657 13.2881 -11.1286
9.47615 80000295500000090 80000295500000088 80000295500000098 80000295500000087 5.52976580795 3.70757 6.44471 -14.9381
9.52851 80000295500000088 80000295500000087 80000295500000098 80000295500000086 5.22758097313 1.68538 12.154 -11.303
9.62056 80000295500000087 80000295500000086 80000295500000098 80000295500000085 4.99593346816 -3.60455 17.9932 -14.6385
9.63819 80000295500000086 80000295500000085 80000295500000098 80000295500000084 4.93938066349 3.13229 21.1574 -11.1068
9.75017 80000295500000085 80000295500000084 80000295500000098 80000295500000083 4.66451770247 1.3745 29.8952 -19.2172
9.87496 80000295500000084 80000295500000083 80000295500000098 80000295500000082 4.42803373661 -8.47139 18.6625 -29.7822
9.8767 80000295500000083 80000295500000082 80000295500000098 80000295500000081 4.17683491473 -7.68467 22.9414 -30.7081
9.93545 80000295500000082 80000295500000081 80000295500000098 80000295500000080 4.00794511147 -2.68036 16.9001 -28.5378
9.96369 80000295500000081 80000295500000080 80000295500000098 80000295500000079 3.93726108473 0.557387 24.9657 -29.0286
9.98483 80000295500000080 80000295500000079 80000295500000098 80000295500000078 3.70877426464 -0.707357 18.6435 -24.1584
9.98753 80000295500000079 80000295500000078 80000295500000098 80000295500000077 3.49086136926 0.610904 10.2301 -24.1025
10.2684 80000295500000078 80000295500000075 80000295500000098 80000295500000074 3.00813107163 -13.907 -44.8746 -12.75
10.339 80000295500000075 80000295500000074 80000295500000098 80000295500000073 2.89578500573 -15.0948 -69.0248 -23.6707
10.3676 80000295500000074 80000295500000073 80000295500000098 80000295500000072 2.73314261732 -19.4355 -71.6474 -14.4822
10.3987 80000295500000073 80000295500000072 80000295500000098 80000295500000071 2.5772902716 -16.8892 -62.0898 -12.9708
10.4601 80000295500000072 80000295500000071 80000295500000098 80000295500000070 2.44422570455 -12.9474 -41.6506 -14.188
10.4906 80000295500000071 80000295500000070 80000295500000098 80000295500000069 2.31611074396 -22.1185 -31.8069 0.962345
10.5048 80000295500000070 80000295500000069 80000295500000098 80000295500000068 2.20792547238 -23.7081 -32.8844 11.2386
10.512 80000295500000069 80000295500000068 80000295500000098 80000295500000067 2.1032696526 -28.0478 -22.0299 13.755
10.5245 80000295500000068 80000295500000067 80000295500000098 80000295500000066 2.00202813925 -31.2932 -36.8711 9.80263
10.5748 80000295500000067 80000295500000066 80000295500000098 80000295500000065 1.90408954353 -27.2684 -18.9389 12.5169
10.6 80000295500000066 80000295500000065 80000295500000098 80000295500000064 1.82268925262 -33.463 -28.7777 6.65918
10.6248 80000295500000065 80000295500000064 80000295500000098 80000295500000063 1.74357057433 -18.9954 -19.0419 -30.799
10.6523 80000295500000064 80000295500000063 80000295500000098 80000295500000062 1.66666955611 -23.5607 -6.96956 -18.842
10.6985 80000295500000063 80000295500000062 80000295500000098 80000295500000061 1.60423452207 -20.3716 5.18748 -17.8271
10.7499 80000295500000062 80000295500000061 80000295500000098 80000295500000060 1.53123902916 -9.9952 20.4992 -29.8555
10.806 80000295500000061 80000295500000060 80000295500000098 80000295500000059 1.47197484527 -22.1349 50.2741 -28.8462
10.8321 80000295500000060 80000295500000059 80000295500000098 80000295500000058 1.41409822037 -6.33343 50.4566 -37.6489
10.8374 80000295500000059 80000295500000058 80000295500000098 80000295500000057 1.3575766674 -16.1002 48.696 -27.1189
10.8661 80000295500000058 80000295500000057 80000295500000098 80000295500000056 1.30237845991 -26.1074 39.5107 -15.7859
10.9028 80000295500000057 80000295500000056 80000295500000098 80000295500000055 1.24847261425 -18.9723 48.7561 -25.5245
10.919 80000295500000056 80000295500000055 80000295500000098 80000295500000054 1.20625808078 -9.65176 46.4271 -12.7856
10.9473 80000295500000055 80000295500000054 80000295500000098 80000295500000053 1.15460271236 45.9742 46.9616 23.7113
10.9598 80000295500000054 80000295500000053 80000295500000098 80000295500000052 1.11415056377 59.5075 52.1601 47.653
10.9746 80000295500000053 80000295500000052 80000295500000098 80000295500000051 1.07445789455 68.2841 44.6729 85.5652
10.9823 80000295500000052 80000295500000051 80000295500000098 80000295500000050 1.03551044566 42.6276 40.2666 86.5831
10.9876 80000295500000051 80000295500000050 80000295500000098 80000295500000049 0.997294225782 45.7035 13.1547 87.2342
10.9987 80000295500000050 80000295500000049 80000295500000098 80000295500000048 0.987852810816 48.6997 11.0009 81.521
11.0131 80000295500000049 80000295500000048 80000295500000098 80000295500000047 0.950531351585 58.521 18.5655 77.1364
11.0193 80000295500000048 80000295500000047 80000295500000098 80000295500000046 0.923000816178 75.5617 52.7203 79.4577
11.0381 80000295500000047 80000295500000045 80000295500000098 80000295500000044 0.851470900625 63.1377 70.2443 85.7452
11.0542 80000295500000045 80000295500000044 80000295500000098 80000295500000043 0.816709979012 58.5022 71.9728 84.3936
11.0579 80000295500000044 80000295500000043 80000295500000098 80000295500000042 0.791068248946 69.3172 98.1021 81.9146
11.0591 80000295500000043 80000295500000042 80000295500000098 80000295500000041 0.757441372616 91.7891 133.271 66.856
11.0703 80000295500000042 80000295500000040 80000295500000098 80000295500000039 0.700106353719 120.775 161.988 39.1468
11.0733 80000295500000040 80000295500000036 80000295500000098 80000295500000035 0.598543288188 108.072 114.718 83.4198
11.1005 80000295500000036 80000295500000035 80000295500000098 80000295500000034 0.575980845108 165.194 60.7186 86.5017
11.1231 80000295500000035 80000295500000034 80000295500000098 80000295500000033 0.546392183141 189.171 26.3396 119.154
11.1317 80000295500000034 80000295500000033 80000295500000098 80000295500000032 0.524565820434 220.942 -7.1048 126.973
11.1611 80000295500000033 80000295500000032 80000295500000098 80000295500000031 0.503047523245 267.22 13.9684 121.327
11.1946 80000295500000032 80000295500000031 80000295500000098 80000295500000030 0.481832943421 329.461 -11.4935 126.337
11.2089 80000295500000031 80000295500000030 80000295500000098 80000295500000029 0.460917794181 342.699 -27.0473 128.199
11.2173 80000295500000030 80000295500000029 80000295500000098 80000295500000028 0.440297849248 348.252 -46.3479 134.955
11.2494 80000295500000029 80000295500000028 80000295500000098 80000295500000027 0.419968941997 414.725 -91.4829 126.089
11.2703 80000295500000028 80000295500000027 80000295500000098 80000295500000026 0.399926964614 422.769 -162.22 158.747
11.2795 80000295500000027 80000295500000026 80000295500000098 80000295500000025 0.38016786726 438.999 -155.768 139.019
11.287 80000295500000026 80000295500000021 80000295500000098 80000295500000020 0.291583239722 377.929 -216.959 196.723
11.2971 80000295500000021 80000295500000020 80000295500000098 80000295500000019 0.273353346578 373.011 -202.22 194.791
11.3039 80000295500000020 80000295500000019 80000295500000098 80000295500000018 0.261343256161 377.584 -199.068 191.815
11.3094 80000295500000019 80000295500000018 80000295500000098 80000295500000017 0.243540181555 388.665 -199.57 184.474
11.322 80000295500000018 80000295500000017 80000295500000098 80000295500000016 0.22598838626 404.675 -162.742 158.666
11.3256 80000295500000017 80000295500000016 80000295500000098 80000295500000015 0.214425035514 413.065 -163.024 160.548
11.3337 80000295500000016 80000295500000015 80000295500000098 80000295500000014 0.197284182376 418.834 -146.041 142.468
11.3441 80000295500000015 80000295500000014 80000295500000098 80000295500000013 0.180385261706 424.581 -134.913 141.967
9.04062 80000295500000122 80000295500000121 80000295500000133 80000295500000120 6.49159774567 -5.56103 -1.30852 -0.411326
9.08038 80000295500000121 80000295500000120 80000295500000133 80000295500000119 6.14490120342 -3.67929 -1.56412 -2.53021
9.08309 80000295500000120 80000295500000119 80000295500000133 80000295500000118 6.01075739884 -2.04799 -0.321251 -3.0338
9.09375 80000295500000119 80000295500000118 80000295500000133 80000295500000117 5.84661374788 -2.62247 -0.685463 -2.41041
9.19013 80000295500000188 80000295500000187 80000295500000194 80000295500000186 5.52976580795 17.0796 -7.64565 -10.55
9.45376 80000295500000187 80000295500000184 80000295500000194 80000295500000183 4.93938066349 35.0517 -21.661 -6.21003
9.49536 80000295500000184 80000295500000183 80000295500000194 80000295500000182 4.66451770247 16.5264 -19.4045 -1.17068
9.54278 80000295500000183 80000295500000182 80000295500000194 80000295500000181 4.42803373661 38.917 -12.5525 -2.78266
9.5989 80000295500000182 80000295500000181 80000295500000194 80000295500000180 4.17683491473 46.5578 -10.7016 1.59669
9.61742 80000295500000181 80000295500000180 80000295500000194 80000295500000179 4.00794511147 40.1344 -17.9908 0.12228
9.66159 80000295500000180 80000295500000179 80000295500000194 80000295500000178 3.93726108473 43.2836 -18.5277 6.14337
9.71762 80000295500000179 80000295500000178 80000295500000194 80000295500000177 3.70877426464 40.4972 -25.8218 10.244
9.88016 80000295500000178 80000295500000177 80000295500000194 80000295500000176 3.49086136926 8.1098 -24.4229 16.7706
10.0349 80000295500000177 80000295500000176 80000295500000194 80000295500000175 3.28303305796 3.81325 -50.7884 14.2572
10.1786 80000295500000176 80000295500000175 80000295500000194 80000295500000174 3.08482263583 3.92174 -55.1465 -18.5176
9.18589 80000295500000223 80000295500000222 80000295500000232 80000295500000221 4.00794511147 0.734011 -10.7992 -5.7866
9.32958 80000295500000222 80000295500000221 80000295500000232 80000295500000220 3.93726108473 -17.9671 12.3112 8.50411
9.0066 80000295500000369 80000295500000368 80000295500000382 80000295500000367 3.28303305796 18.338 1.55223 -2.5697
9.0066 80000295500000368 80000295500000367 80000295500000382 80000295500000366 3.08482263583 16.0643 2.99859 -1.60771
9.02548 80000295500000367 80000295500000364 80000295500000382 80000295500000363 2.73314261732 19.8394 3.02578 -3.41444
9.06939 80000295500000364 80000295500000363 80000295500000382 80000295500000362 2.5772902716 18.2108 1.62939 -4.36999
9.02548 80000295500000401 80000295500000400 80000295500000418 80000295500000399 2.73314261732 6.33869 -2.26844 -1.32441
9.02855 80000295500000400 80000295500000395 80000295500000418 80000295500000394 2.1032696526 5.34865 -1.27288 1.45773
9.05235 80000295500000395 80000295500000394 80000295500000418 80000295500000393 2.00202813925 6.51244 -5.99685 8.1595
9.04062 80000295500000448 80000295500000447 80000295500000458 80000295500000446 5.22758097313 -3.03604 -0.27433 -3.69203
9.04062 80000295500000447 80000295500000446 80000295500000458 80000295500000445 4.99593346816 -3.36279 -2.19552 -5.52892
9.0666 80000295500000446 80000295500000444 80000295500000458 80000295500000443 4.66451770247 -4.90737 -1.72106 -7.69078
9.09375 80000295500000444 80000295500000443 80000295500000458 80000295500000442 4.42803373661 -8.22908 -1.13404 -5.65305
9.2087 80000295500000443 80000295500000442 80000295500000458 80000295500000441 4.17683491473 -6.51414 -2.88909 -17.1985
9.2342 80000295500000442 80000295500000441 80000295500000458 80000295500000440 4.00794511147 -11.4749 -3.93823 -13.0659
9.25284 80000295500000441 80000295500000440 80000295500000458 80000295500000439 3.93726108473 -12.3574 -5.21588 -13.4664
9.3044 80000295500000440 80000295500000439 80000295500000458 80000295500000438 3.70877426464 -9.41127 -5.43401 -15.9125
9.48905 80000295500000439 80000295500000438 80000295500000458 80000295500000437 3.49086136926 16.2462 -3.26801 -23.7575
9.67005 80000295500000438 80000295500000437 80000295500000458 80000295500000436 3.28303305796 29.0806 -1.42228 -33.6524
9.75075 80000295500000437 80000295500000436 80000295500000458 80000295500000435 3.08482263583 34.438 -4.30823 -34.5389
9.76892 80000295500000436 80000295500000434 80000295500000458 80000295500000433 2.89578500573 30.0023 -4.78684 -37.7265
9.79008 80000295500000434 80000295500000433 80000295500000458 80000295500000432 2.73314261732 37.0388 -3.65444 -43.1049
9.83578 80000295500000433 80000295500000432 80000295500000458 80000295500000431 2.5772902716 31.7298 8.11918 -36.3522
9.88316 80000295500000432 80000295500000429 80000295500000458 80000295500000428 2.20792547238 40.2777 -10.2216 -44.8321
9.96546 80000295500000429 80000295500000428 80000295500000458 80000295500000427 2.1032696526 34.8608 -18.5915 -32.1514
9.97835 80000295500000428 80000295500000425 80000295500000458 80000295500000424 1.82268925262 41.2928 6.93377 -12.7431
9.0098 80000295500000475 80000295500000474 80000295500000482 80000295500000473 4.99593346816 -3.92955 1.60258 -3.63367
9.01298 80000295500000474 80000295500000473 80000295500000482 80000295500000472 4.93938066349 -3.9648 1.87078 -4.20368
9.03463 80000295500000473 80000295500000470 80000295500000482 80000295500000469 4.17683491473 -2.08476 -2.28693 -4.95984
9.13871 80000295500000470 80000295500000469 80000295500000482 80000295500000468 4.00794511147 1.18346 -1.59918 -9.43077
9.16407 80000295500000469 80000295500000468 80000295500000482 80000295500000467 3.93726108473 -0.783203 -1.48534 -11.0347
9.03463 80000295500000521 80000295500000520 80000295500000525 80000295500000519 6.49159774567 0.728593 2.81633 5.49413
9.11431 80000295500000520 80000295500000519 80000295500000525 80000295500000518 6.14490120342 4.93299 -0.748411 10.1434
9.19848 80000295500000519 80000295500000517 80000295500000525 80000295500000516 5.84661374788 6.4514 -5.4123 11.4125
9.29787 80000295500000517 80000295500000516 80000295500000525 80000295500000515 5.52976580795 8.1109 -6.81983 11.2104
9.33716 80000295500000516 80000295500000514 80000295500000525 80000295500000513 4.99593346816 9.57683 -10.8396 6.38296
9.35914 80000295500000514 80000295500000512 80000295500000525 80000295500000511 4.66451770247 10.5418 -8.72574 7.07574
9.37457 80000295500000512 80000295500000511 80000295500000525 80000295500000510 4.42803373661 8.05423 -9.51417 6.73268
9.40131 80000295500000511 80000295500000509 80000295500000525 80000295500000508 4.00794511147 10.7556 -13.0821 10.1009
9.41029 80000295500000509 80000295500000504 80000295500000525 80000295500000503 3.08482263583 16.3172 -20.3359 12.2315
9.43136 80000295500000504 80000295500000503 80000295500000525 80000295500000502 3.00813107163 15.5681 -17.754 8.85736
9.00337 80000295500000579 80000295500000578 80000295500000589 80000295500000577 4.66451770247 8.78702 0.26791 -6.69752
9.05235 80000295500000578 80000295500000577 80000295500000589 80000295500000576 4.42803373661 7.396 0.062218 -6.44481
9.08845 80000295500000577 80000295500000576 80000295500000589 80000295500000575 4.17683491473 5.0891 -2.11003 -2.53784
9.08845 80000295500000576 80000295500000574 80000295500000589 80000295500000573 3.93726108473 7.01535 -2.41185 -5.68684
9.22457 80000295500000574 80000295500000573 80000295500000589 80000295500000572 3.70877426464 15.3698 1.87288 -13.894
9.24918 80000295500000573 80000295500000563 80000295500000589 80000295500000562 2.20792547238 12.3077 -0.056529 0.0603719
9.04653 80000295500000657 80000295500000656 80000295500000662 80000295500000655 6.14490120342 11.7104 -22.6455 6.03641
9.16182 80000295500000656 80000295500000654 80000295500000662 80000295500000653 5.84661374788 9.95747 -14.04 0.383157
9.23799 80000295500000654 80000295500000652 80000295500000662 80000295500000651 5.22758097313 6.17114 -21.5313 2.89388
9.27246 80000295500000652 80000295500000651 80000295500000662 80000295500000650 4.99593346816 7.31821 -22.7232 1.5836
9.29622 80000295500000651 80000295500000650 80000295500000662 80000295500000649 4.93938066349 6.57005 -24.3702 2.98917
9.34016 80000295500000650 80000295500000649 80000295500000662 80000295500000648 4.66451770247 7.60449 -18.3833 2.72954
9.36481 80000295500000649 80000295500000648 80000295500000662 80000295500000647 4.42803373661 6.74976 -18.1981 5.5219
9.43257 80000295500000648 80000295500000647 80000295500000662 80000295500000646 4.17683491473 8.15299 -14.914 2.64923
9.44564 80000295500000647 80000295500000646 80000295500000662 80000295500000645 4.00794511147 7.37069 -9.69083 2.6413
9.45376 80000295500000646 80000295500000645 80000295500000662 80000295500000644 3.93726108473 8.21858 -5.66591 2.17712
9.51275 80000295500000645 80000295500000641 80000295500000662 80000295500000640 3.08482263583 4.10182 -19.5712 12.1189
9.59394 80000295500000641 80000295500000638 80000295500000662 80000295500000637 2.73314261732 3.29789 -24.6621 11.5153
9.60543 80000295500000638 80000295500000637 80000295500000662 80000295500000636 2.5772902716 3.15573 -16.5052 5.88012
9.65514 80000295500000637 80000295500000635 80000295500000662 80000295500000634 2.31611074396 6.27854 -19.0983 3.41342
9.68582 80000295500000635 80000295500000634 80000295500000662 80000295500000633 2.20792547238 5.88789 -14.089 7.94593
9.71195 80000295500000634 80000295500000633 80000295500000662 80000295500000632 2.1032696526 13.7666 -18.8546 11.6566
9.72752 80000295500000633 80000295500000632 80000295500000662 80000295500000631 2.00202813925 19.3721 -16.7165 8.76323
9.76669 80000295500000632 80000295500000631 80000295500000662 80000295500000630 1.90408954353 7.54788 -19.9147 7.72507
9.86214 80000295500000631 80000295500000630 80000295500000662 80000295500000629 1.82268925262 2.01472 -32.581 25.2949
9.04945 80000295500000728 80000295500000727 80000295500000742 80000295500000726 2.89578500573 2.4214 3.95623 8.19888
9.07492 80000295500000727 80000295500000726 80000295500000742 80000295500000725 2.73314261732 7.24232 -7.27328 4.47778
9.1573 80000295500000726 80000295500000725 80000295500000742 80000295500000724 2.5772902716 8.17055 -2.23943 8.759
9.18589 80000295500000725 80000295500000724 80000295500000742 80000295500000723 2.44422570455 9.55722 -6.47532 9.05804
9.2361 80000295500000724 80000295500000722 80000295500000742 80000295500000721 2.20792547238 2.23343 -2.84681 8.38643
9.30115 80000295500000722 80000295500000721 80000295500000742 80000295500000720 2.1032696526 -0.263397 -2.81803 4.51981
9.31717 80000295500000721 80000295500000720 80000295500000742 80000295500000719 2.00202813925 -4.89807 -2.39625 2.5635
9.34756 80000295500000720 80000295500000719 80000295500000742 80000295500000718 1.90408954353 -4.62151 -4.96937 -0.440311
9.37457 80000295500000719 80000295500000718 80000295500000742 80000295500000717 1.82268925262 -9.27433 -4.2545 -3.59659
9.43497 80000295500000718 80000295500000717 80000295500000742 80000295500000716 1.74357057433 -26.0498 -4.21169 -9.6004
9.45719 80000295500000717 80000295500000716 80000295500000742 80000295500000715 1.66666955611 -23.8396 2.50635 -13.8618
9.47396 80000295500000716 80000295500000715 80000295500000742 80000295500000714 1.60423452207 -32.3117 2.19431 -15.7958
9.50055 80000295500000715 80000295500000714 80000295500000742 80000295500000713 1.53123902916 -21.8249 10.2977 -10.9116
9.53523 80000295500000714 80000295500000712 80000295500000742 80000295500000711 1.41409822037 -40.6046 -5.96763 -18.7934
9.58298 80000295500000712 80000295500000710 80000295500000742 80000295500000709 1.30237845991 -43.1274 -7.79101 -20.1497
9.59059 80000295500000710 80000295500000709 80000295500000742 80000295500000708 1.24847261425 -42.942 -4.16388 -20.4395
9.01298 80000295500000756 80000295500000755 80000295500000767 80000295500000754 2.31611074396 -6.12166 12.3091 2.82328
9.01298 80000295500000755 80000295500000754 80000295500000767 80000295500000753 2.20792547238 -2.39781 6.00986 7.55132
9.04945 80000295500000754 80000295500000753 80000295500000767 80000295500000752 2.1032696526 -5.96153 8.8688 0.321696
9.06096 80000295500000891 80000295500000890 80000295500000896 80000295500000889 6.14490120342 5.7844 8.71624 8.00451
9.0666 80000295500000890 80000295500000889 80000295500000896 80000295500000888 6.01075739884 -10.4521 -3.58171 11.8139
9.07492 80000295500000889 80000295500000888 80000295500000896 80000295500000887 5.84661374788 -10.0672 -2.87207 11.0394
9.23988 80000295500000888 80000295500000887 80000295500000896 80000295500000886 5.52976580795 -9.19934 6.15413 13.2609
9.2672 80000295500000887 80000295500000886 80000295500000896 80000295500000885 5.22758097313 -6.96928 5.63292 13.5048
9.29124 80000295500000886 80000295500000885 80000295500000896 80000295500000884 4.99593346816 -5.82452 5.3681 11.5771
9.30763 80000295500000885 80000295500000884 80000295500000896 80000295500000883 4.93938066349 -4.53227 4.25416 9.42031
9.32031 80000295500000884 80000295500000883 80000295500000896 80000295500000882 4.66451770247 -6.32975 2.72609 10.5262
9.36763 80000295500000883 80000295500000882 80000295500000896 80000295500000881 4.42803373661 -7.2924 3.03581 12.3031
9.42033 80000295500000882 80000295500000881 80000295500000896 80000295500000880 4.17683491473 -10.0617 5.18715 13.1999
9.50465 80000295500000881 80000295500000878 80000295500000896 80000295500000877 3.70877426464 -20.6259 16.5855 26.6954
9.54744 80000295500000878 80000295500000877 80000295500000896 80000295500000876 3.49086136926 -10.9506 22.8664 22.5914
9.54928 80000295500000877 80000295500000876 80000295500000896 80000295500000875 3.28303305796 -12.5448 17.6781 14.1965
9.58891 80000295500000876 80000295500000875 80000295500000896 80000295500000874 3.08482263583 -8.93483 18.4531 13.5732
9.61742 80000295500000875 80000295500000874 80000295500000896 80000295500000873 3.00813107163 -8.94395 18.2496 17.5805
9.626 80000295500000874 80000295500000873 80000295500000896 80000295500000872 2.89578500573 -7.54506 10.5279 10.1835
9.63744 80000295500000873 80000295500000872 80000295500000896 80000295500000871 2.73314261732 -10.6384 5.16083 -2.1845
9.65945 80000295500000872 80000295500000871 80000295500000896 80000295500000870 2.5772902716 -10.2768 16.8207 6.04328
9.66795 80000295500000871 80000295500000870 80000295500000896 80000295500000869 2.44422570455 -11.3909 12.499 -2.46116
9.71574 80000295500000870 80000295500000869 80000295500000896 80000295500000868 2.31611074396 -21.579 11.8453 -42.4104
9.7342 80000295500000869 80000295500000868 80000295500000896 80000295500000867 2.20792547238 -25.1033 9.98637 -38.7315
9.78528 80000295500000868 80000295500000866 80000295500000896 80000295500000865 2.00202813925 -25.7838 -16.9189 -42.7819
9.82222 80000295500000866 80000295500000865 80000295500000896 80000295500000864 1.90408954353 -33.1528 -13.7893 -32.4339
9.8276 80000295500000865 80000295500000862 80000295500000896 80000295500000861 1.66666955611 -26.0691 1.39129 -13.8187
9.84241 80000295500000862 80000295500000861 80000295500000896 80000295500000860 1.60423452207 -25.0345 -2.49106 -23.8524
9.86705 80000295500000861 80000295500000860 80000295500000896 80000295500000859 1.53123902916 -28.9469 0.0358828 -16.4604
9.87409 80000295500000860 80000295500000859 80000295500000896 80000295500000858 1.47197484527 -29.4852 -4.16875 -14.8194
9.8891 80000295500000859 80000295500000858 80000295500000896 80000295500000857 1.41409822037 -32.538 -4.49327 -15.9865
9.90686 80000295500000858 80000295500000857 80000295500000896 80000295500000856 1.3575766674 -28.5116 -6.47616 -16.5099
9.92703 80000295500000857 80000295500000856 80000295500000896 80000295500000855 1.30237845991 -22.5401 -7.98488 -16.6838
9.93658 80000295500000856 80000295500000855 80000295500000896 80000295500000854 1.24847261425 -23.3401 -10.2231 -16.0153
9.94296 80000295500000855 80000295500000854 80000295500000896 80000295500000853 1.20625808078 -18.9917 -17.7699 -17.1253
9.00012 80000295500001013 80000295500001012 80000295500001025 80000295500001011 3.93726108473 5.95952 -3.93897 -4.70445
9.20055 80000295500001012 80000295500001011 80000295500001025 80000295500001010 3.70877426464 5.88281 5.40248 8.02161
9.29622 80000295500001011 80000295500001010 80000295500001025 80000295500001009 3.49086136926 2.76382 8.79005 9.48701
9.32497 80000295500001010 80000295500001009 80000295500001025 80000295500001008 3.28303305796 3.08429 8.56009 9.65662
9.34756 80000295500001009 80000295500001008 80000295500001025 80000295500001007 3.08482263583 4.81589 7.02058 5.583
9.38141 80000295500001008 80000295500001006 80000295500001025 80000295500001005 2.89578500573 2.64898 12.3751 7.78992
9.41156 80000295500001006 80000295500001005 80000295500001025 80000295500001004 2.73314261732 0.82727 11.3116 2.72929
9.41282 80000295500001005 80000295500001003 80000295500001025 80000295500001002 2.44422570455 -2.65787 10.6671 2.26788
9.44681 80000295500001003 80000295500001002 80000295500001025 80000295500001001 2.31611074396 -6.08206 10.0883 0.511079
9.46621 80000295500001002 80000295500001001 80000295500001025 80000295500001000 2.20792547238 0.75216 7.19305 6.72932
9.48799 80000295500001001 80000295500001000 80000295500001025 80000295500000999 2.1032696526 1.71213 6.97858 7.79497
9.54744 80000295500001000 80000295500000997 80000295500001025 80000295500000996 1.82268925262 -3.592 13.6975 23.417
9.57869 80000295500000997 80000295500000996 80000295500001025 80000295500000995 1.74357057433 -11.9906 13.3029 33.8772
9.61663 80000295500000996 80000295500000995 80000295500001025 80000295500000994 1.66666955611 -16.8021 16.5216 36.1991
9.6229 80000295500000995 80000295500000994 80000295500001025 80000295500000993 1.60423452207 -16.0028 20.0391 36.8418
9.64119 80000295500000994 80000295500000993 80000295500001025 80000295500000992 1.53123902916 -18.619 16.9211 51.769
9.66584 80000295500000993 80000295500000992 80000295500001025 80000295500000991 1.47197484527 -29.4683 19.6568 63.2642
9.6756 80000295500000992 80000295500000991 80000295500001025 80000295500000990 1.41409822037 -36.0474 22.4384 62.2599
9.67698 80000295500000991 80000295500000990 80000295500001025 80000295500000989 1.3575766674 -39.1715 29.9707 68.3087
9.04653 80000295500001351 80000295500001350 80000295500001358 80000295500001349 3.70877426464 3.61859 2.69514 2.58634
9.07492 80000295500001350 80000295500001348 80000295500001358 80000295500001347 3.28303305796 2.53559 5.57287 -7.72239
9.08038 80000295500001348 80000295500001346 80000295500001358 80000295500001345 3.00813107163 -2.18937 -3.06706 1.01829
9.14578 80000295500001346 80000295500001345 80000295500001358 80000295500001344 2.89578500573 -0.99974 0.808183 -1.24053
9.17946 80000295500001345 80000295500001344 80000295500001358 80000295500001343 2.73314261732 -0.941182 1.72447 -0.67186
9.18802 80000295500001344 80000295500001343 80000295500001358 80000295500001342 2.5772902716 1.92634 4.03293 -0.60653
9.24918 80000295500001343 80000295500001342 80000295500001358 80000295500001341 2.44422570455 -1.68447 4.28811 -0.610628
9.25648 80000295500001342 80000295500001341 80000295500001358 80000295500001340 2.31611074396 -4.82294 3.2479 0.207094
9.26008 80000295500001341 80000295500001340 80000295500001358 80000295500001339 2.20792547238 -0.993109 3.18057 0.038775
9.29457 80000295500001340 80000295500001339 80000295500001358 80000295500001338 2.1032696526 -4.21274 7.52098 -10.5699
9.35627 80000295500001339 80000295500001338 80000295500001358 80000295500001337 2.00202813925 -6.84193 5.95903 -12.2289
9.04653 80000295500001780 80000295500001779 80000295500001787 80000295500001778 8.01217294887 2.54929 5.86888 -2.84763
9.08309 80000295500001779 80000295500001778 80000295500001787 80000295500001777 7.59510714987 3.09811 3.78355 -1.06687
9.13634 80000295500001778 80000295500001777 80000295500001787 80000295500001776 7.23627606617 0.31641 3.6257 -4.77671
9.19013 80000295500001777 80000295500001776 80000295500001787 80000295500001775 7.00541704554 1.64504 4.58294 -0.277276
9.2026 80000295500001776 80000295500001775 80000295500001787 80000295500001774 6.85511726265 -1.24314 3.28884 0.335079
9.27246 80000295500001775 80000295500001774 80000295500001787 80000295500001773 6.49159774567 -2.70503 7.01184 -4.15167
9.36902 80000295500001774 80000295500001773 80000295500001787 80000295500001772 6.14490120342 2.03566 10.2714 -0.426928
9.40131 80000295500001773 80000295500001772 80000295500001787 80000295500001771 6.01075739884 9.86082 13.7158 4.41935
9.49221 80000295500001772 80000295500001771 80000295500001787 80000295500001770 5.84661374788 19.9209 20.3786 4.85424
9.57262 80000295500001771 80000295500001770 80000295500001787 80000295500001769 5.52976580795 28.9043 23.8494 8.06809
9.59394 80000295500001770 80000295500001769 80000295500001787 80000295500001768 5.22758097313 34.0006 21.9612 3.39334
9.62677 80000295500001769 80000295500001768 80000295500001787 80000295500001767 4.99593346816 32.9294 15.3926 6.38895
9.63366 80000295500001768 80000295500001767 80000295500001787 80000295500001766 4.93938066349 29.5274 15.2665 7.75455
9.65945 80000295500001767 80000295500001766 80000295500001787 80000295500001765 4.66451770247 24.4542 10.8719 6.5759
9.71385 80000295500001766 80000295500001765 80000295500001787 80000295500001764 4.42803373661 24.2744 14.2088 10.9201
9.74491 80000295500001765 80000295500001764 80000295500001787 80000295500001763 4.17683491473 24.9931 10.1098 15.7891
9.8067 80000295500001764 80000295500001763 80000295500001787 80000295500001762 4.00794511147 24.4255 4.62984 16.3066
9.89371 80000295500001763 80000295500001762 80000295500001787 80000295500001761 3.93726108473 20.7312 10.6103 -0.765866
9.94222 80000295500001762 80000295500001761 80000295500001787 80000295500001760 3.70877426464 19.1028 13.7231 -12.615
9.97317 80000295500001761 80000295500001760 80000295500001787 80000295500001759 3.49086136926 17.3952 9.57747 -6.70573
10.0391 80000295500001760 80000295500001759 80000295500001787 80000295500001758 3.28303305796 17.9612 8.99978 -14.0513
10.0512 80000295500001759 80000295500001758 80000295500001787 80000295500001757 3.08482263583 20.0203 3.70928 -11.4603
10.1269 80000295500001758 80000295500001754 80000295500001787 80000295500001753 2.5772902716 -26.4588 11.5427 -16.5467
10.1557 80000295500001754 80000295500001753 80000295500001787 80000295500001752 2.44422570455 -27.759 3.96753 -11.5667
10.1696 80000295500001753 80000295500001752 80000295500001787 80000295500001751 2.31611074396 -22.7338 12.5123 -11.8192
10.176 80000295500001752 80000295500001751 80000295500001787 80000295500001750 2.20792547238 -21.5067 6.5317 -8.5182
10.204 80000295500001751 80000295500001750 80000295500001787 80000295500001749 2.1032696526 -23.8411 14.901 -16.0847
10.2095 80000295500001750 80000295500001749 80000295500001787 80000295500001748 2.00202813925 -27.7805 8.64445 -20.445
10.2224 80000295500001749 80000295500001748 80000295500001787 80000295500001747 1.90408954353 -35.6738 19.7082 -29.0426
10.247 80000295500001748 80000295500001745 80000295500001787 80000295500001744 1.66666955611 -49.856 19.3623 -20.6094
10.2801 80000295500001745 80000295500001744 80000295500001787 80000295500001743 1.60423452207 -59.0824 18.9078 -29.1283
10.2889 80000295500001744 80000295500001742 80000295500001787 80000295500001741 1.47197484527 -47.2926 25.4024 -43.598
10.3361 80000295500001742 80000295500001741 80000295500001787 80000295500001740 1.41409822037 -74.1369 19.2039 -35.3994
10.3596 80000295500001741 80000295500001739 80000295500001787 80000295500001738 1.30237845991 -82.283 27.094 -51.2642
10.3958 80000295500001739 80000295500001738 80000295500001787 80000295500001737 1.24847261425 -86.4968 31.3665 -57.221
10.4413 80000295500001738 80000295500001737 80000295500001787 80000295500001736 1.20625808078 -98.294 32.8235 -55.0286
10.4551 80000295500001737 80000295500001736 80000295500001787 80000295500001735 1.15460271236 -90.8128 41.1206 -50.1662
10.4919 80000295500001736 80000295500001735 80000295500001787 80000295500001734 1.11415056377 -83.0011 30.4822 -69.4943
10.5307 80000295500001735 80000295500001734 80000295500001787 80000295500001733 1.07445789455 -83.1291 26.6272 -86.1899
10.5416 80000295500001734 80000295500001732 80000295500001787 80000295500001731 0.997294225782 -93.1176 39.2479 -88.5702
10.542 80000295500001732 80000295500001731 80000295500001787 80000295500001730 0.987852810816 -96.7012 42.4466 -82.3009
10.5698 80000295500001731 80000295500001730 80000295500001787 80000295500001729 0.950531351585 -90.5874 40.2579 -96.2807
10.5796 80000295500001730 80000295500001729 80000295500001787 80000295500001728 0.923000816178 -88.5973 47.3977 -93.2997
10.606 80000295500001729 80000295500001728 80000295500001787 80000295500001727 0.886896937575 -79.8743 40.1221 -101.541
10.6102 80000295500001728 80000295500001727 80000295500001787 80000295500001726 0.851470900625 -82.8403 43.4831 -109.062
10.6172 80000295500001727 80000295500001723 80000295500001787 80000295500001722 0.732636182022 -53.879 35.215 -87.9086
10.6238 80000295500001723 80000295500001722 80000295500001787 80000295500001721 0.700106353719 -54.6224 36.8309 -123.777
9.05235 80000295500001809 80000295500001808 80000295500001814 80000295500001807 5.84661374788 -6.99533 1.73118 1.873
9.12668 80000295500001808 80000295500001807 80000295500001814 80000295500001806 5.52976580795 -15.7398 3.7235 -14.905
9.38547 80000295500001807 80000295500001802 80000295500001814 80000295500001801 4.42803373661 6.66068 -4.7189 -16.5329
9.06096 80000295500001819 80000295500001818 80000295500001823 80000295500001817 4.99593346816 11.036 0.59097 -12.3686
9.22066 80000295500001818 80000295500001816 80000295500001823 80000295500001802 4.66451770247 4.44552 -1.11011 -19.1947
9.00012 80000295500001878 80000295500001877 80000295500001887 80000295500001876 4.17683491473 -0.194297 -0.599308 -5.18358
9.09898 80000295500001877 80000295500001876 80000295500001887 80000295500001875 4.00794511147 4.91115 -4.69785 -6.94296
9.15956 80000295500001876 80000295500001875 80000295500001887 80000295500001874 3.93726108473 5.63862 -1.6947 -4.71279
9.28788 80000295500001875 80000295500001874 80000295500001887 80000295500001873 3.70877426464 4.6896 -4.13442 -1.39285
9.33415 80000295500001874 80000295500001873 80000295500001887 80000295500001872 3.49086136926 3.23061 -4.45172 0.188027
9.37042 80000295500001873 80000295500001872 80000295500001887 80000295500001871 3.28303305796 8.5415 -8.64864 0.546147
9.37595 80000295500001872 80000295500001870 80000295500001887 80000295500001869 3.00813107163 10.4877 -8.92467 -0.474718
9.38948 80000295500001870 80000295500001869 80000295500001887 80000295500001868 2.89578500573 9.83927 -7.65668 -0.320895
9.01928 80000295500002010 80000295500002009 80000295500002022 80000295500002008 6.14490120342 0.068124 -1.94252 4.09754
9.04062 80000295500002009 80000295500002005 80000295500002022 80000295500002004 5.22758097313 0.284842 -5.79039 3.90146
9.04945 80000295500002005 80000295500002003 80000295500002022 80000295500002002 4.93938066349 -1.37404 -3.67147 6.8599
9.05235 80000295500002003 80000295500002002 80000295500002022 80000295500002001 4.66451770247 -0.172679 -3.89609 4.62793
9.1663 80000295500002002 80000295500002000 80000295500002022 80000295500001999 4.17683491473 -0.871421 -8.03917 9.49037
9.1663 80000295500002000 80000295500001999 80000295500002022 80000295500001998 4.00794511147 -1.56948 -5.81293 7.20243
9.19641 80000295500001999 80000295500001998 80000295500002022 80000295500001997 3.93726108473 -4.25737 -5.34882 8.73445
9.38412 80000295500001998 80000295500001997 80000295500002022 80000295500001996 3.70877426464 -4.12176 -5.71762 9.99374
9.42404 80000295500001997 80000295500001995 80000295500002022 80000295500001994 3.28303305796 -5.69204 -6.33292 8.77111
9.44093 80000295500001995 80000295500001994 80000295500002022 80000295500001993 3.08482263583 -5.44072 -6.62643 3.90151
9.46621 80000295500001994 80000295500001993 80000295500002022 80000295500001992 3.00813107163 -8.82757 -5.96578 1.2276
9.49848 80000295500001993 80000295500001992 80000295500002022 80000295500001991 2.89578500573 -10.3684 -6.85896 -1.22515
9.55021 80000295500001992 80000295500001990 80000295500002022 80000295500001989 2.5772902716 -19.9845 -10.6754 -5.72509
9.55296 80000295500001990 80000295500001988 80000295500002022 80000295500001987 2.31611074396 -15.9255 -6.14711 -6.32666
9.56735 80000295500001988 80000295500001986 80000295500002022 80000295500001985 2.1032696526 -15.1383 -7.67673 -17.2065
9.60462 80000295500001986 80000295500001985 80000295500002022 80000295500001984 2.00202813925 -17.0634 -8.81782 -21.4213
9.65224 80000295500001985 80000295500001984 80000295500002022 80000295500001983 1.90408954353 -21.1105 -10.5166 -48.8002
9.66584 80000295500001984 80000295500001982 80000295500002022 80000295500001981 1.74357057433 -13.091 -14.6741 -41.0543
9.72996 80000295500001982 80000295500001981 80000295500002022 80000295500001980 1.66666955611 -19.0797 -5.86077 -51.3759
9.749 80000295500001981 80000295500001979 80000295500002022 80000295500001978 1.53123902916 -14.8729 -14.0374 -53.1255
9.75133 80000295500001979 80000295500001978 80000295500002022 80000295500001977 1.47197484527 -12.539 -20.4517 -57.8714
