logMh | fpID | subhaloID | main leaf ID | descID |  z
9.00012 4707224 4707223 4707226 4707222 14.0339921445 3.73832 -0.875955 -2.74971
9.2828 4707223 4707222 4707226 4707221 13.3382482898 0.267453 -6.42628 0.156734
9.50158 4707222 4707221 4707226 4707220 12.6747021048 0.239908 3.97997 -17.333
9.64416 4707221 4707220 4707226 4707219 12.0418635439 -3.63547 2.51727 -15.787
9.69184 4707220 4707219 4707226 4707218 11.4973879548 -14.4984 4.72554 -11.2816
9.79219 4707219 4707218 4707226 4707217 10.9190331982 -13.7702 6.42299 -11.3406
9.84847 4707218 4707217 4707226 4707216 10.3674435724 -17.739 14.8666 -18.1457
9.8912 4707217 4707216 4707226 4707215 9.99659046619 -17.4133 8.61891 -12.3373
9.89371 4707216 4707215 4707226 4707214 9.84138043947 -17.8201 9.23118 -11.4043
9.99684 4707215 4707214 4707226 4707213 9.38877127194 -7.44497 10.3652 -16.8488
10.0885 4707214 4707213 4707226 4707212 9.00233985416 -11.6143 6.03713 -8.88455
10.1013 4707213 4707212 4707226 4707211 8.9079991856 -16.6492 7.1871 -6.82031
10.1198 4707212 4707211 4707226 4707210 8.44947629437 -13.4324 4.2803 -10.1775
10.2503 4707211 4707210 4707226 4707209 8.01217294887 -39.4316 1.24357 14.3427
10.3153 4707210 4707209 4707226 4707208 7.59510714987 -38.7563 -0.643155 11.862
10.3577 4707209 4707208 4707226 4707207 7.23627606617 -47.7538 -0.874648 15.9247
10.3796 4707208 4707207 4707226 4707206 7.00541704554 -42.1607 -5.33438 15.5065
10.3953 4707207 4707206 4707226 4707205 6.85511726265 -48.774 -1.73291 14.9579
10.4356 4707206 4707205 4707226 4707204 6.49159774567 -40.3634 -2.02453 2.963
10.4927 4707205 4707204 4707226 4707203 6.14490120342 -41.2407 14.9846 -17.1186
10.5065 4707204 4707203 4707226 4707202 6.01075739884 -42.6946 13.7444 -24.3364
10.5163 4707203 4707202 4707226 4707201 5.84661374788 -58.0165 23.5246 -19.6368
10.5618 4707202 4707201 4707226 4707200 5.52976580795 -64.0283 20.1827 -39.5649
10.5974 4707201 4707200 4707226 4707199 5.22758097313 -71.7442 20.0769 -35.4547
10.6407 4707200 4707199 4707226 4707198 4.99593346816 -96.4432 41.9654 -35.0233
10.6474 4707199 4707198 4707226 4707197 4.93938066349 -95.0139 40.7007 -35.7816
10.7061 4707198 4707197 4707226 4707196 4.66451770247 -115.214 50.1009 -53.1198
10.7292 4707197 4707196 4707226 4707195 4.42803373661 -117.935 44.2618 -46.9818
10.7598 4707196 4707195 4707226 4707194 4.17683491473 -136.985 58.7813 -61.0175
10.7921 4707195 4707194 4707226 4707193 4.00794511147 -127.796 57.6085 -78.4585
10.8154 4707194 4707193 4707226 4707192 3.93726108473 -141.932 67.1684 -83.2061
10.8382 4707193 4707192 4707226 4707191 3.70877426464 -123.223 49.5124 -107.36
10.849 4707192 4707191 4707226 4707190 3.49086136926 -99.2453 38.048 -106.238
10.8982 4707191 4707190 4707226 4707189 3.28303305796 -90.1149 47.1539 -128.824
10.9308 4707190 4707189 4707226 4707188 3.08482263583 -103.003 73.0671 -135.355
10.9598 4707189 4707187 4707226 4707186 2.89578500573 -109.687 83.9571 -131.844
10.9859 4707187 4707186 4707226 4707185 2.73314261732 -132.063 94.8896 -112.476
10.9872 4707186 4707185 4707226 4707184 2.5772902716 -139.799 75.8873 -95.5984
10.9923 4707185 4707183 4707226 4707182 2.31611074396 -124.347 64.1277 -64.8582
10.9939 4707183 4707182 4707226 4707181 2.20792547238 -127.378 48.7424 -62.5952
11.0065 4707182 4707181 4707226 4707180 2.1032696526 -118.993 40.6601 -48.2828
11.0086 4707181 4707178 4707226 4707177 1.82268925262 -118.905 31.1832 -43.3271
11.0138 4707178 4707177 4707226 4707176 1.74357057433 -122.626 42.1574 -44.1096
11.0413 4707177 4707176 4707226 4707175 1.66666955611 -121.379 28.6146 -38.4678
11.073 4707176 4707174 4707226 4707173 1.53123902916 -72.5615 -7.68349 -30.7674
11.0998 4707174 4707173 4707226 4707172 1.47197484527 -40.8626 -46.3339 -20.174
11.1179 4707173 4707172 4707226 4707171 1.41409822037 -53.6892 -65.8233 1.9118
11.142 4707172 4707171 4707226 4707170 1.3575766674 -35.4599 -85.8818 33.9604
11.1623 4707171 4707170 4707226 4707169 1.30237845991 -70.047 -115.029 74.9032
11.1998 4707170 4707169 4707226 4707168 1.24847261425 -76.4764 -151.438 105.664
11.2137 4707169 4707167 4707226 4707166 1.15460271236 -117.785 -193.188 97.7835
11.2845 4707167 4707163 4707226 4707162 0.997294225782 -91.9672 -261.46 271.14
11.2885 4707163 4707162 4707226 4707161 0.987852810816 -101.358 -263.856 275.092
11.2887 4707162 4707123 4707226 4707122 0.125759332411 -234.198 -204.7 84.9851
11.2913 4707123 4707122 4707226 4707121 0.109869940459 -232.959 -192.484 69.796
11.2979 4707122 4707121 4707226 4707120 0.0994018026302 -236.643 -193.152 60.6104
9.15042 4707281 4707280 4707286 4707279 14.0339921445 1.59352 1.61742 -3.73579
9.18802 4707280 4707279 4707286 4707278 13.3382482898 0.83761 2.37488 -2.85027
9.2361 4707279 4707278 4707286 4707277 12.6747021048 2.49869 1.14831 -3.2179
9.30115 4707278 4707277 4707286 4707276 12.0418635439 2.61561 -1.29675 -5.08794
9.33263 4707277 4707276 4707286 4707275 11.4973879548 3.26769 -1.53191 -3.75415
9.41659 4707276 4707275 4707286 4707274 10.9190331982 4.02533 -1.08658 -3.35571
9.5256 4707275 4707274 4707286 4707273 10.3674435724 1.04181 -3.99528 0.946966
9.53996 4707274 4707273 4707286 4707272 9.99659046619 -0.17375 -3.6361 -0.217504
9.54928 4707273 4707272 4707286 4707271 9.84138043947 6.3179 -3.67035 -1.08892
9.55204 4707272 4707271 4707286 4707270 9.38877127194 2.28766 -2.93235 -2.68423
9.11431 4707369 4707368 4707373 4707367 8.9079991856 -7.92794 8.72212 1.37392
9.12668 4707368 4707361 4707373 4707360 6.49159774567 -4.98833 -6.39107 12.4633
9.13871 4707361 4707356 4707373 4707355 5.22758097313 -17.1546 22.9151 -7.06175
9.00012 4707445 4707444 4707454 4707443 7.23627606617 8.53323 -1.42376 7.29798
9.00337 4707444 4707442 4707454 4707441 6.85511726265 10.7954 -0.703203 3.70259
9.02855 4707442 4707440 4707454 4707439 6.14490120342 7.94297 1.15988 5.96196
9.13871 4707440 4707439 4707454 4707438 6.01075739884 16.0831 7.88621 11.7905
9.25101 4707439 4707437 4707454 4707436 5.52976580795 17.5476 9.52526 11.1495
9.26187 4707437 4707436 4707454 4707435 5.22758097313 13.0444 2.98589 6.61255
9.3044 4707436 4707435 4707454 4707434 4.99593346816 13.9259 4.79197 1.41644
9.31874 4707435 4707434 4707454 4707433 4.93938066349 6.45831 1.60936 -0.0033474
9.32187 4707434 4707433 4707454 4707432 4.66451770247 16.027 2.54034 9.96693
9.38547 4707433 4707432 4707454 4707431 4.42803373661 18.9337 0.0900799 7.68689
9.48157 4707432 4707431 4707454 4707430 4.17683491473 11.9665 2.87499 -2.12327
9.51175 4707431 4707430 4707454 4707429 4.00794511147 16.464 8.98247 -1.81346
9.01928 4707593 4707592 4707607 4707591 4.99593346816 7.74872 2.72889 -3.60689
9.02548 4707592 4707591 4707607 4707590 4.93938066349 7.46515 0.395501 -3.02056
9.15502 4707591 4707590 4707607 4707589 4.66451770247 4.64932 -13.4716 -1.00634
9.21272 4707590 4707589 4707607 4707588 4.42803373661 5.94779 -10.8181 0.811138
9.27594 4707589 4707588 4707607 4707587 4.17683491473 10.6636 -12.9045 -2.26764
9.27594 4707588 4707587 4707607 4707586 4.00794511147 7.85411 -19.2807 -2.1656
9.32187 4707587 4707585 4707607 4707584 3.70877426464 6.31069 -16.8274 -0.450431
9.39081 4707585 4707584 4707607 4707583 3.49086136926 11.4694 -16.7282 -1.81338
9.4026 4707584 4707583 4707607 4707582 3.28303305796 14.4061 -12.2886 4.99003
9.49431 4707583 4707581 4707607 4707580 3.00813107163 16.3238 -10.6831 8.15209
9.01298 4707675 4707674 4707683 4707673 7.00541704554 -0.94504 -6.9266 2.5873
9.01928 4707674 4707673 4707683 4707672 6.85511726265 -0.738849 -6.77526 2.53082
9.04358 4707673 4707671 4707683 4707670 6.14490120342 0.0633441 -4.64959 0.110479
9.04358 4707671 4707670 4707683 4707669 6.01075739884 -1.01873 -4.65086 -1.36809
9.10157 4707670 4707669 4707683 4707668 5.84661374788 -1.24486 -5.29842 -1.79225
9.12178 4707669 4707668 4707683 4707667 5.52976580795 -1.46919 -4.92259 -3.72692
9.12178 4707668 4707667 4707683 4707666 5.22758097313 0.327486 -5.9657 0.750778
9.16407 4707667 4707666 4707683 4707665 4.99593346816 3.54455 -8.94271 -1.29933
9.21072 4707666 4707665 4707683 4707664 4.93938066349 2.29701 -6.69648 -1.39723
9.22457 4707665 4707663 4707683 4707662 4.42803373661 3.64138 -6.35802 2.50231
9.26008 4707663 4707661 4707683 4707660 4.00794511147 3.45943 -4.83745 2.07928
9.26896 4707661 4707660 4707683 4707659 3.93726108473 3.70771 -4.61353 -3.14093
9.31874 4707660 4707659 4707683 4707658 3.70877426464 -2.29949 -1.37469 -4.48854
9.04653 4707922 4707921 4707927 4707920 9.38877127194 0.0349739 -4.49553 -1.54034
9.09898 4707921 4707920 4707927 4707919 9.00233985416 1.72305 -8.39201 -0.00823553
9.23229 4707920 4707918 4707927 4707917 8.44947629437 1.03998 -7.34568 -2.00311
9.25101 4707918 4707917 4707927 4707916 8.01217294887 3.14684 -8.22555 -2.01599
9.37319 4707917 4707916 4707927 4707915 7.59510714987 3.20781 -11.0372 1.51304
9.54928 4707916 4707915 4707927 4707914 7.23627606617 9.78241 2.49276 3.80636
9.56468 4707915 4707914 4707927 4707913 7.00541704554 17.084 5.83448 7.49581
9.64268 4707914 4707913 4707927 4707912 6.85511726265 27.4945 3.09026 12.5734
9.72996 4707913 4707912 4707927 4707911 6.49159774567 31.535 1.41165 15.6979
9.82272 4707912 4707911 4707927 4707910 6.14490120342 38.4276 3.72828 7.07274
9.85307 4707911 4707910 4707927 4707909 6.01075739884 37.2185 2.77494 5.46583
9.91607 4707910 4707909 4707927 4707908 5.84661374788 36.1125 3.02566 -3.18349
9.95725 4707909 4707908 4707927 4707907 5.52976580795 32.7902 2.59941 -4.07279
9.9756 4707908 4707907 4707927 4707906 5.22758097313 30.5794 -0.605304 -4.84445
9.98987 4707907 4707906 4707927 4707905 4.99593346816 29.5104 5.53383 -2.12315
10.0108 4707906 4707898 4707927 4707897 3.49086136926 42.8993 4.08494 7.4189
10.0286 4707898 4707897 4707927 4707896 3.28303305796 32.5651 11.6509 -1.50794
10.0898 4707897 4707896 4707927 4707895 3.08482263583 41.646 24.0153 -0.545623
10.0969 4707896 4707895 4707927 4707894 3.00813107163 28.739 23.8869 -6.68538
10.1247 4707895 4707894 4707927 4707893 2.89578500573 45.3515 18.332 2.93306
10.16 4707894 4707893 4707927 4707892 2.73314261732 25.342 19.0075 -8.27404
10.2059 4707893 4707892 4707927 4707891 2.5772902716 35.7753 21.5591 -1.18351
10.2197 4707892 4707891 4707927 4707890 2.44422570455 37.2136 19.2293 -4.7002
10.2462 4707891 4707890 4707927 4707889 2.31611074396 26.7109 24.5224 -9.28952
10.251 4707890 4707889 4707927 4707888 2.20792547238 43.7653 11.7232 -16.6671
10.2744 4707889 4707888 4707927 4707887 2.1032696526 41.2044 14.3048 -12.6641
10.2984 4707888 4707886 4707927 4707885 1.90408954353 28.6271 6.63061 -15.9143
10.3063 4707886 4707884 4707927 4707883 1.74357057433 22.4222 24.0581 -20.6083
10.3474 4707884 4707882 4707927 4707881 1.60423452207 7.73272 10.8877 -22.2862
9.0066 4708122 4708121 4708139 4708120 2.1032696526 -9.0866 15.7451 15.3092
9.01614 4708121 4708120 4708139 4708119 2.00202813925 -4.42271 16.1422 17.7512
9.02855 4708120 4708118 4708139 4708117 1.82268925262 -8.57099 17.0177 12.5984
