logMh | fpID | subhaloID | main leaf ID | descID |  z
9.0666 40000000701203650 40000000701203649 40000000701203654 40000000701203648 9.38877127194 -2.75106 -2.85914 0.984022
9.29457 40000000701203649 40000000701203648 40000000701203654 40000000701203647 9.00233985416 -10.1118 -8.52884 12.6379
9.31083 40000000701203648 40000000701203647 40000000701203654 40000000701203646 8.9079991856 -9.99 -7.5729 13.2633
9.33566 40000000701203647 40000000701203646 40000000701203654 40000000701203645 8.44947629437 -5.07288 -2.20896 6.80179
9.36902 40000000701203646 40000000701203645 40000000701203654 40000000701203644 8.01217294887 -3.64044 -1.80544 6.87997
9.50567 40000000701203645 40000000701203644 40000000701203654 40000000701203643 7.59510714987 -2.23891 -0.330325 6.22014
9.64785 40000000701203644 40000000701203643 40000000701203654 40000000701203642 7.23627606617 -4.8935 -3.2171 15.7427
9.75765 40000000701203643 40000000701203642 40000000701203654 40000000701203641 7.00541704554 -12.6282 -12.2078 13.6136
9.76557 40000000701203642 40000000701203641 40000000701203654 40000000701203640 6.85511726265 -8.32782 -17.571 12.7452
9.84708 40000000701203641 40000000701203640 40000000701203654 40000000701203639 6.49159774567 -5.3432 -17.9401 16.0557
9.95545 40000000701203640 40000000701203639 40000000701203654 40000000701203638 6.14490120342 -4.94584 0.470729 27.0572
9.98753 40000000701203639 40000000701203638 40000000701203654 40000000701203637 6.01075739884 -4.71748 1.68483 31.4854
10.0155 40000000701203638 40000000701203637 40000000701203654 40000000701203636 5.84661374788 -1.65969 5.689 32.3178
10.0882 40000000701203637 40000000701203636 40000000701203654 40000000701203635 5.52976580795 -5.27525 -0.398827 36.3752
10.125 40000000701203636 40000000701203630 40000000701203654 40000000701203629 4.17683491473 9.79256 -30.8901 6.21485
10.1687 40000000701203630 40000000701203629 40000000701203654 40000000701203628 4.00794511147 17.7616 -29.7274 11.6413
10.2147 40000000701203629 40000000701203628 40000000701203654 40000000701203627 3.93726108473 17.76 -32.116 12.5341
10.2348 40000000701203628 40000000701203627 40000000701203654 40000000701203626 3.70877426464 20.8628 -34.5976 5.89226
10.2951 40000000701203627 40000000701203626 40000000701203654 40000000701203625 3.49086136926 21.8104 -51.7482 8.52261
10.3521 40000000701203626 40000000701203625 40000000701203654 40000000701203624 3.28303305796 17.4669 -52.4114 14.4872
10.403 40000000701203625 40000000701203624 40000000701203654 40000000701203623 3.08482263583 21.1884 -57.2808 11.0478
10.4222 40000000701203624 40000000701203623 40000000701203654 40000000701203622 3.00813107163 16.3902 -53.8071 11.8706
10.4426 40000000701203623 40000000701203622 40000000701203654 40000000701203621 2.89578500573 55.4561 -57.9977 24.3115
10.4846 40000000701203622 40000000701203621 40000000701203654 40000000701203620 2.73314261732 90.3471 -47.1491 36.4225
10.5003 40000000701203621 40000000701203620 40000000701203654 40000000701203619 2.5772902716 97.6827 -27.3038 45.9282
10.5922 40000000701203620 40000000701203619 40000000701203654 40000000701203618 2.44422570455 144.68 37.5033 86.7885
10.694 40000000701203619 40000000701203618 40000000701203654 40000000701203617 2.31611074396 216.395 54.5326 154.308
10.706 40000000701203618 40000000701203617 40000000701203654 40000000701203616 2.20792547238 202.067 91.2968 158.076
10.7295 40000000701203617 40000000701203613 40000000701203654 40000000701203612 1.82268925262 261.108 59.8833 178.417
10.762 40000000701203613 40000000701203612 40000000701203654 40000000701203611 1.74357057433 236.967 55.2892 159.804
10.7999 40000000701203612 40000000701203609 40000000701203654 40000000701203608 1.53123902916 194.97 69.6042 144.399
10.8178 40000000701203609 40000000701203608 40000000701203654 40000000701203607 1.47197484527 202.428 64.5776 161.77
10.8242 40000000701203608 40000000701203607 40000000701203654 40000000701203606 1.41409822037 200.223 58.822 156.45
10.8423 40000000701203607 40000000701203606 40000000701203654 40000000701203605 1.3575766674 206.722 63.6474 165.42
10.8542 40000000701203606 40000000701203605 40000000701203654 40000000701203604 1.30237845991 216.868 68.0028 171.071
10.8607 40000000701203605 40000000701203604 40000000701203654 40000000701203603 1.24847261425 210.395 58.2351 177.79
10.8664 40000000701203604 40000000701203603 40000000701203654 40000000701203602 1.20625808078 206.652 55.3107 170.321
10.8824 40000000701203603 40000000701203602 40000000701203654 40000000701203601 1.15460271236 208.56 53.2852 168.715
10.8969 40000000701203602 40000000701203601 40000000701203654 40000000701203600 1.11415056377 195.566 39.877 164.54
10.8976 40000000701203601 40000000701203600 40000000701203654 40000000701203599 1.07445789455 234.094 43.6319 186.031
10.9036 40000000701203600 40000000701203598 40000000701203654 40000000701203597 0.997294225782 253.283 43.8155 190.074
10.9131 40000000701203598 40000000701203596 40000000701203654 40000000701203595 0.950531351585 254.156 55.0696 200.083
10.9242 40000000701203596 40000000701203595 40000000701203654 40000000701203594 0.923000816178 258.596 54.9205 199.908
10.9271 40000000701203595 40000000701203594 40000000701203654 40000000701203593 0.886896937575 254.419 69.6977 206.814
10.9308 40000000701203594 40000000701203593 40000000701203654 40000000701203592 0.851470900625 251.297 64.4894 201.303
10.9384 40000000701203593 40000000701203592 40000000701203654 40000000701203591 0.816709979012 256.014 68.3703 221.723
10.9404 40000000701203592 40000000701203591 40000000701203654 40000000701203590 0.791068248946 252.175 56.5056 224.957
10.9477 40000000701203591 40000000701203590 40000000701203654 40000000701203589 0.757441372616 246.013 52.2788 221.297
10.9578 40000000701203590 40000000701203589 40000000701203654 40000000701203588 0.732636182022 244.044 63.1726 225.004
10.9736 40000000701203589 40000000701203588 40000000701203654 40000000701203587 0.700106353719 224.797 66.4044 224.781
10.9877 40000000701203588 40000000701203587 40000000701203654 40000000701203586 0.676110411213 222.623 68.3189 213.652
10.991 40000000701203587 40000000701203586 40000000701203654 40000000701203585 0.644641840685 211.114 77.7214 204.518
10.9936 40000000701203586 40000000701203570 40000000701203654 40000000701203569 0.310074120128 98.2239 14.3169 220.435
11.0054 40000000701203570 40000000701203568 40000000701203654 40000000701203567 0.273353346578 75.7713 -9.22321 316.591
11.0057 40000000701203568 40000000701203567 40000000701203654 40000000701203566 0.261343256161 84.9126 6.89616 271.596
11.0097 40000000701203567 40000000701203565 40000000701203654 40000000701203564 0.22598838626 91.282 17.0166 258.023
11.0127 40000000701203565 40000000701203564 40000000701203654 40000000701203563 0.214425035514 82.7836 3.22643 287.815
11.0186 40000000701203564 40000000701203563 40000000701203654 40000000701203562 0.197284182376 75.0807 -5.93053 301.175
11.0257 40000000701203563 40000000701203562 40000000701203654 40000000701203561 0.180385261706 62.1429 -16.7673 313.028
11.0284 40000000701203562 40000000701203561 40000000701203654 40000000701203560 0.169252033244 63.1858 -24.6286 334.004
11.0353 40000000701203561 40000000701203560 40000000701203654 40000000701203559 0.152748768902 54.6422 -31.88 338.001
11.0392 40000000701203560 40000000701203559 40000000701203654 40000000701203558 0.14187620397 41.0147 -37.7054 354.71
11.0465 40000000701203559 40000000701203558 40000000701203654 40000000701203557 0.125759332411 33.0019 -35.4527 382.346
11.048 40000000701203558 40000000701203557 40000000701203654 40000000701203556 0.109869940459 25.1264 -32.1142 396.336
11.0561 40000000701203557 40000000701203556 40000000701203654 40000000701203555 0.0994018026302 15.9481 -56.2108 411.84
9.01298 40000000701203690 40000000701203689 40000000701203694 40000000701203688 8.9079991856 -3.71594 2.65435 -14.8653
9.17729 40000000701203689 40000000701203684 40000000701203694 40000000701203683 7.00541704554 -4.85325 -2.91403 -8.03104
9.21072 40000000701203684 40000000701203683 40000000701203694 40000000701203682 6.85511726265 -3.73691 0.659569 -4.45067
9.22845 40000000701203683 40000000701203682 40000000701203694 40000000701203681 6.49159774567 -4.79513 1.92844 -6.41306
9.24733 40000000701203682 40000000701203681 40000000701203694 40000000701203680 6.14490120342 -3.5651 -2.28249 -8.12875
9.26365 40000000701203681 40000000701203679 40000000701203694 40000000701203678 5.84661374788 -5.58931 -3.06364 -8.73881
9.26543 40000000701203679 40000000701203677 40000000701203694 40000000701203676 5.22758097313 -2.33747 -5.38163 2.4048
9.00012 40000000701203729 40000000701203728 40000000701203740 40000000701203727 6.01075739884 4.78697 -1.41809 4.43401
9.13871 40000000701203728 40000000701203726 40000000701203740 40000000701203725 5.52976580795 13.2026 6.88042 -1.02804
9.1663 40000000701203726 40000000701203725 40000000701203740 40000000701203724 5.22758097313 13.4048 4.12488 -0.515812
9.17729 40000000701203725 40000000701203724 40000000701203740 40000000701203723 4.99593346816 17.5069 12.9808 6.26619
9.30602 40000000701203724 40000000701203723 40000000701203740 40000000701203722 4.93938066349 16.0645 14.53 4.45924
9.45833 40000000701203723 40000000701203721 40000000701203740 40000000701203720 4.42803373661 -4.13562 15.2981 3.19843
9.02855 40000000701203832 40000000701203831 40000000701203837 40000000701203830 9.00233985416 2.5415 1.48658 2.64306
9.04062 40000000701203831 40000000701203830 40000000701203837 40000000701203829 8.9079991856 2.82075 0.843735 3.45535
9.11431 40000000701203830 40000000701203829 40000000701203837 40000000701203828 8.44947629437 -0.248493 -4.77922 1.9164
9.37869 40000000701203829 40000000701203828 40000000701203837 40000000701203827 8.01217294887 -4.42181 -4.38814 11.0753
9.46733 40000000701203828 40000000701203827 40000000701203837 40000000701203826 7.59510714987 -2.40204 -5.28635 16.2975
9.50567 40000000701203827 40000000701203826 40000000701203837 40000000701203825 7.23627606617 -1.38393 -7.70235 10.5402
9.54744 40000000701203826 40000000701203825 40000000701203837 40000000701203824 7.00541704554 1.23072 -6.28692 9.81875
9.55478 40000000701203825 40000000701203824 40000000701203837 40000000701203823 6.85511726265 -0.809777 -6.36882 5.73324
9.66372 40000000701203824 40000000701203823 40000000701203837 40000000701203822 6.49159774567 1.11376 -6.62394 9.75748
9.72813 40000000701203823 40000000701203822 40000000701203837 40000000701203821 6.14490120342 2.05848 1.3816 6.59179
9.72874 40000000701203822 40000000701203821 40000000701203837 40000000701203820 6.01075739884 1.13986 1.881 4.27297
9.80975 40000000701203821 40000000701203820 40000000701203837 40000000701203819 5.84661374788 1.57066 7.16068 11.2857
9.8719 40000000701203820 40000000701203819 40000000701203837 40000000701203818 5.52976580795 12.0318 11.1778 14.59
9.92159 40000000701203819 40000000701203818 40000000701203837 40000000701203817 5.22758097313 7.11496 15.9755 4.6446
9.94222 40000000701203818 40000000701203817 40000000701203837 40000000701203816 4.99593346816 6.57224 8.78118 10.1371
9.99552 40000000701203817 40000000701203815 40000000701203837 40000000701203814 4.66451770247 1.65876 16.6887 16.6593
10.0361 40000000701203815 40000000701203814 40000000701203837 40000000701203813 4.42803373661 2.68717 10.6187 20.6257
10.0995 40000000701203814 40000000701203813 40000000701203837 40000000701203812 4.17683491473 -4.48661 13.2036 33.4307
10.1183 40000000701203813 40000000701203812 40000000701203837 40000000701203811 4.00794511147 -7.45958 17.007 36.6906
10.1602 40000000701203812 40000000701203810 40000000701203837 40000000701203809 3.70877426464 -25.4708 2.08154 44.1908
10.2069 40000000701203810 40000000701203809 40000000701203837 40000000701203808 3.49086136926 -31.872 7.89447 44.8547
10.2477 40000000701203809 40000000701203808 40000000701203837 40000000701203807 3.28303305796 -44.6741 17.3633 57.6727
10.2558 40000000701203808 40000000701203807 40000000701203837 40000000701203806 3.08482263583 -31.2848 17.2003 48.4662
10.2959 40000000701203807 40000000701203806 40000000701203837 40000000701203805 3.00813107163 -47.9687 10.5547 60.5738
10.6982 40000000701203806 40000000701203799 40000000701203837 40000000701203798 2.1032696526 288.034 65.7094 150.041
9.01298 40000000701203891 40000000701203890 40000000701203903 40000000701203889 6.49159774567 -1.028 -4.16265 -3.0095
9.01928 40000000701203890 40000000701203889 40000000701203903 40000000701203888 6.14490120342 -0.753191 -7.14042 -2.75603
9.0316 40000000701203889 40000000701203888 40000000701203903 40000000701203887 6.01075739884 -3.94488 -6.48727 -2.55047
9.03463 40000000701203888 40000000701203885 40000000701203903 40000000701203884 5.22758097313 -2.46 -1.66961 2.05388
9.04358 40000000701203885 40000000701203884 40000000701203903 40000000701203883 4.99593346816 -0.700874 -1.83351 1.01005
9.36902 40000000701204015 40000000701204014 40000000701204035 40000000701204013 5.22758097313 5.3864 -0.399828 -4.28999
9.42157 40000000701204014 40000000701204012 40000000701204035 40000000701204011 4.93938066349 -1.78957 -0.813413 -0.906677
9.56468 40000000701204012 40000000701204011 40000000701204035 40000000701204010 4.66451770247 10.2148 -1.51741 -3.57559
9.5931 40000000701204011 40000000701204010 40000000701204035 40000000701204009 4.42803373661 20.1028 1.2426 -2.60531
9.71322 40000000701204010 40000000701204009 40000000701204035 40000000701204008 4.17683491473 11.3088 -1.31684 -4.55185
9.77718 40000000701204009 40000000701204008 40000000701204035 40000000701204007 4.00794511147 10.2071 -16.6508 -2.50135
9.81428 40000000701204008 40000000701204005 40000000701204035 40000000701204004 3.49086136926 3.30927 -31.4249 -3.53578
9.81578 40000000701204005 40000000701204004 40000000701204035 40000000701204003 3.28303305796 9.4006 -33.1117 -5.02139
9.82419 40000000701204004 40000000701204000 40000000701204035 40000000701203999 2.73314261732 8.9236 -26.8102 -2.11928
9.86482 40000000701204000 40000000701203999 40000000701204035 40000000701203998 2.5772902716 7.25531 -42.6032 -12.8356
9.04945 40000000701204042 40000000701204041 40000000701204050 40000000701204040 5.84661374788 -7.25999 -9.06494 2.68852
9.25101 40000000701204041 40000000701204040 40000000701204050 40000000701204039 5.52976580795 -0.818591 -0.138437 8.96448
9.40646 40000000701204040 40000000701204038 40000000701204050 40000000701204037 4.99593346816 8.29002 -1.90709 -2.39797
