logMh | fpID | subhaloID | main leaf ID | descID |  z
9.04358 90000268700000089 90000268700000088 90000268700000096 90000268700000087 5.52976580795 -7.3923 -1.33491 -9.31157
9.14344 90000268700000088 90000268700000087 90000268700000096 90000268700000086 5.22758097313 -4.61253 -1.43566 -7.11082
9.28788 90000268700000087 90000268700000086 90000268700000096 90000268700000085 4.99593346816 -3.50989 -3.21727 -6.25245
9.29622 90000268700000086 90000268700000085 90000268700000096 90000268700000084 4.93938066349 -2.3747 -1.88969 -6.20009
9.32651 90000268700000085 90000268700000084 90000268700000096 90000268700000083 4.66451770247 -4.68326 -4.97928 -6.55317
9.37181 90000268700000084 90000268700000083 90000268700000096 90000268700000082 4.42803373661 -4.79791 -6.1516 -5.11802
9.41659 90000268700000083 90000268700000082 90000268700000096 90000268700000081 4.17683491473 -8.33375 -8.55869 -3.64877
9.43497 90000268700000082 90000268700000081 90000268700000096 90000268700000080 4.00794511147 -11.3424 -13.0256 -0.983054
9.45145 90000268700000081 90000268700000079 90000268700000096 90000268700000078 3.70877426464 -12.4168 -6.77301 3.11405
9.52267 90000268700000079 90000268700000078 90000268700000096 90000268700000077 3.49086136926 -10.3805 -13.7274 -2.35651
9.67284 90000268700000078 90000268700000077 90000268700000096 90000268700000076 3.28303305796 -22.1458 -7.5311 -19.8364
9.72136 90000268700000077 90000268700000076 90000268700000096 90000268700000075 3.08482263583 -19.9269 -17.8913 -18.7471
9.7519 90000268700000076 90000268700000075 90000268700000096 90000268700000074 3.00813107163 -20.9621 -18.1073 -21.4832
9.76388 90000268700000075 90000268700000074 90000268700000096 90000268700000073 2.89578500573 -16.6042 -18.2036 -15.0025
9.83863 90000268700000074 90000268700000073 90000268700000096 90000268700000072 2.73314261732 -21.9863 -24.0134 -14.6428
9.84568 90000268700000073 90000268700000072 90000268700000096 90000268700000071 2.5772902716 -14.2469 -26.8737 -19.8391
9.8549 90000268700000072 90000268700000071 90000268700000096 90000268700000070 2.44422570455 -12.8418 -25.5789 -26.3183
10.6125 90000268700000071 90000268700000062 90000268700000096 90000268700000061 1.60423452207 -58.0241 -42.261 31.4888
10.6204 90000268700000062 90000268700000061 90000268700000096 90000268700000060 1.53123902916 -32.5974 -53.6297 37.2537
10.6639 90000268700000061 90000268700000060 90000268700000096 90000268700000059 1.47197484527 -15.1256 -127.191 24.9498
10.6714 90000268700000060 90000268700000056 90000268700000096 90000268700000055 1.24847261425 -63.142 -63.782 -40.9517
10.6997 90000268700000056 90000268700000055 90000268700000096 90000268700000054 1.20625808078 -53.8521 -80.6062 -38.3384
10.7416 90000268700000055 90000268700000054 90000268700000096 90000268700000053 1.15460271236 -69.1121 -94.3229 -44.0017
10.7583 90000268700000054 90000268700000053 90000268700000096 90000268700000052 1.11415056377 -61.9763 -96.2606 -46.9922
10.766 90000268700000053 90000268700000050 90000268700000096 90000268700000049 0.997294225782 -46.12 -119.011 -27.4157
10.7774 90000268700000050 90000268700000049 90000268700000096 90000268700000048 0.987852810816 -55.8099 -112.365 -41.2187
10.794 90000268700000049 90000268700000048 90000268700000096 90000268700000047 0.950531351585 -39.0815 -122.769 -29.6287
10.805 90000268700000048 90000268700000047 90000268700000096 90000268700000046 0.923000816178 -46.9174 -116.317 -37.6963
10.8081 90000268700000047 90000268700000042 90000268700000096 90000268700000041 0.757441372616 -21.0787 -93.3726 -34.6177
10.813 90000268700000042 90000268700000041 90000268700000096 90000268700000040 0.732636182022 -22.2274 -72.9608 -35.5879
10.8163 90000268700000041 90000268700000039 90000268700000096 90000268700000038 0.676110411213 -9.36528 -61.1608 -30.2592
10.8264 90000268700000039 90000268700000038 90000268700000096 90000268700000037 0.644641840685 5.65611 -69.7224 -35.6959
10.8314 90000268700000038 90000268700000037 90000268700000096 90000268700000036 0.621428745243 -0.0974585 -65.6393 -33.3991
10.8545 90000268700000037 90000268700000036 90000268700000096 90000268700000035 0.598543288188 45.1385 -81.5396 -44.5002
10.8624 90000268700000036 90000268700000035 90000268700000096 90000268700000034 0.575980845108 47.1407 -87.6698 -47.3992
10.895 90000268700000035 90000268700000034 90000268700000096 90000268700000033 0.546392183141 94.6879 -108.504 -61.957
10.9214 90000268700000034 90000268700000033 90000268700000096 90000268700000032 0.524565820434 118.588 -137.765 -62.0001
10.9414 90000268700000033 90000268700000031 90000268700000096 90000268700000030 0.481832943421 164.011 -149.539 -53.5043
10.9638 90000268700000031 90000268700000030 90000268700000096 90000268700000029 0.460917794181 217.284 -173.721 -73.5525
10.9785 90000268700000030 90000268700000029 90000268700000096 90000268700000028 0.440297849248 235.925 -179.362 -70.6677
10.9994 90000268700000029 90000268700000028 90000268700000096 90000268700000027 0.419968941997 282.885 -206.376 -74.4218
11.0106 90000268700000028 90000268700000027 90000268700000096 90000268700000026 0.399926964614 304.997 -208.592 -73.6109
11.0172 90000268700000027 90000268700000026 90000268700000096 90000268700000025 0.38016786726 279.817 -195.702 -74.9974
11.0181 90000268700000026 90000268700000023 90000268700000096 90000268700000022 0.328829724206 265.667 -160.056 -100.504
11.0394 90000268700000023 90000268700000022 90000268700000096 90000268700000021 0.310074120128 294.888 -185.071 -113.078
11.05 90000268700000022 90000268700000021 90000268700000096 90000268700000020 0.291583239722 291.599 -201.297 -133.887
11.0547 90000268700000021 90000268700000020 90000268700000096 90000268700000019 0.273353346578 284.293 -210.632 -126.679
11.0581 90000268700000020 90000268700000019 90000268700000096 90000268700000018 0.261343256161 272.113 -201.237 -131.561
11.0654 90000268700000019 90000268700000018 90000268700000096 90000268700000017 0.243540181555 273.791 -228.525 -134.448
11.0699 90000268700000018 90000268700000014 90000268700000096 90000268700000013 0.180385261706 268.329 -251.54 -116.868
11.077 90000268700000014 90000268700000013 90000268700000096 90000268700000012 0.169252033244 284.024 -245.132 -111.032
11.077 90000268700000013 90000268700000012 90000268700000096 90000268700000011 0.152748768902 273.738 -257.864 -102.695
11.0788 90000268700000012 90000268700000011 90000268700000096 90000268700000010 0.14187620397 265.519 -257.15 -105.972
11.0851 90000268700000011 90000268700000007 90000268700000096 90000268700000006 0.0838844307975 222.929 -251.513 -119.549
11.0871 90000268700000007 90000268700000006 90000268700000096 90000268700000005 0.0736613846564 209.193 -250.723 -122.165
11.088 90000268700000006 90000268700000003 90000268700000096 90000268700000002 0.0337243718735 193.572 -257.982 -114.176
11.0927 90000268700000003 90000268700000002 90000268700000096 90000268700000001 0.0239744283828 190.518 -255.814 -120.39
11.1036 90000268700000002 90000268700000000 90000268700000096 -1 2.22044604925e-16 226.907 -260.429 -112.268
9.04945 90000268700000120 90000268700000119 90000268700000127 90000268700000118 5.22758097313 2.6009 -10.8931 -12.7616
9.06939 90000268700000119 90000268700000117 90000268700000127 90000268700000116 4.93938066349 4.0398 -9.08054 -9.5364
9.12424 90000268700000117 90000268700000116 90000268700000127 90000268700000115 4.66451770247 0.210033 -4.02894 -8.59271
9.13394 90000268700000116 90000268700000115 90000268700000127 90000268700000114 4.42803373661 0.561391 -3.6499 -9.50361
9.22651 90000268700000115 90000268700000114 90000268700000127 90000268700000113 4.17683491473 -2.91947 -3.72736 -7.88735
9.23037 90000268700000114 90000268700000113 90000268700000127 90000268700000112 4.00794511147 -2.93063 -3.65516 -8.64325
9.2361 90000268700000113 90000268700000112 90000268700000127 90000268700000111 3.93726108473 -3.02323 -3.91877 -7.58722
9.00337 90000268700000167 90000268700000166 90000268700000176 90000268700000165 3.49086136926 0.268129 -1.91509 1.92444
9.01928 90000268700000166 90000268700000165 90000268700000176 90000268700000164 3.28303305796 4.3964 0.866994 2.41449
9.22066 90000268700000165 90000268700000163 90000268700000176 90000268700000162 3.00813107163 18.364 -0.671458 0.203713
9.4549 90000268700000163 90000268700000162 90000268700000176 90000268700000161 2.89578500573 31.8467 -27.6192 -13.5746
9.60136 90000268700000162 90000268700000161 90000268700000176 90000268700000160 2.73314261732 15.5705 -30.6039 -18.6039
9.04945 90000268700000262 90000268700000261 90000268700000270 90000268700000260 5.52976580795 -10.9271 10.4673 5.68819
9.09375 90000268700000261 90000268700000260 90000268700000270 90000268700000259 5.22758097313 -13.6816 12.9066 -1.23179
9.12178 90000268700000260 90000268700000259 90000268700000270 90000268700000258 4.99593346816 -12.5912 12.9185 2.81814
9.19848 90000268700000259 90000268700000257 90000268700000270 90000268700000256 4.66451770247 -11.391 11.0637 0.435763
9.22457 90000268700000257 90000268700000256 90000268700000270 90000268700000255 4.42803373661 -8.85498 9.28919 1.45437
9.26543 90000268700000256 90000268700000255 90000268700000270 90000268700000254 4.17683491473 -6.51215 8.28123 5.13376
9.2862 90000268700000255 90000268700000254 90000268700000270 90000268700000253 4.00794511147 -9.05462 9.33081 1.14694
9.31083 90000268700000254 90000268700000253 90000268700000270 90000268700000252 3.93726108473 -8.35284 9.79057 1.41671
9.39871 90000268700000253 90000268700000252 90000268700000270 90000268700000251 3.70877426464 -10.1056 9.6984 5.15528
9.50158 90000268700000252 90000268700000251 90000268700000270 90000268700000250 3.49086136926 0.705122 7.8675 2.01838
9.5207 90000268700000251 90000268700000250 90000268700000270 90000268700000249 3.28303305796 -0.512707 8.99734 -2.10335
9.65658 90000268700000250 90000268700000249 90000268700000270 90000268700000248 3.08482263583 6.35047 5.35095 15.4507
9.69778 90000268700000249 90000268700000248 90000268700000270 90000268700000247 3.00813107163 -7.88685 0.149923 11.8135
9.69909 90000268700000248 90000268700000247 90000268700000270 90000268700000246 2.89578500573 -13.8942 -0.884864 9.59402
9.71637 90000268700000247 90000268700000246 90000268700000270 90000268700000245 2.73314261732 -6.50019 2.39428 11.17
9.79114 90000268700000246 90000268700000245 90000268700000270 90000268700000244 2.5772902716 -20.4247 4.76164 2.1759
9.86259 90000268700000245 90000268700000244 90000268700000270 90000268700000243 2.44422570455 -23.0128 11.1538 0.33641
9.88529 90000268700000244 90000268700000243 90000268700000270 90000268700000242 2.31611074396 -19.6921 15.2607 8.66226
10.0456 90000268700000243 90000268700000242 90000268700000270 90000268700000241 2.20792547238 -4.19842 -15.0995 16.3916
10.2784 90000268700000242 90000268700000241 90000268700000270 90000268700000240 2.1032696526 -42.0784 -95.201 74.0016
10.4182 90000268700000241 90000268700000240 90000268700000270 90000268700000239 2.00202813925 -30.8428 -89.4599 89.4864
10.5295 90000268700000240 90000268700000239 90000268700000270 90000268700000238 1.82268925262 -30.6124 -78.0697 83.456
10.5623 90000268700000239 90000268700000238 90000268700000270 90000268700000237 1.74357057433 -44.7981 -67.9965 66.2637
10.5926 90000268700000238 90000268700000237 90000268700000270 90000268700000236 1.66666955611 -39.7319 -60.6114 73.1008
9.08038 90000268700000328 90000268700000327 90000268700000334 90000268700000326 5.52976580795 -1.95702 10.2789 4.33849
9.28788 90000268700000327 90000268700000326 90000268700000334 90000268700000325 5.22758097313 -3.78808 10.3058 -3.23775
9.30278 90000268700000326 90000268700000324 90000268700000334 90000268700000323 4.93938066349 -1.5843 9.67165 -2.17858
9.31874 90000268700000324 90000268700000323 90000268700000334 90000268700000322 4.66451770247 -2.04592 10.0126 0.614245
9.3634 90000268700000323 90000268700000322 90000268700000334 90000268700000321 4.42803373661 -2.96696 7.07974 0.0916796
9.41029 90000268700000322 90000268700000321 90000268700000334 90000268700000320 4.17683491473 -3.88855 5.02819 0.664038
9.44564 90000268700000321 90000268700000320 90000268700000334 90000268700000319 4.00794511147 -1.17545 2.95815 -0.93264
9.44681 90000268700000320 90000268700000319 90000268700000334 90000268700000318 3.93726108473 -4.13751 2.13544 -2.60871
9.51275 90000268700000319 90000268700000318 90000268700000334 90000268700000317 3.70877426464 2.62557 2.50238 1.74459
9.52851 90000268700000318 90000268700000317 90000268700000334 90000268700000316 3.49086136926 6.5855 3.18806 -0.703403
9.5566 90000268700000317 90000268700000316 90000268700000334 90000268700000315 3.28303305796 7.22461 3.69058 -4.04769
9.67284 90000268700000316 90000268700000315 90000268700000334 90000268700000314 3.08482263583 26.883 22.264 3.95757
9.67835 90000268700000315 90000268700000314 90000268700000334 90000268700000313 3.00813107163 24.4085 18.3802 3.77846
9.70104 90000268700000314 90000268700000313 90000268700000334 90000268700000312 2.89578500573 24.4543 17.6506 3.02382
9.76219 90000268700000313 90000268700000311 90000268700000334 90000268700000310 2.5772902716 26.046 13.735 2.05894
9.78152 90000268700000311 90000268700000310 90000268700000334 90000268700000309 2.44422570455 16.9754 2.58457 2.99378
9.0066 90000268700000379 90000268700000378 90000268700000382 90000268700000377 2.89578500573 4.71931 8.38796 -3.0041
9.12912 90000268700000378 90000268700000377 90000268700000382 90000268700000376 2.73314261732 18.1142 19.3242 4.91558
9.06096 90000268700000433 90000268700000432 90000268700000441 90000268700000431 4.17683491473 -3.94711 -0.61175 8.29054
9.08038 90000268700000432 90000268700000431 90000268700000441 90000268700000430 4.00794511147 -1.4361 -1.95524 6.03341
9.09111 90000268700000431 90000268700000430 90000268700000441 90000268700000429 3.93726108473 -3.074 0.776145 8.15604
9.19641 90000268700000430 90000268700000429 90000268700000441 90000268700000428 3.70877426464 -4.94544 -5.51713 5.67198
9.33415 90000268700000429 90000268700000428 90000268700000441 90000268700000427 3.49086136926 -4.82717 6.66307 3.05739
9.3634 90000268700000428 90000268700000427 90000268700000441 90000268700000426 3.28303305796 -4.29566 5.91385 5.23068
9.43257 90000268700000427 90000268700000426 90000268700000441 90000268700000425 3.08482263583 -10.1455 -0.782384 6.98183
9.44447 90000268700000426 90000268700000425 90000268700000441 90000268700000424 3.00813107163 -9.31178 -3.36022 8.05391
9.85853 90000268700000425 90000268700000421 90000268700000441 90000268700000420 2.44422570455 -40.0918 -44.8497 -35.7829
9.88144 90000268700000421 90000268700000420 90000268700000441 90000268700000419 2.31611074396 -36.158 -46.4333 -35.1764
9.02548 90000268700000453 90000268700000452 90000268700000465 90000268700000451 3.49086136926 2.09465 -4.23437 -8.61547
9.06096 90000268700000452 90000268700000451 90000268700000465 90000268700000450 3.28303305796 2.44355 -7.21631 -10.6108
9.16852 90000268700000451 90000268700000450 90000268700000465 90000268700000449 3.08482263583 15.7132 -10.2966 -12.2749
9.76724 90000268700000450 90000268700000447 90000268700000465 90000268700000421 2.5772902716 -41.3531 -47.6033 -42.3488
9.00337 90000268700000496 90000268700000495 90000268700000501 90000268700000494 4.66451770247 1.07756 -2.7039 1.32607
9.04358 90000268700000495 90000268700000494 90000268700000501 90000268700000493 4.42803373661 0.944938 -3.37747 2.43415
9.10157 90000268700000494 90000268700000493 90000268700000501 90000268700000492 4.17683491473 0.797426 -5.01218 5.26966
9.10157 90000268700000493 90000268700000488 90000268700000501 90000268700000487 3.28303305796 1.72238 -0.877905 5.28719
9.12668 90000268700000488 90000268700000487 90000268700000501 90000268700000486 3.08482263583 0.167941 -5.57013 0.0442619
9.13634 90000268700000487 90000268700000486 90000268700000501 90000268700000485 3.00813107163 0.14304 -8.26994 0.0141662
9.13871 90000268700000486 90000268700000485 90000268700000501 90000268700000484 2.89578500573 2.57496 -2.33216 2.05145
9.18589 90000268700000485 90000268700000484 90000268700000501 90000268700000483 2.73314261732 1.18357 -8.7667 2.71073
9.22066 90000268700000484 90000268700000483 90000268700000501 90000268700000482 2.5772902716 1.61176 -6.60992 6.95433
9.15956 90000268700000584 90000268700000583 90000268700000591 90000268700000582 3.93726108473 -2.36282 10.7451 0.437987
9.30115 90000268700000583 90000268700000582 90000268700000591 90000268700000581 3.70877426464 2.49961 8.87407 -2.92682
9.38412 90000268700000582 90000268700000581 90000268700000591 90000268700000580 3.49086136926 -4.04749 9.48515 -10.6424
9.49744 90000268700000581 90000268700000579 90000268700000591 90000268700000578 3.08482263583 7.39008 -5.80204 -19.3292
9.59143 90000268700000579 90000268700000578 90000268700000591 90000268700000577 3.00813107163 1.15084 -23.0985 -18.7363
9.61425 90000268700000578 90000268700000577 90000268700000591 90000268700000576 2.89578500573 -1.2896 -18.3543 -23.2513
9.63669 90000268700000577 90000268700000576 90000268700000591 90000268700000575 2.73314261732 -2.64688 -22.3916 -17.6766
9.67353 90000268700000576 90000268700000567 90000268700000591 90000268700000566 1.74357057433 8.4136 14.7039 -16.9763
9.72445 90000268700000567 90000268700000566 90000268700000591 90000268700000565 1.66666955611 -1.88227 13.6375 -25.6575
9.73959 90000268700000566 90000268700000564 90000268700000591 90000268700000563 1.53123902916 13.7337 12.7599 -10.2466
9.81628 90000268700000564 90000268700000563 90000268700000591 90000268700000562 1.41409822037 3.78943 14.2011 -16.7222
9.42157 90000268700000793 90000268700000792 90000268700000793 90000268700000791 1.41409822037 3.22396 15.4602 -8.51957
9.12912 90000268700001209 90000268700001208 90000268700001214 90000268700001207 6.49159774567 -1.1477 -1.05624 2.70234
9.19641 90000268700001208 90000268700001206 90000268700001214 90000268700001205 6.01075739884 -1.05812 -0.0628055 0.0523193
9.23799 90000268700001206 90000268700001205 90000268700001214 90000268700001204 5.84661374788 -2.24942 -2.75678 0.453153
9.25466 90000268700001205 90000268700001204 90000268700001214 90000268700001203 5.52976580795 0.0355797 -4.91933 0.600029
9.38547 90000268700001204 90000268700001203 90000268700001214 90000268700001202 5.22758097313 -2.86764 -4.33536 -4.32446
9.41784 90000268700001203 90000268700001202 90000268700001214 90000268700001201 4.99593346816 -1.76827 -2.4749 -2.59681
9.44914 90000268700001202 90000268700001201 90000268700001214 90000268700001200 4.93938066349 2.01724 -4.33559 -1.84027
9.48049 90000268700001201 90000268700001200 90000268700001214 90000268700001199 4.66451770247 2.00555 -2.02725 -3.76874
9.53713 90000268700001200 90000268700001199 90000268700001214 90000268700001198 4.42803373661 4.05908 -5.10514 -1.43334
9.5761 90000268700001199 90000268700001198 90000268700001214 90000268700001197 4.17683491473 6.25323 -7.30118 -0.0984301
9.61504 90000268700001198 90000268700001197 90000268700001214 90000268700001196 4.00794511147 5.95951 -5.98476 0.986376
9.626 90000268700001197 90000268700001195 90000268700001214 90000268700001194 3.70877426464 8.09351 -9.29337 3.86041
9.67972 90000268700001195 90000268700001194 90000268700001214 90000268700001193 3.49086136926 5.75895 7.42231 -6.7431
9.73118 90000268700001194 90000268700001193 90000268700001214 90000268700001192 3.28303305796 7.91348 2.36833 -4.55858
9.77499 90000268700001193 90000268700001192 90000268700001214 90000268700001191 3.08482263583 7.1731 -0.962795 3.1525
9.77827 90000268700001192 90000268700001191 90000268700001214 90000268700001190 3.00813107163 7.73904 -0.63623 1.48201
9.83721 90000268700001191 90000268700001190 90000268700001214 90000268700001189 2.89578500573 13.0552 -16.219 8.2253
9.87972 90000268700001190 90000268700001189 90000268700001214 90000268700001188 2.73314261732 21.6866 -17.8589 9.25518
9.89993 90000268700001189 90000268700001188 90000268700001214 90000268700001187 2.5772902716 21.2686 -16.6469 10.4652
9.91528 90000268700001188 90000268700001187 90000268700001214 90000268700001186 2.44422570455 20.1191 -15.0425 8.21816
9.93885 90000268700001187 90000268700001186 90000268700001214 90000268700001185 2.31611074396 22.835 -16.867 8.64822
9.94556 90000268700001186 90000268700001184 90000268700001214 90000268700001183 2.1032696526 29.8519 -14.864 5.73116
10.0092 90000268700001184 90000268700001183 90000268700001214 90000268700001182 2.00202813925 35.1906 -8.44386 -10.4936
10.0555 90000268700001183 90000268700001180 90000268700001214 90000268700001179 1.74357057433 36.8442 -16.0312 -3.72547
10.099 90000268700001180 90000268700001179 90000268700001214 90000268700001178 1.66666955611 47.715 -22.729 -9.77159
10.1205 90000268700001179 90000268700001178 90000268700001214 90000268700001177 1.60423452207 52.8809 -23.6544 -10.734
10.1408 90000268700001178 90000268700001177 90000268700001214 90000268700001176 1.53123902916 34.3133 -29.2142 -10.1038
10.2059 90000268700001177 90000268700001176 90000268700001214 90000268700001175 1.47197484527 29.3538 -33.1377 -12.4236
10.2497 90000268700001176 90000268700001175 90000268700001214 90000268700001174 1.41409822037 11.6922 -36.1087 -16.6237
10.2622 90000268700001175 90000268700001174 90000268700001214 90000268700001173 1.3575766674 3.01168 -19.8307 -13.6375
10.2754 90000268700001174 90000268700001173 90000268700001214 90000268700001172 1.30237845991 5.83992 -22.2723 -11.3549
10.2813 90000268700001173 90000268700001172 90000268700001214 90000268700001171 1.24847261425 9.40288 -22.304 -16.8082
10.2899 90000268700001172 90000268700001171 90000268700001214 90000268700001170 1.20625808078 7.96343 -22.6297 -11.8632
10.2927 90000268700001171 90000268700001170 90000268700001214 90000268700001169 1.15460271236 5.1793 -24.3074 -10.4594
9.00337 90000268700001235 90000268700001234 90000268700001253 90000268700001233 2.1032696526 5.59715 4.89049 0.251999
9.02855 90000268700001269 90000268700001268 90000268700001293 90000268700001267 2.20792547238 3.07931 -2.13772 5.72892
9.06378 90000268700001268 90000268700001266 90000268700001293 90000268700001265 2.00202813925 2.04945 -5.97219 6.27487
9.08309 90000268700001266 90000268700001265 90000268700001293 90000268700001264 1.90408954353 2.18051 -5.88412 4.33138
9.10671 90000268700001265 90000268700001264 90000268700001293 90000268700001263 1.82268925262 1.47311 -6.26836 4.07885
9.01928 90000268700001345 90000268700001344 90000268700001361 90000268700001343 4.66451770247 2.45213 -3.72816 -0.676283
9.01928 90000268700001344 90000268700001343 90000268700001361 90000268700001342 4.42803373661 3.92213 -7.27505 -0.00801049
9.0666 90000268700001343 90000268700001342 90000268700001361 90000268700001341 4.17683491473 1.83901 -4.61703 0.534844
9.06939 90000268700001342 90000268700001340 90000268700001361 90000268700001339 3.93726108473 2.27774 -8.26099 1.14193
9.19433 90000268700001340 90000268700001339 90000268700001361 90000268700001338 3.70877426464 -0.578725 -6.79931 2.18456
9.23799 90000268700001339 90000268700001337 90000268700001361 90000268700001336 3.28303305796 -1.53333 -6.49977 3.92716
9.24918 90000268700001337 90000268700001336 90000268700001361 90000268700001335 3.08482263583 0.436992 -7.26516 2.09248
9.24918 90000268700001336 90000268700001335 90000268700001361 90000268700001334 3.00813107163 2.46969 -6.33737 1.51889
9.25466 90000268700001335 90000268700001334 90000268700001361 90000268700001333 2.89578500573 0.402496 -12.4721 -4.08717
9.34313 90000268700001334 90000268700001333 90000268700001361 90000268700001332 2.73314261732 4.49203 -12.5571 -1.98836
9.38141 90000268700001333 90000268700001332 90000268700001361 90000268700001331 2.5772902716 -0.975583 -16.4842 -3.572
9.38948 90000268700001332 90000268700001331 90000268700001361 90000268700001330 2.44422570455 -6.01331 -14.6478 -1.84143
9.39081 90000268700001331 90000268700001329 90000268700001361 90000268700001328 2.20792547238 -4.74708 -15.657 1.17727
9.42771 90000268700001329 90000268700001328 90000268700001361 90000268700001327 2.1032696526 -4.36825 -15.3637 3.00337
9.44447 90000268700001328 90000268700001324 90000268700001361 90000268700001323 1.74357057433 2.76377 -31.5415 0.956392
