logMh | fpID | subhaloID | main leaf ID | descID |  z
9.0666 70000099100000102 70000099100000101 70000099100000109 70000099100000100 9.38877127194 5.03354 5.33321 2.64908
9.14108 70000099100000101 70000099100000100 70000099100000109 70000099100000099 9.00233985416 6.74812 -1.15698 1.52545
9.27766 70000099100000100 70000099100000098 70000099100000109 70000099100000097 8.44947629437 7.66293 1.75794 -4.48407
9.65945 70000099100000098 70000099100000096 70000099100000109 70000099100000095 7.59510714987 5.87115 -18.6605 14.0774
9.79061 70000099100000096 70000099100000095 70000099100000109 70000099100000094 7.23627606617 9.22982 -15.5431 7.03392
9.90767 70000099100000095 70000099100000094 70000099100000109 70000099100000093 7.00541704554 8.24139 -13.5124 7.00609
9.94556 70000099100000094 70000099100000093 70000099100000109 70000099100000092 6.85511726265 11.171 -11.8232 5.07948
9.99552 70000099100000093 70000099100000092 70000099100000109 70000099100000091 6.49159774567 10.5614 -12.4677 6.56742
10.0779 70000099100000092 70000099100000091 70000099100000109 70000099100000090 6.14490120342 6.85556 -16.4422 5.76738
10.1018 70000099100000091 70000099100000090 70000099100000109 70000099100000089 6.01075739884 -0.784633 -12.8385 12.6752
10.1311 70000099100000090 70000099100000089 70000099100000109 70000099100000088 5.84661374788 4.06133 -11.8682 11.1085
10.15 70000099100000089 70000099100000088 70000099100000109 70000099100000087 5.52976580795 3.34372 -8.13894 4.52795
10.2327 70000099100000088 70000099100000087 70000099100000109 70000099100000086 5.22758097313 5.04118 -6.60188 8.54212
10.3121 70000099100000087 70000099100000086 70000099100000109 70000099100000085 4.99593346816 -5.72708 1.52692 20.8047
10.3503 70000099100000086 70000099100000084 70000099100000109 70000099100000083 4.66451770247 1.71457 1.4298 5.6244
10.3994 70000099100000084 70000099100000083 70000099100000109 70000099100000082 4.42803373661 51.9294 11.6426 21.0363
10.4649 70000099100000083 70000099100000082 70000099100000109 70000099100000081 4.17683491473 67.5027 12.2918 39.7509
10.5055 70000099100000082 70000099100000081 70000099100000109 70000099100000080 4.00794511147 53.923 11.9372 45.0231
11.0639 70000099100000081 70000099100000073 70000099100000109 70000099100000072 2.73314261732 -135.194 27.5801 47.5259
11.1223 70000099100000073 70000099100000072 70000099100000109 70000099100000071 2.5772902716 -134.918 37.465 103.876
11.1745 70000099100000072 70000099100000071 70000099100000109 70000099100000070 2.44422570455 -117.859 47.5041 97.8838
11.2911 70000099100000071 70000099100000070 70000099100000109 70000099100000069 2.31611074396 -127.241 -3.68465 172.157
11.4144 70000099100000070 70000099100000069 70000099100000109 70000099100000068 2.20792547238 -30.3116 60.0237 47.8307
11.4648 70000099100000069 70000099100000068 70000099100000109 70000099100000067 2.1032696526 -36.4711 96.0501 23.8326
11.5051 70000099100000068 70000099100000067 70000099100000109 70000099100000066 2.00202813925 -45.0201 132.227 61.32
11.5148 70000099100000067 70000099100000066 70000099100000109 70000099100000065 1.90408954353 -62.1803 112.965 42.1802
11.5568 70000099100000066 70000099100000065 70000099100000109 70000099100000064 1.82268925262 -73.0138 120.196 113.72
11.5685 70000099100000065 70000099100000064 70000099100000109 70000099100000063 1.74357057433 -83.6549 128.609 125.813
11.5723 70000099100000064 70000099100000052 70000099100000109 70000099100000051 1.07445789455 -62.5142 52.8406 -15.8681
11.5876 70000099100000052 70000099100000051 70000099100000109 70000099100000050 1.03551044566 -30.7073 55.0062 3.70315
11.5991 70000099100000051 70000099100000050 70000099100000109 70000099100000049 0.997294225782 -31.5471 84.1808 17.3029
11.6059 70000099100000050 70000099100000049 70000099100000109 70000099100000048 0.987852810816 -40.7911 52.3822 17.2334
11.6116 70000099100000049 70000099100000048 70000099100000109 70000099100000047 0.950531351585 -35.1372 52.8094 -1.06672
11.6221 70000099100000048 70000099100000047 70000099100000109 70000099100000046 0.923000816178 -21.8368 53.4919 0.228048
11.6382 70000099100000047 70000099100000046 70000099100000109 70000099100000045 0.886896937575 -57.4643 67.1978 -15.703
11.6482 70000099100000046 70000099100000045 70000099100000109 70000099100000044 0.851470900625 -89.8874 45.3959 1.80253
11.6511 70000099100000045 70000099100000044 70000099100000109 70000099100000043 0.816709979012 -54.5408 88.3147 14.7792
11.6549 70000099100000044 70000099100000043 70000099100000109 70000099100000042 0.791068248946 -70.9185 87.3059 14.9615
11.6681 70000099100000043 70000099100000042 70000099100000109 70000099100000041 0.757441372616 -25.1852 108.994 15.6796
11.6739 70000099100000042 70000099100000041 70000099100000109 70000099100000040 0.732636182022 -53.3604 104.954 34.2502
11.6903 70000099100000041 70000099100000040 70000099100000109 70000099100000039 0.700106353719 -87.9492 89.0361 37.4868
11.702 70000099100000040 70000099100000039 70000099100000109 70000099100000038 0.676110411213 -109.953 82.0095 48.6827
11.7062 70000099100000039 70000099100000038 70000099100000109 70000099100000037 0.644641840685 -107.491 65.1851 61.6215
11.7077 70000099100000038 70000099100000037 70000099100000109 70000099100000036 0.621428745243 -106.631 73.8333 53.7009
11.7088 70000099100000037 70000099100000035 70000099100000109 70000099100000034 0.575980845108 -149.398 22.4337 74.4654
11.7122 70000099100000035 70000099100000034 70000099100000109 70000099100000033 0.546392183141 -148.684 16.0098 78.3672
11.7228 70000099100000034 70000099100000033 70000099100000109 70000099100000032 0.524565820434 -158.332 95.9863 12.6292
11.7296 70000099100000033 70000099100000032 70000099100000109 70000099100000031 0.503047523245 -179.642 136.485 -28.4236
11.7325 70000099100000032 70000099100000031 70000099100000109 70000099100000030 0.481832943421 -174.468 145.149 -33.4744
11.7369 70000099100000031 70000099100000030 70000099100000109 70000099100000029 0.460917794181 -197.28 194.003 -80.6404
11.7398 70000099100000030 70000099100000029 70000099100000109 70000099100000028 0.440297849248 -201.921 186.495 -79.8035
11.7489 70000099100000029 70000099100000028 70000099100000109 70000099100000027 0.419968941997 -214.584 233.124 -123.957
11.7524 70000099100000028 70000099100000027 70000099100000109 70000099100000026 0.399926964614 -234.959 256.324 -143.657
11.7591 70000099100000027 70000099100000026 70000099100000109 70000099100000025 0.38016786726 -233.376 294.453 -139.496
11.7616 70000099100000026 70000099100000025 70000099100000109 70000099100000024 0.360687657262 -190.982 246.412 -108.61
11.7634 70000099100000025 70000099100000024 70000099100000109 70000099100000023 0.347853841858 -207.67 291.125 -127.606
11.7751 70000099100000024 70000099100000023 70000099100000109 70000099100000022 0.328829724206 -229.305 307.905 -131.53
11.7828 70000099100000023 70000099100000022 70000099100000109 70000099100000021 0.310074120128 -241.417 320.555 -121.866
11.7888 70000099100000022 70000099100000021 70000099100000109 70000099100000020 0.291583239722 -280.227 331.136 -109.047
11.7961 70000099100000021 70000099100000020 70000099100000109 70000099100000019 0.273353346578 -265.524 339.605 -88.7828
11.8002 70000099100000020 70000099100000019 70000099100000109 70000099100000018 0.261343256161 -266.021 343.458 -96.0874
11.8015 70000099100000019 70000099100000018 70000099100000109 70000099100000017 0.243540181555 -269.4 333.157 -109.113
11.8095 70000099100000018 70000099100000017 70000099100000109 70000099100000016 0.22598838626 -274.102 333.564 -89.2319
11.812 70000099100000017 70000099100000016 70000099100000109 70000099100000015 0.214425035514 -268.73 337.163 -75.8931
11.8137 70000099100000016 70000099100000015 70000099100000109 70000099100000014 0.197284182376 -273.306 352.73 -86.1162
11.8183 70000099100000015 70000099100000014 70000099100000109 70000099100000013 0.180385261706 -266.369 353.427 -70.9526
11.8194 70000099100000014 70000099100000013 70000099100000109 70000099100000012 0.169252033244 -269.63 358.622 -74.742
11.8227 70000099100000013 70000099100000012 70000099100000109 70000099100000011 0.152748768902 -266.774 377.781 -82.4932
11.8254 70000099100000012 70000099100000009 70000099100000109 70000099100000008 0.109869940459 -239.021 357.278 -53.1354
11.8287 70000099100000009 70000099100000007 70000099100000109 70000099100000006 0.0838844307975 -241.077 360.576 -41.0405
11.8294 70000099100000007 70000099100000006 70000099100000109 70000099100000005 0.0736613846564 -233.665 386.386 -29.1402
11.8316 70000099100000006 70000099100000005 70000099100000109 70000099100000004 0.0585073227945 -236.594 373.269 -31.4596
11.8349 70000099100000005 70000099100000004 70000099100000109 70000099100000003 0.0485236299818 -243.153 388.419 -32.2358
11.8394 70000099100000004 70000099100000003 70000099100000109 70000099100000002 0.0337243718735 -250.782 392.756 -55.3365
11.8416 70000099100000003 70000099100000002 70000099100000109 70000099100000001 0.0239744283828 -261.518 385.337 -56.516
11.8453 70000099100000002 70000099100000001 70000099100000109 70000099100000000 0.00952166696794 -279.057 394.022 -64.9283
9.04062 70000099100000125 70000099100000124 70000099100000127 70000099100000123 10.3674435724 1.64253 0.315003 5.15558
9.04062 70000099100000124 70000099100000123 70000099100000127 70000099100000122 9.99659046619 2.01584 1.07149 6.47069
9.06939 70000099100000123 70000099100000122 70000099100000127 70000099100000121 9.84138043947 1.45389 0.498325 4.0326
9.17946 70000099100000122 70000099100000120 70000099100000127 70000099100000119 9.00233985416 0.899404 -0.189888 7.85204
9.27246 70000099100000120 70000099100000118 70000099100000127 70000099100000117 8.44947629437 9.29536 -3.48345 16.7241
9.44681 70000099100000118 70000099100000117 70000099100000127 70000099100000116 8.01217294887 8.99966 -18.4835 5.14842
9.08038 70000099100000134 70000099100000133 70000099100000142 70000099100000132 8.01217294887 -5.35606 5.57506 -1.81496
9.01614 70000099100000235 70000099100000234 70000099100000238 70000099100000233 8.01217294887 -4.00934 0.627627 5.7127
9.05235 70000099100000234 70000099100000229 70000099100000238 70000099100000228 6.49159774567 -2.67553 -2.43605 4.6262
9.09898 70000099100000229 70000099100000228 70000099100000238 70000099100000227 6.14490120342 5.08115 -5.77937 6.69054
9.18376 70000099100000228 70000099100000226 70000099100000238 70000099100000225 5.84661374788 8.0197 -1.36469 -0.217934
9.24918 70000099100000226 70000099100000224 70000099100000238 70000099100000223 5.22758097313 14.8451 -4.70236 -4.6934
9.37595 70000099100000224 70000099100000220 70000099100000238 70000099100000219 4.42803373661 -11.1577 7.41228 3.86526
9.0066 70000099100000262 70000099100000261 70000099100000273 70000099100000260 4.66451770247 -3.09841 7.85437 4.50102
9.04358 70000099100000310 70000099100000309 70000099100000317 70000099100000308 4.42803373661 2.33304 5.79259 0.437991
9.09111 70000099100000309 70000099100000308 70000099100000317 70000099100000307 4.17683491473 -2.19549 7.91272 0.715646
9.15502 70000099100000308 70000099100000306 70000099100000317 70000099100000305 3.93726108473 -2.32402 4.76093 9.1364
9.19433 70000099100000396 70000099100000395 70000099100000403 70000099100000394 7.23627606617 -16.1178 21.4671 -18.5878
9.26008 70000099100000395 70000099100000393 70000099100000403 70000099100000392 6.85511726265 1.41496 24.452 -2.63356
9.45145 70000099100000393 70000099100000392 70000099100000403 70000099100000391 6.49159774567 -3.72209 20.1522 -5.97911
9.55751 70000099100000392 70000099100000391 70000099100000403 70000099100000390 6.14490120342 -4.09791 17.751 0.898183
9.6865 70000099100000391 70000099100000390 70000099100000403 70000099100000389 6.01075739884 6.02805 36.1086 14.6251
9.80363 70000099100000390 70000099100000388 70000099100000403 70000099100000387 5.52976580795 11.7506 28.7242 -4.12769
9.91766 70000099100000388 70000099100000387 70000099100000403 70000099100000386 5.22758097313 3.78822 -4.97189 -22.5418
9.95363 70000099100000387 70000099100000386 70000099100000403 70000099100000385 4.99593346816 6.12192 -0.115085 -33.5772
10.0526 70000099100000386 70000099100000385 70000099100000403 70000099100000384 4.93938066349 -7.43566 -17.9028 -23.9313
10.1795 70000099100000385 70000099100000384 70000099100000403 70000099100000383 4.66451770247 -3.13524 -27.0488 -20.7647
10.2473 70000099100000384 70000099100000383 70000099100000403 70000099100000382 4.42803373661 23.6924 -37.7845 -46.6399
10.3083 70000099100000383 70000099100000382 70000099100000403 70000099100000381 4.17683491473 35.0917 -30.38 -39.0118
10.3599 70000099100000382 70000099100000380 70000099100000403 70000099100000379 3.93726108473 23.6012 -38.2433 -42.6371
10.502 70000099100000380 70000099100000379 70000099100000403 70000099100000378 3.70877426464 -67.3575 -27.222 -55.8693
10.5717 70000099100000379 70000099100000378 70000099100000403 70000099100000377 3.49086136926 -104.961 40.997 -41.9076
10.6407 70000099100000378 70000099100000377 70000099100000403 70000099100000376 3.28303305796 -83.9653 58.0122 -65.6673
10.843 70000099100000377 70000099100000376 70000099100000403 70000099100000375 3.08482263583 -211.141 10.0199 14.4606
10.902 70000099100000376 70000099100000375 70000099100000403 70000099100000374 3.00813107163 -196.283 31.5156 -36.7408
10.9305 70000099100000375 70000099100000374 70000099100000403 70000099100000373 2.89578500573 -175.194 35.4823 8.47203
9.08845 70000099100000422 70000099100000421 70000099100000428 70000099100000420 8.01217294887 4.41269 -1.15643 -5.02085
9.14108 70000099100000421 70000099100000420 70000099100000428 70000099100000419 7.59510714987 6.54752 0.155123 -2.64771
9.08578 70000099100000477 70000099100000476 70000099100000483 70000099100000475 8.44947629437 6.6301 6.12954 -0.257501
9.10926 70000099100000476 70000099100000475 70000099100000483 70000099100000474 8.01217294887 4.59649 3.52009 -3.10352
9.12912 70000099100000475 70000099100000474 70000099100000483 70000099100000473 7.59510714987 4.40848 4.91842 -4.23612
9.20668 70000099100000474 70000099100000473 70000099100000483 70000099100000472 7.23627606617 3.36956 3.30309 -4.54806
9.26008 70000099100000473 70000099100000472 70000099100000483 70000099100000471 7.00541704554 5.79779 4.17593 -3.58147
9.2862 70000099100000472 70000099100000471 70000099100000483 70000099100000470 6.85511726265 0.96432 -2.85359 -5.62714
9.42771 70000099100000471 70000099100000470 70000099100000483 70000099100000469 6.49159774567 -7.51515 -3.8584 -7.75743
9.00012 70000099100000560 70000099100000559 70000099100000565 70000099100000558 4.17683491473 -2.65488 5.90164 17.2514
9.03763 70000099100000592 70000099100000591 70000099100000605 70000099100000590 5.52976580795 0.579308 -14.0759 2.24202
9.05811 70000099100000591 70000099100000590 70000099100000605 70000099100000589 5.22758097313 -0.455875 -10.2162 2.60938
9.09375 70000099100000590 70000099100000589 70000099100000605 70000099100000588 4.99593346816 -0.0945735 -12.3683 3.20338
9.11431 70000099100000607 70000099100000606 70000099100000617 70000099100000375 3.28303305796 25.6345 -10.6275 13.6438
9.08038 70000099100000648 70000099100000647 70000099100000653 70000099100000646 6.01075739884 -4.5479 -4.58832 -0.840899
9.09898 70000099100000647 70000099100000646 70000099100000653 70000099100000645 5.84661374788 -4.24028 -4.68245 0.904273
9.16182 70000099100000646 70000099100000644 70000099100000653 70000099100000643 5.22758097313 -6.79857 -6.18697 0.739595
9.21869 70000099100000644 70000099100000643 70000099100000653 70000099100000642 4.99593346816 -5.90805 -8.20302 -0.435474
9.23229 70000099100000643 70000099100000641 70000099100000653 70000099100000640 4.66451770247 -4.65259 -11.2595 -0.93817
9.2672 70000099100000641 70000099100000640 70000099100000653 70000099100000639 4.42803373661 -4.80033 -8.99541 -0.358426
9.32958 70000099100000640 70000099100000639 70000099100000653 70000099100000638 4.17683491473 -4.91759 -13.9503 -1.92237
9.34165 70000099100000639 70000099100000637 70000099100000653 70000099100000636 3.93726108473 -5.48512 -16.5272 -1.30803
9.34165 70000099100000637 70000099100000636 70000099100000653 70000099100000635 3.70877426464 -5.0597 -18.0004 -2.02825
9.35483 70000099100000636 70000099100000635 70000099100000653 70000099100000634 3.49086136926 -4.80093 -14.7261 0.453043
9.44681 70000099100000635 70000099100000634 70000099100000653 70000099100000633 3.28303305796 0.395687 -16.4862 10.4279
9.04358 70000099100000783 70000099100000782 70000099100000787 70000099100000781 6.14490120342 1.99722 8.56679 1.04192
9.17729 70000099100000782 70000099100000781 70000099100000787 70000099100000780 6.01075739884 3.37152 12.8866 8.23437
9.27766 70000099100000781 70000099100000779 70000099100000787 70000099100000778 5.52976580795 -0.966917 11.1921 9.39417
9.32805 70000099100000779 70000099100000778 70000099100000787 70000099100000777 5.22758097313 -1.34256 9.98679 8.50685
9.59972 70000099100000778 70000099100000775 70000099100000787 70000099100000774 4.66451770247 5.48768 4.43622 -3.26614
9.62523 70000099100000775 70000099100000774 70000099100000787 70000099100000773 4.42803373661 6.76736 -2.50233 15.3236
9.75879 70000099100000774 70000099100000773 70000099100000787 70000099100000772 4.17683491473 11.6251 -27.1445 -0.687384
9.82272 70000099100000773 70000099100000772 70000099100000787 70000099100000771 4.00794511147 -2.04367 -12.1336 -10.8562
9.07492 70000099100000802 70000099100000801 70000099100000806 70000099100000800 6.01075739884 3.67802 -10.8108 1.79155
9.1193 70000099100000801 70000099100000799 70000099100000806 70000099100000798 5.52976580795 3.05991 -10.0526 2.76524
9.29124 70000099100000799 70000099100000798 70000099100000806 70000099100000797 5.22758097313 9.62005 -31.3062 2.47277
9.41408 70000099100000798 70000099100000797 70000099100000806 70000099100000796 4.99593346816 12.4243 -38.3385 9.36873
9.47066 70000099100000797 70000099100000796 70000099100000806 70000099100000795 4.93938066349 9.96551 -34.5409 0.939648
9.04653 70000099100000903 70000099100000902 70000099100000912 70000099100000901 6.14490120342 -2.11962 -4.68004 0.25687
9.08845 70000099100000902 70000099100000901 70000099100000912 70000099100000900 6.01075739884 -3.03955 -5.25943 0.671912
9.09637 70000099100000901 70000099100000900 70000099100000912 70000099100000899 5.84661374788 1.03937 -3.25944 2.12295
9.21472 70000099100000900 70000099100000899 70000099100000912 70000099100000898 5.52976580795 -8.35708 -2.40091 1.48785
9.25284 70000099100000899 70000099100000897 70000099100000912 70000099100000896 4.99593346816 -6.33517 -4.61191 0.561666
9.29457 70000099100000897 70000099100000896 70000099100000912 70000099100000895 4.93938066349 -6.23001 -6.26664 -1.34964
9.40518 70000099100000896 70000099100000894 70000099100000912 70000099100000893 4.42803373661 -7.79044 -2.16903 -5.15267
9.44211 70000099100000894 70000099100000893 70000099100000912 70000099100000892 4.17683491473 -9.32119 3.89056 -2.09625
9.45261 70000099100000893 70000099100000891 70000099100000912 70000099100000890 3.93726108473 -11.0429 9.47818 -7.77539
9.50158 70000099100000891 70000099100000890 70000099100000912 70000099100000889 3.70877426464 -8.84104 8.77915 -7.53359
9.70363 70000099100000890 70000099100000888 70000099100000912 70000099100000887 3.28303305796 24.4504 39.9153 -39.7266
9.01298 70000099100000927 70000099100000926 70000099100000939 70000099100000925 3.70877426464 -1.70663 0.178959 7.68632
9.04945 70000099100000926 70000099100000925 70000099100000939 70000099100000924 3.49086136926 -0.959396 -1.8823 4.87038
9.06939 70000099100000925 70000099100000924 70000099100000939 70000099100000923 3.28303305796 0.567308 -4.0735 4.22945
9.07766 70000099100000924 70000099100000923 70000099100000939 70000099100000922 3.08482263583 5.02915 -1.79843 4.03212
9.05235 70000099100001007 70000099100001006 70000099100001016 70000099100001005 4.00794511147 2.45468 3.95359 0.941321
9.13154 70000099100001006 70000099100000998 70000099100001016 70000099100000997 2.73314261732 7.38672 -10.5555 -16.055
9.09375 70000099100001018 70000099100001017 70000099100001024 70000099100001006 4.17683491473 -38.3211 -57.1985 -14.1115
9.01614 70000099100001193 70000099100001192 70000099100001201 70000099100001191 7.23627606617 -5.06202 -1.74233 -1.30826
9.02239 70000099100001192 70000099100001191 70000099100001201 70000099100001190 7.00541704554 -6.16673 -2.93731 0.0292698
9.06378 70000099100001191 70000099100001189 70000099100001201 70000099100001188 6.49159774567 -4.39499 -3.50884 1.24499
9.13154 70000099100001189 70000099100001188 70000099100001201 70000099100001187 6.14490120342 -3.79706 -4.1198 0.014425
9.2026 70000099100001188 70000099100001187 70000099100001201 70000099100001186 6.01075739884 -7.51577 -6.94268 0.11349
9.24362 70000099100001187 70000099100001186 70000099100001201 70000099100001185 5.84661374788 -5.73731 -5.57852 -1.40433
9.2672 70000099100001186 70000099100001185 70000099100001201 70000099100001184 5.52976580795 -7.4816 -3.06265 -0.665688
9.34609 70000099100001185 70000099100001184 70000099100001201 70000099100001183 5.22758097313 -3.62994 -4.8295 2.87752
9.46285 70000099100001184 70000099100001183 70000099100001201 70000099100001182 4.99593346816 7.23843 -10.772 2.16708
9.65802 70000099100001183 70000099100001181 70000099100001201 70000099100001180 4.66451770247 13.6407 4.26002 -32.1698
9.70428 70000099100001181 70000099100001180 70000099100001201 70000099100001179 4.42803373661 9.49376 4.92219 -25.4564
9.7455 70000099100001180 70000099100001179 70000099100001201 70000099100001178 4.17683491473 7.72835 8.00231 -28.8224
9.77279 70000099100001179 70000099100001178 70000099100001201 70000099100001177 4.00794511147 12.7847 8.15539 -25.9921
9.78421 70000099100001178 70000099100001177 70000099100001201 70000099100001176 3.93726108473 12.4913 6.87765 -27.4483
9.83673 70000099100001177 70000099100001176 70000099100001201 70000099100001175 3.70877426464 20.1328 1.03651 -24.1643
9.86393 70000099100001176 70000099100001175 70000099100001201 70000099100001174 3.49086136926 20.7334 -5.54621 -15.9749
9.87886 70000099100001175 70000099100001174 70000099100001201 70000099100001173 3.28303305796 11.8652 3.62372 -16.9965
9.09898 70000099100001207 70000099100001206 70000099100001214 70000099100001205 5.22758097313 4.50096 10.3547 -10.9777
9.08038 70000099100001307 70000099100001306 70000099100001311 70000099100001305 8.9079991856 -11.3421 1.32909 9.37562
9.15273 70000099100001306 70000099100001305 70000099100001311 70000099100001304 8.44947629437 -7.73477 0.161226 7.86684
9.21272 70000099100001305 70000099100001304 70000099100001311 70000099100001303 8.01217294887 -7.16347 2.84589 9.73471
9.24733 70000099100001304 70000099100001303 70000099100001311 70000099100001302 7.59510714987 -8.91951 -1.92407 9.13257
9.37732 70000099100001303 70000099100001302 70000099100001311 70000099100001301 7.23627606617 2.00329 8.50362 8.42636
9.38141 70000099100001302 70000099100001301 70000099100001311 70000099100001300 7.00541704554 -0.219747 4.17926 4.58151
9.39871 70000099100001301 70000099100001300 70000099100001311 70000099100001299 6.85511726265 -1.64929 6.69417 7.23833
9.45605 70000099100001300 70000099100001299 70000099100001311 70000099100001298 6.49159774567 -0.862313 9.81008 6.38651
9.53332 70000099100001299 70000099100001298 70000099100001311 70000099100001297 6.14490120342 2.72549 10.9887 7.08705
9.58638 70000099100001298 70000099100001297 70000099100001311 70000099100001296 6.01075739884 8.44447 12.0022 2.00702
9.61899 70000099100001297 70000099100001296 70000099100001311 70000099100001295 5.84661374788 15.3156 16.4455 2.7638
9.77334 70000099100001296 70000099100001295 70000099100001311 70000099100001294 5.52976580795 -3.45451 6.0184 -9.46603
9.88656 70000099100001295 70000099100001294 70000099100001311 70000099100001293 5.22758097313 -28.3745 -2.82735 -14.1648
9.93658 70000099100001294 70000099100001293 70000099100001311 70000099100001292 4.99593346816 -37.0626 0.731856 -15.468
9.97352 70000099100001293 70000099100001292 70000099100001311 70000099100001291 4.93938066349 -33.3772 -3.0625 -16.6368
10.0108 70000099100001292 70000099100001291 70000099100001311 70000099100001290 4.66451770247 -9.86472 -14.526 -13.999
10.1163 70000099100001291 70000099100001290 70000099100001311 70000099100001289 4.42803373661 -7.70779 -15.8844 -19.9551
10.1707 70000099100001290 70000099100001289 70000099100001311 70000099100001288 4.17683491473 -1.67249 -24.3699 -17.5366
10.2427 70000099100001289 70000099100001288 70000099100001311 70000099100001287 4.00794511147 -32.1429 11.7093 -12.8947
10.3208 70000099100001288 70000099100001286 70000099100001311 70000099100001285 3.70877426464 -39.8586 44.0638 -17.9392
10.3408 70000099100001286 70000099100001285 70000099100001311 70000099100001284 3.49086136926 -30.2078 52.4971 -18.8656
10.3876 70000099100001285 70000099100001284 70000099100001311 70000099100001283 3.28303305796 -21.3527 87.1768 -18.5497
10.4425 70000099100001284 70000099100001283 70000099100001311 70000099100001282 3.08482263583 -18.5145 121.791 -14.4895
10.5079 70000099100001283 70000099100001282 70000099100001311 70000099100001281 3.00813107163 -37.3518 116.207 -36.7966
10.5503 70000099100001282 70000099100001281 70000099100001311 70000099100001280 2.89578500573 -69.1614 126.619 -37.4458
10.5751 70000099100001281 70000099100001280 70000099100001311 70000099100001279 2.73314261732 -100.945 117.866 -42.702
10.682 70000099100001280 70000099100001279 70000099100001311 70000099100001278 2.5772902716 -181.543 124.059 -45.0141
9.16182 70000099100001333 70000099100001332 70000099100001343 70000099100001331 5.84661374788 19.6775 4.76654 -2.66064
9.02548 70000099100001349 70000099100001348 70000099100001357 70000099100001347 6.14490120342 9.0078 13.2679 3.56643
9.00012 70000099100001436 70000099100001435 70000099100001444 70000099100001434 6.01075739884 5.98848 -3.66714 0.237139
9.05235 70000099100001435 70000099100001434 70000099100001444 70000099100001433 5.84661374788 9.87664 -3.30415 2.36343
9.10415 70000099100001434 70000099100001433 70000099100001444 70000099100001432 5.52976580795 10.5282 0.0594817 6.76587
9.19433 70000099100001433 70000099100001432 70000099100001444 70000099100001431 5.22758097313 7.79605 -1.68714 5.56992
9.32187 70000099100001432 70000099100001431 70000099100001444 70000099100001430 4.99593346816 -5.09757 28.8209 -7.73478
9.04653 70000099100001514 70000099100001513 70000099100001520 70000099100001512 8.01217294887 -0.933618 7.12035 -0.796384
9.08578 70000099100001513 70000099100001512 70000099100001520 70000099100001511 7.59510714987 -0.75697 8.87445 0.169341
9.19223 70000099100001512 70000099100001511 70000099100001520 70000099100001510 7.23627606617 -1.39935 7.19732 -0.166473
9.32497 70000099100001511 70000099100001510 70000099100001520 70000099100001509 7.00541704554 4.71073 8.86016 0.303116
9.38815 70000099100001510 70000099100001509 70000099100001520 70000099100001508 6.85511726265 0.832958 7.67231 -8.22495
9.51074 70000099100001509 70000099100001508 70000099100001520 70000099100001507 6.49159774567 4.56228 7.66031 -10.747
9.56735 70000099100001508 70000099100001507 70000099100001520 70000099100001506 6.14490120342 4.35912 7.23289 -10.7749
9.59972 70000099100001507 70000099100001505 70000099100001520 70000099100001504 5.84661374788 4.90415 8.78253 -9.657
9.66017 70000099100001505 70000099100001504 70000099100001520 70000099100001503 5.52976580795 2.38147 12.2469 -8.64349
9.72935 70000099100001504 70000099100001503 70000099100001520 70000099100001502 5.22758097313 24.8586 20.1086 -7.77876
9.75306 70000099100001503 70000099100001502 70000099100001520 70000099100001501 4.99593346816 17.7743 18.9398 -10.2291
9.75306 70000099100001502 70000099100001501 70000099100001520 70000099100001500 4.93938066349 20.0603 20.3798 -10.3133
9.79847 70000099100001501 70000099100001500 70000099100001520 70000099100001499 4.66451770247 28.0104 28.5038 -16.865
9.80517 70000099100001500 70000099100001499 70000099100001520 70000099100001498 4.42803373661 29.1151 27.8948 -15.8784
9.83816 70000099100001499 70000099100001498 70000099100001520 70000099100001497 4.17683491473 25.962 25.7895 -15.4553
9.88016 70000099100001498 70000099100001496 70000099100001520 70000099100001495 3.93726108473 29.2521 34.2374 -20.2224
9.06378 70000099100001589 70000099100001588 70000099100001596 70000099100001587 6.49159774567 -10.2325 -2.3114 -9.11198
9.10157 70000099100001588 70000099100001586 70000099100001596 70000099100001585 6.01075739884 -5.05068 1.39727 -9.16268
9.18802 70000099100001586 70000099100001584 70000099100001596 70000099100001583 5.52976580795 5.36456 6.95931 -14.4696
9.2862 70000099100001584 70000099100001583 70000099100001596 70000099100001582 5.22758097313 1.39123 0.56003 -10.4132
9.41909 70000099100001583 70000099100001582 70000099100001596 70000099100001581 4.99593346816 -8.52358 6.00387 -3.65263
9.42157 70000099100001582 70000099100001581 70000099100001596 70000099100001580 4.93938066349 -9.18787 1.74078 -5.06492
9.44564 70000099100001581 70000099100001580 70000099100001596 70000099100001579 4.66451770247 -7.67239 1.26363 -3.05381
9.51074 70000099100001580 70000099100001579 70000099100001596 70000099100001578 4.42803373661 -7.36165 3.86053 -3.0034
9.54465 70000099100001579 70000099100001578 70000099100001596 70000099100001577 4.17683491473 -10.9449 2.47 -3.36539
9.57175 70000099100001578 70000099100001577 70000099100001596 70000099100001576 4.00794511147 -5.68993 4.46456 -4.83849
9.59972 70000099100001577 70000099100001576 70000099100001596 70000099100001575 3.93726108473 -0.322995 2.56416 -11.4609
9.62212 70000099100001576 70000099100001575 70000099100001596 70000099100001574 3.70877426464 -4.44503 3.75002 -10.7833
9.64638 70000099100001575 70000099100001574 70000099100001596 70000099100001573 3.49086136926 17.7769 7.01415 -10.9073
9.83147 70000099100001574 70000099100001572 70000099100001596 70000099100001571 3.08482263583 33.8113 35.2552 -11.3849
9.04358 70000099100001639 70000099100001638 70000099100001647 70000099100001637 4.42803373661 -11.9545 -19.2163 11.8228
9.09375 70000099100001638 70000099100001637 70000099100001647 70000099100001636 4.17683491473 -10.103 -22.7685 14.6872
9.09898 70000099100001662 70000099100001661 70000099100001680 70000099100001660 3.08482263583 -26.4216 -27.4927 8.46239
9.11681 70000099100001661 70000099100001660 70000099100001680 70000099100001659 3.00813107163 -26.8486 -24.5112 6.16934
9.12424 70000099100001660 70000099100001658 70000099100001680 70000099100001657 2.73314261732 -17.0614 -16.1789 5.77091
9.01298 70000099100001707 70000099100001706 70000099100001713 70000099100001705 3.70877426464 3.1387 -1.65505 15.5938
9.03763 70000099100001706 70000099100001703 70000099100001713 70000099100001702 3.08482263583 -0.815832 0.803815 13.3128
9.10157 70000099100001703 70000099100001702 70000099100001713 70000099100001701 3.00813107163 0.846301 -0.349605 9.79247
9.10926 70000099100001702 70000099100001701 70000099100001713 70000099100001700 2.89578500573 0.85005 -0.641931 9.07219
9.42649 70000099100001744 70000099100001743 70000099100001766 70000099100001742 2.73314261732 30.5995 20.7854 -6.61048
9.04653 70000099100001832 70000099100001831 70000099100001836 70000099100001830 5.22758097313 8.95108 -6.46189 0.575171
9.04653 70000099100001831 70000099100001830 70000099100001836 70000099100001829 4.99593346816 15.439 -6.26649 1.57883
9.08578 70000099100001830 70000099100001829 70000099100001836 70000099100001828 4.93938066349 12.9446 -5.58068 -0.152175
9.15502 70000099100001829 70000099100001828 70000099100001836 70000099100001827 4.66451770247 7.03832 -4.31928 1.28053
9.21869 70000099100001828 70000099100001827 70000099100001836 70000099100001826 4.42803373661 7.07947 -3.53838 1.60798
9.2672 70000099100001827 70000099100001826 70000099100001836 70000099100001825 4.17683491473 2.12682 -4.16344 2.61074
9.27072 70000099100001826 70000099100001825 70000099100001836 70000099100001824 4.00794511147 2.76598 -5.0398 3.98048
9.30602 70000099100001825 70000099100001819 70000099100001836 70000099100001818 3.00813107163 8.21659 -13.5125 -13.9546
9.07216 70000099100001907 70000099100001906 70000099100001920 70000099100001905 4.00794511147 19.1284 -16.0191 6.84775
9.08309 70000099100001906 70000099100001905 70000099100001920 70000099100001904 3.93726108473 18.5395 -14.6692 5.26078
9.12912 70000099100001905 70000099100001903 70000099100001920 70000099100001902 3.49086136926 10.2231 -11.796 5.24151
9.26365 70000099100001903 70000099100001902 70000099100001920 70000099100001901 3.28303305796 11.6182 -22.9349 10.8508
9.04653 70000099100002005 70000099100002004 70000099100002010 70000099100002003 9.99659046619 0.10189 -0.730152 3.91367
9.07492 70000099100002004 70000099100002000 70000099100002010 70000099100001999 8.9079991856 -0.825719 -0.670996 4.82602
9.12424 70000099100002000 70000099100001999 70000099100002010 70000099100001998 8.44947629437 -2.44136 -0.575709 5.73947
9.27938 70000099100001999 70000099100001998 70000099100002010 70000099100001997 8.01217294887 -3.05046 0.432454 4.65268
9.39346 70000099100001998 70000099100001997 70000099100002010 70000099100001996 7.59510714987 -17.5404 -14.905 10.7177
9.81528 70000099100001997 70000099100001993 70000099100002010 70000099100001992 6.49159774567 14.3318 -2.81604 2.7739
9.90727 70000099100001993 70000099100001992 70000099100002010 70000099100001991 6.14490120342 15.1321 3.85935 11.6153
9.92315 70000099100001992 70000099100001991 70000099100002010 70000099100001990 6.01075739884 13.3757 5.213 13.8844
9.92973 70000099100001991 70000099100001990 70000099100002010 70000099100001989 5.84661374788 16.4052 -2.84711 -2.42312
10.0246 70000099100001990 70000099100001989 70000099100002010 70000099100001988 5.52976580795 -0.0777941 6.50796 13.9753
10.0719 70000099100001989 70000099100001988 70000099100002010 70000099100001987 5.22758097313 -1.53729 5.12147 10.9181
10.1308 70000099100001988 70000099100001985 70000099100002010 70000099100001984 4.66451770247 -6.79264 10.0306 13.2832
10.1342 70000099100001985 70000099100001984 70000099100002010 70000099100001983 4.42803373661 6.34297 18.9288 17.2014
10.1769 70000099100001984 70000099100001982 70000099100002010 70000099100001981 4.00794511147 -1.02581 6.45433 15.3492
10.1972 70000099100001982 70000099100001981 70000099100002010 70000099100001980 3.93726108473 22.7659 11.802 5.46119
10.3965 70000099100001981 70000099100001980 70000099100002010 70000099100001979 3.70877426464 17.8139 -2.70926 -5.07059
10.4098 70000099100001980 70000099100001979 70000099100002010 70000099100001978 3.49086136926 14.0584 -7.10607 -7.88676
10.5077 70000099100001979 70000099100001978 70000099100002010 70000099100001977 3.28303305796 24.7321 -15.1815 -15.5865
10.5101 70000099100001978 70000099100001976 70000099100002010 70000099100001975 3.00813107163 14.4272 -8.25194 -3.07015
9.0066 70000099100002024 70000099100002023 70000099100002032 70000099100002022 8.9079991856 1.94756 -2.06453 -0.0680241
9.13154 70000099100002023 70000099100002022 70000099100002032 70000099100002021 8.44947629437 -1.25048 0.97451 1.80937
9.18162 70000099100002022 70000099100002021 70000099100002032 70000099100002020 8.01217294887 -2.20853 -1.85029 -1.36932
9.22066 70000099100002021 70000099100002020 70000099100002032 70000099100002019 7.59510714987 -1.9923 -0.426792 -2.66733
9.41659 70000099100002020 70000099100002018 70000099100002032 70000099100002017 7.00541704554 20.8143 0.340384 9.86032
9.04945 70000099100002048 70000099100002047 70000099100002055 70000099100002046 6.49159774567 -0.447821 -1.36435 -0.826065
9.09898 70000099100002047 70000099100002046 70000099100002055 70000099100002045 6.14490120342 4.10388 0.88866 -4.6064
9.11681 70000099100002046 70000099100002045 70000099100002055 70000099100002044 6.01075739884 3.80228 -2.06713 -6.44368
9.02855 70000099100002131 70000099100002130 70000099100002135 70000099100002129 6.85511726265 0.221714 -0.110726 6.63233
9.12424 70000099100002130 70000099100002128 70000099100002135 70000099100002127 6.14490120342 5.26991 -1.2702 8.81186
9.15273 70000099100002128 70000099100002127 70000099100002135 70000099100002126 6.01075739884 2.75856 0.166718 9.45534
9.19641 70000099100002127 70000099100002126 70000099100002135 70000099100002125 5.84661374788 1.43741 2.03473 5.27408
9.43257 70000099100002126 70000099100002125 70000099100002135 70000099100002124 5.52976580795 11.8328 -6.13055 4.45045
9.50363 70000099100002125 70000099100002124 70000099100002135 70000099100002123 5.22758097313 14.8392 -2.04849 2.09639
9.61106 70000099100002124 70000099100002123 70000099100002135 70000099100002122 4.99593346816 11.188 -3.97025 1.30079
9.61899 70000099100002123 70000099100002122 70000099100002135 70000099100002121 4.93938066349 8.72641 0.511681 3.42591
9.64932 70000099100002122 70000099100002121 70000099100002135 70000099100002120 4.66451770247 15.7907 -5.16289 0.982834
9.71637 70000099100002121 70000099100002120 70000099100002135 70000099100002119 4.42803373661 13.9979 -0.837439 6.04531
9.78152 70000099100002120 70000099100002119 70000099100002135 70000099100002118 4.17683491473 10.3678 -6.0966 5.23831
9.02855 70000099100002144 70000099100002143 70000099100002154 70000099100002142 6.49159774567 -2.99025 -4.41802 -4.3147
9.09375 70000099100002143 70000099100002142 70000099100002154 70000099100002141 6.14490120342 1.48395 -10.2498 -8.18498
9.10671 70000099100002142 70000099100002141 70000099100002154 70000099100002140 6.01075739884 0.106467 -10.8593 -7.81198
9.02239 70000099100002247 70000099100002246 70000099100002259 70000099100002245 4.66451770247 -0.760013 1.64957 -3.28735
9.06096 70000099100002246 70000099100002245 70000099100002259 70000099100002244 4.42803373661 0.976649 5.07355 -4.73678
9.09375 70000099100002245 70000099100002243 70000099100002259 70000099100002242 4.00794511147 -1.20786 7.20466 -3.32729
9.22651 70000099100002243 70000099100002241 70000099100002259 70000099100002240 3.70877426464 -9.15998 -6.52352 29.67
9.22651 70000099100002241 70000099100002236 70000099100002259 70000099100002235 2.89578500573 -3.2806 11.3629 6.00985
9.24175 70000099100002236 70000099100002232 70000099100002259 70000099100002231 2.31611074396 -0.0832027 -1.02421 21.516
9.00012 70000099100002290 70000099100002289 70000099100002318 70000099100002288 1.30237845991 -6.29543 4.29702 -6.07289
9.12668 70000099100002442 70000099100002441 70000099100002451 70000099100002440 6.14490120342 -3.2868 -11.0211 -4.67867
9.14811 70000099100002441 70000099100002440 70000099100002451 70000099100002439 6.01075739884 -2.54361 -9.93744 -4.95198
9.2342 70000099100002440 70000099100002437 70000099100002451 70000099100002436 5.22758097313 3.41185 -13.2282 1.40929
9.2845 70000099100002437 70000099100002436 70000099100002451 70000099100002435 4.99593346816 7.50489 -19.7998 5.38012
9.29787 70000099100002436 70000099100002435 70000099100002451 70000099100002434 4.93938066349 7.25558 -19.8488 5.34255
9.30115 70000099100002435 70000099100002434 70000099100002451 70000099100002433 4.66451770247 -0.171156 -14.6561 6.48498
9.34609 70000099100002434 70000099100002433 70000099100002451 70000099100002432 4.42803373661 -0.269384 -13.4096 9.10609
9.35771 70000099100002433 70000099100002432 70000099100002451 70000099100002431 4.17683491473 0.139056 -9.55289 9.87018
9.39346 70000099100002432 70000099100002431 70000099100002451 70000099100002430 4.00794511147 4.00739 -9.00088 10.1686
9.3974 70000099100002431 70000099100002430 70000099100002451 70000099100002429 3.93726108473 5.77042 -10.2727 12.7223
9.44564 70000099100002430 70000099100002429 70000099100002451 70000099100002428 3.70877426464 9.8291 -16.4133 8.2162
9.53808 70000099100002429 70000099100002427 70000099100002451 70000099100002426 3.28303305796 6.80797 -26.4475 17.5468
9.53808 70000099100002427 70000099100002426 70000099100002451 70000099100002425 3.08482263583 1.476 -21.4868 14.5173
9.56646 70000099100002426 70000099100002424 70000099100002451 70000099100002423 2.89578500573 -1.11863 -15.1409 11.3934
9.66936 70000099100002424 70000099100002421 70000099100002451 70000099100002420 2.44422570455 -13.6557 -7.43475 2.7387
9.08309 70000099100002614 70000099100002613 70000099100002618 70000099100002612 10.3674435724 0.781938 -1.9156 -6.60625
9.19641 70000099100002613 70000099100002612 70000099100002618 70000099100002611 9.99659046619 -11.8182 -7.43904 -13.7232
9.2087 70000099100002612 70000099100002611 70000099100002618 70000099100002610 9.84138043947 -12.3745 -6.35947 -13.1873
9.2929 70000099100002611 70000099100002609 70000099100002618 70000099100002608 9.00233985416 -10.1181 -6.59218 -8.69536
9.34756 70000099100002609 70000099100002608 70000099100002618 70000099100002607 8.9079991856 -4.44983 -7.94107 -13.3601
9.36902 70000099100002608 70000099100002607 70000099100002618 70000099100002606 8.44947629437 -6.22391 -3.20021 -7.83952
9.44797 70000099100002607 70000099100002605 70000099100002618 70000099100002604 7.59510714987 -8.47594 -5.08052 -11.7542
9.49116 70000099100002605 70000099100002604 70000099100002618 70000099100002603 7.23627606617 -7.23942 -4.46475 -13.553
9.50872 70000099100002604 70000099100002602 70000099100002618 70000099100002601 6.85511726265 -2.29791 -1.84093 -13.9029
9.51675 70000099100002602 70000099100002601 70000099100002618 70000099100002600 6.49159774567 -2.72129 -4.01541 -13.4703
9.61663 70000099100002601 70000099100002600 70000099100002618 70000099100002599 6.14490120342 2.23615 -5.06916 -14.9316
9.69974 70000099100002600 70000099100002597 70000099100002618 70000099100002596 5.52976580795 -1.20403 -7.43639 -13.2146
9.7336 70000099100002597 70000099100002596 70000099100002618 70000099100002595 5.22758097313 -0.690597 -9.90681 -11.7962
9.75017 70000099100002596 70000099100002595 70000099100002618 70000099100002594 4.99593346816 -0.987219 -6.27291 -9.2311
9.81026 70000099100002595 70000099100002594 70000099100002618 70000099100002593 4.93938066349 -12.6808 -5.85165 -1.07299
9.86124 70000099100002594 70000099100002593 70000099100002618 70000099100002592 4.66451770247 -15.3466 -3.43918 -1.94232
9.87972 70000099100002593 70000099100002592 70000099100002618 70000099100002591 4.42803373661 -15.1729 -2.97396 -6.54707
9.89745 70000099100002592 70000099100002591 70000099100002618 70000099100002590 4.17683491473 -11.5013 2.65701 -6.50727
9.90198 70000099100002591 70000099100002590 70000099100002618 70000099100002589 4.00794511147 -10.1971 -3.03085 -5.84286
9.91329 70000099100002590 70000099100002589 70000099100002618 70000099100002588 3.93726108473 -9.23118 -7.34756 -10.4509
9.91369 70000099100002589 70000099100002588 70000099100002618 70000099100002587 3.70877426464 -3.79671 -10.0154 -9.27433
9.93011 70000099100002588 70000099100002587 70000099100002618 70000099100002586 3.49086136926 -1.11988 -13.1613 -15.4767
9.95436 70000099100002587 70000099100002586 70000099100002618 70000099100002585 3.28303305796 -7.23768 -13.784 -12.2008
9.96582 70000099100002586 70000099100002585 70000099100002618 70000099100002584 3.08482263583 -10.355 -11.6466 7.52366
10.0011 70000099100002585 70000099100002583 70000099100002618 70000099100002582 2.89578500573 0.920236 -4.00303 19.5784
10.0092 70000099100002583 70000099100002582 70000099100002618 70000099100002581 2.73314261732 6.44238 8.46805 26.6514
10.0215 70000099100002582 70000099100002581 70000099100002618 70000099100002580 2.5772902716 -7.16807 10.8686 29.8388
9.0098 70000099100002829 70000099100002828 70000099100002837 70000099100002827 5.84661374788 -0.733049 0.263609 3.11491
9.02548 70000099100002828 70000099100002825 70000099100002837 70000099100002824 4.99593346816 1.86272 5.29041 4.4305
9.25101 70000099100002825 70000099100002822 70000099100002837 70000099100002821 4.42803373661 2.93343 1.35949 0.192941
9.32805 70000099100002822 70000099100002820 70000099100002837 70000099100002819 4.00794511147 5.66415 0.609111 -7.04768
9.38948 70000099100002820 70000099100002817 70000099100002837 70000099100002816 3.49086136926 24.8662 -0.190729 -6.07794
9.45833 70000099100002817 70000099100002816 70000099100002837 70000099100002815 3.28303305796 14.6972 -3.27475 -11.7591
9.49326 70000099100002816 70000099100002814 70000099100002837 70000099100002813 3.00813107163 21.3063 5.12054 -13.0432
9.50973 70000099100002814 70000099100002813 70000099100002837 70000099100002812 2.89578500573 -3.55357 11.1615 -1.76952
9.54185 70000099100002813 70000099100002812 70000099100002837 70000099100002811 2.73314261732 -6.05329 12.331 -4.78986
9.58975 70000099100002812 70000099100002811 70000099100002837 70000099100002810 2.5772902716 17.3892 -2.21176 -8.15626
9.6182 70000099100002811 70000099100002810 70000099100002837 70000099100002809 2.44422570455 18.6058 2.42124 -5.74749
9.02855 70000099100003188 70000099100003187 70000099100003199 70000099100003186 2.5772902716 19.0213 0.826699 7.22884
9.08038 70000099100003187 70000099100003185 70000099100003199 70000099100003184 2.31611074396 8.12261 -3.61244 6.37674
9.19433 70000099100003185 70000099100003184 70000099100003199 70000099100003183 2.20792547238 22.6943 -2.23585 10.6719
9.22457 70000099100003184 70000099100003183 70000099100003199 70000099100003182 2.1032696526 17.3843 0.125074 15.5929
9.25828 70000099100003183 70000099100003181 70000099100003199 70000099100003180 1.90408954353 19.2719 -1.21527 8.20253
9.04062 70000099100003298 70000099100003297 70000099100003307 70000099100003296 2.73314261732 19.2632 7.95668 13.8617
9.19433 70000099100003297 70000099100003296 70000099100003307 70000099100003295 2.5772902716 14.533 8.12983 21.3183
9.22651 70000099100003296 70000099100003295 70000099100003307 70000099100003294 2.44422570455 24.5148 6.72794 29.5288
9.25828 70000099100003295 70000099100003292 70000099100003307 70000099100003291 2.1032696526 14.1427 -6.08815 21.769
9.10671 70000099100003367 70000099100003366 70000099100003380 70000099100003365 2.31611074396 0.811373 16.2477 1.91831
9.21671 70000099100003366 70000099100003363 70000099100003380 70000099100003362 2.00202813925 5.25399 0.262434 -1.41208
9.24175 70000099100003363 70000099100003362 70000099100003380 70000099100003361 1.90408954353 7.19977 0.528418 5.24134
9.25648 70000099100003362 70000099100003361 70000099100003380 70000099100003360 1.82268925262 5.23891 -0.723417 4.77891
9.25828 70000099100003361 70000099100003360 70000099100003380 70000099100003359 1.74357057433 6.04032 0.871612 7.08391
9.27246 70000099100003360 70000099100003358 70000099100003380 70000099100003357 1.60423452207 9.8337 0.691158 5.79349
9.2828 70000099100003358 70000099100003356 70000099100003380 70000099100003355 1.47197484527 4.24554 5.86239 4.61856
9.30115 70000099100003356 70000099100003353 70000099100003380 70000099100003352 1.30237845991 3.47816 5.41806 -1.31837
9.03763 70000099100003494 70000099100003493 70000099100003506 70000099100003492 2.73314261732 2.20227 -1.70942 -0.378514
9.08845 70000099100003493 70000099100003492 70000099100003506 70000099100003491 2.5772902716 5.05679 -4.14972 -3.17329
9.1193 70000099100003492 70000099100003490 70000099100003506 70000099100003489 2.31611074396 4.45631 1.69807 -6.24187
9.19013 70000099100003490 70000099100003488 70000099100003506 70000099100003487 2.1032696526 8.66626 -6.38532 -4.17299
9.2361 70000099100003488 70000099100003487 70000099100003506 70000099100003486 2.00202813925 1.1936 -7.39191 2.55685
9.48049 70000099100003487 70000099100003486 70000099100003506 70000099100003485 1.90408954353 -5.18103 -1.62422 3.65422
9.49011 70000099100003486 70000099100003481 70000099100003506 70000099100003480 1.47197484527 -10.4204 -0.618302 -1.20522
9.02239 70000099100003520 70000099100003519 70000099100003531 70000099100003518 2.44422570455 1.61017 -2.52791 -7.02664
9.04358 70000099100003519 70000099100003518 70000099100003531 70000099100003517 2.31611074396 2.68692 -6.28293 -7.64553
9.21072 70000099100003518 70000099100003514 70000099100003531 70000099100003485 1.82268925262 -1.22101 -6.22739 -5.64431
9.01928 70000099100003624 70000099100003623 70000099100003632 70000099100003622 3.00813107163 -0.881148 -7.72716 1.02612
9.05811 70000099100003623 70000099100003622 70000099100003632 70000099100003621 2.89578500573 3.89637 0.376929 5.03531
9.08038 70000099100003622 70000099100003621 70000099100003632 70000099100003620 2.73314261732 0.73446 -6.43181 3.29723
9.08309 70000099100003621 70000099100003620 70000099100003632 70000099100003619 2.5772902716 0.0368733 -1.7525 3.95437
9.01928 70000099100003769 70000099100003768 70000099100003828 70000099100003767 0.360687657262 -14.796 6.30793 18.0895
9.0316 70000099100003971 70000099100003970 70000099100003976 70000099100003969 7.23627606617 1.26888 -2.31122 1.1829
9.05811 70000099100003970 70000099100003969 70000099100003976 70000099100003968 7.00541704554 1.10446 -3.0643 0.484536
9.09111 70000099100003969 70000099100003968 70000099100003976 70000099100003967 6.85511726265 2.16346 -3.23612 0.776394
9.18162 70000099100003968 70000099100003967 70000099100003976 70000099100003966 6.49159774567 0.180486 -2.57886 -0.743498
9.23037 70000099100003967 70000099100003966 70000099100003976 70000099100003965 6.14490120342 0.508947 -2.93826 -0.204884
9.24548 70000099100003966 70000099100003965 70000099100003976 70000099100003964 6.01075739884 1.74546 -2.4395 -2.16638
9.26008 70000099100003965 70000099100003964 70000099100003976 70000099100003963 5.84661374788 1.22173 -2.70215 -3.24588
9.30763 70000099100003964 70000099100003963 70000099100003976 70000099100003962 5.52976580795 4.83052 -0.469454 1.29724
9.40001 70000099100003963 70000099100003962 70000099100003976 70000099100003961 5.22758097313 2.37893 10.1537 -7.6387
9.41282 70000099100003962 70000099100003961 70000099100003976 70000099100003960 4.99593346816 2.44508 9.17805 -3.47167
9.42771 70000099100003961 70000099100003959 70000099100003976 70000099100003958 4.66451770247 2.75855 -2.73693 -12.0843
9.43015 70000099100003959 70000099100003958 70000099100003976 70000099100003957 4.42803373661 8.71096 -21.797 -16.2996
9.43617 70000099100003958 70000099100003957 70000099100003976 70000099100003956 4.17683491473 10.0136 -12.0295 -5.84387
9.4606 70000099100003957 70000099100003956 70000099100003976 70000099100003955 4.00794511147 11.1844 -14.4832 -10.702
9.47505 70000099100003956 70000099100003955 70000099100003976 70000099100003954 3.93726108473 10.7087 -13.0878 -9.49719
9.5566 70000099100003955 70000099100003954 70000099100003976 70000099100003953 3.70877426464 11.3504 -10.5892 -10.0872
9.86124 70000099100003954 70000099100003948 70000099100003976 70000099100003947 2.73314261732 30.9876 23.205 22.0184
9.87452 70000099100003948 70000099100003947 70000099100003976 70000099100003946 2.5772902716 30.4009 22.8375 21.6002
9.89828 70000099100003947 70000099100003946 70000099100003976 70000099100003945 2.44422570455 29.9843 23.6298 27.2815
9.91409 70000099100003946 70000099100003945 70000099100003976 70000099100003944 2.31611074396 31.3946 28.743 23.7921
9.9411 70000099100003945 70000099100003944 70000099100003976 70000099100003943 2.20792547238 39.6231 18.0747 28.168
9.97178 70000099100003944 70000099100003943 70000099100003976 70000099100003942 2.1032696526 55.8786 -10.02 33.71
9.98143 70000099100003943 70000099100003942 70000099100003976 70000099100003941 2.00202813925 61.3569 -21.8383 31.3394
9.98381 70000099100003942 70000099100003939 70000099100003976 70000099100003938 1.74357057433 53.2825 -5.04418 16.4673
9.12668 70000099100003993 70000099100003992 70000099100003999 70000099100003991 5.52976580795 -4.8341 -10.2604 4.24974
9.19641 70000099100003992 70000099100003991 70000099100003999 70000099100003990 5.22758097313 -5.83989 -7.38878 0.794858
9.22651 70000099100003991 70000099100003989 70000099100003999 70000099100003988 4.93938066349 -6.27598 -6.4872 1.80245
9.27072 70000099100003989 70000099100003988 70000099100003999 70000099100003987 4.66451770247 -5.63919 -7.03538 2.63506
9.33866 70000099100003988 70000099100003987 70000099100003999 70000099100003986 4.42803373661 1.05667 -5.52109 0.0272784
9.36481 70000099100003987 70000099100003986 70000099100003999 70000099100003985 4.17683491473 -0.540592 -5.21616 -2.53889
9.36622 70000099100003986 70000099100003985 70000099100003999 70000099100003984 4.00794511147 -0.373733 -3.36076 -0.444479
9.39214 70000099100003985 70000099100003984 70000099100003999 70000099100003983 3.93726108473 1.01971 -2.95258 -2.3211
9.61899 70000099100003984 70000099100003981 70000099100003999 70000099100003980 3.28303305796 18.9622 36.5143 23.7883
9.6756 70000099100003981 70000099100003980 70000099100003999 70000099100003979 3.08482263583 23.0617 33.602 23.7293
9.72752 70000099100003980 70000099100003978 70000099100003999 70000099100003948 2.89578500573 25.4976 19.8023 25.8075
9.02239 70000099100004086 70000099100004085 70000099100004091 70000099100004084 3.49086136926 -4.01637 6.49706 -4.78034
9.04062 70000099100004085 70000099100004084 70000099100004091 70000099100004083 3.28303305796 -1.26306 6.23147 -3.76677
9.04945 70000099100004084 70000099100004082 70000099100004091 70000099100004081 3.00813107163 -0.8173 11.0527 -3.08596
9.04945 70000099100004082 70000099100004079 70000099100004091 70000099100004078 2.5772902716 1.70415 8.07646 -4.97933
9.04945 70000099100004079 70000099100004074 70000099100004091 70000099100004073 2.00202813925 -2.23395 2.58795 -5.08126
9.12424 70000099100004074 70000099100004073 70000099100004091 70000099100004072 1.90408954353 -0.597929 8.38112 -6.29115
9.13394 70000099100004073 70000099100004071 70000099100004091 70000099100004070 1.74357057433 -6.68323 -5.10976 -7.19133
9.00337 70000099100004254 70000099100004253 70000099100004278 70000099100004252 1.53123902916 -7.54599 4.30967 -5.13909
9.0098 70000099100004253 70000099100004251 70000099100004278 70000099100004250 1.41409822037 -10.1182 4.66348 -5.84232
9.01298 70000099100004251 70000099100004250 70000099100004278 70000099100004249 1.3575766674 -10.3888 3.9109 -6.49406
9.09637 70000099100004250 70000099100004249 70000099100004278 70000099100004248 1.30237845991 -2.43996 -17.5199 0.216359
9.13154 70000099100004249 70000099100004240 70000099100004278 70000099100004239 0.950531351585 10.9655 -22.7831 -4.57026
9.01298 70000099100004439 70000099100004438 70000099100004455 70000099100004437 3.70877426464 3.01399 2.22751 10.7783
9.0316 70000099100004438 70000099100004437 70000099100004455 70000099100004436 3.49086136926 3.51028 1.57016 7.78621
9.14811 70000099100004437 70000099100004436 70000099100004455 70000099100004435 3.28303305796 -2.15572 -0.371701 0.93668
9.17293 70000099100004436 70000099100004433 70000099100004455 70000099100004432 2.89578500573 12.2412 -3.43368 -6.70357
9.18589 70000099100004433 70000099100004431 70000099100004455 70000099100004430 2.5772902716 8.57769 -1.83707 -0.268623
9.20055 70000099100004431 70000099100004430 70000099100004455 70000099100004429 2.44422570455 7.71494 -0.5997 -0.718197
9.21671 70000099100004430 70000099100004426 70000099100004455 70000099100004425 2.00202813925 8.69085 1.02046 -1.25739
