logMh | fpID | subhaloID | main leaf ID | descID |  z
9.02548 90000476600000092 90000476600000091 90000476600000098 90000476600000090 6.14490120342 -1.12126 -0.306362 4.51886
9.05524 90000476600000091 90000476600000090 90000476600000098 90000476600000089 6.01075739884 -0.719988 2.18713 3.17576
9.06096 90000476600000090 90000476600000089 90000476600000098 90000476600000088 5.84661374788 1.41403 3.07959 4.28617
9.11431 90000476600000089 90000476600000087 90000476600000098 90000476600000086 5.22758097313 -0.407985 6.30204 2.06046
9.13154 90000476600000087 90000476600000085 90000476600000098 90000476600000084 4.93938066349 0.181716 8.36577 2.74708
9.14578 90000476600000085 90000476600000084 90000476600000098 90000476600000083 4.66451770247 -1.57409 7.56129 2.6612
9.17073 90000476600000084 90000476600000083 90000476600000098 90000476600000082 4.42803373661 -0.0806126 11.2989 2.03483
9.37319 90000476600000083 90000476600000082 90000476600000098 90000476600000081 4.17683491473 -25.0754 15.0845 -15.4692
9.43136 90000476600000082 90000476600000081 90000476600000098 90000476600000080 4.00794511147 -7.73142 7.20683 -3.61871
9.5026 90000476600000081 90000476600000078 90000476600000098 90000476600000077 3.49086136926 16.5282 10.0043 -5.97022
9.52948 90000476600000078 90000476600000077 90000476600000098 90000476600000076 3.28303305796 8.77491 13.6623 -4.97494
9.7342 90000476600000077 90000476600000076 90000476600000098 90000476600000075 3.08482263583 45.4715 -25.1726 34.0144
9.85124 90000476600000076 90000476600000075 90000476600000098 90000476600000074 3.00813107163 49.3193 -33.5133 43.2361
9.99881 90000476600000075 90000476600000073 90000476600000098 90000476600000072 2.73314261732 10.236 -43.3507 21.1084
10.0826 90000476600000073 90000476600000072 90000476600000098 90000476600000071 2.5772902716 33.4996 -39.5389 25.0569
10.1344 90000476600000072 90000476600000071 90000476600000098 90000476600000070 2.44422570455 39.8488 -44.928 22.1791
10.2091 90000476600000071 90000476600000070 90000476600000098 90000476600000069 2.31611074396 17.8342 -54.3385 -3.78117
10.2393 90000476600000070 90000476600000069 90000476600000098 90000476600000068 2.20792547238 6.03624 -73.7998 -12.2501
10.2455 90000476600000069 90000476600000068 90000476600000098 90000476600000067 2.1032696526 -5.47294 -62.6208 -9.89838
10.253 90000476600000068 90000476600000064 90000476600000098 90000476600000063 1.74357057433 3.3078 -48.7469 -12.4121
10.2558 90000476600000064 90000476600000063 90000476600000098 90000476600000062 1.66666955611 3.00458 -38.7746 -18.4037
10.2561 90000476600000063 90000476600000062 90000476600000098 90000476600000061 1.60423452207 11.6823 -27.2388 -21.2531
10.2698 90000476600000062 90000476600000061 90000476600000098 90000476600000060 1.53123902916 16.6253 -9.92168 -24.3178
10.2702 90000476600000061 90000476600000058 90000476600000098 90000476600000057 1.3575766674 8.1405 -25.3447 -19.3412
10.3183 90000476600000058 90000476600000057 90000476600000098 90000476600000056 1.30237845991 21.1047 -15.6781 -15.5019
10.3545 90000476600000057 90000476600000055 90000476600000098 90000476600000054 1.20625808078 -20.5974 -65.8904 -45.2827
10.3637 90000476600000055 90000476600000054 90000476600000098 90000476600000053 1.15460271236 -7.80386 -40.5301 -25.493
10.364 90000476600000054 90000476600000053 90000476600000098 90000476600000052 1.11415056377 -2.00571 -26.4789 -14.0396
10.4016 90000476600000053 90000476600000052 90000476600000098 90000476600000051 1.07445789455 -21.4868 -83.915 -36.5752
10.4303 90000476600000052 90000476600000051 90000476600000098 90000476600000050 1.03551044566 -47.9964 -75.0991 -36.5218
10.4702 90000476600000051 90000476600000050 90000476600000098 90000476600000049 0.997294225782 -68.9322 -100.748 -50.7779
10.4803 90000476600000050 90000476600000049 90000476600000098 90000476600000048 0.987852810816 -70.6546 -105.181 -49.4957
10.5001 90000476600000049 90000476600000048 90000476600000098 90000476600000047 0.950531351585 -105.625 -111.796 -57.1201
10.567 90000476600000048 90000476600000047 90000476600000098 90000476600000046 0.923000816178 -137.451 -173.016 -59.109
10.6322 90000476600000047 90000476600000046 90000476600000098 90000476600000045 0.886896937575 -209.177 -213.006 -59.4927
10.6728 90000476600000046 90000476600000045 90000476600000098 90000476600000044 0.851470900625 -250.486 -210.493 -28.1076
10.7087 90000476600000045 90000476600000043 90000476600000098 90000476600000042 0.791068248946 -243.641 -218.551 -51.5706
10.7191 90000476600000043 90000476600000042 90000476600000098 90000476600000041 0.757441372616 -255.933 -209.578 -48.1779
10.7219 90000476600000042 90000476600000041 90000476600000098 90000476600000040 0.732636182022 -242.633 -213.432 -34.0025
10.751 90000476600000041 90000476600000040 90000476600000098 90000476600000039 0.700106353719 -260.325 -205.886 -21.0676
10.768 90000476600000040 90000476600000039 90000476600000098 90000476600000038 0.676110411213 -253.451 -216.319 -28.5764
10.7807 90000476600000039 90000476600000038 90000476600000098 90000476600000037 0.644641840685 -249.962 -221.45 -39.1249
10.7907 90000476600000038 90000476600000035 90000476600000098 90000476600000034 0.575980845108 -241.786 -248.386 -39.8856
10.7987 90000476600000035 90000476600000034 90000476600000098 90000476600000033 0.546392183141 -222.49 -220.15 -30.468
10.8 90000476600000034 90000476600000030 90000476600000098 90000476600000029 0.460917794181 -213.198 -195.294 -32.5368
10.8036 90000476600000030 90000476600000029 90000476600000098 90000476600000028 0.440297849248 -213.162 -176.711 -44.2686
10.8095 90000476600000029 90000476600000028 90000476600000098 90000476600000027 0.419968941997 -204.834 -158.957 -18.5752
10.8167 90000476600000028 90000476600000026 90000476600000098 90000476600000025 0.38016786726 -240.187 -130.874 -38.2434
10.8387 90000476600000026 90000476600000025 90000476600000098 90000476600000024 0.360687657262 -238.259 -116.789 -37.0869
10.8404 90000476600000025 90000476600000019 90000476600000098 90000476600000018 0.261343256161 -275.864 -119.333 -39.7652
10.8496 90000476600000019 90000476600000018 90000476600000098 90000476600000017 0.243540181555 -290.285 -93.6829 -57.0271
10.8553 90000476600000018 90000476600000016 90000476600000098 90000476600000015 0.214425035514 -301.098 -114.586 -45.9969
10.8802 90000476600000016 90000476600000014 90000476600000098 90000476600000013 0.180385261706 -346.966 -43.8245 -92.8688
10.8838 90000476600000014 90000476600000013 90000476600000098 90000476600000012 0.169252033244 -347.227 -43.0003 -75.9164
10.886 90000476600000013 90000476600000012 90000476600000098 90000476600000011 0.152748768902 -336.561 -51.656 -79.5667
10.8957 90000476600000012 90000476600000011 90000476600000098 90000476600000010 0.14187620397 -334.314 -23.452 -73.0215
10.9046 90000476600000011 90000476600000010 90000476600000098 90000476600000009 0.125759332411 -344.812 13.8914 -75.3747
10.9047 90000476600000010 90000476600000009 90000476600000098 90000476600000008 0.109869940459 -335.476 -23.5323 -86.6416
10.9154 90000476600000009 90000476600000007 90000476600000098 90000476600000006 0.0838844307975 -345.194 4.84646 -72.264
10.9166 90000476600000007 90000476600000006 90000476600000098 90000476600000005 0.0736613846564 -356.099 9.59264 -66.9062
10.922 90000476600000006 90000476600000005 90000476600000098 90000476600000004 0.0585073227945 -374.786 37.1688 -86.9359
10.9291 90000476600000005 90000476600000004 90000476600000098 90000476600000003 0.0485236299818 -376.869 22.1565 -79.3883
10.9361 90000476600000004 90000476600000003 90000476600000098 90000476600000002 0.0337243718735 -390.335 31.6578 -75.7622
10.9379 90000476600000003 90000476600000000 90000476600000098 -1 2.22044604925e-16 -373.764 38.7305 -58.1059
9.0098 90000476600000176 90000476600000175 90000476600000189 90000476600000174 5.84661374788 6.61408 7.58084 5.80993
9.06096 90000476600000175 90000476600000174 90000476600000189 90000476600000173 5.52976580795 3.86232 5.20538 4.43933
9.09375 90000476600000174 90000476600000173 90000476600000189 90000476600000172 5.22758097313 3.31978 7.89942 4.71727
9.14344 90000476600000173 90000476600000172 90000476600000189 90000476600000171 4.99593346816 8.25863 11.3604 4.77193
9.15042 90000476600000172 90000476600000171 90000476600000189 90000476600000170 4.93938066349 7.72959 11.8715 3.77729
9.1663 90000476600000171 90000476600000168 90000476600000189 90000476600000167 4.17683491473 4.06587 11.4085 2.42384
9.19223 90000476600000168 90000476600000167 90000476600000189 90000476600000166 4.00794511147 5.113 6.90653 2.27328
9.32958 90000476600000167 90000476600000165 90000476600000189 90000476600000164 3.70877426464 15.2539 -2.02528 15.5612
9.38141 90000476600000165 90000476600000164 90000476600000189 90000476600000163 3.49086136926 21.0763 -2.92117 20.3447
9.40001 90000476600000164 90000476600000163 90000476600000189 90000476600000162 3.28303305796 11.327 5.48456 12.3882
9.01614 90000476600000282 90000476600000281 90000476600000289 90000476600000280 4.17683491473 -3.38597 -9.73194 -4.31139
9.09898 90000476600000281 90000476600000280 90000476600000289 90000476600000279 4.00794511147 2.00895 -7.61573 -7.04679
9.13154 90000476600000280 90000476600000278 90000476600000289 90000476600000277 3.70877426464 2.10563 -11.1352 -5.52674
9.2672 90000476600000278 90000476600000277 90000476600000289 90000476600000276 3.49086136926 1.15324 -14.1791 -7.52876
9.29124 90000476600000277 90000476600000276 90000476600000289 90000476600000275 3.28303305796 -7.80313 -13.9184 -7.87533
9.07766 90000476600000480 90000476600000479 90000476600000486 90000476600000478 7.00541704554 -1.57867 -3.0628 1.90222
9.11179 90000476600000479 90000476600000478 90000476600000486 90000476600000477 6.85511726265 -1.18672 -0.3143 3.79672
9.21671 90000476600000478 90000476600000477 90000476600000486 90000476600000476 6.49159774567 -0.230678 -2.98515 5.6743
9.30763 90000476600000477 90000476600000476 90000476600000486 90000476600000475 6.14490120342 0.243532 -0.877263 7.14635
9.32805 90000476600000476 90000476600000475 90000476600000486 90000476600000474 6.01075739884 1.52134 -1.23005 7.47296
9.35194 90000476600000475 90000476600000474 90000476600000486 90000476600000473 5.84661374788 -1.08313 -0.402632 7.55148
9.41534 90000476600000474 90000476600000473 90000476600000486 90000476600000472 5.52976580795 -0.707283 -2.66468 9.03421
9.43737 90000476600000473 90000476600000472 90000476600000486 90000476600000471 5.22758097313 1.46067 -3.05655 8.19864
9.47724 90000476600000472 90000476600000471 90000476600000486 90000476600000470 4.99593346816 1.93731 -2.50142 5.33093
9.49536 90000476600000471 90000476600000470 90000476600000486 90000476600000469 4.93938066349 2.62084 -0.128082 6.1035
9.52267 90000476600000470 90000476600000469 90000476600000486 90000476600000468 4.66451770247 5.42005 1.65909 5.57369
9.52948 90000476600000469 90000476600000468 90000476600000486 90000476600000467 4.42803373661 2.9391 1.62323 5.71757
9.56379 90000476600000468 90000476600000467 90000476600000486 90000476600000466 4.17683491473 -7.77959 -3.59539 14.0751
9.62212 90000476600000467 90000476600000466 90000476600000486 90000476600000465 4.00794511147 -8.50174 -7.65062 16.8033
9.63061 90000476600000466 90000476600000465 90000476600000486 90000476600000464 3.93726108473 -8.01066 -7.60499 14.4287
9.70169 90000476600000465 90000476600000464 90000476600000486 90000476600000463 3.70877426464 -16.5583 -6.99631 20.2167
9.76669 90000476600000464 90000476600000463 90000476600000486 90000476600000462 3.49086136926 -15.9618 -11.6393 21.9235
9.78528 90000476600000463 90000476600000462 90000476600000486 90000476600000461 3.28303305796 -17.0872 -6.62317 23.0076
9.81628 90000476600000462 90000476600000461 90000476600000486 90000476600000460 3.08482263583 -11.951 -5.11443 21.7245
9.83243 90000476600000461 90000476600000459 90000476600000486 90000476600000458 2.89578500573 -13.0253 -5.42243 19.7236
9.88571 90000476600000459 90000476600000458 90000476600000486 90000476600000457 2.73314261732 -10.4906 -11.846 16.1287
9.95653 90000476600000458 90000476600000457 90000476600000486 90000476600000456 2.5772902716 -7.09374 -15.6327 16.7547
10.005 90000476600000457 90000476600000456 90000476600000486 90000476600000455 2.44422570455 -14.1589 -12.9398 31.7976
10.0442 90000476600000456 90000476600000455 90000476600000486 90000476600000454 2.31611074396 -7.99625 -19.2485 37.953
10.082 90000476600000455 90000476600000454 90000476600000486 90000476600000453 2.20792547238 -8.71023 -15.5709 40.6063
10.1247 90000476600000454 90000476600000453 90000476600000486 90000476600000452 2.1032696526 -4.44557 -11.4331 45.6989
10.1532 90000476600000453 90000476600000452 90000476600000486 90000476600000451 2.00202813925 -9.22297 -13.7188 38.7503
10.2055 90000476600000452 90000476600000451 90000476600000486 90000476600000450 1.90408954353 -18.7275 -11.3215 27.6807
10.2165 90000476600000451 90000476600000450 90000476600000486 90000476600000449 1.82268925262 -8.46783 -2.53684 25.1662
10.2444 90000476600000450 90000476600000449 90000476600000486 90000476600000448 1.74357057433 -17.593 -4.53934 12.6643
10.2484 90000476600000449 90000476600000448 90000476600000486 90000476600000447 1.66666955611 2.57649 6.40197 14.1415
10.257 90000476600000448 90000476600000446 90000476600000486 90000476600000445 1.53123902916 -5.39607 -4.63707 24.1156
10.2814 90000476600000446 90000476600000445 90000476600000486 90000476600000444 1.47197484527 -3.22057 -14.4829 32.8881
10.2869 90000476600000445 90000476600000444 90000476600000486 90000476600000443 1.41409822037 -23.142 -15.4104 30.6762
10.2906 90000476600000444 90000476600000443 90000476600000486 90000476600000442 1.3575766674 -31.2525 -24.2968 25.4584
10.2997 90000476600000443 90000476600000441 90000476600000486 90000476600000440 1.24847261425 -22.7096 -25.1287 24.274
9.0066 90000476600000611 90000476600000610 90000476600000628 90000476600000609 2.44422570455 2.58795 -0.742791 -12.8649
9.03763 90000476600000610 90000476600000609 90000476600000628 90000476600000608 2.31611074396 1.0984 -2.86122 -13.5514
9.04062 90000476600000609 90000476600000608 90000476600000628 90000476600000607 2.20792547238 -3.77691 -2.31393 -14.1958
9.0066 90000476600000735 90000476600000734 90000476600000739 90000476600000733 3.08482263583 11.9787 -1.0951 -24.7587
9.09898 90000476600000734 90000476600000731 90000476600000739 90000476600000730 2.73314261732 18.2559 -0.831545 -18.6095
9.14108 90000476600000731 90000476600000730 90000476600000739 90000476600000729 2.5772902716 17.2325 1.18609 -11.4327
9.19433 90000476600000730 90000476600000729 90000476600000739 90000476600000728 2.44422570455 8.1873 -3.67736 -9.09089
9.25101 90000476600000729 90000476600000728 90000476600000739 90000476600000727 2.31611074396 5.32249 -3.94832 -9.37528
9.26543 90000476600000728 90000476600000727 90000476600000739 90000476600000726 2.20792547238 6.44533 -4.33822 -9.76593
9.2862 90000476600000727 90000476600000726 90000476600000739 90000476600000725 2.1032696526 4.83077 -3.61364 -9.74918
9.30115 90000476600000726 90000476600000725 90000476600000739 90000476600000724 2.00202813925 7.37096 -0.0416045 -8.42458
9.34756 90000476600000725 90000476600000724 90000476600000739 90000476600000723 1.90408954353 2.75435 -2.36825 -2.24146
9.35194 90000476600000724 90000476600000722 90000476600000739 90000476600000721 1.74357057433 -2.95706 2.72883 7.8111
9.37869 90000476600000722 90000476600000721 90000476600000739 90000476600000720 1.66666955611 -2.67896 6.44458 8.1863
9.41156 90000476600000721 90000476600000720 90000476600000739 90000476600000719 1.60423452207 -10.5656 2.00871 15.8317
9.45719 90000476600000720 90000476600000719 90000476600000739 90000476600000718 1.53123902916 -24.9572 -13.4511 15.9686
9.48265 90000476600000719 90000476600000718 90000476600000739 90000476600000717 1.47197484527 -24.7791 -10.9496 20.8725
9.5629 90000476600000718 90000476600000717 90000476600000739 90000476600000716 1.41409822037 -35.2268 -15.1424 25.8216
9.5956 90000476600000717 90000476600000713 90000476600000739 90000476600000712 1.20625808078 -45.6373 -3.0499 27.5783
9.61584 90000476600000713 90000476600000711 90000476600000739 90000476600000710 1.11415056377 -46.6243 12.7735 36.0241
9.03463 90000476600000773 90000476600000772 90000476600000790 90000476600000771 2.73314261732 11.4134 -1.81082 -3.00594
9.09375 90000476600000772 90000476600000770 90000476600000790 90000476600000769 2.44422570455 6.36624 -6.53624 0.23469
9.10926 90000476600000770 90000476600000767 90000476600000790 90000476600000766 2.1032696526 2.14064 -1.48659 3.19462
9.13871 90000476600000767 90000476600000766 90000476600000790 90000476600000765 2.00202813925 2.5935 -1.9464 1.04142
9.63518 90000476600000766 90000476600000752 90000476600000790 90000476600000709 1.07445789455 -58.0512 10.8169 26.7873
