logMh | fpID | subhaloID | main leaf ID | descID |  z
9.00337 60000018800063083 60000018800063082 60000018800063084 60000018800063081 12.0418635439 3.67467 -2.45047 -0.757402
9.1193 60000018800063082 60000018800063081 60000018800063084 60000018800063080 11.4973879548 2.27637 -4.29202 1.31814
9.27246 60000018800063081 60000018800063080 60000018800063084 60000018800063079 10.9190331982 0.18763 -2.10027 1.94263
9.38005 60000018800063080 60000018800063079 60000018800063084 60000018800063078 10.3674435724 0.56347 -2.47453 4.18766
9.41282 60000018800063079 60000018800063078 60000018800063084 60000018800063077 9.99659046619 0.712382 -2.77988 4.57714
9.47286 60000018800063078 60000018800063077 60000018800063084 60000018800063076 9.84138043947 -0.0116329 -0.876985 5.04725
9.53618 60000018800063077 60000018800063076 60000018800063084 60000018800063075 9.38877127194 2.05525 2.53849 4.65275
9.57436 60000018800063076 60000018800063075 60000018800063084 60000018800063074 9.00233985416 -0.231244 -1.18641 5.21322
9.61346 60000018800063075 60000018800063073 60000018800063084 60000018800063072 8.44947629437 2.67808 1.42669 6.01321
9.75017 60000018800063073 60000018800063072 60000018800063084 60000018800063071 8.01217294887 -2.17587 0.714649 -1.32288
9.80158 60000018800063072 60000018800063071 60000018800063084 60000018800063070 7.59510714987 -3.26093 -0.377496 -0.696072
9.83769 60000018800063071 60000018800063070 60000018800063084 60000018800063069 7.23627606617 -3.75799 -0.402005 -2.04089
9.8958 60000018800063070 60000018800063069 60000018800063084 60000018800063068 7.00541704554 -1.33504 -7.13543 0.548647
9.94371 60000018800063069 60000018800063067 60000018800063084 60000018800063066 6.49159774567 -7.44548 -3.20691 -4.78061
10.0177 60000018800063067 60000018800063066 60000018800063084 60000018800063065 6.14490120342 -0.721893 3.28423 -3.05016
10.0322 60000018800063066 60000018800063065 60000018800063084 60000018800063064 6.01075739884 -4.09586 3.1758 -4.9302
10.0842 60000018800063065 60000018800063064 60000018800063084 60000018800063063 5.84661374788 6.22314 3.94461 2.56918
10.1325 60000018800063064 60000018800063063 60000018800063084 60000018800063062 5.52976580795 11.1452 7.18863 4.29905
10.2459 60000018800063063 60000018800063062 60000018800063084 60000018800063061 5.22758097313 17.8164 22.1105 -14.3004
10.3054 60000018800063062 60000018800063061 60000018800063084 60000018800063060 4.99593346816 17.4387 20.3466 -6.75273
10.3068 60000018800063061 60000018800063060 60000018800063084 60000018800063059 4.93938066349 16.0856 21.8727 -7.69574
10.3863 60000018800063060 60000018800063059 60000018800063084 60000018800063058 4.66451770247 11.9982 19.3823 -21.7914
10.5247 60000018800063059 60000018800063058 60000018800063084 60000018800063057 4.42803373661 10.5212 20.69 0.790643
10.603 60000018800063058 60000018800063057 60000018800063084 60000018800063056 4.17683491473 -14.2622 36.1897 -45.8068
10.6692 60000018800063057 60000018800063056 60000018800063084 60000018800063055 4.00794511147 -42.6802 30.7629 -54.3866
10.7051 60000018800063056 60000018800063054 60000018800063084 60000018800063053 3.70877426464 -51.5463 3.58876 -40.6104
10.7057 60000018800063054 60000018800063053 60000018800063084 60000018800063052 3.49086136926 -56.3034 9.33387 -31.3872
10.7348 60000018800063053 60000018800063051 60000018800063084 60000018800063050 3.08482263583 -36.7954 34.8512 -3.31651
10.7539 60000018800063051 60000018800063050 60000018800063084 60000018800063049 3.00813107163 -23.5396 44.9017 -2.16527
10.8454 60000018800063050 60000018800063049 60000018800063084 60000018800063048 2.89578500573 25.5637 40.4157 49.6733
10.9047 60000018800063049 60000018800063048 60000018800063084 60000018800063047 2.73314261732 49.4167 27.8288 98.6499
10.9462 60000018800063048 60000018800063047 60000018800063084 60000018800063046 2.5772902716 76.0815 42.0175 114.262
11.0065 60000018800063047 60000018800063046 60000018800063084 60000018800063045 2.44422570455 119.023 54.4369 132.25
11.0382 60000018800063046 60000018800063045 60000018800063084 60000018800063044 2.31611074396 109.28 24.8646 127.59
11.0771 60000018800063045 60000018800063044 60000018800063084 60000018800063043 2.20792547238 115.29 5.80613 136.571
11.084 60000018800063044 60000018800063032 60000018800063084 60000018800063031 1.30237845991 93.1147 83.3924 172.035
11.0896 60000018800063032 60000018800063031 60000018800063084 60000018800063030 1.24847261425 105.097 56.2608 174.864
11.0996 60000018800063031 60000018800063030 60000018800063084 60000018800063029 1.20625808078 110.412 64.7807 167.343
11.1142 60000018800063030 60000018800063029 60000018800063084 60000018800063028 1.15460271236 109.487 71.9485 199.257
11.1241 60000018800063029 60000018800063028 60000018800063084 60000018800063027 1.11415056377 124.78 63.5429 189.22
11.1361 60000018800063028 60000018800063027 60000018800063084 60000018800063026 1.07445789455 136.385 54.6094 200.871
11.1409 60000018800063027 60000018800063026 60000018800063084 60000018800063025 1.03551044566 132.575 36.9171 201.036
11.1499 60000018800063026 60000018800063025 60000018800063084 60000018800063024 0.997294225782 141.263 34.1504 223.367
11.1557 60000018800063025 60000018800063024 60000018800063084 60000018800063023 0.987852810816 150.616 19.1088 241.121
11.1692 60000018800063024 60000018800063023 60000018800063084 60000018800063022 0.950531351585 174.826 3.82045 253.621
11.1796 60000018800063023 60000018800063022 60000018800063084 60000018800063021 0.923000816178 185.11 15.0191 255.226
11.1882 60000018800063022 60000018800063021 60000018800063084 60000018800063020 0.886896937575 206.633 36.7675 265.937
11.1963 60000018800063021 60000018800063020 60000018800063084 60000018800063019 0.851470900625 221.326 64.0411 276.415
11.2023 60000018800063020 60000018800063019 60000018800063084 60000018800063018 0.816709979012 243.609 47.2233 284.077
11.2084 60000018800063019 60000018800063018 60000018800063084 60000018800063017 0.791068248946 253.32 49.3089 283.676
11.2178 60000018800063018 60000018800063017 60000018800063084 60000018800063016 0.757441372616 261.771 90.9796 293.069
11.2233 60000018800063017 60000018800063004 60000018800063084 60000018800063003 0.440297849248 198.989 195.965 222.703
11.224 60000018800063004 60000018800063003 60000018800063084 60000018800063002 0.419968941997 192.504 188.559 224.659
11.2249 60000018800063003 60000018800063000 60000018800063084 60000018800062999 0.360687657262 164.443 192.05 231.975
11.2278 60000018800063000 60000018800062999 60000018800063084 60000018800062998 0.347853841858 159.593 199.985 228.119
11.2286 60000018800062999 60000018800062998 60000018800063084 60000018800062997 0.328829724206 165.467 192.586 229.622
11.2336 60000018800062998 60000018800062997 60000018800063084 60000018800062996 0.310074120128 159.77 187.877 220.248
11.2418 60000018800062997 60000018800062996 60000018800063084 60000018800062995 0.291583239722 178.733 201.052 236.481
11.242 60000018800062996 60000018800062994 60000018800063084 60000018800062993 0.261343256161 174.144 194.35 228.229
11.2475 60000018800062994 60000018800062993 60000018800063084 60000018800062992 0.243540181555 172.25 191.046 236.666
11.2509 60000018800062993 60000018800062992 60000018800063084 60000018800062991 0.22598838626 175.595 191.968 247.251
11.2548 60000018800062992 60000018800062990 60000018800063084 60000018800062989 0.197284182376 185.565 187.832 255.495
11.2574 60000018800062990 60000018800062989 60000018800063084 60000018800062988 0.180385261706 183.536 185.213 252.467
11.2601 60000018800062989 60000018800062988 60000018800063084 60000018800062987 0.169252033244 190.082 183.426 268.328
11.2627 60000018800062988 60000018800062987 60000018800063084 60000018800062986 0.152748768902 190.474 176.455 264.858
11.2647 60000018800062987 60000018800062986 60000018800063084 60000018800062985 0.14187620397 189.001 178.444 267.392
11.273 60000018800062986 60000018800062985 60000018800063084 60000018800062984 0.125759332411 202.763 180.107 276.074
11.2802 60000018800062985 60000018800062984 60000018800063084 60000018800062983 0.109869940459 216.894 188.283 286.143
11.2826 60000018800062984 60000018800062983 60000018800063084 60000018800062982 0.0994018026302 224.748 191.999 291.573
11.2872 60000018800062983 60000018800062982 60000018800063084 60000018800062981 0.0838844307975 228.829 185.319 289.534
11.2943 60000018800062982 60000018800062981 60000018800063084 60000018800062980 0.0736613846564 231.015 189.636 297.115
11.2949 60000018800062981 60000018800062980 60000018800063084 60000018800062979 0.0585073227945 240.665 181.684 293.81
11.2956 60000018800062980 60000018800062979 60000018800063084 60000018800062978 0.0485236299818 242.523 166.173 295.251
11.2998 60000018800062979 60000018800062978 60000018800063084 60000018800062977 0.0337243718735 233.403 176.022 285.371
11.3039 60000018800062978 60000018800062976 60000018800063084 60000018800062975 0.00952166696794 243.64 174.266 295.647
11.307 60000018800062976 60000018800062975 60000018800063084 -1 2.22044604925e-16 238.573 178.004 294.919
9.0316 60000018800063161 60000018800063160 60000018800063168 60000018800063159 6.49159774567 10.1895 -14.5077 0.374695
9.15042 60000018800063160 60000018800063159 60000018800063168 60000018800063158 6.14490120342 6.10635 -17.026 0.818114
9.1663 60000018800063159 60000018800063158 60000018800063168 60000018800063157 6.01075739884 5.81828 -16.504 -0.324068
9.25101 60000018800063158 60000018800063157 60000018800063168 60000018800063156 5.84661374788 9.74541 -14.8308 -3.04488
9.56111 60000018800063157 60000018800063156 60000018800063168 60000018800063155 5.52976580795 -0.944613 -39.7824 2.95625
9.63518 60000018800063156 60000018800063154 60000018800063168 60000018800063153 4.99593346816 -8.21478 -25.065 4.54709
9.69118 60000018800063154 60000018800063153 60000018800063168 60000018800063152 4.93938066349 -8.81188 -25.5144 8.33432
9.02855 60000018800063177 60000018800063176 60000018800063182 60000018800063175 6.49159774567 -4.97046 3.85795 -1.66957
9.04062 60000018800063176 60000018800063175 60000018800063182 60000018800063174 6.14490120342 -4.87864 1.38867 -2.03325
9.10926 60000018800063175 60000018800063174 60000018800063182 60000018800063173 6.01075739884 -5.81696 0.165241 -4.70026
9.00337 60000018800063199 60000018800063198 60000018800063209 60000018800063197 5.84661374788 2.65486 1.50525 -0.346912
9.3634 60000018800063198 60000018800063195 60000018800063209 60000018800063194 4.66451770247 -1.51033 -21.9293 2.09053
9.19013 60000018800063265 60000018800063264 60000018800063279 60000018800063263 6.49159774567 -17.302 -15.1253 -0.473222
9.29124 60000018800063264 60000018800063263 60000018800063279 60000018800063262 6.14490120342 -5.31165 -8.65111 -2.8171
9.3044 60000018800063263 60000018800063261 60000018800063279 60000018800063260 5.84661374788 -7.27773 0.246034 9.34649
9.43257 60000018800063261 60000018800063259 60000018800063279 60000018800063258 5.22758097313 -11.5671 14.0279 16.3595
9.60218 60000018800063259 60000018800063258 60000018800063279 60000018800063257 4.99593346816 -3.51538 6.20892 22.6718
9.60785 60000018800063258 60000018800063257 60000018800063279 60000018800063256 4.93938066349 -1.61433 8.70624 22.5224
9.63138 60000018800063257 60000018800063256 60000018800063279 60000018800063255 4.66451770247 0.266091 10.6887 16.5894
9.06096 60000018800063291 60000018800063290 60000018800063300 60000018800063289 8.01217294887 -1.41495 11.9088 9.62414
9.20668 60000018800063290 60000018800063289 60000018800063300 60000018800063288 7.59510714987 2.56281 35.0588 6.31516
9.00337 60000018800063337 60000018800063336 60000018800063345 60000018800063335 3.70877426464 1.69329 -5.80217 27.9972
9.04653 60000018800063336 60000018800063335 60000018800063345 60000018800063334 3.49086136926 -0.142282 -7.96491 35.0481
9.31243 60000018800063408 60000018800063407 60000018800063414 60000018800063406 7.23627606617 1.43162 -17.0935 -5.484
9.34902 60000018800063407 60000018800063406 60000018800063414 60000018800063405 7.00541704554 -2.17361 -15.996 -13.8598
9.44797 60000018800063406 60000018800063405 60000018800063414 60000018800063404 6.85511726265 0.466647 -21.7814 -10.5126
9.45946 60000018800063405 60000018800063404 60000018800063414 60000018800063403 6.49159774567 0.920493 -10.1276 -11.4655
9.51774 60000018800063404 60000018800063401 60000018800063414 60000018800063400 5.84661374788 7.7378 -9.81345 12.3742
9.53808 60000018800063401 60000018800063399 60000018800063414 60000018800063398 5.22758097313 3.68515 -5.57582 9.41912
9.60462 60000018800063399 60000018800063398 60000018800063414 60000018800063397 4.99593346816 -1.19024 -3.97457 -0.544315
9.60946 60000018800063398 60000018800063397 60000018800063414 60000018800063396 4.93938066349 -0.877698 -2.33145 2.32413
9.6329 60000018800063397 60000018800063396 60000018800063414 60000018800063395 4.66451770247 0.853133 2.82083 -5.68843
9.64859 60000018800063396 60000018800063395 60000018800063414 60000018800063394 4.42803373661 1.75381 0.76069 -3.03084
9.90484 60000018800063395 60000018800063394 60000018800063414 60000018800063393 4.17683491473 20.7727 -20.0157 50.6046
10.0587 60000018800063394 60000018800063390 60000018800063414 60000018800063389 3.49086136926 2.51991 5.59545 22.5151
10.0943 60000018800063390 60000018800063389 60000018800063414 60000018800063388 3.28303305796 -3.51906 3.68927 19.2638
9.04358 60000018800063463 60000018800063462 60000018800063472 60000018800063461 7.23627606617 4.72018 7.76076 6.36398
9.08309 60000018800063462 60000018800063455 60000018800063472 60000018800063454 5.52976580795 3.15693 2.14091 1.99809
9.21869 60000018800063455 60000018800063454 60000018800063472 60000018800063453 5.22758097313 2.28465 -2.10679 -5.56247
9.30923 60000018800063454 60000018800063453 60000018800063472 60000018800063452 4.99593346816 -1.54667 1.15653 -8.60403
9.34313 60000018800063453 60000018800063452 60000018800063472 60000018800063451 4.93938066349 -1.31008 0.838614 -9.6288
9.38948 60000018800063452 60000018800063451 60000018800063472 60000018800063450 4.66451770247 0.33403 3.66814 -6.35966
9.38948 60000018800063451 60000018800063449 60000018800063472 60000018800063448 4.00794511147 -0.566866 -6.47452 -3.11218
9.04062 60000018800063506 60000018800063505 60000018800063521 60000018800063504 5.84661374788 0.325892 -4.08543 -4.74004
9.04358 60000018800063505 60000018800063502 60000018800063521 60000018800063501 4.99593346816 -1.27693 -1.98878 -1.96742
9.06939 60000018800063502 60000018800063501 60000018800063521 60000018800063500 4.93938066349 -1.1286 -5.35955 -1.61576
9.08309 60000018800063501 60000018800063500 60000018800063521 60000018800063499 4.66451770247 -3.97014 -1.88718 -0.998909
9.19013 60000018800063500 60000018800063499 60000018800063521 60000018800063498 4.42803373661 0.830568 0.573385 -4.18283
9.01614 60000018800063621 60000018800063620 60000018800063632 60000018800063619 6.01075739884 4.39749 3.99271 7.77392
9.09111 60000018800063620 60000018800063619 60000018800063632 60000018800063618 5.84661374788 5.93583 5.9521 11.3225
9.14344 60000018800063619 60000018800063618 60000018800063632 60000018800063617 5.52976580795 7.36383 7.82235 9.93621
9.16407 60000018800063618 60000018800063615 60000018800063632 60000018800063614 4.93938066349 4.38578 3.12768 7.6938
9.17946 60000018800063615 60000018800063614 60000018800063632 60000018800063613 4.66451770247 3.28305 1.44373 9.27785
9.19223 60000018800063614 60000018800063613 60000018800063632 60000018800063612 4.42803373661 6.2792 2.11538 10.5637
9.19223 60000018800063613 60000018800063612 60000018800063632 60000018800063611 4.17683491473 2.27433 1.71485 10.1296
9.19433 60000018800063612 60000018800063609 60000018800063632 60000018800063608 3.70877426464 3.69011 -2.02063 3.58152
9.24362 60000018800063609 60000018800063607 60000018800063632 60000018800063606 3.28303305796 4.51131 -12.6703 -7.55473
9.0066 60000018800063800 60000018800063799 60000018800063804 60000018800063798 5.52976580795 -5.09395 -2.83 2.28644
9.0316 60000018800063799 60000018800063798 60000018800063804 60000018800063797 5.22758097313 -4.72257 -2.1933 0.50932
9.07492 60000018800063798 60000018800063797 60000018800063804 60000018800063796 4.99593346816 -3.75766 -2.08687 0.755109
9.08578 60000018800063797 60000018800063796 60000018800063804 60000018800063795 4.93938066349 -2.87019 -1.72073 1.99127
9.10926 60000018800063796 60000018800063795 60000018800063804 60000018800063794 4.66451770247 -5.38705 -0.912066 2.42838
9.12912 60000018800063795 60000018800063794 60000018800063804 60000018800063793 4.42803373661 -6.62622 -5.57099 1.36399
9.13154 60000018800063794 60000018800063793 60000018800063804 60000018800063792 4.17683491473 -8.17562 -5.11755 3.9171
9.16182 60000018800063793 60000018800063791 60000018800063804 60000018800063790 3.93726108473 -4.67429 -2.50527 0.816989
9.19848 60000018800063791 60000018800063788 60000018800063804 60000018800063787 3.28303305796 -6.58756 -2.19042 2.28564
9.04945 60000018800063856 60000018800063855 60000018800063868 60000018800063854 5.52976580795 2.37011 7.57682 1.71216
9.06378 60000018800063855 60000018800063853 60000018800063868 60000018800063852 4.99593346816 2.83142 3.1835 0.071862
9.10157 60000018800063853 60000018800063852 60000018800063868 60000018800063851 4.93938066349 5.65652 0.808669 0.886847
9.12178 60000018800063852 60000018800063851 60000018800063868 60000018800063850 4.66451770247 1.46252 1.38224 3.88938
9.13634 60000018800063851 60000018800063850 60000018800063868 60000018800063849 4.42803373661 3.45463 1.92081 3.62761
9.24918 60000018800063850 60000018800063849 60000018800063868 60000018800063848 4.17683491473 3.83423 -1.24304 6.52534
9.29951 60000018800063849 60000018800063848 60000018800063868 60000018800063847 4.00794511147 7.72567 -0.513004 5.70988
9.33263 60000018800063848 60000018800063847 60000018800063868 60000018800063846 3.93726108473 7.71142 -0.599756 8.12967
9.34756 60000018800063847 60000018800063846 60000018800063868 60000018800063845 3.70877426464 8.29356 -0.965857 8.44732
9.37319 60000018800063846 60000018800063845 60000018800063868 60000018800063844 3.49086136926 7.20842 -3.68797 10.0432
9.44564 60000018800063845 60000018800063844 60000018800063868 60000018800063843 3.28303305796 7.82763 -3.55696 11.9191
9.04653 60000018800063997 60000018800063996 60000018800064014 60000018800063995 2.89578500573 -1.10042 0.922678 12.813
9.06096 60000018800063996 60000018800063995 60000018800064014 60000018800063994 2.73314261732 0.394124 -2.00988 7.10261
9.10415 60000018800063995 60000018800063994 60000018800064014 60000018800063993 2.5772902716 -0.827537 2.31053 10.5516
9.15956 60000018800063994 60000018800063993 60000018800064014 60000018800063992 2.44422570455 -2.25137 -0.0909963 13.8572
