logMh | fpID | subhaloID | main leaf ID | descID |  z
9.2811 90000283900000101 90000283900000100 90000283900000106 90000283900000099 9.00233985416 -1.66138 -1.71911 -0.928707
9.31717 90000283900000100 90000283900000098 90000283900000106 90000283900000097 8.44947629437 6.40809 -3.15774 0.540325
9.39346 90000283900000098 90000283900000097 90000283900000106 90000283900000096 8.01217294887 2.26167 -6.56771 -0.478689
9.43856 90000283900000097 90000283900000096 90000283900000106 90000283900000095 7.59510714987 -4.87231 -11.3309 6.03711
9.50363 90000283900000096 90000283900000095 90000283900000106 90000283900000094 7.23627606617 -6.22762 -12.898 5.76006
9.58638 90000283900000095 90000283900000094 90000283900000106 90000283900000093 7.00541704554 -5.25415 -6.9356 3.92165
9.67491 90000283900000094 90000283900000092 90000283900000106 90000283900000091 6.49159774567 -3.18699 -5.86093 -1.15211
9.75306 90000283900000092 90000283900000091 90000283900000106 90000283900000090 6.14490120342 -1.35784 -9.96825 1.22022
9.77169 90000283900000091 90000283900000090 90000283900000106 90000283900000089 6.01075739884 2.00731 -15.8953 2.08481
9.83816 90000283900000090 90000283900000089 90000283900000106 90000283900000088 5.84661374788 0.177149 -16.3045 5.25068
9.90848 90000283900000089 90000283900000088 90000283900000106 90000283900000087 5.52976580795 -5.60818 -9.21979 9.56581
9.9612 90000283900000088 90000283900000086 90000283900000106 90000283900000085 4.99593346816 -1.07823 -11.1608 10.1475
9.97698 90000283900000086 90000283900000085 90000283900000106 90000283900000084 4.93938066349 5.31251 -7.082 6.73401
10.0155 90000283900000085 90000283900000084 90000283900000106 90000283900000083 4.66451770247 7.11056 -11.2196 17.9775
10.0561 90000283900000084 90000283900000083 90000283900000106 90000283900000082 4.42803373661 20.2203 -9.30979 21.5847
10.1072 90000283900000083 90000283900000081 90000283900000106 90000283900000080 4.00794511147 17.7542 -20.1723 36.2263
10.1141 90000283900000081 90000283900000080 90000283900000106 90000283900000079 3.93726108473 20.6559 -12.0888 35.3292
10.1215 90000283900000080 90000283900000079 90000283900000106 90000283900000078 3.70877426464 13.4359 -7.98346 30.0109
10.3334 90000283900000079 90000283900000078 90000283900000106 90000283900000077 3.49086136926 -49.3924 -29.572 83.7228
10.4012 90000283900000078 90000283900000077 90000283900000106 90000283900000076 3.28303305796 -39.8324 -29.2741 78.9705
10.4374 90000283900000077 90000283900000076 90000283900000106 90000283900000075 3.08482263583 -65.4922 -18.4729 75.485
10.462 90000283900000076 90000283900000075 90000283900000106 90000283900000074 3.00813107163 -68.6821 -22.9444 74.4525
10.5044 90000283900000075 90000283900000074 90000283900000106 90000283900000073 2.89578500573 -57.0919 -28.8323 65.3904
10.5644 90000283900000074 90000283900000073 90000283900000106 90000283900000072 2.73314261732 -44.0129 5.08456 82.8932
10.6268 90000283900000073 90000283900000072 90000283900000106 90000283900000071 2.5772902716 0.20787 8.04508 64.4597
10.8049 90000283900000072 90000283900000071 90000283900000106 90000283900000070 2.44422570455 53.66 54.1769 21.6254
10.8532 90000283900000071 90000283900000070 90000283900000106 90000283900000069 2.31611074396 56.6671 56.6546 23.1993
10.923 90000283900000070 90000283900000068 90000283900000106 90000283900000067 2.1032696526 57.9593 34.2624 30.6536
10.9474 90000283900000068 90000283900000067 90000283900000106 90000283900000066 2.00202813925 62.5152 30.2842 11.2006
10.9574 90000283900000067 90000283900000060 90000283900000106 90000283900000059 1.47197484527 37.8822 -33.5847 74.431
10.9797 90000283900000060 90000283900000059 90000283900000106 90000283900000058 1.41409822037 30.7563 -68.9347 96.5144
11.0091 90000283900000059 90000283900000058 90000283900000106 90000283900000057 1.3575766674 24.1312 -69.1829 127.21
11.0228 90000283900000058 90000283900000057 90000283900000106 90000283900000056 1.30237845991 21.4926 -86.2313 126.606
11.0307 90000283900000057 90000283900000056 90000283900000106 90000283900000055 1.24847261425 -1.93006 -83.3931 108.718
11.0515 90000283900000056 90000283900000055 90000283900000106 90000283900000054 1.20625808078 15.0639 -113.506 132.754
11.0734 90000283900000055 90000283900000054 90000283900000106 90000283900000053 1.15460271236 32.3102 -131.454 149.587
11.085 90000283900000054 90000283900000053 90000283900000106 90000283900000052 1.11415056377 31.7983 -109.477 151.243
11.0931 90000283900000053 90000283900000052 90000283900000106 90000283900000051 1.07445789455 31.1713 -110.225 156.93
11.1029 90000283900000052 90000283900000051 90000283900000106 90000283900000050 1.03551044566 35.3591 -111.035 153.835
11.1191 90000283900000051 90000283900000050 90000283900000106 90000283900000049 0.997294225782 23.7968 -96.6143 149.43
11.1254 90000283900000050 90000283900000048 90000283900000106 90000283900000047 0.950531351585 31.3393 -92.2019 140.427
11.1337 90000283900000048 90000283900000047 90000283900000106 90000283900000046 0.923000816178 16.7578 -80.6986 141.74
11.1351 90000283900000047 90000283900000046 90000283900000106 90000283900000045 0.886896937575 20.5487 -81.0065 133.609
11.1404 90000283900000046 90000283900000045 90000283900000106 90000283900000044 0.851470900625 28.756 -72.8189 144.922
11.1491 90000283900000045 90000283900000044 90000283900000106 90000283900000043 0.816709979012 13.9494 -78.3676 128.562
11.1511 90000283900000044 90000283900000041 90000283900000106 90000283900000040 0.732636182022 39.2635 -53.1696 133.915
11.1541 90000283900000041 90000283900000035 90000283900000106 90000283900000034 0.575980845108 21.4164 -21.042 123.251
11.1569 90000283900000035 90000283900000034 90000283900000106 90000283900000033 0.546392183141 30.828 -51.4852 124.505
11.1603 90000283900000034 90000283900000033 90000283900000106 90000283900000032 0.524565820434 35.3548 -57.7264 128.468
11.1676 90000283900000033 90000283900000032 90000283900000106 90000283900000031 0.503047523245 42.4699 -64.0716 124.181
11.1685 90000283900000032 90000283900000031 90000283900000106 90000283900000030 0.481832943421 31.2008 -42.2962 130.563
11.1699 90000283900000031 90000283900000030 90000283900000106 90000283900000029 0.460917794181 42.6792 -64.9009 124.321
11.1715 90000283900000030 90000283900000029 90000283900000106 90000283900000028 0.440297849248 42.4129 -56.897 143.427
11.1761 90000283900000029 90000283900000028 90000283900000106 90000283900000027 0.419968941997 43.6489 -55.643 130.547
11.1841 90000283900000028 90000283900000027 90000283900000106 90000283900000026 0.399926964614 57.9655 -21.9861 176.42
11.1929 90000283900000027 90000283900000026 90000283900000106 90000283900000025 0.38016786726 58.4688 -15.0686 165.743
11.1964 90000283900000026 90000283900000025 90000283900000106 90000283900000024 0.360687657262 65.8179 19.3272 187.219
11.2007 90000283900000025 90000283900000024 90000283900000106 90000283900000023 0.347853841858 78.5927 8.87906 214.495
11.2069 90000283900000024 90000283900000023 90000283900000106 90000283900000022 0.328829724206 76.6499 19.8594 208.811
11.2091 90000283900000023 90000283900000022 90000283900000106 90000283900000021 0.310074120128 100.608 36.3683 215.774
11.2166 90000283900000022 90000283900000021 90000283900000106 90000283900000020 0.291583239722 99.946 61.1532 238.598
11.2185 90000283900000021 90000283900000020 90000283900000106 90000283900000019 0.273353346578 99.7342 70.3204 219.649
11.2227 90000283900000020 90000283900000019 90000283900000106 90000283900000018 0.261343256161 101.088 60.7085 228.44
11.2301 90000283900000019 90000283900000018 90000283900000106 90000283900000017 0.243540181555 107.267 71.2414 239.358
11.2346 90000283900000018 90000283900000017 90000283900000106 90000283900000016 0.22598838626 119.623 77.499 232.648
11.2359 90000283900000017 90000283900000016 90000283900000106 90000283900000015 0.214425035514 125.77 78.7999 241.345
11.2446 90000283900000016 90000283900000015 90000283900000106 90000283900000014 0.197284182376 124.309 92.3372 239.529
11.2485 90000283900000015 90000283900000014 90000283900000106 90000283900000013 0.180385261706 115.676 79.629 236.413
11.2491 90000283900000014 90000283900000013 90000283900000106 90000283900000012 0.169252033244 127.073 73.2502 235.999
11.2538 90000283900000013 90000283900000012 90000283900000106 90000283900000011 0.152748768902 119.885 76.0269 234.909
11.2551 90000283900000012 90000283900000011 90000283900000106 90000283900000010 0.14187620397 119.653 75.725 225.673
11.2589 90000283900000011 90000283900000007 90000283900000106 90000283900000006 0.0838844307975 114.713 53.0137 206.96
11.2591 90000283900000007 90000283900000006 90000283900000106 90000283900000005 0.0736613846564 115.14 55.2042 211.547
11.2614 90000283900000006 90000283900000005 90000283900000106 90000283900000004 0.0585073227945 106.685 53.3763 208.459
11.2663 90000283900000005 90000283900000004 90000283900000106 90000283900000003 0.0485236299818 120.91 44.9943 202.884
11.2665 90000283900000004 90000283900000003 90000283900000106 90000283900000002 0.0337243718735 115.696 46.6724 213.311
11.2698 90000283900000003 90000283900000002 90000283900000106 90000283900000001 0.0239744283828 112.892 57.0027 210.211
11.2728 90000283900000002 90000283900000001 90000283900000106 90000283900000000 0.00952166696794 116.386 63.7327 201.783
11.2757 90000283900000001 90000283900000000 90000283900000106 -1 2.22044604925e-16 110.479 61.8279 205.337
9.04945 90000283900000138 90000283900000137 90000283900000145 90000283900000136 7.59510714987 2.20924 -0.258345 -4.35524
9.02239 90000283900000193 90000283900000192 90000283900000197 90000283900000191 8.01217294887 -0.674158 -2.52111 2.83928
9.1193 90000283900000192 90000283900000191 90000283900000197 90000283900000190 7.59510714987 -4.87103 -2.06461 -6.9341
9.18376 90000283900000191 90000283900000190 90000283900000197 90000283900000189 7.23627606617 -2.63114 -1.07859 0.164573
9.29951 90000283900000190 90000283900000189 90000283900000197 90000283900000188 7.00541704554 -2.85104 -4.26148 0.531685
9.32651 90000283900000189 90000283900000188 90000283900000197 90000283900000187 6.85511726265 1.39593 -3.97026 2.29429
9.42771 90000283900000188 90000283900000187 90000283900000197 90000283900000186 6.49159774567 -4.70876 -11.8343 6.75274
9.48799 90000283900000187 90000283900000186 90000283900000197 90000283900000185 6.14490120342 -10.5329 -11.0627 5.36785
9.51275 90000283900000186 90000283900000185 90000283900000197 90000283900000184 6.01075739884 -16.4281 -15.1777 6.04149
9.5566 90000283900000185 90000283900000184 90000283900000197 90000283900000183 5.84661374788 -14.5928 -19.2237 7.7234
9.56557 90000283900000184 90000283900000183 90000283900000197 90000283900000182 5.52976580795 -22.4643 -0.874815 -3.90733
9.60866 90000283900000183 90000283900000182 90000283900000197 90000283900000181 5.22758097313 -14.7121 -3.59908 -0.449486
9.67005 90000283900000182 90000283900000181 90000283900000197 90000283900000180 4.99593346816 -23.2908 -3.50813 0.472493
9.69383 90000283900000181 90000283900000180 90000283900000197 90000283900000179 4.93938066349 -23.2783 -2.23652 2.31806
9.72384 90000283900000180 90000283900000179 90000283900000197 90000283900000178 4.66451770247 -11.6662 1.37076 0.0483458
9.73239 90000283900000179 90000283900000178 90000283900000197 90000283900000177 4.42803373661 -5.82058 10.1243 -0.834922
9.84381 90000283900000178 90000283900000177 90000283900000197 90000283900000176 4.17683491473 -5.40938 16.5479 3.75826
9.86348 90000283900000177 90000283900000175 90000283900000197 90000283900000174 3.93726108473 -4.72806 20.7691 8.9696
9.89036 90000283900000175 90000283900000174 90000283900000197 90000283900000173 3.70877426464 -15.8989 25.3008 10.9351
9.02855 90000283900000300 90000283900000299 90000283900000305 90000283900000298 9.38877127194 -0.267939 -2.70625 -0.831511
9.06096 90000283900000299 90000283900000298 90000283900000305 90000283900000297 9.00233985416 2.40499 -2.32462 -0.605295
9.08309 90000283900000298 90000283900000297 90000283900000305 90000283900000296 8.9079991856 0.960147 -3.19246 -0.023431
9.11179 90000283900000297 90000283900000296 90000283900000305 90000283900000295 8.44947629437 1.84509 -3.08476 -1.06438
9.2342 90000283900000296 90000283900000295 90000283900000305 90000283900000294 8.01217294887 0.493723 -1.88828 3.42912
9.33263 90000283900000295 90000283900000294 90000283900000305 90000283900000293 7.59510714987 4.25132 1.24693 4.71989
9.42281 90000283900000294 90000283900000293 90000283900000305 90000283900000292 7.23627606617 2.03024 -0.257632 5.26635
9.7336 90000283900000293 90000283900000290 90000283900000305 90000283900000289 6.49159774567 -1.13802 -5.09593 -28.0441
9.74608 90000283900000290 90000283900000289 90000283900000305 90000283900000288 6.14490120342 1.27941 -6.27409 -26.1188
9.7519 90000283900000289 90000283900000287 90000283900000305 90000283900000286 5.84661374788 4.78668 -13.8334 -28.8493
9.81378 90000283900000287 90000283900000285 90000283900000305 90000283900000284 5.22758097313 9.59462 21.6829 -7.73538
9.99121 90000283900000285 90000283900000284 90000283900000305 90000283900000283 4.99593346816 20.9087 46.3143 -11.6793
10.09 90000283900000284 90000283900000282 90000283900000305 90000283900000281 4.66451770247 44.807 57.2039 -35.6412
10.1584 90000283900000282 90000283900000281 90000283900000305 90000283900000280 4.42803373661 47.9807 24.247 -46.3595
10.191 90000283900000281 90000283900000280 90000283900000305 90000283900000279 4.17683491473 48.9981 14.2085 -58.8033
10.2826 90000283900000280 90000283900000279 90000283900000305 90000283900000278 4.00794511147 52.1273 26.3429 -54.08
10.2979 90000283900000279 90000283900000278 90000283900000305 90000283900000277 3.93726108473 48.6105 27.1457 -52.4988
10.3161 90000283900000278 90000283900000277 90000283900000305 90000283900000276 3.70877426464 48.5196 15.0783 -40.901
10.3334 90000283900000277 90000283900000276 90000283900000305 90000283900000275 3.49086136926 41.1525 23.2155 -38.2814
10.3344 90000283900000276 90000283900000275 90000283900000305 90000283900000274 3.28303305796 41.4089 16.8951 -27.5852
10.3803 90000283900000275 90000283900000274 90000283900000305 90000283900000273 3.08482263583 46.7258 10.3651 -20.2844
10.8628 90000283900000274 90000283900000267 90000283900000305 90000283900000266 2.20792547238 61.1239 48.7391 33.0929
9.08038 90000283900000334 90000283900000333 90000283900000339 90000283900000332 9.00233985416 9.39911 0.533766 -2.8247
9.13634 90000283900000333 90000283900000332 90000283900000339 90000283900000331 8.9079991856 11.874 0.325024 -8.13287
9.15273 90000283900000332 90000283900000331 90000283900000339 90000283900000330 8.44947629437 7.27537 -0.151807 -3.17768
9.24362 90000283900000331 90000283900000330 90000283900000339 90000283900000329 8.01217294887 10.7904 0.784136 -9.8312
9.31401 90000283900000330 90000283900000329 90000283900000339 90000283900000328 7.59510714987 10.7676 -0.648827 -12.1586
9.46397 90000283900000329 90000283900000327 90000283900000339 90000283900000326 7.00541704554 6.83768 11.5792 -16.2152
9.63138 90000283900000327 90000283900000326 90000283900000339 90000283900000325 6.85511726265 0.0899558 -0.299808 -24.8571
9.72874 90000283900000326 90000283900000321 90000283900000339 90000283900000320 5.52976580795 2.91068 -4.64662 -20.3864
9.00012 90000283900000348 90000283900000347 90000283900000360 90000283900000346 5.52976580795 2.88097 -4.69221 -1.45379
9.08845 90000283900000386 90000283900000385 90000283900000390 90000283900000384 6.01075739884 7.2184 9.22984 2.34296
9.07766 90000283900000790 90000283900000789 90000283900000797 90000283900000788 5.52976580795 -5.06675 -5.28381 10.1541
9.31717 90000283900000789 90000283900000788 90000283900000797 90000283900000787 5.22758097313 2.52327 -17.1835 12.4228
9.33415 90000283900000788 90000283900000787 90000283900000797 90000283900000786 4.99593346816 -1.46848 -13.9849 15.1435
9.35627 90000283900000787 90000283900000785 90000283900000797 90000283900000784 4.66451770247 -0.266437 -11.2057 14.5011
9.44211 90000283900000785 90000283900000784 90000283900000797 90000283900000783 4.42803373661 -4.03993 -9.15289 14.1289
9.50771 90000283900000784 90000283900000783 90000283900000797 90000283900000782 4.17683491473 -5.8105 -9.68987 13.3696
9.57523 90000283900000783 90000283900000782 90000283900000797 90000283900000781 4.00794511147 -16.6397 -18.0042 13.6333
9.5761 90000283900000782 90000283900000781 90000283900000797 90000283900000780 3.93726108473 -14.9713 -14.5959 13.774
9.63894 90000283900000781 90000283900000780 90000283900000797 90000283900000779 3.70877426464 -23.4267 -24.7703 19.4517
9.71195 90000283900000780 90000283900000779 90000283900000797 90000283900000778 3.49086136926 -21.2454 -13.3317 32.6745
9.74373 90000283900000779 90000283900000778 90000283900000797 90000283900000777 3.28303305796 -18.1394 -12.7304 33.312
9.75248 90000283900000778 90000283900000777 90000283900000797 90000283900000776 3.08482263583 -12.6817 -7.77336 35.6314
9.78902 90000283900000777 90000283900000776 90000283900000797 90000283900000775 3.00813107163 -15.0893 -10.9584 38.8922
9.80261 90000283900000776 90000283900000774 90000283900000797 90000283900000773 2.73314261732 -15.3087 16.2918 59.4824
9.81177 90000283900000774 90000283900000773 90000283900000797 90000283900000772 2.5772902716 -12.3703 23.0652 61.4829
9.83721 90000283900000773 90000283900000772 90000283900000797 90000283900000771 2.44422570455 -13.0889 26.2054 61.2179
9.86304 90000283900000772 90000283900000770 90000283900000797 90000283900000769 2.20792547238 -15.3803 13.7551 54.7255
9.89538 90000283900000770 90000283900000769 90000283900000797 90000283900000768 2.1032696526 -21.715 14.366 59.931
9.93507 90000283900000769 90000283900000768 90000283900000797 90000283900000767 2.00202813925 -29.4635 37.395 56.5591
9.95472 90000283900000768 90000283900000767 90000283900000797 90000283900000766 1.90408954353 -30.7461 50.5112 63.9476
9.9756 90000283900000767 90000283900000765 90000283900000797 90000283900000764 1.74357057433 -22.7269 56.9468 52.7127
9.99946 90000283900000765 90000283900000763 90000283900000797 90000283900000762 1.60423452207 -23.6801 57.3729 48.4162
9.01298 90000283900000910 90000283900000909 90000283900000918 90000283900000908 5.84661374788 -2.20091 4.82928 -0.146181
9.14108 90000283900000909 90000283900000908 90000283900000918 90000283900000907 5.52976580795 -1.33973 1.85672 -1.60868
9.15956 90000283900000908 90000283900000907 90000283900000918 90000283900000906 5.22758097313 -3.91017 4.73103 -0.786227
9.2026 90000283900000907 90000283900000903 90000283900000918 90000283900000902 4.42803373661 -4.32645 6.7639 -3.1223
9.20464 90000283900000903 90000283900000902 90000283900000918 90000283900000901 4.17683491473 -2.01508 8.78053 0.603003
9.22457 90000283900000902 90000283900000900 90000283900000918 90000283900000899 3.93726108473 -2.41762 8.44308 0.222264
9.09898 90000283900001338 90000283900001337 90000283900001347 90000283900001336 4.17683491473 -16.9987 1.24759 10.4122
9.19848 90000283900001337 90000283900001327 90000283900001347 90000283900001326 2.31611074396 -3.95388 -6.21136 8.74833
9.22845 90000283900001327 90000283900001325 90000283900001347 90000283900001324 2.1032696526 -10.6982 -6.12295 12.5378
9.24362 90000283900001325 90000283900001324 90000283900001347 90000283900001323 2.00202813925 -12.2377 -9.13223 14.387
9.24548 90000283900001324 90000283900001321 90000283900001347 90000283900001320 1.74357057433 -14.4314 -9.41193 12.5024
9.06939 90000283900001356 90000283900001355 90000283900001358 90000283900001354 3.49086136926 -17.3617 0.0535107 10.2778
