logMh | fpID | subhaloID | main leaf ID | descID |  z
9.02548 10000000001961044 10000000001961043 10000000001961052 10000000001961042 8.01217294887 -4.62305 -2.61035 1.32816
9.07766 10000000001961043 10000000001961042 10000000001961052 10000000001961041 7.59510714987 -3.65628 -3.23292 -0.51728
9.10157 10000000001961042 10000000001961041 10000000001961052 10000000001961040 7.23627606617 -5.42454 -1.48295 0.228043
9.10926 10000000001961041 10000000001961040 10000000001961052 10000000001961039 7.00541704554 -5.67112 -2.79396 -0.0367157
9.18589 10000000001961040 10000000001961039 10000000001961052 10000000001961038 6.85511726265 -4.1263 -0.105164 1.45866
9.28788 10000000001961039 10000000001961037 10000000001961052 10000000001961036 6.14490120342 7.82525 -15.9111 0.673928
9.45261 10000000001961037 10000000001961034 10000000001961052 10000000001961033 5.52976580795 3.40304 -15.028 -0.119986
9.56021 10000000001961034 10000000001961033 10000000001961052 10000000001961032 5.22758097313 -3.27363 -21.492 -4.23654
9.57783 10000000001961033 10000000001961032 10000000001961052 10000000001961031 4.99593346816 -1.30714 -20.7021 -4.00078
9.57956 10000000001961032 10000000001961031 10000000001961052 10000000001961030 4.93938066349 -3.52291 -15.2602 -2.66084
9.63518 10000000001961031 10000000001961030 10000000001961052 10000000001961029 4.66451770247 -6.65708 -15.3139 -1.13584
9.75248 10000000001961030 10000000001961029 10000000001961052 10000000001961028 4.42803373661 -11.1856 -20.4514 6.82999
9.91049 10000000001961029 10000000001961028 10000000001961052 10000000001961027 4.17683491473 -13.749 0.166146 7.80956
9.96369 10000000001961028 10000000001961027 10000000001961052 10000000001961026 4.00794511147 -13.6104 -3.38905 4.0389
9.97938 10000000001961027 10000000001961026 10000000001961052 10000000001961025 3.93726108473 -12.4771 -3.60321 5.11018
10.0111 10000000001961026 10000000001961025 10000000001961052 10000000001961024 3.70877426464 -10.0951 -4.06114 8.13999
10.0847 10000000001961025 10000000001961024 10000000001961052 10000000001961023 3.49086136926 -5.4907 -8.34713 4.67114
10.1264 10000000001961024 10000000001961023 10000000001961052 10000000001961022 3.28303305796 5.19934 -9.25443 24.0881
10.1568 10000000001961023 10000000001961022 10000000001961052 10000000001961021 3.08482263583 39.5705 -22.114 15.6273
10.2061 10000000001961022 10000000001961021 10000000001961052 10000000001961020 3.00813107163 73.5935 -28.096 10.6938
10.2777 10000000001961021 10000000001961020 10000000001961052 10000000001961019 2.89578500573 59.7148 -25.2028 3.34137
10.3795 10000000001961020 10000000001961019 10000000001961052 10000000001961018 2.73314261732 41.9443 -33.1082 25.0185
10.5592 10000000001961019 10000000001961018 10000000001961052 10000000001961017 2.5772902716 69.5808 -39.5837 39.1681
10.8107 10000000001961018 10000000001961016 10000000001961052 10000000001961015 2.31611074396 -17.8795 -13.5316 3.84885
11.0102 10000000001961016 10000000001961015 10000000001961052 10000000001961014 2.1032696526 -42.3738 -21.8992 43.9673
11.1029 10000000001961015 10000000001961014 10000000001961052 10000000001961013 2.00202813925 -86.1463 -27.0587 180.315
11.2409 10000000001961014 10000000001961013 10000000001961052 10000000001961012 1.90408954353 -96.0051 -27.6233 124.971
11.3476 10000000001961013 10000000001961011 10000000001961052 10000000001961010 1.74357057433 -35.3774 -27.3978 -29.5352
11.4 10000000001961011 10000000001961010 10000000001961052 10000000001961009 1.66666955611 -13.2806 -46.1707 -147.416
11.4266 10000000001961010 10000000001961009 10000000001961052 10000000001961008 1.60423452207 -7.1361 -48.8858 -209.424
11.4493 10000000001961009 10000000001961008 10000000001961052 10000000001961007 1.53123902916 -4.64901 -52.6748 -242.417
11.4634 10000000001961008 10000000001960995 10000000001961052 10000000001960994 0.950531351585 106.513 -68.5448 -215.932
11.4741 10000000001960995 10000000001960994 10000000001961052 10000000001960993 0.923000816178 108.396 -65.5119 -215.595
11.4747 10000000001960994 10000000001960993 10000000001961052 10000000001960992 0.886896937575 87.3803 -62.7143 -162.698
11.4841 10000000001960993 10000000001960992 10000000001961052 10000000001960991 0.851470900625 119.767 -83.6535 -185.177
11.5002 10000000001960992 10000000001960991 10000000001961052 10000000001960990 0.816709979012 118.969 -102.598 -201.139
11.5135 10000000001960991 10000000001960990 10000000001961052 10000000001960989 0.791068248946 124.041 -113.275 -218.122
11.5185 10000000001960990 10000000001960989 10000000001961052 10000000001960988 0.757441372616 114.047 -135.98 -229.29
11.5227 10000000001960989 10000000001960988 10000000001961052 10000000001960987 0.732636182022 110.965 -171.996 -247.193
11.5283 10000000001960988 10000000001960987 10000000001961052 10000000001960986 0.700106353719 112.477 -201.416 -212.392
11.5327 10000000001960987 10000000001960980 10000000001961052 10000000001960979 0.524565820434 -19.7322 -248.367 -146.766
11.5379 10000000001960980 10000000001960978 10000000001961052 10000000001960977 0.481832943421 -21.248 -222.294 -138.737
11.5458 10000000001960978 10000000001960975 10000000001961052 10000000001960974 0.419968941997 -65.9248 -229.822 -166.811
11.5486 10000000001960975 10000000001960972 10000000001961052 10000000001960971 0.360687657262 -100.369 -190.005 -163.527
11.5497 10000000001960972 10000000001960971 10000000001961052 10000000001960970 0.347853841858 -97.2721 -186.632 -173.26
11.5604 10000000001960971 10000000001960969 10000000001961052 10000000001960968 0.310074120128 -148.487 -210.825 -224.544
11.5687 10000000001960969 10000000001960967 10000000001961052 10000000001960966 0.273353346578 -174.256 -203.45 -192.314
11.5724 10000000001960967 10000000001960966 10000000001961052 10000000001960965 0.261343256161 -196.957 -208.581 -182.931
11.5757 10000000001960966 10000000001960965 10000000001961052 10000000001960964 0.243540181555 -226.764 -197.208 -166.874
11.577 10000000001960965 10000000001960963 10000000001961052 10000000001960962 0.214425035514 -272.025 -200.992 -185.904
11.5814 10000000001960963 10000000001960962 10000000001961052 10000000001960961 0.197284182376 -280.075 -189.125 -174.726
11.5824 10000000001960962 10000000001960961 10000000001961052 10000000001960960 0.180385261706 -297.903 -185.251 -186.269
11.5838 10000000001960961 10000000001960960 10000000001961052 10000000001960959 0.169252033244 -305.957 -183.895 -187.197
11.5874 10000000001960960 10000000001960959 10000000001961052 10000000001960958 0.152748768902 -336.152 -184.093 -184.074
11.5922 10000000001960959 10000000001960957 10000000001961052 10000000001960956 0.125759332411 -360.244 -190.025 -178.501
11.5923 10000000001960957 10000000001960955 10000000001961052 10000000001960954 0.0994018026302 -390.29 -165.493 -178.423
11.5929 10000000001960955 10000000001960953 10000000001961052 10000000001960952 0.0736613846564 -447.116 -128.868 -164.931
9.2811 10000000001961065 10000000001961064 10000000001961075 10000000001961063 6.01075739884 -1.70136 -8.53501 0.959744
9.18802 10000000001961096 10000000001961095 10000000001961106 10000000001961094 5.22758097313 7.61804 13.8402 9.8072
9.28788 10000000001961095 10000000001961094 10000000001961106 10000000001961093 4.99593346816 8.79469 13.0511 9.8389
9.00337 10000000001961148 10000000001961147 10000000001961158 10000000001961146 6.49159774567 3.26128 0.0300227 -1.7822
9.03463 10000000001961147 10000000001961146 10000000001961158 10000000001961145 6.14490120342 7.42106 1.34278 0.414395
9.04062 10000000001961146 10000000001961145 10000000001961158 10000000001961144 6.01075739884 8.10837 -0.474626 -0.16485
9.05235 10000000001961145 10000000001961144 10000000001961158 10000000001961143 5.84661374788 4.7039 0.0851193 0.198072
9.21869 10000000001961144 10000000001961143 10000000001961158 10000000001961142 5.52976580795 12.5558 -12.7029 -16.6475
9.29457 10000000001961143 10000000001961141 10000000001961158 10000000001961140 4.99593346816 6.59365 -8.90402 -18.44
9.37181 10000000001961141 10000000001961139 10000000001961158 10000000001961138 4.66451770247 5.54787 -1.43778 -12.2421
9.42033 10000000001961139 10000000001961138 10000000001961158 10000000001961137 4.42803373661 6.65652 4.02166 -8.65562
9.47941 10000000001961138 10000000001961137 10000000001961158 10000000001961136 4.17683491473 5.08605 1.36746 -2.43868
9.48692 10000000001961137 10000000001961136 10000000001961158 10000000001961135 4.00794511147 7.63422 2.38087 0.113188
9.48905 10000000001961136 10000000001961135 10000000001961158 10000000001961134 3.93726108473 7.94343 2.65851 -2.09114
9.53332 10000000001961135 10000000001961134 10000000001961158 10000000001961133 3.70877426464 4.02696 1.15214 -1.43557
10.7023 10000000001961134 10000000001961126 10000000001961158 10000000001961016 2.44422570455 8.73078 -43.0611 14.5985
9.00337 10000000001961185 10000000001961184 10000000001961198 10000000001961183 4.66451770247 3.75123 3.96564 2.50848
9.0666 10000000001961184 10000000001961182 10000000001961198 10000000001961181 4.17683491473 5.64302 10.1037 6.94703
9.09898 10000000001961182 10000000001961179 10000000001961198 10000000001961178 3.70877426464 7.40739 4.44835 0.353647
9.08578 10000000001961209 10000000001961208 10000000001961221 10000000001961207 4.00794511147 -9.56397 -7.62013 11.9752
9.15956 10000000001961208 10000000001961207 10000000001961221 10000000001961206 3.93726108473 -4.56079 -3.60794 8.81644
9.26365 10000000001961207 10000000001961206 10000000001961221 10000000001961205 3.70877426464 -4.1097 -1.48064 10.1676
9.05524 10000000001961224 10000000001961223 10000000001961230 10000000001961222 4.42803373661 -11.2133 -7.65069 15.2813
9.06939 10000000001961273 10000000001961272 10000000001961280 10000000001961271 4.66451770247 2.02775 -6.96771 -2.47318
9.08578 10000000001961272 10000000001961271 10000000001961280 10000000001961270 4.42803373661 3.33437 -8.58818 3.49734
9.12424 10000000001961271 10000000001961269 10000000001961280 10000000001961268 4.00794511147 -1.6176 -5.22916 -1.72189
9.18589 10000000001961269 10000000001961268 10000000001961280 10000000001961267 3.93726108473 -4.64619 -5.26132 -1.46203
9.2672 10000000001961268 10000000001961265 10000000001961280 10000000001961264 3.28303305796 1.82561 11.6067 18.5032
9.2862 10000000001961265 10000000001961262 10000000001961280 10000000001961261 2.89578500573 7.87697 9.23845 17.2775
9.02239 10000000001961339 10000000001961338 10000000001961339 10000000001961014 2.1032696526 -1.17087 -8.20215 -4.40912
9.14811 10000000001961392 10000000001961391 10000000001961396 10000000001961390 7.23627606617 -1.03671 23.14 10.9112
9.2087 10000000001961391 10000000001961390 10000000001961396 10000000001961389 7.00541704554 -9.69177 12.1595 -10.5814
9.33263 10000000001961390 10000000001961388 10000000001961396 10000000001961387 6.49159774567 -9.04437 12.2823 -4.96768
9.56999 10000000001961388 10000000001961387 10000000001961396 10000000001961386 6.14490120342 6.58471 29.1807 17.5599
9.65297 10000000001961387 10000000001961384 10000000001961396 10000000001961383 5.52976580795 22.4382 8.07495 6.24395
9.86169 10000000001961384 10000000001961383 10000000001961396 10000000001961382 5.22758097313 -19.8294 44.8147 8.95505
9.91805 10000000001961383 10000000001961381 10000000001961396 10000000001961380 4.93938066349 -34.7795 48.3997 -8.68035
10.0313 10000000001961381 10000000001961379 10000000001961396 10000000001961378 4.42803373661 -64.9665 38.074 -19.0934
10.0649 10000000001961379 10000000001961378 10000000001961396 10000000001961377 4.17683491473 -65.3419 41.9407 -13.9965
10.0956 10000000001961378 10000000001961377 10000000001961396 10000000001961376 4.00794511147 -36.9505 45.9952 -16.0552
10.1141 10000000001961377 10000000001961375 10000000001961396 10000000001961374 3.70877426464 -50.5657 28.7415 -13.3656
10.1676 10000000001961375 10000000001961374 10000000001961396 10000000001961373 3.49086136926 -43.7377 32.185 -20.3151
10.1731 10000000001961374 10000000001961373 10000000001961396 10000000001961372 3.28303305796 -46.193 47.8071 -24.7904
10.1891 10000000001961373 10000000001961372 10000000001961396 10000000001961371 3.08482263583 -40.3174 36.0319 -23.0462
10.2209 10000000001961372 10000000001961371 10000000001961396 10000000001961370 3.00813107163 -40.0895 34.0163 -21.8052
9.04062 10000000001961423 10000000001961422 10000000001961429 10000000001961421 8.01217294887 -0.97912 -4.22134 -3.51559
9.04653 10000000001961422 10000000001961421 10000000001961429 10000000001961420 7.59510714987 -1.63262 -4.86932 -5.06256
9.10671 10000000001961421 10000000001961420 10000000001961429 10000000001961419 7.23627606617 -2.94947 -3.25902 -4.3919
9.13634 10000000001961420 10000000001961419 10000000001961429 10000000001961418 7.00541704554 -2.0241 -1.80691 -6.17382
9.16182 10000000001961419 10000000001961418 10000000001961429 10000000001961417 6.85511726265 -4.31116 -0.469174 -8.42724
9.19433 10000000001961418 10000000001961417 10000000001961429 10000000001961416 6.49159774567 -1.9826 -0.742395 -7.62948
9.23229 10000000001961417 10000000001961413 10000000001961429 10000000001961412 5.52976580795 -2.2506 5.44077 -1.85189
9.87886 10000000001961413 10000000001961411 10000000001961429 10000000001961381 4.99593346816 -32.0765 51.2734 -5.41769
9.26896 10000000001961503 10000000001961502 10000000001961522 10000000001961501 3.28303305796 -4.59224 3.13615 -7.76146
9.55478 10000000001961502 10000000001961501 10000000001961522 10000000001961500 3.08482263583 -16.9722 8.77606 -4.55119
9.58723 10000000001961501 10000000001961500 10000000001961522 10000000001961499 3.00813107163 -12.787 8.45337 -4.19092
9.6329 10000000001961500 10000000001961499 10000000001961522 10000000001961498 2.89578500573 -17.0013 7.44177 -10.5247
9.66017 10000000001961499 10000000001961498 10000000001961522 10000000001961497 2.73314261732 -12.1436 7.81524 -16.6701
9.08845 10000000001961572 10000000001961571 10000000001961579 10000000001961570 5.22758097313 8.96052 6.00951 0.0795901
9.19848 10000000001961571 10000000001961567 10000000001961579 10000000001961566 4.42803373661 6.68727 5.03646 -2.77066
9.34609 10000000001961567 10000000001961566 10000000001961579 10000000001961565 4.17683491473 9.1231 2.09444 -0.908703
9.35194 10000000001961566 10000000001961565 10000000001961579 10000000001961564 4.00794511147 9.85558 3.46666 1.05245
9.45946 10000000001961565 10000000001961562 10000000001961579 10000000001961561 3.49086136926 12.4628 15.4035 -4.13352
9.55751 10000000001961562 10000000001961560 10000000001961579 10000000001961559 3.08482263583 49.7058 9.50219 -29.4849
9.55751 10000000001961560 10000000001961559 10000000001961579 10000000001961558 3.00813107163 41.2649 13.8671 -26.148
9.0066 10000000001961599 10000000001961598 10000000001961621 10000000001961597 3.49086136926 2.14123 2.30607 0.351508
9.27246 10000000001961598 10000000001961594 10000000001961621 10000000001961593 2.89578500573 -11.2353 56.853 5.06888
9.02855 10000000001961793 10000000001961792 10000000001961803 10000000001961791 4.66451770247 0.573637 2.29525 0.465711
9.03763 10000000001961792 10000000001961791 10000000001961803 10000000001961790 4.42803373661 -0.808295 -0.382476 0.466814
9.04358 10000000001961791 10000000001961788 10000000001961803 10000000001961787 3.93726108473 0.674057 -0.043782 -0.12761
9.07766 10000000001961788 10000000001961787 10000000001961803 10000000001961786 3.70877426464 -2.13443 -5.21489 -9.20004
9.11431 10000000001961819 10000000001961818 10000000001961826 10000000001961817 3.00813107163 16.6336 -10.6647 -0.640712
9.1573 10000000001961818 10000000001961817 10000000001961826 10000000001961816 2.89578500573 14.66 -8.4183 0.3329
9.2026 10000000001961817 10000000001961816 10000000001961826 10000000001961815 2.73314261732 14.4823 -6.77309 -1.59017
9.25648 10000000001961816 10000000001961815 10000000001961826 10000000001961814 2.5772902716 14.9304 -4.65584 -3.06191
9.26543 10000000001961815 10000000001961814 10000000001961826 10000000001961813 2.44422570455 14.6661 -4.65167 -1.22118
9.04653 10000000001961828 10000000001961827 10000000001961833 10000000001961818 3.08482263583 20.6107 -12.3527 -3.86573
9.13634 10000000001961915 10000000001961914 10000000001961918 10000000001961913 9.38877127194 -5.41532 -7.11264 0.354127
9.19641 10000000001961914 10000000001961911 10000000001961918 10000000001961910 8.44947629437 -3.12592 -4.40603 0.870262
9.21272 10000000001961911 10000000001961910 10000000001961918 10000000001961909 8.01217294887 -2.22151 -6.13694 -0.235786
9.25284 10000000001961910 10000000001961909 10000000001961918 10000000001961908 7.59510714987 -2.65612 -6.94424 0.00771155
9.32651 10000000001961909 10000000001961908 10000000001961918 10000000001961907 7.23627606617 -5.77931 -7.8966 1.55897
9.40646 10000000001961908 10000000001961907 10000000001961918 10000000001961906 7.00541704554 5.46878 -6.3921 3.04692
9.4606 10000000001961907 10000000001961906 10000000001961918 10000000001961905 6.85511726265 8.56436 -3.73795 3.57918
9.58298 10000000001961906 10000000001961905 10000000001961918 10000000001961904 6.49159774567 6.68006 -11.2988 0.742118
9.79324 10000000001961905 10000000001961904 10000000001961918 10000000001961903 6.14490120342 19.6664 -5.10022 15.1257
9.84475 10000000001961904 10000000001961903 10000000001961918 10000000001961902 6.01075739884 20.1878 -7.69103 8.64321
9.86527 10000000001961903 10000000001961902 10000000001961918 10000000001961901 5.84661374788 21.6478 -6.50696 9.59516
9.90157 10000000001961902 10000000001961901 10000000001961918 10000000001961900 5.52976580795 20.2346 -7.1708 7.72853
9.98987 10000000001961901 10000000001961900 10000000001961918 10000000001961899 5.22758097313 24.9425 -14.0286 7.78515
10.0307 10000000001961900 10000000001961899 10000000001961918 10000000001961898 4.99593346816 27.1315 -21.218 9.45776
10.0672 10000000001961899 10000000001961897 10000000001961918 10000000001961896 4.66451770247 26.8028 -38.9206 7.38764
10.0809 10000000001961897 10000000001961896 10000000001961918 10000000001961895 4.42803373661 25.8588 -36.7253 -2.09069
10.2327 10000000001961896 10000000001961895 10000000001961918 10000000001961894 4.17683491473 29.4643 -38.3321 -12.3765
10.3104 10000000001961895 10000000001961894 10000000001961918 10000000001961893 4.00794511147 18.339 -32.0519 2.17719
10.3594 10000000001961894 10000000001961893 10000000001961918 10000000001961892 3.93726108473 26.2301 -35.5207 4.20703
10.4227 10000000001961893 10000000001961892 10000000001961918 10000000001961891 3.70877426464 20.8328 -38.0773 0.622123
10.5108 10000000001961892 10000000001961891 10000000001961918 10000000001961890 3.49086136926 25.2645 -57.9951 -9.06711
10.5419 10000000001961891 10000000001961890 10000000001961918 10000000001961889 3.28303305796 23.1033 -71.7845 -24.9624
10.5456 10000000001961890 10000000001961889 10000000001961918 10000000001961888 3.08482263583 19.5239 -74.036 -32.195
10.553 10000000001961889 10000000001961888 10000000001961918 10000000001961887 3.00813107163 15.4272 -67.2603 -24.0387
10.5561 10000000001961888 10000000001961886 10000000001961918 10000000001961885 2.73314261732 -1.35462 -65.9133 -33.3165
10.5791 10000000001961886 10000000001961885 10000000001961918 10000000001961884 2.5772902716 10.0 -28.0444 -79.5003
10.5927 10000000001961885 10000000001961884 10000000001961918 10000000001961883 2.44422570455 3.91079 -22.1965 -79.725
10.615 10000000001961884 10000000001961883 10000000001961918 10000000001961882 2.31611074396 8.04753 -29.7799 -57.4428
10.6206 10000000001961883 10000000001961882 10000000001961918 10000000001961881 2.20792547238 7.08977 -14.4676 -75.0341
11.3134 10000000001961882 10000000001961878 10000000001961918 10000000001961877 1.82268925262 -59.3757 -42.2914 35.7512
9.04653 10000000001961927 10000000001961926 10000000001961931 10000000001961925 8.01217294887 9.1939 2.11251 6.93219
9.12912 10000000001961926 10000000001961925 10000000001961931 10000000001961924 7.59510714987 13.906 -0.88677 10.3465
9.14811 10000000001961925 10000000001961924 10000000001961931 10000000001961923 7.23627606617 13.0332 0.150691 10.9531
9.24175 10000000001961924 10000000001961923 10000000001961931 10000000001961922 7.00541704554 12.1615 3.88862 10.1173
9.04358 10000000001961994 10000000001961993 10000000001961999 10000000001961992 7.23627606617 3.75988 2.85507 -1.58325
9.20464 10000000001961993 10000000001961992 10000000001961999 10000000001961991 7.00541704554 2.19185 0.521475 -2.53114
9.41156 10000000001961992 10000000001961990 10000000001961999 10000000001961989 6.49159774567 3.66517 -11.8656 4.24984
9.46844 10000000001961990 10000000001961989 10000000001961999 10000000001961988 6.14490120342 6.28016 -11.4218 7.00675
9.48049 10000000001961989 10000000001961988 10000000001961999 10000000001961987 6.01075739884 4.44304 -12.407 5.80212
9.51275 10000000001961988 10000000001961987 10000000001961999 10000000001961986 5.84661374788 3.65788 -8.53272 3.17524
9.58041 10000000001961987 10000000001961986 10000000001961999 10000000001961985 5.52976580795 4.11412 -4.36784 3.10756
9.61504 10000000001961986 10000000001961985 10000000001961999 10000000001961984 5.22758097313 10.0352 -8.36018 10.5372
9.0316 10000000001962026 10000000001962025 10000000001962034 10000000001962024 6.01075739884 0.193899 -2.67784 -3.22858
9.19223 10000000001962025 10000000001962024 10000000001962034 10000000001962023 5.84661374788 2.8531 -0.877206 4.2715
9.21072 10000000001962024 10000000001962022 10000000001962034 10000000001962021 5.22758097313 13.6184 1.87862 8.33789
9.23229 10000000001962022 10000000001962021 10000000001962034 10000000001962020 4.99593346816 5.35137 -0.2158 -1.60112
9.2342 10000000001962021 10000000001962019 10000000001962034 10000000001962018 4.66451770247 7.39671 -1.18488 1.68787
9.23988 10000000001962019 10000000001962018 10000000001962034 10000000001962017 4.42803373661 9.65181 1.83874 2.00088
9.15273 10000000001962133 10000000001962132 10000000001962141 10000000001962131 5.22758097313 3.39622 -3.77547 -7.09869
9.15956 10000000001962132 10000000001962131 10000000001962141 10000000001962130 4.99593346816 7.78583 -6.89784 -11.2548
9.27072 10000000001962131 10000000001962129 10000000001962141 10000000001962128 4.66451770247 6.69931 -7.86593 -20.8153
9.29457 10000000001962129 10000000001962128 10000000001962141 10000000001962127 4.42803373661 10.0164 -9.15577 -15.325
9.30115 10000000001962128 10000000001962127 10000000001962141 10000000001962126 4.17683491473 11.5902 -10.6496 -12.3988
9.36056 10000000001962127 10000000001962126 10000000001962141 10000000001962125 4.00794511147 10.7853 -10.2244 -11.1955
9.37595 10000000001962126 10000000001962125 10000000001962141 10000000001962124 3.93726108473 10.4476 -11.2377 -9.0018
9.42281 10000000001962125 10000000001962124 10000000001962141 10000000001962123 3.70877426464 14.1805 -14.1438 -13.3034
9.42771 10000000001962124 10000000001962123 10000000001962141 10000000001962122 3.49086136926 13.6102 -13.0376 -12.6191
9.42771 10000000001962123 10000000001962121 10000000001962141 10000000001962120 3.08482263583 18.123 -13.575 -11.0106
9.43737 10000000001962121 10000000001962117 10000000001962141 10000000001962116 2.5772902716 12.9175 -12.2162 -10.5375
9.44329 10000000001962117 10000000001962116 10000000001962141 10000000001962115 2.44422570455 13.1028 -12.3689 -9.40029
9.45719 10000000001962116 10000000001962114 10000000001962141 10000000001962113 2.20792547238 7.52786 -10.1009 -8.33195
9.05524 10000000001962206 10000000001962205 10000000001962216 10000000001962204 4.17683491473 -6.18117 2.17772 8.08834
9.16852 10000000001962205 10000000001962204 10000000001962216 10000000001962203 4.00794511147 1.03542 1.30735 4.37245
9.17512 10000000001962204 10000000001962202 10000000001962216 10000000001962201 3.70877426464 -1.80469 -1.01436 0.381343
9.19013 10000000001962202 10000000001962201 10000000001962216 10000000001962200 3.49086136926 0.549433 6.17336 3.83044
9.30763 10000000001962201 10000000001962200 10000000001962216 10000000001962199 3.28303305796 -9.09578 15.105 -3.27611
9.31717 10000000001962200 10000000001962198 10000000001962216 10000000001962197 3.00813107163 -8.41131 16.4086 -2.33444
9.36199 10000000001962198 10000000001962195 10000000001962216 10000000001962194 2.5772902716 -4.50151 13.131 7.84802
9.00012 10000000001962304 10000000001962303 10000000001962311 10000000001962302 3.08482263583 6.45196 1.14612 7.51036
9.02855 10000000001962303 10000000001962301 10000000001962311 10000000001962300 2.89578500573 7.07312 -0.795032 5.64932
9.03463 10000000001962301 10000000001962299 10000000001962311 10000000001962298 2.5772902716 7.06388 -3.78844 1.31876
9.05235 10000000001962299 10000000001962298 10000000001962311 10000000001962297 2.44422570455 4.03595 -3.4049 0.417974
9.13634 10000000001962298 10000000001962297 10000000001962311 10000000001962296 2.31611074396 25.7573 -13.8653 -25.8907
9.05811 10000000001962439 10000000001962438 10000000001962444 10000000001962437 9.00233985416 9.54963 6.08493 4.36196
9.09375 10000000001962438 10000000001962437 10000000001962444 10000000001962436 8.9079991856 7.07022 7.43362 3.66999
9.21272 10000000001962437 10000000001962436 10000000001962444 10000000001962435 8.44947629437 6.76362 2.51794 2.01959
9.40518 10000000001962436 10000000001962435 10000000001962444 10000000001962434 8.01217294887 2.98487 -8.46064 2.56674
9.53332 10000000001962435 10000000001962434 10000000001962444 10000000001962433 7.59510714987 9.94626 -3.05457 6.55278
9.60218 10000000001962434 10000000001962432 10000000001962444 10000000001962431 7.00541704554 7.07346 -8.4468 5.67133
9.63442 10000000001962432 10000000001962431 10000000001962444 10000000001962430 6.85511726265 7.87067 -6.33002 8.40349
9.66372 10000000001962431 10000000001962430 10000000001962444 10000000001962429 6.49159774567 5.98268 -5.43291 7.95003
9.71825 10000000001962430 10000000001962429 10000000001962444 10000000001962428 6.14490120342 6.0155 -1.23802 9.91528
9.76049 10000000001962429 10000000001962428 10000000001962444 10000000001962427 6.01075739884 1.93027 -4.89734 13.5226
9.76444 10000000001962428 10000000001962426 10000000001962444 10000000001962425 5.52976580795 3.24491 -7.48406 10.8273
9.79166 10000000001962426 10000000001962425 10000000001962444 10000000001962424 5.22758097313 4.44963 -6.83083 12.7016
9.83958 10000000001962425 10000000001962424 10000000001962444 10000000001962423 4.99593346816 2.511 -2.27045 17.2181
9.84893 10000000001962424 10000000001962423 10000000001962444 10000000001962422 4.93938066349 4.338 -3.25171 18.1987
9.88783 10000000001962423 10000000001962422 10000000001962444 10000000001962421 4.66451770247 5.92715 -10.7204 15.0807
9.93772 10000000001962422 10000000001962421 10000000001962444 10000000001962420 4.42803373661 4.6093 -20.6722 13.5915
9.98551 10000000001962421 10000000001962420 10000000001962444 10000000001962419 4.17683491473 24.9393 9.05212 9.28039
10.0555 10000000001962420 10000000001962419 10000000001962444 10000000001962418 4.00794511147 36.2986 47.8897 22.0841
10.0733 10000000001962419 10000000001962418 10000000001962444 10000000001962417 3.93726108473 35.5951 67.5266 28.2155
10.1178 10000000001962418 10000000001962417 10000000001962444 10000000001962416 3.70877426464 32.876 70.4873 39.0212
10.1676 10000000001962417 10000000001962416 10000000001962444 10000000001962415 3.49086136926 42.5164 69.6998 22.3679
10.2026 10000000001962416 10000000001962415 10000000001962444 10000000001962414 3.28303305796 6.45223 62.6634 59.2222
10.2279 10000000001962415 10000000001962414 10000000001962444 10000000001962413 3.08482263583 19.0977 72.702 41.944
10.3671 10000000001962414 10000000001962413 10000000001962444 10000000001962412 3.00813107163 46.2425 43.3359 -34.8778
10.4318 10000000001962413 10000000001962412 10000000001962444 10000000001962411 2.89578500573 58.986 38.058 -108.366
10.5043 10000000001962412 10000000001962411 10000000001962444 10000000001962410 2.73314261732 66.0894 22.6927 -142.919
10.5719 10000000001962411 10000000001962410 10000000001962444 10000000001962409 2.5772902716 57.066 28.2671 -139.323
10.6019 10000000001962410 10000000001962409 10000000001962444 10000000001962408 2.44422570455 54.094 15.7732 -125.408
10.6492 10000000001962409 10000000001962408 10000000001962444 10000000001962407 2.31611074396 65.7858 19.3102 -123.199
10.6671 10000000001962408 10000000001962407 10000000001962444 10000000001962406 2.20792547238 68.0325 28.5289 -110.656
10.6867 10000000001962407 10000000001962406 10000000001962444 10000000001962405 2.1032696526 56.7822 24.692 -88.3857
9.14811 10000000001962504 10000000001962503 10000000001962509 10000000001962502 6.14490120342 -15.2076 -4.82576 -3.91046
9.2087 10000000001962503 10000000001962500 10000000001962509 10000000001962499 5.52976580795 -12.5076 -1.47474 -0.958933
9.31243 10000000001962500 10000000001962499 10000000001962509 10000000001962498 5.22758097313 -5.56194 4.70775 -6.02269
9.43737 10000000001962499 10000000001962498 10000000001962509 10000000001962497 4.99593346816 15.5339 31.8371 2.66584
9.49221 10000000001962498 10000000001962497 10000000001962509 10000000001962496 4.93938066349 6.78872 28.7099 -7.6686
9.53996 10000000001962497 10000000001962496 10000000001962509 10000000001962495 4.66451770247 -16.5548 18.2854 -8.9154
9.57869 10000000001962496 10000000001962495 10000000001962509 10000000001962494 4.42803373661 -10.539 18.1893 -1.75946
9.70941 10000000001962495 10000000001962493 10000000001962509 10000000001962492 4.00794511147 -13.5016 7.89615 -2.278
9.76724 10000000001962493 10000000001962492 10000000001962509 10000000001962491 3.93726108473 -18.3953 19.8421 -24.7078
10.0346 10000000001962492 10000000001962491 10000000001962509 10000000001962490 3.70877426464 -16.2374 -15.0054 -41.8188
10.1013 10000000001962491 10000000001962490 10000000001962509 10000000001962489 3.49086136926 -4.10772 2.51725 -30.6305
9.73057 10000000001962522 10000000001962521 10000000001962522 10000000001962493 4.17683491473 -17.3664 -1.41514 -10.8558
9.08845 10000000001962536 10000000001962535 10000000001962545 10000000001962534 4.00794511147 26.2122 13.4049 5.4537
9.17946 10000000001962589 10000000001962588 10000000001962603 10000000001962587 4.00794511147 10.5098 -3.63409 -7.58769
9.04062 10000000001962619 10000000001962618 10000000001962625 10000000001962617 4.99593346816 -22.7696 -1.82242 -0.850943
9.04653 10000000001962618 10000000001962616 10000000001962625 10000000001962615 4.66451770247 -20.0335 -4.17287 -2.21097
9.15273 10000000001962616 10000000001962614 10000000001962625 10000000001962613 4.17683491473 -24.5658 -3.31367 3.68402
9.02239 10000000001962630 10000000001962629 10000000001962637 10000000001962628 3.93726108473 -18.6516 -2.03001 6.64772
9.06378 10000000001962675 10000000001962674 10000000001962685 10000000001962673 6.85511726265 1.08394 -2.45451 -0.356599
9.15273 10000000001962674 10000000001962673 10000000001962685 10000000001962672 6.49159774567 -0.639047 -7.61377 6.66538
9.17946 10000000001962673 10000000001962672 10000000001962685 10000000001962671 6.14490120342 -1.78964 -12.0084 5.91793
9.19013 10000000001962672 10000000001962671 10000000001962685 10000000001962670 6.01075739884 -1.18989 -10.4692 5.0654
9.19433 10000000001962671 10000000001962670 10000000001962685 10000000001962669 5.84661374788 1.46709 -5.41986 -0.170465
9.31083 10000000001962670 10000000001962669 10000000001962685 10000000001962668 5.52976580795 -1.37915 -8.86681 2.22479
9.41282 10000000001962669 10000000001962668 10000000001962685 10000000001962667 5.22758097313 -0.794013 -10.0938 5.53056
9.4549 10000000001962668 10000000001962667 10000000001962685 10000000001962666 4.99593346816 -8.42795 -5.71164 11.9855
9.45833 10000000001962667 10000000001962666 10000000001962685 10000000001962665 4.93938066349 1.22381 -7.56733 7.41491
9.59143 10000000001962666 10000000001962665 10000000001962685 10000000001962664 4.66451770247 -19.0998 -3.64369 24.0072
9.0066 10000000001962750 10000000001962749 10000000001962767 10000000001962748 2.89578500573 -5.73895 -0.839242 -1.35833
9.03763 10000000001962749 10000000001962748 10000000001962767 10000000001962747 2.73314261732 -3.2745 -4.44382 -0.232788
9.04358 10000000001962748 10000000001962745 10000000001962767 10000000001962744 2.31611074396 1.09712 -8.26094 1.48078
9.04945 10000000001962745 10000000001962744 10000000001962767 10000000001962743 2.20792547238 6.1081 -9.51325 1.44214
9.10415 10000000001962744 10000000001962743 10000000001962767 10000000001962742 2.1032696526 5.33073 -10.3969 0.960829
9.11179 10000000001962743 10000000001962742 10000000001962767 10000000001962741 2.00202813925 1.8684 -6.5612 0.588587
9.02548 10000000001962926 10000000001962925 10000000001962937 10000000001962924 4.42803373661 -2.35572 3.48688 8.97292
9.2026 10000000001962925 10000000001962924 10000000001962937 10000000001962923 4.17683491473 7.78232 -2.43614 29.8153
9.21671 10000000001962924 10000000001962922 10000000001962937 10000000001962921 3.93726108473 4.17869 0.186755 26.1389
9.25466 10000000001962922 10000000001962921 10000000001962937 10000000001962920 3.70877426464 2.90612 -3.12173 24.8247
9.28788 10000000001962921 10000000001962919 10000000001962937 10000000001962918 3.28303305796 10.7716 -4.64932 25.3042
9.30278 10000000001962919 10000000001962912 10000000001962937 10000000001962911 2.31611074396 5.11558 -3.84853 22.8223
9.00337 10000000001962989 10000000001962988 10000000001963006 10000000001962987 2.89578500573 -9.40176 7.2856 -2.75612
9.02548 10000000001962988 10000000001962986 10000000001963006 10000000001962985 2.5772902716 -9.56273 4.28078 1.48841
9.03763 10000000001962986 10000000001962985 10000000001963006 10000000001962984 2.44422570455 -12.0299 4.60133 2.86022
9.03463 10000000001963064 10000000001963063 10000000001963075 10000000001963062 3.70877426464 -1.62943 -0.670407 -3.00837
9.0666 10000000001963063 10000000001963061 10000000001963075 10000000001963060 3.28303305796 0.195302 1.19075 -6.71439
9.12178 10000000001963061 10000000001963060 10000000001963075 10000000001963059 3.08482263583 5.14588 -1.84342 -7.78663
9.14344 10000000001963060 10000000001963059 10000000001963075 10000000001963058 3.00813107163 4.55746 -2.5336 -10.0233
9.2087 10000000001963059 10000000001963058 10000000001963075 10000000001963057 2.89578500573 4.28487 -4.75329 -14.4621
9.2845 10000000001963058 10000000001963057 10000000001963075 10000000001963056 2.73314261732 5.93037 2.11404 -9.51483
9.28788 10000000001963057 10000000001963056 10000000001963075 10000000001963055 2.5772902716 5.20687 0.869224 -5.26733
9.36622 10000000001963056 10000000001963054 10000000001963075 10000000001963053 2.31611074396 -13.6561 0.974651 -6.76541
9.38277 10000000001963054 10000000001963053 10000000001963075 10000000001963052 2.20792547238 -16.937 -0.622065 -6.33658
9.41534 10000000001963053 10000000001963052 10000000001963075 10000000001963051 2.1032696526 -13.823 -6.50715 -5.53157
9.42404 10000000001963052 10000000001963050 10000000001963075 10000000001963049 1.90408954353 -14.5346 -10.3914 -2.96912
9.49326 10000000001963050 10000000001963049 10000000001963075 10000000001963048 1.82268925262 -4.36921 -36.9532 1.71713
9.21072 10000000001963153 10000000001963152 10000000001963162 10000000001963151 6.01075739884 -9.13876 -10.9238 -6.62212
9.23037 10000000001963152 10000000001963151 10000000001963162 10000000001963150 5.84661374788 -4.98808 -6.71624 -7.3259
9.30278 10000000001963151 10000000001963150 10000000001963162 10000000001963149 5.52976580795 -7.59829 -15.5194 -4.0691
9.39214 10000000001963150 10000000001963149 10000000001963162 10000000001963148 5.22758097313 -4.15095 -18.2346 2.35776
9.4026 10000000001963149 10000000001963148 10000000001963162 10000000001963147 4.99593346816 -3.31944 -13.2697 -3.43148
9.41408 10000000001963148 10000000001963147 10000000001963162 10000000001963146 4.93938066349 -3.64145 -12.5518 -2.99001
9.45261 10000000001963147 10000000001963146 10000000001963162 10000000001963145 4.66451770247 -1.52281 -11.5712 1.51212
9.53902 10000000001963146 10000000001963145 10000000001963162 10000000001963144 4.42803373661 -3.73122 -11.6471 2.57333
9.5566 10000000001963145 10000000001963144 10000000001963162 10000000001963143 4.17683491473 1.33181 -6.83689 4.681
9.56468 10000000001963144 10000000001963143 10000000001963162 10000000001963142 4.00794511147 3.88819 -6.15765 5.92375
9.58127 10000000001963143 10000000001963140 10000000001963162 10000000001963139 3.49086136926 12.813 -19.7951 -15.335
9.61425 10000000001963140 10000000001963138 10000000001963162 10000000001963137 3.08482263583 20.543 -12.2077 -16.9657
9.65874 10000000001963138 10000000001963137 10000000001963162 10000000001963136 3.00813107163 23.7422 -8.60238 -18.0279
9.67145 10000000001963137 10000000001963136 10000000001963162 10000000001963135 2.89578500573 22.894 -16.5715 -25.4953
9.6925 10000000001963136 10000000001963135 10000000001963162 10000000001963134 2.73314261732 13.1631 -14.8395 -23.4205
9.06378 10000000001963308 10000000001963307 10000000001963310 10000000001963306 7.23627606617 -0.664753 0.678151 2.24254
9.06378 10000000001963307 10000000001963306 10000000001963310 10000000001963305 7.00541704554 -1.62877 0.454062 0.212313
9.11431 10000000001963306 10000000001963305 10000000001963310 10000000001963304 6.85511726265 2.99048 -0.430098 2.01509
9.16407 10000000001963305 10000000001963304 10000000001963310 10000000001963303 6.49159774567 1.49655 -0.889567 1.50804
9.32497 10000000001963304 10000000001963303 10000000001963310 10000000001963302 6.14490120342 -4.91973 3.18327 10.0072
9.34165 10000000001963303 10000000001963302 10000000001963310 10000000001963301 6.01075739884 -1.17445 2.7415 10.0681
9.35914 10000000001963302 10000000001963301 10000000001963310 10000000001963300 5.84661374788 -1.19481 3.37992 11.986
9.39871 10000000001963301 10000000001963300 10000000001963310 10000000001963299 5.52976580795 0.21346 2.50046 11.4276
9.43377 10000000001963300 10000000001963299 10000000001963310 10000000001963298 5.22758097313 2.63224 1.91077 14.3043
9.46621 10000000001963299 10000000001963298 10000000001963310 10000000001963297 4.99593346816 1.84009 2.53702 11.2718
9.47941 10000000001963298 10000000001963297 10000000001963310 10000000001963296 4.93938066349 1.90009 2.9775 12.3574
9.50872 10000000001963297 10000000001963296 10000000001963310 10000000001963295 4.66451770247 -1.17359 0.0123208 14.8241
9.54928 10000000001963296 10000000001963295 10000000001963310 10000000001963294 4.42803373661 -0.680474 -2.8694 10.2922
9.55569 10000000001963295 10000000001963294 10000000001963310 10000000001963293 4.17683491473 0.0224508 -2.16138 3.81361
9.63366 10000000001963294 10000000001963293 10000000001963310 10000000001963292 4.00794511147 -0.104678 -4.47658 5.00855
9.63894 10000000001963293 10000000001963292 10000000001963310 10000000001963291 3.93726108473 -4.15711 -7.57989 4.01442
9.80261 10000000001963292 10000000001963291 10000000001963310 10000000001963290 3.70877426464 -16.5216 -13.1555 23.1061
9.85627 10000000001963291 10000000001963290 10000000001963310 10000000001963289 3.49086136926 -18.7983 -10.8181 19.0185
9.89787 10000000001963290 10000000001963289 10000000001963310 10000000001963288 3.28303305796 -33.6035 -20.1154 22.8641
9.92819 10000000001963289 10000000001963288 10000000001963310 10000000001963287 3.08482263583 -37.3017 -23.8563 22.3551
9.94593 10000000001963288 10000000001963287 10000000001963310 10000000001963286 3.00813107163 -34.393 -21.6287 23.8048
9.98041 10000000001963287 10000000001963286 10000000001963310 10000000001963285 2.89578500573 -37.9666 -21.7075 28.6892
9.99552 10000000001963286 10000000001963285 10000000001963310 10000000001963284 2.73314261732 -41.297 -13.8788 40.4985
9.99848 10000000001963285 10000000001963284 10000000001963310 10000000001963283 2.5772902716 -54.9014 -26.7125 47.8776
10.0258 10000000001963284 10000000001963283 10000000001963310 10000000001963282 2.44422570455 -65.2547 -30.894 59.7203
10.0532 10000000001963283 10000000001963282 10000000001963310 10000000001963281 2.31611074396 -67.5858 -33.65 56.2732
9.08578 10000000001963337 10000000001963336 10000000001963343 10000000001963335 5.52976580795 9.73506 5.56102 3.93667
9.2087 10000000001963336 10000000001963335 10000000001963343 10000000001963334 5.22758097313 9.53404 12.1363 8.57845
9.22651 10000000001963335 10000000001963334 10000000001963343 10000000001963333 4.99593346816 8.33156 12.6515 10.4359
9.2342 10000000001963334 10000000001963333 10000000001963343 10000000001963332 4.93938066349 7.93192 13.7599 10.2955
9.23799 10000000001963333 10000000001963332 10000000001963343 10000000001963331 4.66451770247 5.60301 7.17258 10.0644
9.2828 10000000001963332 10000000001963331 10000000001963343 10000000001963330 4.42803373661 13.8476 15.0682 12.7759
9.29787 10000000001963331 10000000001963330 10000000001963343 10000000001963329 4.17683491473 16.7999 12.2414 10.3729
9.01298 10000000001963408 10000000001963407 10000000001963415 10000000001963406 3.70877426464 -6.46058 -10.0532 6.02992
9.01928 10000000001963407 10000000001963406 10000000001963415 10000000001963405 3.49086136926 -5.29107 -10.2258 7.47253
9.05524 10000000001963406 10000000001963405 10000000001963415 10000000001963404 3.28303305796 -4.14795 -7.94096 1.71402
9.09375 10000000001963405 10000000001963404 10000000001963415 10000000001963403 3.08482263583 -7.19984 -4.87418 -0.769521
9.10926 10000000001963404 10000000001963403 10000000001963415 10000000001963402 3.00813107163 -6.98665 -2.20465 2.28735
9.25284 10000000001963403 10000000001963400 10000000001963415 10000000001963399 2.5772902716 -19.6389 11.5888 -2.21606
9.2811 10000000001963400 10000000001963398 10000000001963415 10000000001963397 2.31611074396 -9.38845 -1.27994 3.66806
9.32805 10000000001963398 10000000001963395 10000000001963415 10000000001963394 2.00202813925 -11.3131 -9.48549 11.3938
9.38277 10000000001963395 10000000001963394 10000000001963415 10000000001963393 1.90408954353 -14.5505 -4.39683 12.5387
9.39346 10000000001963394 10000000001963393 10000000001963415 10000000001963392 1.82268925262 -9.02712 -6.37708 10.5743
9.40646 10000000001963393 10000000001963392 10000000001963415 10000000001963391 1.74357057433 -9.83643 -1.86683 11.5735
9.40774 10000000001963392 10000000001963391 10000000001963415 10000000001963390 1.66666955611 -5.22028 -2.0786 11.7955
9.41659 10000000001963391 10000000001963390 10000000001963415 10000000001963389 1.60423452207 -8.82625 3.02494 12.5406
9.0098 10000000001963562 10000000001963561 10000000001963569 10000000001963560 4.42803373661 -13.1098 3.53201 7.67313
9.05811 10000000001963561 10000000001963560 10000000001963569 10000000001963559 4.17683491473 -10.5488 1.11165 3.36792
9.08578 10000000001963560 10000000001963559 10000000001963569 10000000001963558 4.00794511147 -10.1814 0.403904 4.32296
9.13871 10000000001963559 10000000001963557 10000000001963569 10000000001963556 3.70877426464 -9.9549 -2.54603 -2.2782
9.16407 10000000001963557 10000000001963551 10000000001963569 10000000001963550 2.73314261732 -10.9464 2.26704 8.24599
9.20668 10000000001963551 10000000001963550 10000000001963569 10000000001963549 2.5772902716 -6.97828 14.8697 12.0356
9.07216 10000000001963772 10000000001963771 10000000001963781 10000000001963770 4.93938066349 6.32101 1.83057 -0.948795
9.10671 10000000001963771 10000000001963770 10000000001963781 10000000001963769 4.66451770247 3.82915 3.13927 -2.28015
9.12424 10000000001963770 10000000001963768 10000000001963781 10000000001963767 4.17683491473 3.61399 5.5639 1.5493
9.13634 10000000001963768 10000000001963767 10000000001963781 10000000001963766 4.00794511147 4.10662 4.63561 1.05764
9.22457 10000000001963767 10000000001963762 10000000001963781 10000000001963761 3.08482263583 2.30216 6.88321 3.90998
9.2845 10000000001963762 10000000001963760 10000000001963781 10000000001963759 2.89578500573 -5.04616 32.1282 5.34341
9.31083 10000000001963760 10000000001963759 10000000001963781 10000000001963758 2.73314261732 -0.400213 39.2067 9.28374
9.34165 10000000001963759 10000000001963758 10000000001963781 10000000001963757 2.5772902716 12.0058 15.1827 6.76961
9.34902 10000000001963758 10000000001963749 10000000001963781 10000000001963748 1.66666955611 6.31607 0.0848768 -3.92202
9.37319 10000000001963749 10000000001963747 10000000001963781 10000000001963746 1.53123902916 1.33498 4.80405 -3.4684
9.41282 10000000001963747 10000000001963745 10000000001963781 10000000001963744 1.41409822037 -23.7033 32.5101 -14.2367
9.43617 10000000001963745 10000000001963743 10000000001963781 10000000001963742 1.30237845991 -8.82962 30.3746 -14.7975
9.45605 10000000001963743 10000000001963742 10000000001963781 10000000001963741 1.24847261425 -10.0453 28.0418 -11.612
9.02548 10000000001963858 10000000001963857 10000000001963891 10000000001963856 1.24847261425 13.1201 -6.28444 -3.15312
9.0066 10000000001963975 10000000001963974 10000000001964000 10000000001963973 2.20792547238 -1.1945 -0.526958 4.26058
9.01298 10000000001963974 10000000001963972 10000000001964000 10000000001963971 2.00202813925 -5.48628 0.659073 6.28998
9.08578 10000000001963972 10000000001963971 10000000001964000 10000000001963970 1.90408954353 -16.014 1.31282 12.7059
9.09375 10000000001963971 10000000001963968 10000000001964000 10000000001963967 1.66666955611 -18.0377 10.2136 13.4654
9.10926 10000000001963968 10000000001963967 10000000001964000 10000000001963966 1.60423452207 -15.7312 11.3468 11.2019
9.11431 10000000001963967 10000000001963966 10000000001964000 10000000001963965 1.53123902916 -18.1359 14.6732 8.85706
9.12178 10000000001963966 10000000001963963 10000000001964000 10000000001963962 1.3575766674 -13.3489 12.0667 7.13366
9.00012 10000000001964163 10000000001964162 10000000001964173 10000000001964161 4.93938066349 0.441257 -1.23943 -7.55999
9.01298 10000000001964162 10000000001964161 10000000001964173 10000000001964160 4.66451770247 0.0559746 -2.07924 -6.80719
9.06096 10000000001964161 10000000001964160 10000000001964173 10000000001964159 4.42803373661 -0.400189 -2.12739 -5.07883
9.0666 10000000001964160 10000000001964159 10000000001964173 10000000001964158 4.17683491473 -3.75288 -2.53643 -5.79591
9.07492 10000000001964159 10000000001964158 10000000001964173 10000000001964157 4.00794511147 -0.69893 -2.35561 -8.57955
9.12912 10000000001964158 10000000001964157 10000000001964173 10000000001964156 3.93726108473 -5.76637 -2.60827 -5.1188
9.26008 10000000001964157 10000000001964156 10000000001964173 10000000001964155 3.70877426464 -0.229125 -2.07608 -5.4457
9.33716 10000000001964156 10000000001964154 10000000001964173 10000000001964153 3.28303305796 11.4974 -0.0274814 -9.71765
9.37042 10000000001964154 10000000001964153 10000000001964173 10000000001964152 3.08482263583 10.9096 -3.4822 -9.29401
9.41534 10000000001964153 10000000001964152 10000000001964173 10000000001964151 3.00813107163 13.8253 -4.19053 -7.39816
9.43136 10000000001964152 10000000001964151 10000000001964173 10000000001964150 2.89578500573 12.8853 -4.19727 -8.49489
9.47286 10000000001964151 10000000001964150 10000000001964173 10000000001964149 2.73314261732 16.0823 -5.47771 -5.16098
9.47941 10000000001964150 10000000001964149 10000000001964173 10000000001964148 2.5772902716 17.8366 -1.29891 -4.38421
9.48372 10000000001964149 10000000001964147 10000000001964173 10000000001964146 2.31611074396 20.9661 -1.45017 -9.82682
