logMh | fpID | subhaloID | main leaf ID | descID |  z
9.02548 50000001600442378 50000001600442377 50000001600442387 50000001600442376 7.59510714987 0.807306 -1.28994 0.889558
9.1573 50000001600442377 50000001600442376 50000001600442387 50000001600442375 7.23627606617 -3.89161 -2.51858 3.2605
9.17293 50000001600442376 50000001600442375 50000001600442387 50000001600442374 7.00541704554 -0.0993878 -3.06481 -0.657488
9.2026 50000001600442375 50000001600442374 50000001600442387 50000001600442373 6.85511726265 5.39656 -1.21744 -1.71792
9.34609 50000001600442374 50000001600442373 50000001600442387 50000001600442372 6.49159774567 8.97119 -4.47544 12.2629
9.4964 50000001600442373 50000001600442372 50000001600442387 50000001600442371 6.14490120342 3.01536 -2.85987 18.74
9.4964 50000001600442372 50000001600442371 50000001600442387 50000001600442370 6.01075739884 4.38325 -1.99308 16.0055
9.50363 50000001600442371 50000001600442370 50000001600442387 50000001600442369 5.84661374788 3.43899 -3.63375 15.8328
9.54651 50000001600442370 50000001600442369 50000001600442387 50000001600442368 5.52976580795 5.57723 -6.00021 16.9862
9.56999 50000001600442369 50000001600442368 50000001600442387 50000001600442367 5.22758097313 7.62995 -2.76949 10.3045
9.60136 50000001600442368 50000001600442367 50000001600442387 50000001600442366 4.99593346816 6.57799 -4.43255 13.033
9.83863 50000001600442367 50000001600442362 50000001600442387 50000001600442361 4.00794511147 -15.1256 -7.41677 17.5277
9.85444 50000001600442362 50000001600442361 50000001600442387 50000001600442360 3.93726108473 -12.8459 -8.15043 18.2949
10.0722 50000001600442361 50000001600442360 50000001600442387 50000001600442359 3.70877426464 -4.29006 -6.8905 20.758
10.1178 50000001600442360 50000001600442359 50000001600442387 50000001600442358 3.49086136926 -10.6749 -1.81804 12.6658
10.1712 50000001600442359 50000001600442358 50000001600442387 50000001600442357 3.28303305796 1.25855 -1.58962 20.685
10.2261 50000001600442358 50000001600442357 50000001600442387 50000001600442356 3.08482263583 -14.5022 -13.4871 17.9703
10.2508 50000001600442357 50000001600442356 50000001600442387 50000001600442355 3.00813107163 -16.1879 -17.8986 20.8839
10.3041 50000001600442356 50000001600442355 50000001600442387 50000001600442354 2.89578500573 -22.388 -35.9357 28.4846
10.3721 50000001600442355 50000001600442354 50000001600442387 50000001600442353 2.73314261732 -37.4795 -42.9005 37.7199
10.3973 50000001600442354 50000001600442353 50000001600442387 50000001600442352 2.5772902716 -36.9114 -48.8471 32.4941
10.4076 50000001600442353 50000001600442352 50000001600442387 50000001600442351 2.44422570455 -39.3216 -51.8248 31.4577
10.4711 50000001600442352 50000001600442351 50000001600442387 50000001600442350 2.31611074396 -56.7758 -59.4116 39.0168
10.5165 50000001600442351 50000001600442350 50000001600442387 50000001600442349 2.20792547238 -75.1536 -49.4376 107.268
10.5213 50000001600442350 50000001600442349 50000001600442387 50000001600442348 2.1032696526 -80.8251 -54.6059 128.212
10.5703 50000001600442349 50000001600442348 50000001600442387 50000001600442347 2.00202813925 -135.926 -65.2659 172.226
10.5761 50000001600442348 50000001600442346 50000001600442387 50000001600442345 1.82268925262 -104.109 -59.1019 157.873
10.615 50000001600442346 50000001600442345 50000001600442387 50000001600442344 1.74357057433 -87.0509 -58.3311 164.944
10.6233 50000001600442345 50000001600442344 50000001600442387 50000001600442343 1.66666955611 -106.407 -65.1483 175.895
10.6715 50000001600442344 50000001600442342 50000001600442387 50000001600442341 1.53123902916 -58.6767 -10.7837 125.14
10.6775 50000001600442342 50000001600442341 50000001600442387 50000001600442340 1.47197484527 -50.0073 1.05725 139.105
10.69 50000001600442341 50000001600442340 50000001600442387 50000001600442339 1.41409822037 -41.8531 16.1302 129.985
10.7264 50000001600442340 50000001600442339 50000001600442387 50000001600442338 1.3575766674 -34.7663 17.1624 128.677
10.7615 50000001600442339 50000001600442337 50000001600442387 50000001600442336 1.24847261425 28.9085 83.1388 78.0597
10.7945 50000001600442337 50000001600442336 50000001600442387 50000001600442335 1.20625808078 56.0194 126.699 34.1448
10.8255 50000001600442336 50000001600442335 50000001600442387 50000001600442334 1.15460271236 86.0849 116.519 19.1077
10.863 50000001600442335 50000001600442333 50000001600442387 50000001600442332 1.07445789455 158.871 103.857 54.2626
10.9009 50000001600442333 50000001600442332 50000001600442387 50000001600442331 1.03551044566 197.795 80.2823 56.386
10.9235 50000001600442332 50000001600442331 50000001600442387 50000001600442330 0.997294225782 204.44 77.3282 60.7516
10.9415 50000001600442331 50000001600442329 50000001600442387 50000001600442328 0.950531351585 212.963 71.3824 77.1512
10.9545 50000001600442329 50000001600442328 50000001600442387 50000001600442327 0.923000816178 205.644 60.7776 76.2779
10.9596 50000001600442328 50000001600442327 50000001600442387 50000001600442326 0.886896937575 180.036 64.3321 66.0366
10.9626 50000001600442327 50000001600442326 50000001600442387 50000001600442325 0.851470900625 153.064 60.7376 67.922
10.9756 50000001600442326 50000001600442325 50000001600442387 50000001600442324 0.816709979012 156.902 55.0462 75.2079
10.9891 50000001600442325 50000001600442324 50000001600442387 50000001600442323 0.791068248946 175.823 53.5669 82.7006
10.9956 50000001600442324 50000001600442323 50000001600442387 50000001600442322 0.757441372616 175.684 58.5129 90.0228
10.997 50000001600442323 50000001600442315 50000001600442387 50000001600442314 0.546392183141 128.222 83.7273 77.2998
11.0106 50000001600442315 50000001600442307 50000001600442387 50000001600442306 0.38016786726 124.8 95.9843 67.5156
11.017 50000001600442307 50000001600442305 50000001600442387 50000001600442304 0.347853841858 113.8 56.8173 65.2743
11.0249 50000001600442305 50000001600442304 50000001600442387 50000001600442303 0.328829724206 96.1118 65.8581 66.4735
11.0349 50000001600442304 50000001600442303 50000001600442387 50000001600442302 0.310074120128 101.099 54.8238 62.3576
11.0392 50000001600442303 50000001600442302 50000001600442387 50000001600442301 0.291583239722 95.3847 45.9056 61.4089
11.0431 50000001600442302 50000001600442301 50000001600442387 50000001600442300 0.273353346578 96.069 30.0521 67.4017
11.0517 50000001600442301 50000001600442300 50000001600442387 50000001600442299 0.261343256161 92.5734 36.6155 72.8763
11.0596 50000001600442300 50000001600442299 50000001600442387 50000001600442298 0.243540181555 83.5867 23.0981 76.5355
11.0831 50000001600442299 50000001600442297 50000001600442387 50000001600442296 0.214425035514 55.7862 45.5479 87.3151
11.0943 50000001600442297 50000001600442296 50000001600442387 50000001600442295 0.197284182376 72.6645 28.4396 97.6983
11.1035 50000001600442296 50000001600442292 50000001600442387 50000001600442291 0.14187620397 74.6221 39.9044 60.7896
11.108 50000001600442292 50000001600442287 50000001600442387 50000001600442286 0.0736613846564 43.5084 43.8019 79.7906
11.1119 50000001600442287 50000001600442286 50000001600442387 50000001600442285 0.0585073227945 36.0103 31.6422 74.2571
11.1199 50000001600442286 50000001600442285 50000001600442387 50000001600442284 0.0485236299818 38.5601 35.4374 78.3422
11.1221 50000001600442285 50000001600442284 50000001600442387 50000001600442283 0.0337243718735 49.6353 23.8525 89.1585
11.1241 50000001600442284 50000001600442283 50000001600442387 50000001600442282 0.0239744283828 46.1633 12.4414 88.5985
11.1264 50000001600442283 50000001600442282 50000001600442387 50000001600442281 0.00952166696794 29.2512 -8.06672 98.5233
11.1298 50000001600442282 50000001600442281 50000001600442387 -1 2.22044604925e-16 24.7628 19.3405 93.3312
9.0066 50000001600442418 50000001600442417 50000001600442425 50000001600442416 6.85511726265 -5.68874 1.61998 -7.46053
9.03463 50000001600442417 50000001600442416 50000001600442425 50000001600442415 6.49159774567 -7.46106 1.22879 -8.44852
9.08309 50000001600442416 50000001600442415 50000001600442425 50000001600442414 6.14490120342 -3.94027 1.80582 -5.75362
9.22651 50000001600442415 50000001600442414 50000001600442425 50000001600442413 6.01075739884 -3.8522 -9.4182 2.24874
9.33111 50000001600442414 50000001600442413 50000001600442425 50000001600442412 5.84661374788 -11.4816 -5.62007 -3.29599
9.41408 50000001600442413 50000001600442412 50000001600442425 50000001600442411 5.52976580795 -11.6584 -9.5666 1.8257
9.54836 50000001600442412 50000001600442411 50000001600442425 50000001600442410 5.22758097313 -36.7936 -14.4724 -5.45796
9.64564 50000001600442411 50000001600442408 50000001600442425 50000001600442407 4.66451770247 -35.759 -12.9145 13.7396
9.7226 50000001600442408 50000001600442407 50000001600442425 50000001600442406 4.42803373661 -24.5989 -6.20488 2.94709
9.75993 50000001600442407 50000001600442406 50000001600442425 50000001600442405 4.17683491473 -16.6725 -3.12839 17.0535
9.09898 50000001600442501 50000001600442500 50000001600442510 50000001600442499 4.17683491473 4.48026 5.71582 -0.669686
9.1193 50000001600442500 50000001600442499 50000001600442510 50000001600442498 4.00794511147 -0.0924777 7.0419 -0.811765
9.12178 50000001600442499 50000001600442498 50000001600442510 50000001600442497 3.93726108473 1.23252 4.28232 0.245451
9.14108 50000001600442498 50000001600442497 50000001600442510 50000001600442496 3.70877426464 2.98202 4.89985 2.43157
9.18589 50000001600442497 50000001600442496 50000001600442510 50000001600442495 3.49086136926 -4.26041 5.70734 1.66802
9.01928 50000001600442581 50000001600442580 50000001600442587 50000001600442579 6.01075739884 -1.08402 9.31439 2.12877
9.04358 50000001600442580 50000001600442578 50000001600442587 50000001600442577 5.52976580795 6.45261 6.74089 -0.766815
9.12178 50000001600442578 50000001600442577 50000001600442587 50000001600442576 5.22758097313 -6.0668 7.59748 10.2529
9.25466 50000001600442577 50000001600442576 50000001600442587 50000001600442575 4.99593346816 -1.28314 7.71981 8.14316
9.26187 50000001600442576 50000001600442575 50000001600442587 50000001600442574 4.93938066349 -2.19393 7.06695 8.10766
9.27766 50000001600442575 50000001600442574 50000001600442587 50000001600442573 4.66451770247 -7.25238 7.77379 9.49168
9.37595 50000001600442574 50000001600442573 50000001600442587 50000001600442572 4.42803373661 3.3032 7.28176 8.83702
9.41659 50000001600442573 50000001600442572 50000001600442587 50000001600442571 4.17683491473 -4.06528 18.3144 7.54716
9.47724 50000001600442572 50000001600442571 50000001600442587 50000001600442570 4.00794511147 -6.09659 24.659 15.2534
9.48372 50000001600442571 50000001600442570 50000001600442587 50000001600442569 3.93726108473 -1.71031 12.2873 12.0385
9.53523 50000001600442570 50000001600442569 50000001600442587 50000001600442568 3.70877426464 0.917309 24.9769 18.0176
9.53808 50000001600442569 50000001600442568 50000001600442587 50000001600442567 3.49086136926 4.97577 16.576 19.1867
9.58469 50000001600442568 50000001600442567 50000001600442587 50000001600442566 3.28303305796 5.91313 14.9862 21.4629
9.59725 50000001600442567 50000001600442566 50000001600442587 50000001600442565 3.08482263583 -1.0158 5.23196 31.325
9.59807 50000001600442566 50000001600442565 50000001600442587 50000001600442564 3.00813107163 2.86318 9.52872 33.8299
9.63894 50000001600442565 50000001600442564 50000001600442587 50000001600442563 2.89578500573 13.6075 23.7916 30.8344
9.68244 50000001600442564 50000001600442562 50000001600442587 50000001600442561 2.5772902716 16.3083 25.8261 50.8662
9.77279 50000001600442562 50000001600442561 50000001600442587 50000001600442560 2.44422570455 22.1131 40.8658 29.4446
9.00337 50000001600442626 50000001600442625 50000001600442634 50000001600442624 3.93726108473 -9.19666 1.40589 -13.3691
9.04945 50000001600442625 50000001600442622 50000001600442634 50000001600442621 3.28303305796 -3.66361 -11.2801 -12.4491
9.05524 50000001600442622 50000001600442618 50000001600442634 50000001600442617 2.73314261732 -1.81398 -5.23668 -11.3457
9.01928 50000001600442732 50000001600442731 50000001600442739 50000001600442730 6.49159774567 -1.35821 4.92944 1.72166
9.08309 50000001600442731 50000001600442730 50000001600442739 50000001600442729 6.14490120342 0.321662 4.36319 2.97517
9.09111 50000001600442730 50000001600442729 50000001600442739 50000001600442728 6.01075739884 -1.00663 4.28929 1.60642
9.14578 50000001600442729 50000001600442728 50000001600442739 50000001600442727 5.84661374788 0.099846 0.939719 5.16535
9.17512 50000001600442728 50000001600442726 50000001600442739 50000001600442725 5.22758097313 -0.275905 2.34463 0.798604
9.19433 50000001600442726 50000001600442724 50000001600442739 50000001600442723 4.93938066349 0.621232 2.36507 1.70784
9.19433 50000001600442724 50000001600442723 50000001600442739 50000001600442722 4.66451770247 -0.315274 3.81809 4.87159
9.21671 50000001600442723 50000001600442722 50000001600442739 50000001600442721 4.42803373661 0.0942249 3.35111 -0.575992
9.26187 50000001600442722 50000001600442721 50000001600442739 50000001600442720 4.17683491473 -1.30581 3.34927 6.2972
9.2672 50000001600442721 50000001600442718 50000001600442739 50000001600442717 3.70877426464 -2.18489 -0.0232719 3.56113
9.31401 50000001600442718 50000001600442717 50000001600442739 50000001600442716 3.49086136926 -1.85853 -0.742003 4.33369
9.3156 50000001600442717 50000001600442715 50000001600442739 50000001600442714 3.08482263583 -8.62682 1.8252 5.7664
9.32958 50000001600442715 50000001600442714 50000001600442739 50000001600442713 3.00813107163 -9.71845 2.70415 4.62367
9.00337 50000001600442864 50000001600442863 50000001600442869 50000001600442862 8.01217294887 1.21888 -9.79686 -1.66541
9.06378 50000001600442863 50000001600442861 50000001600442869 50000001600442860 7.23627606617 1.38376 -11.3259 -0.885208
9.12424 50000001600442861 50000001600442860 50000001600442869 50000001600442859 7.00541704554 0.608789 -5.13657 0.873881
9.19013 50000001600442860 50000001600442859 50000001600442869 50000001600442858 6.85511726265 1.27826 -5.9775 2.84221
9.29457 50000001600442859 50000001600442858 50000001600442869 50000001600442857 6.49159774567 1.97416 -8.85409 -1.38218
9.43015 50000001600442858 50000001600442857 50000001600442869 50000001600442856 6.14490120342 -12.7692 -14.4197 -15.8281
9.43974 50000001600442857 50000001600442856 50000001600442869 50000001600442855 6.01075739884 -9.73486 -11.13 -13.4658
9.47615 50000001600442856 50000001600442855 50000001600442869 50000001600442854 5.84661374788 -9.57199 -13.5933 -15.1326
9.52851 50000001600442855 50000001600442854 50000001600442869 50000001600442853 5.52976580795 -5.4121 -17.5096 -14.0703
9.57087 50000001600442854 50000001600442852 50000001600442869 50000001600442851 4.99593346816 -8.0282 -16.6968 -10.2261
9.57956 50000001600442852 50000001600442851 50000001600442869 50000001600442850 4.93938066349 -8.45525 -17.1521 -9.89538
9.59972 50000001600442851 50000001600442846 50000001600442869 50000001600442845 3.93726108473 3.49859 -0.043297 -2.75835
9.66017 50000001600442846 50000001600442845 50000001600442869 50000001600442844 3.70877426464 0.676483 2.61389 -18.6728
9.78475 50000001600442845 50000001600442844 50000001600442869 50000001600442843 3.49086136926 -11.7674 -0.774945 -34.4722
9.87321 50000001600442844 50000001600442843 50000001600442869 50000001600442842 3.28303305796 -14.5967 -4.1161 -40.8115
9.93317 50000001600442843 50000001600442842 50000001600442869 50000001600442841 3.08482263583 -19.2388 -1.60149 -40.1927
9.97835 50000001600442842 50000001600442840 50000001600442869 50000001600442839 2.89578500573 -21.2085 0.889101 -40.4986
10.0095 50000001600442840 50000001600442839 50000001600442869 50000001600442838 2.73314261732 -24.2381 6.7611 -42.9203
10.0236 50000001600442839 50000001600442838 50000001600442869 50000001600442837 2.5772902716 -30.4282 2.81171 -45.2024
10.0442 50000001600442838 50000001600442837 50000001600442869 50000001600442836 2.44422570455 -31.8645 3.31781 -43.9869
10.0465 50000001600442837 50000001600442836 50000001600442869 50000001600442835 2.31611074396 -33.5203 2.09794 -49.0171
10.076 50000001600442836 50000001600442835 50000001600442869 50000001600442834 2.20792547238 -29.4013 18.509 -47.0881
10.0826 50000001600442835 50000001600442834 50000001600442869 50000001600442833 2.1032696526 -36.7297 9.788 -59.8751
10.1385 50000001600442834 50000001600442833 50000001600442869 50000001600442832 2.00202813925 -49.8802 13.0509 -68.2397
9.01614 50000001600442904 50000001600442903 50000001600442912 50000001600442902 7.00541704554 1.03474 -1.5599 -8.9421
9.07492 50000001600442903 50000001600442902 50000001600442912 50000001600442901 6.85511726265 1.51048 12.0053 -15.154
9.08038 50000001600442902 50000001600442901 50000001600442912 50000001600442900 6.49159774567 1.56736 8.22245 -4.05934
9.17946 50000001600442901 50000001600442900 50000001600442912 50000001600442899 6.14490120342 5.20639 12.8485 -12.6176
9.18376 50000001600442900 50000001600442899 50000001600442912 50000001600442898 6.01075739884 3.7696 11.3804 -5.03192
9.22651 50000001600442899 50000001600442897 50000001600442912 50000001600442896 5.52976580795 3.49411 13.3715 -12.825
9.2845 50000001600442897 50000001600442896 50000001600442912 50000001600442895 5.22758097313 3.45876 13.7334 -14.2973
9.34902 50000001600442896 50000001600442895 50000001600442912 50000001600442894 4.99593346816 0.822471 17.8028 -13.6254
9.37457 50000001600442895 50000001600442892 50000001600442912 50000001600442891 4.42803373661 5.73931 12.5038 -9.51646
9.38948 50000001600442892 50000001600442891 50000001600442912 50000001600442890 4.17683491473 4.37447 14.1654 -8.18607
9.42404 50000001600442891 50000001600442890 50000001600442912 50000001600442889 4.00794511147 5.75939 9.98174 -9.71392
9.0666 50000001600442931 50000001600442930 50000001600442943 50000001600442929 3.49086136926 -4.39678 -8.38041 -4.6292
9.11431 50000001600442930 50000001600442927 50000001600442943 50000001600442926 3.00813107163 0.47036 -4.31553 -8.34627
9.13871 50000001600442927 50000001600442926 50000001600442943 50000001600442925 2.89578500573 -0.0784893 -4.42633 -6.90348
9.16852 50000001600442926 50000001600442925 50000001600442943 50000001600442924 2.73314261732 1.41288 -2.59207 -7.70061
9.19848 50000001600442925 50000001600442924 50000001600442943 50000001600442923 2.5772902716 2.47148 -3.21306 -4.48235
9.02548 50000001600443051 50000001600443050 50000001600443061 50000001600443049 3.49086136926 -6.7142 5.09756 -3.33956
9.07492 50000001600443050 50000001600443049 50000001600443061 50000001600443048 3.28303305796 -3.71803 6.31679 0.727795
9.09898 50000001600443049 50000001600443048 50000001600443061 50000001600443047 3.08482263583 -11.6318 1.73736 -2.23179
9.11431 50000001600443048 50000001600443047 50000001600443061 50000001600443046 3.00813107163 -9.47328 0.47842 -4.1098
9.14578 50000001600443047 50000001600443046 50000001600443061 50000001600443045 2.89578500573 -5.59902 2.08422 -0.19247
9.15956 50000001600443046 50000001600443045 50000001600443061 50000001600443044 2.73314261732 0.675953 2.3545 -1.76885
9.19433 50000001600443045 50000001600443043 50000001600443061 50000001600443042 2.44422570455 4.06404 -2.58578 -5.20666
9.26365 50000001600443043 50000001600443042 50000001600443061 50000001600443041 2.31611074396 3.69938 -5.78692 0.576844
9.27766 50000001600443042 50000001600443040 50000001600443061 50000001600443039 2.1032696526 0.0356644 -8.29742 0.725857
9.30923 50000001600443040 50000001600443033 50000001600443061 50000001600443032 1.53123902916 -0.86732 -1.32607 8.73167
9.33716 50000001600443033 50000001600443032 50000001600443061 50000001600443031 1.47197484527 8.13575 -33.1954 2.2697
9.35483 50000001600443032 50000001600443030 50000001600443061 50000001600443029 1.3575766674 6.70694 -28.5833 10.8648
9.40902 50000001600443030 50000001600443029 50000001600443061 50000001600443028 1.30237845991 19.6611 -31.9453 33.0484
9.03763 50000001600443127 50000001600443126 50000001600443142 50000001600443125 3.70877426464 -6.29265 1.43573 -1.41266
9.10671 50000001600443126 50000001600443125 50000001600443142 50000001600443124 3.49086136926 -6.00169 1.99533 -0.187355
9.20668 50000001600443125 50000001600443123 50000001600443142 50000001600443122 3.08482263583 -16.1555 19.3014 -2.84037
9.23037 50000001600443123 50000001600443118 50000001600443142 50000001600443117 2.44422570455 -17.6219 11.2716 -4.60216
9.23229 50000001600443118 50000001600443117 50000001600443142 50000001600443116 2.31611074396 -20.0664 10.1834 -6.29162
9.26365 50000001600443117 50000001600443115 50000001600443142 50000001600443114 2.1032696526 -16.0661 9.97428 -3.28555
9.26896 50000001600443115 50000001600443113 50000001600443142 50000001600443112 1.90408954353 -9.65888 10.303 -4.74396
9.31401 50000001600443113 50000001600443112 50000001600443142 50000001600443111 1.82268925262 -12.9709 11.3802 -2.57086
9.33566 50000001600443112 50000001600443110 50000001600443142 50000001600443109 1.66666955611 -11.7814 7.84639 0.503937
9.01614 50000001600443210 50000001600443209 50000001600443211 50000001600443208 7.00541704554 -9.8773 9.80257 -4.98846
9.23799 50000001600443209 50000001600443206 50000001600443211 50000001600443205 6.14490120342 -2.95705 14.195 0.543023
9.24733 50000001600443206 50000001600443205 50000001600443211 50000001600443204 6.01075739884 -1.81373 14.1404 0.920976
9.26543 50000001600443205 50000001600443204 50000001600443211 50000001600443203 5.84661374788 -1.88708 13.2645 0.785655
9.33716 50000001600443204 50000001600443203 50000001600443211 50000001600443202 5.52976580795 -2.20096 11.1035 0.217295
9.42033 50000001600443203 50000001600443202 50000001600443211 50000001600443201 5.22758097313 -0.562231 17.7735 0.417684
9.46172 50000001600443202 50000001600443201 50000001600443211 50000001600443200 4.99593346816 -3.54953 19.5284 3.41238
9.50363 50000001600443201 50000001600443200 50000001600443211 50000001600443199 4.93938066349 -6.30731 20.6814 1.91209
9.5314 50000001600443200 50000001600443199 50000001600443211 50000001600443198 4.66451770247 -4.06249 18.3495 -0.840216
9.54928 50000001600443199 50000001600443198 50000001600443211 50000001600443197 4.42803373661 -8.66246 23.7002 0.435449
9.60462 50000001600443198 50000001600443197 50000001600443211 50000001600443196 4.17683491473 -4.57153 19.8413 -5.37593
9.63969 50000001600443197 50000001600443196 50000001600443211 50000001600443195 4.00794511147 -0.889757 16.2703 5.15462
9.6838 50000001600443196 50000001600443195 50000001600443211 50000001600443194 3.93726108473 0.627264 18.5371 4.87175
9.70813 50000001600443195 50000001600443194 50000001600443211 50000001600443193 3.70877426464 -0.384386 18.0606 6.6171
9.72445 50000001600443194 50000001600443193 50000001600443211 50000001600443192 3.49086136926 -0.613954 21.5199 0.833781
9.74314 50000001600443193 50000001600443191 50000001600443211 50000001600443190 3.08482263583 -2.45074 18.9084 -1.42565
9.78152 50000001600443191 50000001600443190 50000001600443211 50000001600443189 3.00813107163 -3.60298 15.403 3.21866
9.79324 50000001600443190 50000001600443189 50000001600443211 50000001600443188 2.89578500573 -3.34193 14.2384 3.28553
9.82272 50000001600443189 50000001600443187 50000001600443211 50000001600443186 2.5772902716 -2.89414 13.4862 10.5066
9.84521 50000001600443187 50000001600443186 50000001600443211 50000001600443185 2.44422570455 -0.174644 13.213 13.517
9.94593 50000001600443186 50000001600443184 50000001600443211 50000001600443183 2.20792547238 -23.6754 47.1119 14.1397
9.94815 50000001600443184 50000001600443181 50000001600443211 50000001600443180 1.90408954353 13.313 6.74467 17.314
9.99946 50000001600443181 50000001600443180 50000001600443211 50000001600443179 1.82268925262 3.52783 30.7115 35.3623
10.0337 50000001600443180 50000001600443177 50000001600443211 50000001600443176 1.60423452207 0.153011 30.9849 40.7996
10.0352 50000001600443177 50000001600443175 50000001600443211 50000001600443174 1.47197484527 -2.86589 6.83601 43.2886
10.0749 50000001600443175 50000001600443173 50000001600443211 50000001600443172 1.3575766674 35.2009 3.49798 39.4318
10.0852 50000001600443173 50000001600443171 50000001600443211 50000001600443170 1.24847261425 37.6691 1.31729 38.7265
10.1018 50000001600443171 50000001600443170 50000001600443211 50000001600443169 1.20625808078 63.7797 -16.5701 34.0449
9.0666 50000001600443265 50000001600443264 50000001600443278 50000001600443263 2.00202813925 -26.3382 -0.204037 5.77599
