logMh | fpID | subhaloID | main leaf ID | descID |  z
9.17293 30000000101143171 30000000101143170 30000000101143174 30000000101143169 9.00233985416 7.61732 0.627804 -1.35654
9.21671 30000000101143170 30000000101143169 30000000101143174 30000000101143168 8.9079991856 9.11384 -2.94995 -2.31501
9.33566 30000000101143169 30000000101143168 30000000101143174 30000000101143167 8.44947629437 2.52882 -2.76176 9.64894
9.53996 30000000101143168 30000000101143167 30000000101143174 30000000101143166 8.01217294887 6.58801 0.519729 2.0107
9.81428 30000000101143167 30000000101143166 30000000101143174 30000000101143165 7.59510714987 -3.49212 -7.04351 10.7499
9.86438 30000000101143166 30000000101143165 30000000101143174 30000000101143164 7.23627606617 -5.08182 -1.86907 4.45727
9.88826 30000000101143165 30000000101143164 30000000101143174 30000000101143163 7.00541704554 -4.5514 -3.39331 14.3699
9.96863 30000000101143164 30000000101143163 30000000101143174 30000000101143162 6.85511726265 -2.91425 -0.183733 14.4605
10.1173 30000000101143163 30000000101143162 30000000101143174 30000000101143161 6.49159774567 10.5438 -34.5843 3.69079
10.1842 30000000101143162 30000000101143161 30000000101143174 30000000101143160 6.14490120342 11.9893 -32.1822 12.0007
10.2087 30000000101143161 30000000101143160 30000000101143174 30000000101143159 6.01075739884 10.3282 -32.0927 11.7306
10.2534 30000000101143160 30000000101143159 30000000101143174 30000000101143158 5.84661374788 12.8556 -42.269 -1.18958
10.317 30000000101143159 30000000101143158 30000000101143174 30000000101143157 5.52976580795 11.7955 -34.7372 8.99135
10.3746 30000000101143158 30000000101143157 30000000101143174 30000000101143156 5.22758097313 8.34267 -30.9184 5.3137
10.4081 30000000101143157 30000000101143156 30000000101143174 30000000101143155 4.99593346816 10.4868 -27.8437 -1.69747
10.4323 30000000101143156 30000000101143155 30000000101143174 30000000101143154 4.93938066349 11.6942 -18.5347 -10.7832
10.4926 30000000101143155 30000000101143154 30000000101143174 30000000101143153 4.66451770247 11.4134 -16.3995 -24.5646
10.5315 30000000101143154 30000000101143153 30000000101143174 30000000101143152 4.42803373661 13.8833 -3.14714 -33.8251
10.593 30000000101143153 30000000101143152 30000000101143174 30000000101143151 4.17683491473 5.24932 -1.38965 -56.6789
10.6168 30000000101143152 30000000101143151 30000000101143174 30000000101143150 4.00794511147 5.5186 3.28552 -58.4512
10.6272 30000000101143151 30000000101143150 30000000101143174 30000000101143149 3.93726108473 3.27846 1.10893 -59.7345
10.6817 30000000101143150 30000000101143149 30000000101143174 30000000101143148 3.70877426464 -7.99348 14.0454 -70.753
10.7359 30000000101143149 30000000101143148 30000000101143174 30000000101143147 3.49086136926 -25.2832 30.8225 -85.483
10.775 30000000101143148 30000000101143147 30000000101143174 30000000101143146 3.28303305796 -46.7981 11.036 -81.4617
10.8332 30000000101143147 30000000101143146 30000000101143174 30000000101143145 3.08482263583 -93.877 5.74548 -58.0726
10.8499 30000000101143146 30000000101143145 30000000101143174 30000000101143144 3.00813107163 -93.7306 -9.782 -44.2505
10.8855 30000000101143145 30000000101143144 30000000101143174 30000000101143143 2.89578500573 -92.0684 -22.4068 -18.1716
10.9238 30000000101143144 30000000101143143 30000000101143174 30000000101143142 2.73314261732 -104.925 -25.6045 -10.1195
10.9426 30000000101143143 30000000101143142 30000000101143174 30000000101143141 2.5772902716 -102.277 -14.4581 -9.81511
10.9655 30000000101143142 30000000101143141 30000000101143174 30000000101143140 2.44422570455 -106.186 2.74054 -13.0371
10.9733 30000000101143141 30000000101143140 30000000101143174 30000000101143139 2.31611074396 -111.619 -7.8516 -37.2827
10.998 30000000101143140 30000000101143139 30000000101143174 30000000101143138 2.20792547238 -102.187 2.16668 -84.9691
11.0225 30000000101143139 30000000101143138 30000000101143174 30000000101143137 2.1032696526 -85.434 -16.991 -143.244
11.0561 30000000101143138 30000000101143137 30000000101143174 30000000101143136 2.00202813925 14.3163 -18.5085 -73.1933
11.0707 30000000101143137 30000000101143136 30000000101143174 30000000101143135 1.90408954353 -11.3983 -47.6803 -153.984
11.0853 30000000101143136 30000000101143135 30000000101143174 30000000101143134 1.82268925262 -45.7624 -35.3 -254.161
11.1094 30000000101143135 30000000101143134 30000000101143174 30000000101143133 1.74357057433 -78.0759 -16.6154 -366.133
11.1423 30000000101143134 30000000101143133 30000000101143174 30000000101143132 1.66666955611 -20.6702 -27.8098 -503.923
11.1513 30000000101143133 30000000101143132 30000000101143174 30000000101143131 1.60423452207 -38.5065 -17.7132 -471.963
11.1551 30000000101143132 30000000101143131 30000000101143174 30000000101143130 1.53123902916 -21.5162 -24.2629 -339.962
11.1767 30000000101143131 30000000101143130 30000000101143174 30000000101143129 1.47197484527 -28.2305 -23.2145 -257.284
11.2 30000000101143130 30000000101143128 30000000101143174 30000000101143127 1.3575766674 64.9163 -71.2344 -410.367
11.2257 30000000101143128 30000000101143127 30000000101143174 30000000101143126 1.30237845991 20.5922 -34.2825 -402.457
11.2367 30000000101143127 30000000101143126 30000000101143174 30000000101143125 1.24847261425 48.9926 -94.2894 -535.201
11.2552 30000000101143126 30000000101143125 30000000101143174 30000000101143124 1.20625808078 -52.9646 -46.217 -497.341
11.2894 30000000101143125 30000000101143124 30000000101143174 30000000101143123 1.15460271236 -43.6334 -65.8829 -457.013
11.326 30000000101143124 30000000101143123 30000000101143174 30000000101143122 1.11415056377 -96.7781 -131.554 -505.173
11.3343 30000000101143123 30000000101143122 30000000101143174 30000000101143121 1.07445789455 -97.9982 -141.413 -592.733
11.3565 30000000101143122 30000000101143121 30000000101143174 30000000101143120 1.03551044566 -106.463 -96.7705 -661.117
11.416 30000000101143121 30000000101143120 30000000101143174 30000000101143119 0.997294225782 -223.478 -173.036 -792.708
11.4191 30000000101143120 30000000101143119 30000000101143174 30000000101143118 0.987852810816 -244.905 -144.738 -824.847
11.4303 30000000101143119 30000000101143118 30000000101143174 30000000101143117 0.950531351585 -263.635 -219.962 -812.922
11.4524 30000000101143118 30000000101143117 30000000101143174 30000000101143116 0.923000816178 -360.512 -212.896 -846.059
11.4776 30000000101143117 30000000101143116 30000000101143174 30000000101143115 0.886896937575 -482.488 -179.82 -754.749
11.5369 30000000101143116 30000000101143115 30000000101143174 30000000101143114 0.851470900625 -596.499 -224.237 -608.474
11.5754 30000000101143115 30000000101143114 30000000101143174 30000000101143113 0.816709979012 -719.488 -226.139 -587.979
11.6107 30000000101143114 30000000101143113 30000000101143174 30000000101143112 0.791068248946 -702.576 -149.403 -544.737
11.6188 30000000101143113 30000000101143110 30000000101143174 30000000101143109 0.700106353719 -689.168 -176.162 -552.936
11.6467 30000000101143110 30000000101143109 30000000101143174 30000000101143108 0.676110411213 -699.04 -173.275 -534.334
11.6554 30000000101143109 30000000101143108 30000000101143174 30000000101143107 0.644641840685 -754.785 -177.08 -488.278
11.662 30000000101143108 30000000101143107 30000000101143174 30000000101143106 0.621428745243 -736.234 -191.939 -521.732
11.6685 30000000101143107 30000000101143106 30000000101143174 30000000101143105 0.598543288188 -736.72 -214.247 -520.122
11.6796 30000000101143106 30000000101143105 30000000101143174 30000000101143104 0.575980845108 -783.722 -289.082 -439.323
11.6816 30000000101143105 30000000101143102 30000000101143174 30000000101143101 0.503047523245 -676.762 -285.672 -372.389
11.6895 30000000101143102 30000000101143101 30000000101143174 30000000101143100 0.481832943421 -687.0 -269.536 -318.25
11.6898 30000000101143101 30000000101143099 30000000101143174 30000000101143098 0.440297849248 -685.77 -244.166 -284.286
11.6968 30000000101143099 30000000101143098 30000000101143174 30000000101143097 0.419968941997 -636.285 -232.101 -270.248
11.6975 30000000101143098 30000000101143097 30000000101143174 30000000101143096 0.399926964614 -642.407 -207.522 -284.252
11.7054 30000000101143097 30000000101143096 30000000101143174 30000000101143095 0.38016786726 -593.796 -224.841 -302.335
11.7098 30000000101143096 30000000101143095 30000000101143174 30000000101143094 0.360687657262 -605.073 -212.231 -273.436
11.7205 30000000101143095 30000000101143093 30000000101143174 30000000101143092 0.328829724206 -613.69 -191.709 -270.701
11.7287 30000000101143093 30000000101143091 30000000101143174 30000000101143090 0.291583239722 -631.675 -214.418 -213.202
11.733 30000000101143091 30000000101143090 30000000101143174 30000000101143089 0.273353346578 -666.341 -228.523 -216.679
11.7332 30000000101143090 30000000101143089 30000000101143174 30000000101143088 0.261343256161 -646.907 -237.033 -174.356
11.7346 30000000101143089 30000000101143087 30000000101143174 30000000101143086 0.22598838626 -670.425 -216.357 -86.8552
11.7374 30000000101143087 30000000101143085 30000000101143174 30000000101143084 0.197284182376 -639.096 -210.145 -99.8886
11.7386 30000000101143085 30000000101143084 30000000101143174 30000000101143083 0.180385261706 -649.599 -177.682 -94.3639
11.7401 30000000101143084 30000000101143083 30000000101143174 30000000101143082 0.169252033244 -623.377 -165.614 -92.0384
11.7451 30000000101143083 30000000101143082 30000000101143174 30000000101143081 0.152748768902 -624.577 -170.676 -94.7364
11.7527 30000000101143082 30000000101143080 30000000101143174 30000000101143079 0.125759332411 -601.986 -133.99 -55.3363
11.7554 30000000101143080 30000000101143079 30000000101143174 30000000101143078 0.109869940459 -573.825 -111.598 -81.6343
11.759 30000000101143079 30000000101143078 30000000101143174 30000000101143077 0.0994018026302 -565.01 -114.78 -65.9505
11.7644 30000000101143078 30000000101143077 30000000101143174 30000000101143076 0.0838844307975 -537.361 -108.79 -62.8995
11.7686 30000000101143077 30000000101143076 30000000101143174 30000000101143075 0.0736613846564 -496.017 -111.985 -59.122
11.7724 30000000101143076 30000000101143074 30000000101143174 30000000101143073 0.0485236299818 -496.42 -121.282 -58.9449
11.7759 30000000101143074 30000000101143073 30000000101143174 30000000101143072 0.0337243718735 -477.328 -133.922 -31.5428
11.7797 30000000101143073 30000000101143072 30000000101143174 30000000101143071 0.0239744283828 -473.317 -150.992 -36.8928
9.01614 30000000101143191 30000000101143190 30000000101143196 30000000101143189 9.00233985416 2.69083 8.04714 3.14171
9.03463 30000000101143190 30000000101143188 30000000101143196 30000000101143187 8.44947629437 -5.66155 4.11153 -0.188863
9.02239 30000000101143239 30000000101143238 30000000101143243 30000000101143237 9.00233985416 6.74906 -2.33853 2.51968
9.18376 30000000101143238 30000000101143236 30000000101143243 30000000101143235 8.44947629437 7.71629 -1.70475 -0.191461
9.32805 30000000101143236 30000000101143235 30000000101143243 30000000101143234 8.01217294887 11.7969 -4.30894 -5.59128
9.40001 30000000101143235 30000000101143234 30000000101143243 30000000101143233 7.59510714987 9.5951 -4.67374 -5.94683
9.42893 30000000101143234 30000000101143233 30000000101143243 30000000101143232 7.23627606617 9.55681 -4.11258 -5.19203
9.46844 30000000101143233 30000000101143231 30000000101143243 30000000101143230 6.85511726265 10.5802 -3.28423 -7.71958
9.01614 30000000101143295 30000000101143294 30000000101143306 30000000101143293 7.00541704554 -0.213943 9.04655 -1.18823
9.02239 30000000101143294 30000000101143293 30000000101143306 30000000101143292 6.85511726265 -2.16396 9.47309 -0.588607
9.0316 30000000101143293 30000000101143292 30000000101143306 30000000101143291 6.49159774567 -2.04886 8.87592 -1.45253
9.08309 30000000101143331 30000000101143330 30000000101143341 30000000101143329 7.00541704554 -4.32525 1.88229 -0.359845
9.14344 30000000101143330 30000000101143327 30000000101143341 30000000101143326 6.14490120342 -0.508368 -1.53889 1.15004
9.15502 30000000101143327 30000000101143325 30000000101143341 30000000101143324 5.84661374788 -3.00466 -2.78782 -1.40758
9.06096 30000000101143408 30000000101143407 30000000101143417 30000000101143406 6.14490120342 -2.7952 8.71725 2.96991
9.07766 30000000101143407 30000000101143405 30000000101143417 30000000101143404 5.84661374788 -3.72023 8.48485 0.709702
9.19013 30000000101143405 30000000101143404 30000000101143417 30000000101143403 5.52976580795 -1.79943 8.92223 7.65385
9.2026 30000000101143404 30000000101143403 30000000101143417 30000000101143402 5.22758097313 -2.41909 9.04388 7.12927
9.05811 30000000101143436 30000000101143435 30000000101143447 30000000101143434 4.66451770247 3.15544 0.482026 -8.25592
9.19848 30000000101143435 30000000101143434 30000000101143447 30000000101143433 4.42803373661 1.28934 5.52991 -7.45553
9.3156 30000000101143434 30000000101143433 30000000101143447 30000000101143432 4.17683491473 4.44711 4.16669 -1.93866
9.36199 30000000101143433 30000000101143432 30000000101143447 30000000101143431 4.00794511147 -0.754874 4.26756 -6.47082
9.05811 30000000101143583 30000000101143582 30000000101143589 30000000101143581 6.01075739884 5.05313 1.06329 5.94527
9.14811 30000000101143582 30000000101143579 30000000101143589 30000000101143578 5.22758097313 11.8983 -2.13154 9.07404
9.20055 30000000101143579 30000000101143576 30000000101143589 30000000101143575 4.66451770247 12.6916 -4.43125 9.19333
9.21869 30000000101143576 30000000101143575 30000000101143589 30000000101143574 4.42803373661 14.2901 -8.46656 9.91375
9.38412 30000000101143575 30000000101143574 30000000101143589 30000000101143573 4.17683491473 2.02732 -18.7214 1.16086
9.01928 30000000101143680 30000000101143679 30000000101143686 30000000101143678 8.01217294887 2.2572 4.0004 5.03752
9.05235 30000000101143679 30000000101143678 30000000101143686 30000000101143677 7.59510714987 2.00697 2.93195 3.41956
9.10157 30000000101143678 30000000101143677 30000000101143686 30000000101143676 7.23627606617 0.854058 0.7998 5.23989
9.15502 30000000101143677 30000000101143676 30000000101143686 30000000101143675 7.00541704554 -3.2839 1.52731 1.67253
9.16852 30000000101143676 30000000101143674 30000000101143686 30000000101143673 6.49159774567 -0.28376 0.98855 2.4983
9.22262 30000000101143674 30000000101143673 30000000101143686 30000000101143672 6.14490120342 4.94039 -11.9869 4.41241
9.33415 30000000101143673 30000000101143672 30000000101143686 30000000101143671 6.01075739884 2.85738 -17.3503 5.1143
9.37042 30000000101143672 30000000101143671 30000000101143686 30000000101143670 5.84661374788 2.24067 -16.9091 2.92887
9.40389 30000000101143671 30000000101143670 30000000101143686 30000000101143669 5.52976580795 5.43932 -13.6442 3.37946
9.42771 30000000101143670 30000000101143669 30000000101143686 30000000101143668 5.22758097313 0.989721 -11.1686 2.11259
9.47286 30000000101143669 30000000101143668 30000000101143686 30000000101143667 4.99593346816 -0.360297 -0.601773 6.0747
9.53996 30000000101143668 30000000101143666 30000000101143686 30000000101143665 4.66451770247 2.90617 0.713109 4.85158
9.57783 30000000101143666 30000000101143665 30000000101143686 30000000101143664 4.42803373661 -2.08899 6.68403 -2.16832
9.63894 30000000101143665 30000000101143664 30000000101143686 30000000101143663 4.17683491473 2.80227 -4.91259 0.688345
9.66443 30000000101143664 30000000101143663 30000000101143686 30000000101143662 4.00794511147 8.37217 -18.9348 -4.8097
9.67835 30000000101143663 30000000101143662 30000000101143686 30000000101143661 3.93726108473 9.70005 -14.2145 -6.90088
9.75306 30000000101143662 30000000101143661 30000000101143686 30000000101143660 3.70877426464 8.52506 5.59375 -9.08421
9.76444 30000000101143661 30000000101143660 30000000101143686 30000000101143659 3.49086136926 11.2586 -6.21067 -6.08801
9.79429 30000000101143660 30000000101143659 30000000101143686 30000000101143658 3.28303305796 12.1245 -10.8409 -3.27266
9.80874 30000000101143659 30000000101143658 30000000101143686 30000000101143657 3.08482263583 9.13722 -5.6835 -4.4803
9.83911 30000000101143658 30000000101143657 30000000101143686 30000000101143656 3.00813107163 15.1183 9.50231 -4.74846
9.00337 30000000101143708 30000000101143707 30000000101143723 30000000101143706 5.84661374788 7.75088 3.34541 -5.23019
9.03763 30000000101143707 30000000101143706 30000000101143723 30000000101143705 5.52976580795 15.9435 -1.44469 -9.92231
9.04945 30000000101143706 30000000101143705 30000000101143723 30000000101143704 5.22758097313 11.6858 5.26894 -8.39846
9.10415 30000000101143705 30000000101143704 30000000101143723 30000000101143703 4.99593346816 15.6512 -1.78705 -7.53205
9.04358 30000000101143765 30000000101143764 30000000101143768 30000000101143763 6.85511726265 -11.0917 11.1679 1.47222
9.06378 30000000101143764 30000000101143763 30000000101143768 30000000101143762 6.49159774567 -10.0213 8.88529 2.40575
9.12912 30000000101143763 30000000101143762 30000000101143768 30000000101143761 6.14490120342 -7.93278 10.2238 2.08491
9.22845 30000000101143762 30000000101143759 30000000101143768 30000000101143758 5.52976580795 -6.57943 7.10896 2.53086
9.27072 30000000101143759 30000000101143758 30000000101143768 30000000101143757 5.22758097313 -2.01565 2.90606 2.55433
9.27072 30000000101143758 30000000101143757 30000000101143768 30000000101143756 4.99593346816 -3.67604 2.9542 3.3802
9.2742 30000000101143757 30000000101143756 30000000101143768 30000000101143755 4.93938066349 -5.96255 4.5157 4.20107
9.33415 30000000101143756 30000000101143755 30000000101143768 30000000101143754 4.66451770247 -5.10522 7.03483 3.25524
9.44211 30000000101143755 30000000101143754 30000000101143768 30000000101143753 4.42803373661 -0.814869 10.0295 4.97587
9.64859 30000000101143754 30000000101143753 30000000101143768 30000000101143752 4.17683491473 16.0576 36.096 6.42943
9.66584 30000000101143753 30000000101143752 30000000101143768 30000000101143751 4.00794511147 12.0013 34.7849 8.29386
9.72935 30000000101143752 30000000101143751 30000000101143768 30000000101143750 3.93726108473 7.51021 36.7948 19.7661
9.76219 30000000101143751 30000000101143750 30000000101143768 30000000101143749 3.70877426464 10.8888 31.005 18.9282
9.02548 30000000101144077 30000000101144076 30000000101144089 30000000101144075 3.93726108473 0.427809 0.612335 2.04578
9.03463 30000000101144076 30000000101144075 30000000101144089 30000000101144074 3.70877426464 1.52796 -0.332199 2.77695
9.08038 30000000101144075 30000000101144074 30000000101144089 30000000101144073 3.49086136926 -0.00262555 0.105185 5.57882
9.08038 30000000101144074 30000000101144072 30000000101144089 30000000101144071 3.08482263583 -0.449618 3.57983 8.96788
9.09111 30000000101144072 30000000101144071 30000000101144089 30000000101144070 3.00813107163 -0.0506153 0.815992 6.92483
9.13394 30000000101144071 30000000101144069 30000000101144089 30000000101144068 2.73314261732 11.1907 2.06612 10.9865
9.04653 30000000101144240 30000000101144239 30000000101144246 30000000101144238 6.14490120342 -3.11917 4.59993 9.31655
9.07766 30000000101144239 30000000101144237 30000000101144246 30000000101144236 5.84661374788 -0.67225 8.04094 8.10517
9.13154 30000000101144237 30000000101144236 30000000101144246 30000000101144235 5.52976580795 -1.0867 -1.02765 10.2502
9.2087 30000000101144236 30000000101144235 30000000101144246 30000000101144234 5.22758097313 -3.71689 -4.06426 15.8528
9.22066 30000000101144235 30000000101144234 30000000101144246 30000000101144233 4.99593346816 -0.684191 -0.418727 14.1466
9.26008 30000000101144234 30000000101144233 30000000101144246 30000000101144232 4.93938066349 -6.66577 2.94117 11.9004
9.52754 30000000101144233 30000000101144232 30000000101144246 30000000101144231 4.66451770247 -11.3717 -6.24259 16.7014
9.59059 30000000101144232 30000000101144231 30000000101144246 30000000101144230 4.42803373661 -7.44569 -0.94034 13.7937
9.60946 30000000101144231 30000000101144230 30000000101144246 30000000101144229 4.17683491473 -11.865 -3.07792 17.8626
9.66514 30000000101144230 30000000101144229 30000000101144246 30000000101144228 4.00794511147 -9.18131 -14.3707 29.0052
9.67835 30000000101144229 30000000101144228 30000000101144246 30000000101144227 3.93726108473 -6.10885 -17.1509 26.3885
9.77718 30000000101144228 30000000101144227 30000000101144246 30000000101144226 3.70877426464 -10.0316 -26.0713 34.3595
9.79482 30000000101144227 30000000101144226 30000000101144246 30000000101144225 3.49086136926 -2.9617 -12.8459 31.132
9.94556 30000000101144226 30000000101144225 30000000101144246 30000000101144224 3.28303305796 -16.9263 -4.67933 48.1173
10.073 30000000101144225 30000000101144224 30000000101144246 30000000101144223 3.08482263583 5.67525 -14.5608 38.606
10.1042 30000000101144224 30000000101144222 30000000101144246 30000000101144221 2.89578500573 31.1606 -14.1586 28.9331
10.2525 30000000101144222 30000000101144221 30000000101144246 30000000101144220 2.73314261732 40.169 -46.1088 17.319
10.3039 30000000101144221 30000000101144220 30000000101144246 30000000101144219 2.5772902716 53.5929 -69.7436 -3.17158
10.3436 30000000101144220 30000000101144219 30000000101144246 30000000101144218 2.44422570455 66.5723 -91.8649 -25.6989
10.3654 30000000101144219 30000000101144218 30000000101144246 30000000101144217 2.31611074396 65.0233 -64.6466 -24.1784
10.3768 30000000101144218 30000000101144217 30000000101144246 30000000101144216 2.20792547238 85.1875 -66.5274 -50.1653
9.00012 30000000101144252 30000000101144251 30000000101144255 30000000101144250 5.84661374788 -4.67954 -6.62004 5.25842
9.10157 30000000101144251 30000000101144250 30000000101144255 30000000101144249 5.52976580795 -8.72157 -6.91578 5.70109
9.13154 30000000101144250 30000000101144249 30000000101144255 30000000101144248 5.22758097313 -6.57136 -8.65605 6.8531
9.01298 30000000101144374 30000000101144373 30000000101144381 30000000101144372 4.99593346816 -0.885755 -14.6789 -4.39618
9.02548 30000000101144373 30000000101144372 30000000101144381 30000000101144371 4.93938066349 -1.17656 -15.093 -4.00236
9.08578 30000000101144372 30000000101144371 30000000101144381 30000000101144370 4.66451770247 -2.04394 -15.5883 -6.36556
9.21072 30000000101144371 30000000101144370 30000000101144381 30000000101144369 4.42803373661 -1.57964 -21.5226 -11.3312
9.35914 30000000101144370 30000000101144369 30000000101144381 30000000101144368 4.17683491473 -2.54394 -15.2131 -14.643
9.37595 30000000101144369 30000000101144368 30000000101144381 30000000101144367 4.00794511147 0.667471 -16.3596 -15.1631
9.38547 30000000101144368 30000000101144367 30000000101144381 30000000101144366 3.93726108473 0.352375 -15.1628 -15.8889
9.42404 30000000101144367 30000000101144366 30000000101144381 30000000101144365 3.70877426464 -1.72428 -15.4711 -10.8554
9.48049 30000000101144366 30000000101144365 30000000101144381 30000000101144364 3.49086136926 0.717857 -16.8058 -13.0856
9.04945 30000000101144423 30000000101144422 30000000101144434 30000000101144421 4.17683491473 3.477 -5.17986 7.65901
9.12912 30000000101144462 30000000101144461 30000000101144479 30000000101144460 2.20792547238 7.90764 22.4523 9.7342
9.12912 30000000101144461 30000000101144458 30000000101144479 30000000101144457 1.90408954353 12.3706 21.4095 8.43303
9.0666 30000000101144599 30000000101144598 30000000101144608 30000000101144597 4.99593346816 0.459493 -7.71211 8.43561
9.1663 30000000101144598 30000000101144596 30000000101144608 30000000101144595 4.66451770247 -0.635491 -3.35261 7.79781
9.19433 30000000101144596 30000000101144595 30000000101144608 30000000101144594 4.42803373661 -0.215663 -2.80653 9.4305
9.21272 30000000101144595 30000000101144594 30000000101144608 30000000101144593 4.17683491473 -1.44081 -0.534441 9.32838
9.29457 30000000101144594 30000000101144593 30000000101144608 30000000101144592 4.00794511147 1.51069 1.43379 6.30157
9.30115 30000000101144593 30000000101144591 30000000101144608 30000000101144590 3.70877426464 11.3895 2.16167 -1.31725
9.54465 30000000101144591 30000000101144590 30000000101144608 30000000101144589 3.49086136926 7.27566 14.8586 -6.60373
9.59394 30000000101144590 30000000101144588 30000000101144608 30000000101144587 3.08482263583 9.55424 11.2001 -9.97176
9.61899 30000000101144588 30000000101144587 30000000101144608 30000000101144586 3.00813107163 9.77341 10.5357 -9.84141
9.626 30000000101144587 30000000101144586 30000000101144608 30000000101144585 2.89578500573 16.6158 5.99217 -13.9819
9.64268 30000000101144586 30000000101144584 30000000101144608 30000000101144583 2.5772902716 13.5906 7.08804 -13.1643
9.65369 30000000101144584 30000000101144583 30000000101144608 30000000101144582 2.44422570455 23.2532 5.77892 -6.28675
9.67491 30000000101144583 30000000101144582 30000000101144608 30000000101144581 2.31611074396 11.8244 12.9107 1.77517
9.71132 30000000101144582 30000000101144579 30000000101144608 30000000101144578 2.00202813925 -0.940144 3.25161 -9.79538
9.05811 30000000101144626 30000000101144625 30000000101144633 30000000101144624 4.99593346816 -7.20692 -1.31846 15.8615
9.06378 30000000101144625 30000000101144624 30000000101144633 30000000101144623 4.93938066349 -8.74652 -0.726232 14.7985
9.06378 30000000101144624 30000000101144623 30000000101144633 30000000101144622 4.66451770247 -9.27907 -2.5096 12.9196
9.10415 30000000101144623 30000000101144621 30000000101144633 30000000101144620 4.17683491473 -5.61862 -3.74839 9.44499
9.10671 30000000101144759 30000000101144758 30000000101144764 30000000101144757 4.00794511147 -1.13301 0.579857 0.406449
9.1573 30000000101144758 30000000101144757 30000000101144764 30000000101144756 3.93726108473 -2.42293 0.238201 -3.46446
9.17293 30000000101144757 30000000101144756 30000000101144764 30000000101144755 3.70877426464 -3.23351 -0.706736 -2.35591
9.24362 30000000101144756 30000000101144755 30000000101144764 30000000101144754 3.49086136926 -4.06096 -13.6929 1.09958
9.34609 30000000101144755 30000000101144754 30000000101144764 30000000101144753 3.28303305796 -5.62372 -6.41931 -0.749988
9.47941 30000000101144754 30000000101144753 30000000101144764 30000000101144752 3.08482263583 -16.7746 -24.3057 3.0933
9.49744 30000000101144753 30000000101144749 30000000101144764 30000000101144748 2.5772902716 -19.4384 -21.7054 -0.398107
9.69647 30000000101144749 30000000101144742 30000000101144764 30000000101144741 1.82268925262 -32.2342 25.0437 -4.68687
9.86482 30000000101144742 30000000101144741 30000000101144764 30000000101144740 1.74357057433 -44.1287 8.09202 -13.7061
9.09375 30000000101144827 30000000101144826 30000000101144836 30000000101144825 2.89578500573 10.9448 12.4962 9.20325
9.1193 30000000101144826 30000000101144825 30000000101144836 30000000101144824 2.73314261732 2.62442 15.4873 25.5388
9.17729 30000000101144825 30000000101144824 30000000101144836 30000000101144823 2.5772902716 1.45902 6.20685 32.1626
9.2361 30000000101144824 30000000101144823 30000000101144836 30000000101144822 2.44422570455 -2.47921 3.00591 30.2015
9.26187 30000000101144823 30000000101144822 30000000101144836 30000000101144821 2.31611074396 -0.644712 3.97217 30.527
9.34165 30000000101144822 30000000101144821 30000000101144836 30000000101144820 2.20792547238 -6.02306 1.9883 12.1723
9.749 30000000101144821 30000000101144810 30000000101144836 30000000101144809 1.30237845991 -63.1587 -28.4505 -30.0641
9.02548 30000000101145079 30000000101145078 30000000101145081 30000000101145077 10.3674435724 -2.79033 7.70305 -0.489205
9.03763 30000000101145078 30000000101145077 30000000101145081 30000000101145076 9.99659046619 -4.19834 4.53732 -2.17614
9.12178 30000000101145077 30000000101145076 30000000101145081 30000000101145075 9.84138043947 -1.05029 -0.721497 -3.68056
9.21272 30000000101145076 30000000101145075 30000000101145081 30000000101145074 9.38877127194 -0.992619 2.25799 -2.06495
9.36763 30000000101145075 30000000101145074 30000000101145081 30000000101145073 9.00233985416 -4.5274 5.87989 1.26459
9.36902 30000000101145074 30000000101145073 30000000101145081 30000000101145072 8.9079991856 -6.65606 5.01356 2.3274
9.53808 30000000101145073 30000000101145072 30000000101145081 30000000101145071 8.44947629437 -19.2434 -4.25336 4.61446
9.86034 30000000101145072 30000000101145069 30000000101145081 30000000101145068 7.23627606617 -29.5043 -3.18305 7.29783
9.87713 30000000101145069 30000000101145067 30000000101145081 30000000101145066 6.85511726265 -27.8617 5.36444 9.60467
10.0001 30000000101145067 30000000101145066 30000000101145081 30000000101145065 6.49159774567 -65.5867 1.55685 22.6831
10.027 30000000101145066 30000000101145065 30000000101145081 30000000101145064 6.14490120342 -55.0727 -2.87632 25.1693
10.0584 30000000101145065 30000000101145064 30000000101145081 30000000101145063 6.01075739884 -53.2156 1.79809 24.2247
10.0688 30000000101145064 30000000101145063 30000000101145081 30000000101145062 5.84661374788 -47.2717 0.0181703 29.1122
10.0924 30000000101145063 30000000101145062 30000000101145081 30000000101145061 5.52976580795 -46.4696 3.81753 26.2731
10.1158 30000000101145062 30000000101145061 30000000101145081 30000000101145060 5.22758097313 -48.5996 -0.607837 23.9586
10.1548 30000000101145061 30000000101145060 30000000101145081 30000000101145059 4.99593346816 -43.2487 4.09659 24.4717
10.1792 30000000101145060 30000000101145058 30000000101145081 30000000101145057 4.66451770247 -42.6446 8.93699 16.5811
10.2097 30000000101145058 30000000101145057 30000000101145081 30000000101145056 4.42803373661 -37.2739 2.31752 16.7573
10.2595 30000000101145057 30000000101145056 30000000101145081 30000000101145055 4.17683491473 -38.8694 -7.95898 23.6491
10.2612 30000000101145056 30000000101145055 30000000101145081 30000000101145054 4.00794511147 -43.0936 -13.3812 23.3417
10.2654 30000000101145055 30000000101145054 30000000101145081 30000000101145053 3.93726108473 -46.5919 -14.543 25.8895
10.2932 30000000101145054 30000000101145053 30000000101145081 30000000101145052 3.70877426464 -58.0176 -11.6536 26.4537
10.3119 30000000101145053 30000000101145052 30000000101145081 30000000101145051 3.49086136926 -56.2968 -1.85799 27.1751
10.3935 30000000101145052 30000000101145051 30000000101145081 30000000101145050 3.28303305796 -68.182 11.0248 2.28668
10.4065 30000000101145051 30000000101145050 30000000101145081 30000000101145049 3.08482263583 -62.6972 14.4776 10.3207
10.4723 30000000101145050 30000000101145049 30000000101145081 30000000101145048 3.00813107163 -26.706 -1.50447 4.5707
10.5167 30000000101145049 30000000101145047 30000000101145081 30000000101145046 2.73314261732 -39.4345 23.1085 5.98613
10.5577 30000000101145047 30000000101145046 30000000101145081 30000000101145045 2.5772902716 -17.1171 25.6679 -7.97006
10.6009 30000000101145046 30000000101145045 30000000101145081 30000000101145044 2.44422570455 -0.839432 27.9528 3.10251
10.6201 30000000101145045 30000000101145044 30000000101145081 30000000101145043 2.31611074396 14.0514 19.6302 31.3314
10.6356 30000000101145044 30000000101145043 30000000101145081 30000000101145042 2.20792547238 18.2393 14.7579 47.9758
10.6543 30000000101145043 30000000101145042 30000000101145081 30000000101145041 2.1032696526 23.5756 7.6281 59.5036
10.6701 30000000101145042 30000000101145041 30000000101145081 30000000101145040 2.00202813925 19.5874 11.8793 46.3583
10.724 30000000101145041 30000000101145040 30000000101145081 30000000101145039 1.90408954353 3.20412 22.6667 43.49
10.7662 30000000101145040 30000000101145039 30000000101145081 30000000101145038 1.82268925262 -9.25568 8.12774 24.9962
10.7913 30000000101145039 30000000101145038 30000000101145081 30000000101145037 1.74357057433 -18.5194 85.5005 4.59639
10.8148 30000000101145038 30000000101145037 30000000101145081 30000000101145036 1.66666955611 -31.4718 140.171 -26.8293
10.8232 30000000101145037 30000000101145036 30000000101145081 30000000101145035 1.60423452207 -24.0098 146.51 -42.1346
10.83 30000000101145036 30000000101145033 30000000101145081 30000000101145032 1.41409822037 -40.1134 132.22 -69.2385
10.8387 30000000101145033 30000000101145032 30000000101145081 30000000101145031 1.3575766674 -60.8355 153.405 -90.8047
9.09898 30000000101145090 30000000101145089 30000000101145093 30000000101145088 9.99659046619 1.2154 -8.86006 -2.22615
9.09898 30000000101145089 30000000101145088 30000000101145093 30000000101145087 9.84138043947 0.889994 -5.70933 -4.12415
9.1573 30000000101145088 30000000101145087 30000000101145093 30000000101145086 9.38877127194 2.53 -7.8787 1.40774
9.27072 30000000101145087 30000000101145086 30000000101145093 30000000101145085 9.00233985416 -11.0413 -6.4552 1.232
9.58041 30000000101145086 30000000101145083 30000000101145093 30000000101145082 8.01217294887 -16.6311 0.243788 3.83551
9.00012 30000000101145100 30000000101145099 30000000101145107 30000000101145098 9.38877127194 1.33549 2.12004 7.61426
9.78098 30000000101145099 30000000101145094 30000000101145107 30000000101145069 7.59510714987 -23.3892 -0.638135 6.36173
9.02239 30000000101145199 30000000101145198 30000000101145208 30000000101145197 5.52976580795 -1.28864 -7.23492 -6.39163
9.07766 30000000101145198 30000000101145197 30000000101145208 30000000101145196 5.22758097313 5.23111 -11.2694 -7.34422
9.14108 30000000101145197 30000000101145194 30000000101145208 30000000101145193 4.66451770247 -1.45878 -8.26837 -8.11245
9.17946 30000000101145194 30000000101145193 30000000101145208 30000000101145192 4.42803373661 -3.63908 -11.5482 -8.21341
9.24548 30000000101145193 30000000101145192 30000000101145208 30000000101145191 4.17683491473 0.24416 -15.2965 -12.8962
9.25466 30000000101145192 30000000101145191 30000000101145208 30000000101145190 4.00794511147 2.64321 -15.6766 -13.0249
9.28788 30000000101145191 30000000101145190 30000000101145208 30000000101145189 3.93726108473 3.55542 -15.9175 -14.2207
9.2929 30000000101145190 30000000101145189 30000000101145208 30000000101145188 3.70877426464 4.64197 -16.6243 -16.1157
9.06096 30000000101145275 30000000101145274 30000000101145283 30000000101145273 4.00794511147 5.11301 0.143107 -0.406651
9.06378 30000000101145274 30000000101145273 30000000101145283 30000000101145272 3.93726108473 3.82792 0.51856 -0.845352
9.29457 30000000101145273 30000000101145272 30000000101145283 30000000101145271 3.70877426464 12.3168 23.0855 -16.6134
9.29622 30000000101145272 30000000101145271 30000000101145283 30000000101145270 3.49086136926 11.3167 22.5496 -17.7641
9.30763 30000000101145271 30000000101145268 30000000101145283 30000000101145267 3.00813107163 13.5941 16.8928 -16.6394
9.11179 30000000101145518 30000000101145517 30000000101145528 30000000101145516 4.42803373661 -1.39706 4.74288 1.59826
9.16852 30000000101145517 30000000101145516 30000000101145528 30000000101145515 4.17683491473 -0.701721 2.9968 3.43849
9.17512 30000000101145516 30000000101145515 30000000101145528 30000000101145514 4.00794511147 -3.34934 5.05481 5.18778
9.31874 30000000101145515 30000000101145514 30000000101145528 30000000101145513 3.93726108473 1.95487 5.3204 20.0498
9.43136 30000000101145514 30000000101145513 30000000101145528 30000000101145512 3.70877426464 -18.5933 -8.07866 8.679
9.54278 30000000101145513 30000000101145512 30000000101145528 30000000101145511 3.49086136926 -29.5464 -3.65268 7.77403
9.69184 30000000101145512 30000000101145511 30000000101145528 30000000101145510 3.28303305796 -12.4848 -12.7111 1.48411
9.85124 30000000101145511 30000000101145510 30000000101145528 30000000101145509 3.08482263583 24.8296 -20.6575 -17.3453
9.85853 30000000101145510 30000000101145509 30000000101145528 30000000101145508 3.00813107163 29.372 -17.9207 -12.5742
9.92159 30000000101145509 30000000101145505 30000000101145528 30000000101145504 2.44422570455 -7.52708 -8.20946 3.34919
9.93809 30000000101145505 30000000101145504 30000000101145528 30000000101145503 2.31611074396 -8.0604 -15.3255 -9.77375
9.95617 30000000101145504 30000000101145503 30000000101145528 30000000101145502 2.20792547238 3.40361 -28.5987 -23.5061
9.98685 30000000101145503 30000000101145502 30000000101145528 30000000101145501 2.1032696526 1.12434 -24.7266 -18.7849
9.05235 30000000101145550 30000000101145549 30000000101145558 30000000101145548 4.00794511147 -26.5692 -24.6015 24.6124
9.0666 30000000101145669 30000000101145668 30000000101145680 30000000101145667 3.08482263583 6.58483 -3.47404 -8.65308
9.07216 30000000101145668 30000000101145666 30000000101145680 30000000101145665 2.89578500573 -9.01543 -6.72502 -7.25463
9.16182 30000000101145807 30000000101145806 30000000101145817 30000000101145805 6.49159774567 -9.03822 -4.00537 1.15265
9.2672 30000000101145806 30000000101145805 30000000101145817 30000000101145804 6.14490120342 -9.75252 -16.2103 8.54447
9.2811 30000000101145805 30000000101145804 30000000101145817 30000000101145803 6.01075739884 -10.9765 -16.1076 8.57221
9.42771 30000000101145804 30000000101145802 30000000101145817 30000000101145801 5.52976580795 -11.3043 -11.0292 8.42912
9.60381 30000000101145802 30000000101145801 30000000101145817 30000000101145800 5.22758097313 -19.6314 -7.43007 5.06641
9.6756 30000000101145801 30000000101145800 30000000101145817 30000000101145799 4.99593346816 -13.4439 0.472043 3.14733
9.72691 30000000101145800 30000000101145799 30000000101145817 30000000101145798 4.93938066349 -1.2317 0.0563844 7.6937
9.93772 30000000101145799 30000000101145797 30000000101145817 30000000101145796 4.42803373661 45.5809 -10.5256 16.3203
10.0524 30000000101145797 30000000101145796 30000000101145817 30000000101145795 4.00794511147 64.7099 16.1235 22.1506
10.0804 30000000101145796 30000000101145795 30000000101145817 30000000101145794 3.93726108473 60.9642 22.1516 31.6201
10.0836 30000000101145795 30000000101145794 30000000101145817 30000000101145793 3.70877426464 59.7334 13.0443 27.8786
10.1483 30000000101145794 30000000101145793 30000000101145817 30000000101145792 3.49086136926 71.1731 26.8062 32.9338
10.1593 30000000101145793 30000000101145792 30000000101145817 30000000101145791 3.28303305796 87.4457 13.2462 26.8545
10.2032 30000000101145792 30000000101145791 30000000101145817 30000000101145790 3.08482263583 89.322 -2.12875 27.9894
10.235 30000000101145791 30000000101145790 30000000101145817 30000000101145789 3.00813107163 93.0434 -13.518 27.0417
10.2554 30000000101145790 30000000101145789 30000000101145817 30000000101145788 2.89578500573 91.2418 -38.3065 16.1498
10.2721 30000000101145789 30000000101145788 30000000101145817 30000000101145787 2.73314261732 80.0029 -43.2551 10.4703
10.3029 30000000101145788 30000000101145786 30000000101145817 30000000101145785 2.44422570455 63.7763 -44.7546 -9.22448
10.3707 30000000101145786 30000000101145785 30000000101145817 30000000101145784 2.31611074396 63.5753 -74.7319 14.6463
10.4135 30000000101145785 30000000101145784 30000000101145817 30000000101145783 2.20792547238 52.3839 -80.4443 8.56608
10.4935 30000000101145784 30000000101145783 30000000101145817 30000000101145782 2.1032696526 75.9495 -86.965 8.98547
9.06096 30000000101145855 30000000101145854 30000000101145861 30000000101145853 6.85511726265 6.51447 -8.26705 7.2524
9.10157 30000000101145854 30000000101145853 30000000101145861 30000000101145852 6.49159774567 6.62234 -5.32411 5.50214
9.15042 30000000101145853 30000000101145852 30000000101145861 30000000101145851 6.14490120342 10.2052 -4.94248 7.37786
9.17293 30000000101145852 30000000101145851 30000000101145861 30000000101145850 6.01075739884 13.1043 -6.9062 6.74544
9.20055 30000000101145851 30000000101145850 30000000101145861 30000000101145849 5.84661374788 10.9414 -6.27053 6.01404
9.22457 30000000101145850 30000000101145849 30000000101145861 30000000101145848 5.52976580795 11.1603 0.528332 6.80875
9.83816 30000000101145849 30000000101145845 30000000101145861 30000000101145844 4.66451770247 48.4707 3.02068 12.4512
9.01614 30000000101145886 30000000101145885 30000000101145897 30000000101145884 6.14490120342 -2.80859 -2.3578 1.01639
9.03763 30000000101145885 30000000101145884 30000000101145897 30000000101145883 6.01075739884 -5.28145 -2.34107 2.10041
9.05235 30000000101145884 30000000101145883 30000000101145897 30000000101145882 5.84661374788 -1.97189 -3.56439 0.422884
9.11431 30000000101145883 30000000101145882 30000000101145897 30000000101145881 5.52976580795 1.50451 -3.78036 1.96995
9.12424 30000000101145882 30000000101145880 30000000101145897 30000000101145879 4.99593346816 -0.355068 -3.67697 -0.656218
9.14344 30000000101145880 30000000101145879 30000000101145897 30000000101145878 4.93938066349 -1.93893 -3.66267 0.619826
9.09375 30000000101145957 30000000101145956 30000000101145965 30000000101145955 4.17683491473 -17.4032 0.519416 -17.0503
9.16852 30000000101145956 30000000101145951 30000000101145965 30000000101145950 3.28303305796 -10.3336 -6.59693 5.14632
9.03763 30000000101146057 30000000101146056 30000000101146072 30000000101146055 3.70877426464 -4.93815 4.57165 2.66786
9.12178 30000000101146056 30000000101146055 30000000101146072 30000000101146054 3.49086136926 -1.9098 7.17804 5.65041
9.15273 30000000101146055 30000000101146054 30000000101146072 30000000101146053 3.28303305796 4.63446 8.49775 6.43778
9.31083 30000000101146054 30000000101146053 30000000101146072 30000000101146052 3.08482263583 23.1971 14.7006 8.10024
9.32342 30000000101146053 30000000101146052 30000000101146072 30000000101146051 3.00813107163 21.9772 12.6832 7.1201
9.35194 30000000101146052 30000000101146051 30000000101146072 30000000101146050 2.89578500573 21.0499 12.9112 7.22284
9.39871 30000000101146051 30000000101146050 30000000101146072 30000000101146049 2.73314261732 19.2721 13.1421 10.6357
9.46397 30000000101146050 30000000101146048 30000000101146072 30000000101146047 2.44422570455 30.3363 11.335 3.25198
9.02548 30000000101146151 30000000101146150 30000000101146151 30000000101146149 4.42803373661 4.42398 -0.56754 12.979
9.04358 30000000101146150 30000000101146149 30000000101146151 30000000101146148 4.17683491473 5.5543 -0.568719 8.87178
9.20055 30000000101146149 30000000101146148 30000000101146151 30000000101146147 4.00794511147 1.36317 2.75044 -4.55773
9.31401 30000000101146148 30000000101146147 30000000101146151 30000000101146146 3.93726108473 -4.10482 -1.00062 3.82754
9.36902 30000000101146147 30000000101146146 30000000101146151 30000000101146145 3.70877426464 1.35644 -2.36832 13.176
9.49326 30000000101146146 30000000101146145 30000000101146151 30000000101146144 3.49086136926 4.45236 8.70169 -5.44702
9.5314 30000000101146145 30000000101146144 30000000101146151 30000000101146143 3.28303305796 3.75944 9.16485 -5.8642
9.53713 30000000101146144 30000000101146143 30000000101146151 30000000101146142 3.08482263583 3.07068 7.56505 2.62991
9.16852 30000000101146239 30000000101146238 30000000101146245 30000000101146237 5.84661374788 -19.3381 15.834 -1.87898
9.21869 30000000101146238 30000000101146237 30000000101146245 30000000101146236 5.52976580795 -16.0995 7.53985 -2.6047
9.2929 30000000101146237 30000000101146236 30000000101146245 30000000101146235 5.22758097313 -20.8622 13.8977 -2.92462
9.35771 30000000101146236 30000000101146235 30000000101146245 30000000101146234 4.99593346816 -16.657 13.3591 -5.75485
9.37319 30000000101146235 30000000101146233 30000000101146245 30000000101146232 4.66451770247 1.00034 1.83593 -0.535182
9.40001 30000000101146233 30000000101146231 30000000101146245 30000000101146230 4.17683491473 -19.6695 -0.65628 -6.95371
9.46285 30000000101146231 30000000101146230 30000000101146245 30000000101146229 4.00794511147 -23.5188 -3.6428 0.746818
9.46844 30000000101146230 30000000101146229 30000000101146245 30000000101146228 3.93726108473 -22.1461 -3.3926 3.05081
9.50465 30000000101146229 30000000101146227 30000000101146245 30000000101146226 3.49086136926 -27.5287 -0.884827 -0.255031
9.59642 30000000101146227 30000000101146226 30000000101146245 30000000101146225 3.28303305796 -26.6971 -4.90013 2.63554
9.61266 30000000101146226 30000000101146225 30000000101146245 30000000101146224 3.08482263583 -22.7309 15.7481 3.63075
9.65874 30000000101146225 30000000101146224 30000000101146245 30000000101146223 3.00813107163 -16.4597 21.5508 2.13998
9.67767 30000000101146224 30000000101146223 30000000101146245 30000000101146222 2.89578500573 -12.8214 13.2926 -5.79279
9.71637 30000000101146223 30000000101146222 30000000101146245 30000000101146221 2.73314261732 -12.1534 14.6367 -1.17256
9.81127 30000000101146222 30000000101146221 30000000101146245 30000000101146220 2.5772902716 1.18084 20.1808 -19.2347
9.00337 30000000101146366 30000000101146365 30000000101146378 30000000101146364 4.17683491473 4.21814 -0.902817 -0.394756
9.02548 30000000101146365 30000000101146364 30000000101146378 30000000101146363 4.00794511147 6.22424 0.189386 0.669951
9.05811 30000000101146364 30000000101146363 30000000101146378 30000000101146362 3.93726108473 9.70105 1.21754 2.37261
9.07216 30000000101146363 30000000101146361 30000000101146378 30000000101146360 3.49086136926 12.1323 3.90292 2.33484
9.09375 30000000101146361 30000000101146360 30000000101146378 30000000101146359 3.28303305796 13.1487 7.60778 7.60006
9.20055 30000000101146360 30000000101146359 30000000101146378 30000000101146358 3.08482263583 13.2553 5.61899 6.19196
9.22845 30000000101146359 30000000101146355 30000000101146378 30000000101146354 2.5772902716 20.0525 -4.49719 6.70546
9.2342 30000000101146355 30000000101146354 30000000101146378 30000000101146353 2.44422570455 15.9777 -0.951674 7.24181
9.02855 30000000101146583 30000000101146582 30000000101146586 30000000101146581 10.9190331982 -8.75676 -0.853503 0.609185
9.11431 30000000101146582 30000000101146581 30000000101146586 30000000101146580 10.3674435724 6.44919 -8.16531 -7.66698
9.2811 30000000101146581 30000000101146580 30000000101146586 30000000101146579 9.99659046619 -0.860662 -6.17873 -2.12219
9.38815 30000000101146580 30000000101146579 30000000101146586 30000000101146578 9.84138043947 -13.3002 -21.0193 -7.40003
9.41156 30000000101146579 30000000101146578 30000000101146586 30000000101146577 9.38877127194 -7.84219 -9.37808 -4.05566
9.47176 30000000101146578 30000000101146577 30000000101146586 30000000101146576 9.00233985416 -7.08923 -11.1684 -0.82144
9.47724 30000000101146577 30000000101146576 30000000101146586 30000000101146575 8.9079991856 -5.93087 -10.3014 -1.45202
9.55841 30000000101146576 30000000101146575 30000000101146586 30000000101146574 8.44947629437 -12.2237 -8.88867 -2.64722
9.7195 30000000101146575 30000000101146574 30000000101146586 30000000101146573 8.01217294887 -21.2181 -18.1967 -8.90941
9.78689 30000000101146574 30000000101146573 30000000101146586 30000000101146572 7.59510714987 -5.38743 -9.68582 -9.03533
9.83673 30000000101146573 30000000101146572 30000000101146586 30000000101146571 7.23627606617 -6.6111 -8.7871 -10.8435
9.86348 30000000101146572 30000000101146571 30000000101146586 30000000101146570 7.00541704554 -10.668 -11.6524 -13.7413
9.89288 30000000101146571 30000000101146570 30000000101146586 30000000101146569 6.85511726265 -7.13838 -11.3217 -10.3231
9.94035 30000000101146570 30000000101146569 30000000101146586 30000000101146568 6.49159774567 -9.25477 -13.1515 -7.26149
10.0187 30000000101146569 30000000101146568 30000000101146586 30000000101146567 6.14490120342 0.756415 -16.0903 -0.638412
10.0252 30000000101146568 30000000101146567 30000000101146586 30000000101146566 6.01075739884 0.364878 -19.4614 -2.92903
10.027 30000000101146567 30000000101146566 30000000101146586 30000000101146565 5.84661374788 -2.23102 -13.6893 0.929781
10.0809 30000000101146566 30000000101146565 30000000101146586 30000000101146564 5.52976580795 6.2012 -20.8698 -5.75987
10.1181 30000000101146565 30000000101146564 30000000101146586 30000000101146563 5.22758097313 7.11025 -18.6225 3.14446
10.126 30000000101146564 30000000101146563 30000000101146586 30000000101146562 4.99593346816 8.52986 -23.1629 1.67184
10.1559 30000000101146563 30000000101146561 30000000101146586 30000000101146560 4.66451770247 -4.04688 -32.2627 0.376746
10.1855 30000000101146561 30000000101146559 30000000101146586 30000000101146558 4.17683491473 -3.3745 -33.6417 -12.087
10.2257 30000000101146559 30000000101146558 30000000101146586 30000000101146557 4.00794511147 -6.66127 -21.378 -4.35093
10.2369 30000000101146558 30000000101146557 30000000101146586 30000000101146556 3.93726108473 -3.96512 -18.8105 -1.38908
10.3002 30000000101146557 30000000101146556 30000000101146586 30000000101146555 3.70877426464 -5.48383 -12.842 13.5692
10.3244 30000000101146556 30000000101146555 30000000101146586 30000000101146554 3.49086136926 -1.54369 -6.92736 6.92645
10.3694 30000000101146555 30000000101146554 30000000101146586 30000000101146553 3.28303305796 0.172942 -4.55538 24.3795
10.4054 30000000101146554 30000000101146553 30000000101146586 30000000101146552 3.08482263583 13.0389 -10.2982 30.8518
10.4182 30000000101146553 30000000101146552 30000000101146586 30000000101146551 3.00813107163 13.4673 -12.659 35.1553
10.4197 30000000101146552 30000000101146551 30000000101146586 30000000101146550 2.89578500573 15.1439 -15.0414 26.2251
10.446 30000000101146551 30000000101146550 30000000101146586 30000000101146549 2.73314261732 12.9056 -29.6121 36.8844
10.4633 30000000101146550 30000000101146549 30000000101146586 30000000101146548 2.5772902716 19.0068 -25.9291 42.5816
10.481 30000000101146549 30000000101146545 30000000101146586 30000000101146544 2.1032696526 8.32365 -2.01234 14.1723
10.4992 30000000101146545 30000000101146544 30000000101146586 30000000101146543 2.00202813925 21.3749 -3.15522 2.97011
10.5026 30000000101146544 30000000101146543 30000000101146586 30000000101146542 1.90408954353 30.852 -9.17909 2.70493
10.5138 30000000101146543 30000000101146542 30000000101146586 30000000101146541 1.82268925262 38.3382 -4.21976 -6.09106
10.5144 30000000101146542 30000000101146541 30000000101146586 30000000101146540 1.74357057433 22.7452 1.97509 2.01737
10.5284 30000000101146541 30000000101146540 30000000101146586 30000000101146539 1.66666955611 35.7553 6.36832 -16.1763
10.5289 30000000101146540 30000000101146536 30000000101146586 30000000101146535 1.41409822037 25.6624 1.21925 6.50504
10.5342 30000000101146536 30000000101146535 30000000101146586 30000000101146534 1.3575766674 33.9718 7.36078 5.44656
10.5356 30000000101146535 30000000101146533 30000000101146586 30000000101146532 1.24847261425 23.5922 7.75568 17.2198
10.5383 30000000101146533 30000000101146531 30000000101146586 30000000101146530 1.15460271236 27.9567 2.31143 26.6382
10.5417 30000000101146531 30000000101146529 30000000101146586 30000000101146528 1.07445789455 18.8329 7.56772 16.0393
9.04653 30000000101146970 30000000101146969 30000000101146983 30000000101146968 3.28303305796 -8.78739 -2.43188 0.64748
9.09637 30000000101146969 30000000101146967 30000000101146983 30000000101146966 3.00813107163 -8.15344 -3.56884 -6.85421
9.09637 30000000101146967 30000000101146962 30000000101146983 30000000101146961 2.20792547238 4.44067 4.93457 -5.53362
9.23037 30000000101146962 30000000101146961 30000000101146983 30000000101146960 2.1032696526 5.93615 1.0706 -0.865359
9.24175 30000000101146961 30000000101146957 30000000101146983 30000000101146956 1.74357057433 0.193031 -4.44838 -4.44422
9.25101 30000000101146957 30000000101146956 30000000101146983 30000000101146955 1.66666955611 -1.79731 -3.8109 -3.50024
9.26365 30000000101146956 30000000101146954 30000000101146983 30000000101146953 1.53123902916 -4.81723 -4.11329 -6.73711
9.11681 30000000101147067 30000000101147066 30000000101147079 30000000101147065 5.22758097313 -8.60208 -2.00295 -9.08861
9.15956 30000000101147066 30000000101147065 30000000101147079 30000000101147064 4.99593346816 -9.73536 1.54782 -7.91687
9.16407 30000000101147065 30000000101147063 30000000101147079 30000000101147062 4.66451770247 -10.1533 -1.58787 -3.91953
9.18162 30000000101147063 30000000101147062 30000000101147079 30000000101147061 4.42803373661 -11.5338 -1.46048 -3.64779
9.24362 30000000101147062 30000000101147061 30000000101147079 30000000101147060 4.17683491473 -9.59362 -1.10568 -2.5365
9.26896 30000000101147061 30000000101147060 30000000101147079 30000000101147059 4.00794511147 -9.55609 -2.24148 -2.3792
9.3156 30000000101147060 30000000101147058 30000000101147079 30000000101147057 3.70877426464 -7.51199 -5.50267 -2.38906
9.40131 30000000101147058 30000000101147056 30000000101147079 30000000101147055 3.28303305796 -19.8391 -2.55138 -19.1312
9.42771 30000000101147056 30000000101147055 30000000101147079 30000000101147054 3.08482263583 -15.1278 0.932765 -19.9338
9.43974 30000000101147055 30000000101147054 30000000101147079 30000000101147053 3.00813107163 -12.5331 0.529795 -16.1518
9.48905 30000000101147054 30000000101147053 30000000101147079 30000000101147052 2.89578500573 -10.8205 -3.11083 -16.5259
9.54928 30000000101147053 30000000101147052 30000000101147079 30000000101147051 2.73314261732 -13.6184 10.5932 -23.7862
9.56557 30000000101147052 30000000101147051 30000000101147079 30000000101147050 2.5772902716 -13.327 14.0763 -25.1097
