logMh | fpID | subhaloID | main leaf ID | descID |  z
9.15502 10000000007956595 10000000007956594 10000000007956597 10000000007956593 9.38877127194 3.84938 1.19834 -6.61427
9.27938 10000000007956594 10000000007956593 10000000007956597 10000000007956592 9.00233985416 0.512305 0.206314 -6.9634
9.49536 10000000007956593 10000000007956591 10000000007956597 10000000007956590 8.44947629437 -0.857459 -4.07311 7.13717
9.59642 10000000007956591 10000000007956590 10000000007956597 10000000007956589 8.01217294887 0.798021 -11.4807 15.7705
9.71068 10000000007956590 10000000007956589 10000000007956597 10000000007956588 7.59510714987 -1.2215 13.8196 0.057823
9.77113 10000000007956589 10000000007956588 10000000007956597 10000000007956587 7.23627606617 -1.29527 18.258 2.36507
9.91923 10000000007956588 10000000007956587 10000000007956597 10000000007956586 7.00541704554 4.53623 20.0737 -2.13397
10.0227 10000000007956587 10000000007956586 10000000007956597 10000000007956585 6.85511726265 38.2609 9.86947 1.87863
10.2686 10000000007956586 10000000007956583 10000000007956597 10000000007956582 6.01075739884 43.2467 -7.22812 3.32808
10.3464 10000000007956583 10000000007956582 10000000007956597 10000000007956581 5.84661374788 43.334 3.99821 7.62646
10.4665 10000000007956582 10000000007956581 10000000007956597 10000000007956580 5.52976580795 20.5045 0.347759 -9.69054
10.5674 10000000007956581 10000000007956580 10000000007956597 10000000007956579 5.22758097313 18.2835 -13.8141 10.5573
10.6658 10000000007956580 10000000007956579 10000000007956597 10000000007956578 4.99593346816 -7.44286 -22.3432 -7.30698
10.6669 10000000007956579 10000000007956578 10000000007956597 10000000007956577 4.93938066349 -13.9002 -31.3231 -9.82931
10.6991 10000000007956578 10000000007956577 10000000007956597 10000000007956576 4.66451770247 -8.82862 -18.4379 -4.85926
10.7722 10000000007956577 10000000007956576 10000000007956597 10000000007956575 4.42803373661 39.3734 -27.0563 -15.9407
10.934 10000000007956576 10000000007956575 10000000007956597 10000000007956574 4.17683491473 77.3943 -60.2785 -70.0297
11.1455 10000000007956575 10000000007956573 10000000007956597 10000000007956572 3.93726108473 17.5335 -115.29 -169.575
11.2376 10000000007956573 10000000007956572 10000000007956597 10000000007956571 3.70877426464 0.755361 -157.213 -211.366
11.2987 10000000007956572 10000000007956571 10000000007956597 10000000007956570 3.49086136926 -35.1415 -174.474 -253.856
11.3731 10000000007956571 10000000007956569 10000000007956597 10000000007956568 3.08482263583 -64.332 -229.694 -365.004
11.4473 10000000007956569 10000000007956568 10000000007956597 10000000007956567 3.00813107163 -132.012 -91.3473 -180.393
11.4879 10000000007956568 10000000007956567 10000000007956597 10000000007956566 2.89578500573 -185.16 88.0594 17.9211
11.6605 10000000007956567 10000000007956566 10000000007956597 10000000007956565 2.73314261732 -344.899 -128.323 197.037
11.7657 10000000007956566 10000000007956565 10000000007956597 10000000007956564 2.5772902716 -449.161 78.4322 397.555
11.8637 10000000007956565 10000000007956564 10000000007956597 10000000007956563 2.44422570455 -495.849 -132.186 471.268
11.8675 10000000007956564 10000000007956563 10000000007956597 10000000007956562 2.31611074396 -565.94 -82.6899 521.865
11.9267 10000000007956563 10000000007956562 10000000007956597 10000000007956561 2.20792547238 -635.585 -68.1673 493.579
11.9802 10000000007956562 10000000007956561 10000000007956597 10000000007956560 2.1032696526 -638.911 -80.3631 325.776
11.9979 10000000007956561 10000000007956560 10000000007956597 10000000007956559 2.00202813925 -678.657 -82.2069 241.167
12.0041 10000000007956560 10000000007956558 10000000007956597 10000000007956557 1.82268925262 -700.112 5.7501 32.5693
12.0274 10000000007956558 10000000007956557 10000000007956597 10000000007956556 1.74357057433 -1023.29 103.43 -67.3012
12.0274 10000000007956557 10000000007956556 10000000007956597 10000000007956555 1.66666955611 -1228.03 140.359 -121.92
12.03 10000000007956556 10000000007956555 10000000007956597 10000000007956554 1.60423452207 -1209.99 105.38 -148.142
12.0485 10000000007956555 10000000007956554 10000000007956597 10000000007956553 1.53123902916 -1092.9 -138.418 54.6931
12.0537 10000000007956554 10000000007956553 10000000007956597 10000000007956552 1.47197484527 -1197.54 -160.594 50.5844
12.0708 10000000007956553 10000000007956552 10000000007956597 10000000007956551 1.41409822037 -1168.08 -275.071 65.2417
12.0757 10000000007956552 10000000007956551 10000000007956597 10000000007956550 1.3575766674 -1199.59 -322.584 248.934
12.0851 10000000007956551 10000000007956550 10000000007956597 10000000007956549 1.30237845991 -1279.65 -397.112 206.441
12.11 10000000007956550 10000000007956549 10000000007956597 10000000007956548 1.24847261425 -1414.05 -619.074 66.1514
12.1104 10000000007956549 10000000007956548 10000000007956597 10000000007956547 1.20625808078 -1377.49 -573.478 178.789
12.1254 10000000007956548 10000000007956547 10000000007956597 10000000007956546 1.15460271236 -1290.17 -589.05 270.29
12.1293 10000000007956547 10000000007956546 10000000007956597 10000000007956545 1.11415056377 -1265.18 -548.591 277.797
12.1318 10000000007956546 10000000007956545 10000000007956597 10000000007956544 1.07445789455 -1274.48 -562.234 316.535
12.136 10000000007956545 10000000007956544 10000000007956597 10000000007956543 1.03551044566 -1148.64 -554.628 299.784
12.1507 10000000007956544 10000000007956541 10000000007956597 10000000007956540 0.950531351585 -918.108 -591.492 156.523
12.1653 10000000007956541 10000000007956538 10000000007956597 10000000007956537 0.851470900625 -755.678 -651.16 98.5417
12.1795 10000000007956538 10000000007956537 10000000007956597 10000000007956536 0.816709979012 -783.65 -691.507 0.015656
12.1806 10000000007956537 10000000007956534 10000000007956597 10000000007956533 0.732636182022 -870.153 -457.21 124.975
12.1956 10000000007956534 10000000007956532 10000000007956597 10000000007956531 0.676110411213 -987.002 -638.684 157.926
12.2234 10000000007956532 10000000007956526 10000000007956597 10000000007956525 0.524565820434 -1044.33 -252.493 149.051
9.14578 10000000007956611 10000000007956610 10000000007956617 10000000007956609 8.44947629437 -6.08038 -0.743136 -4.61002
9.02855 10000000007956630 10000000007956629 10000000007956638 10000000007956628 8.9079991856 -4.6945 -2.63625 -8.4835
9.14108 10000000007956629 10000000007956628 10000000007956638 10000000007956627 8.44947629437 0.285702 2.94434 -9.20541
9.24362 10000000007956628 10000000007956627 10000000007956638 10000000007956626 8.01217294887 0.627082 4.24948 -9.56398
9.91647 10000000007956627 10000000007956622 10000000007956638 10000000007956621 6.49159774567 24.9331 6.96648 22.1614
10.191 10000000007956622 10000000007956621 10000000007956638 10000000007956583 6.14490120342 58.5789 4.77176 10.2014
9.08578 10000000007956645 10000000007956644 10000000007956650 10000000007956643 8.44947629437 -3.82159 -3.71029 -2.9917
9.13871 10000000007956644 10000000007956643 10000000007956650 10000000007956642 8.01217294887 -0.353153 1.80287 -0.884756
9.38815 10000000007956643 10000000007956641 10000000007956650 10000000007956640 7.23627606617 -9.91342 13.2587 14.1696
9.03463 10000000007956716 10000000007956715 10000000007956720 10000000007956714 7.23627606617 10.5515 4.43045 5.75757
9.06378 10000000007956715 10000000007956713 10000000007956720 10000000007956712 6.85511726265 7.11112 5.8971 6.64966
9.13871 10000000007956746 10000000007956745 10000000007956749 10000000007956744 9.99659046619 -12.5926 -0.338877 3.0606
9.15502 10000000007956745 10000000007956744 10000000007956749 10000000007956743 9.84138043947 -10.8356 1.06729 4.88813
9.34902 10000000007956744 10000000007956743 10000000007956749 10000000007956742 9.38877127194 0.699134 -0.280344 3.37773
9.48157 10000000007956743 10000000007956742 10000000007956749 10000000007956741 9.00233985416 -1.95576 0.397609 2.5955
9.59394 10000000007956742 10000000007956740 10000000007956749 10000000007956739 8.44947629437 -9.13154 -0.917746 12.3946
9.60218 10000000007956740 10000000007956739 10000000007956749 10000000007956738 8.01217294887 -9.05892 -7.59546 -6.59824
9.69118 10000000007956739 10000000007956738 10000000007956749 10000000007956737 7.59510714987 -6.58021 4.20075 10.2952
9.84708 10000000007956738 10000000007956737 10000000007956749 10000000007956736 7.23627606617 1.78009 12.8739 6.66589
9.86169 10000000007956737 10000000007956735 10000000007956749 10000000007956734 6.85511726265 3.27262 6.40811 1.17467
11.0514 10000000007956779 10000000007956778 10000000007956783 10000000007956573 4.00794511147 50.6838 -98.1917 -140.397
9.00012 10000000007956833 10000000007956832 10000000007956841 10000000007956831 6.14490120342 -7.76009 4.1374 -9.75408
9.04062 10000000007956832 10000000007956831 10000000007956841 10000000007956830 6.01075739884 -8.51321 2.953 -11.6668
9.04062 10000000007956831 10000000007956830 10000000007956841 10000000007956829 5.84661374788 -7.62775 2.27729 -9.76827
9.05524 10000000007956830 10000000007956829 10000000007956841 10000000007956828 5.52976580795 -8.58314 3.39425 -9.23501
9.04062 10000000007956853 10000000007956852 10000000007956856 10000000007956851 5.22758097313 5.98669 2.50726 -2.35034
9.0666 10000000007956852 10000000007956851 10000000007956856 10000000007956850 4.99593346816 2.47743 3.71814 -3.54476
9.12178 10000000007956851 10000000007956849 10000000007956856 10000000007956848 4.66451770247 5.91374 -0.520697 -2.30663
9.02548 10000000007956940 10000000007956939 10000000007956943 10000000007956938 11.4973879548 2.1991 -3.16534 7.69284
9.15042 10000000007956939 10000000007956938 10000000007956943 10000000007956937 10.9190331982 1.79898 -3.31964 7.84999
9.43497 10000000007956938 10000000007956937 10000000007956943 10000000007956936 10.3674435724 5.08727 12.5451 7.97164
9.45833 10000000007956937 10000000007956936 10000000007956943 10000000007956935 9.99659046619 15.4917 11.7225 -0.295954
9.48049 10000000007956936 10000000007956935 10000000007956943 10000000007956934 9.84138043947 2.45277 8.18464 3.39713
9.61425 10000000007956935 10000000007956934 10000000007956943 10000000007956933 9.38877127194 2.80482 8.10244 -1.55086
9.62985 10000000007956934 10000000007956932 10000000007956943 10000000007956931 8.9079991856 2.04613 3.36681 0.846268
9.72198 10000000007956932 10000000007956931 10000000007956943 10000000007956930 8.44947629437 0.350494 6.09505 4.46829
9.77554 10000000007956931 10000000007956930 10000000007956943 10000000007956929 8.01217294887 6.63251 8.06929 3.94393
9.82419 10000000007956930 10000000007956929 10000000007956943 10000000007956928 7.59510714987 4.23143 5.95541 2.42196
9.89413 10000000007956929 10000000007956928 10000000007956943 10000000007956927 7.23627606617 -2.34906 8.07069 9.70229
10.0436 10000000007956928 10000000007956927 10000000007956943 10000000007956926 7.00541704554 18.0684 -16.6603 -21.2836
10.099 10000000007956927 10000000007956926 10000000007956943 10000000007956925 6.85511726265 18.3515 -27.9774 -18.5939
10.2171 10000000007956926 10000000007956925 10000000007956943 10000000007956924 6.49159774567 18.9248 -48.8147 -24.769
10.3568 10000000007956925 10000000007956924 10000000007956943 10000000007956923 6.14490120342 17.8444 -76.9151 -14.7846
10.4058 10000000007956924 10000000007956923 10000000007956943 10000000007956922 6.01075739884 30.4046 -62.4361 -10.8737
10.4298 10000000007956923 10000000007956922 10000000007956943 10000000007956921 5.84661374788 34.9554 -49.3758 -1.66839
10.5357 10000000007956922 10000000007956921 10000000007956943 10000000007956920 5.52976580795 49.8619 -73.0138 -4.56549
10.6266 10000000007956921 10000000007956920 10000000007956943 10000000007956919 5.22758097313 81.9334 -93.364 -28.5017
10.673 10000000007956920 10000000007956919 10000000007956943 10000000007956918 4.99593346816 84.9506 -100.239 -37.415
10.7377 10000000007956919 10000000007956918 10000000007956943 10000000007956917 4.93938066349 162.405 -118.163 15.841
11.3279 10000000007956918 10000000007956910 10000000007956943 10000000007956568 3.28303305796 -142.711 -157.593 -281.469
9.1663 10000000007956980 10000000007956979 10000000007956984 10000000007956978 12.6747021048 1.34416 -0.259312 1.95787
9.29951 10000000007956979 10000000007956978 10000000007956984 10000000007956977 12.0418635439 -5.35608 1.93218 -2.5535
9.36481 10000000007956978 10000000007956977 10000000007956984 10000000007956976 11.4973879548 -4.52066 1.63983 -1.21492
9.43257 10000000007956977 10000000007956976 10000000007956984 10000000007956975 10.9190331982 -4.31968 0.302829 -1.44239
9.53996 10000000007956976 10000000007956975 10000000007956984 10000000007956974 10.3674435724 -5.7305 -3.29636 0.831877
9.60054 10000000007956975 10000000007956974 10000000007956984 10000000007956973 9.99659046619 -4.09497 -4.87787 -0.41665
9.61026 10000000007956974 10000000007956973 10000000007956984 10000000007956972 9.84138043947 -2.93672 -4.03598 -0.108598
9.63894 10000000007956973 10000000007956972 10000000007956984 10000000007956971 9.38877127194 -3.04596 -8.50544 4.0148
9.72874 10000000007956972 10000000007956971 10000000007956984 10000000007956970 9.00233985416 -3.74777 -4.9673 7.27518
9.73239 10000000007956971 10000000007956970 10000000007956984 10000000007956969 8.9079991856 -3.78982 -4.1595 5.67339
9.78849 10000000007956970 10000000007956969 10000000007956984 10000000007956968 8.44947629437 -2.23529 -3.82865 7.67117
9.87843 10000000007956969 10000000007956968 10000000007956984 10000000007956967 8.01217294887 -1.08013 -2.53811 9.26595
9.9278 10000000007956968 10000000007956967 10000000007956984 10000000007956966 7.59510714987 1.42285 -0.680046 14.4913
9.95689 10000000007956967 10000000007956966 10000000007956984 10000000007956965 7.23627606617 0.177712 -0.92354 23.1954
9.0098 10000000007956995 10000000007956994 10000000007957006 10000000007956993 5.52976580795 -4.26569 0.75965 -3.20388
9.02855 10000000007957026 10000000007957025 10000000007957030 10000000007957024 8.44947629437 -22.1806 -0.116229 -2.13372
9.12912 10000000007957025 10000000007957023 10000000007957030 10000000007957022 7.59510714987 -20.4061 1.05096 -1.95526
9.16852 10000000007957023 10000000007957021 10000000007957030 10000000007957020 7.00541704554 -18.9983 2.10548 0.337017
9.24362 10000000007957021 10000000007957020 10000000007957030 10000000007957019 6.85511726265 -12.9063 7.47576 10.5176
9.26896 10000000007957020 10000000007957019 10000000007957030 10000000007957018 6.49159774567 -11.065 9.40291 18.9217
9.02548 10000000007957054 10000000007957053 10000000007957062 10000000007957052 5.84661374788 -8.32838 -4.89621 4.41076
9.07766 10000000007957053 10000000007957052 10000000007957062 10000000007957051 5.52976580795 -8.84436 -4.2979 3.23135
9.22066 10000000007957052 10000000007957051 10000000007957062 10000000007957050 5.22758097313 -8.80391 -0.991511 1.46042
9.26008 10000000007957051 10000000007957050 10000000007957062 10000000007957049 4.99593346816 -8.7365 1.3771 -0.349501
9.26365 10000000007957050 10000000007957049 10000000007957062 10000000007957048 4.93938066349 -9.747 0.675581 -0.927424
9.28788 10000000007957049 10000000007957048 10000000007957062 10000000007957047 4.66451770247 -7.52491 -2.76888 -0.885568
9.00012 10000000007957092 10000000007957091 10000000007957098 10000000007957090 5.84661374788 5.26799 2.66417 -0.612838
9.12424 10000000007957091 10000000007957090 10000000007957098 10000000007957089 5.52976580795 15.422 -5.91569 -2.43036
9.06096 10000000007957134 10000000007957133 10000000007957139 10000000007957132 6.14490120342 0.0822576 5.81571 14.4665
9.4651 10000000007957133 10000000007957131 10000000007957139 10000000007957130 5.84661374788 -7.10328 3.5273 1.41573
9.49431 10000000007957131 10000000007957130 10000000007957139 10000000007957129 5.52976580795 2.03297 1.70838 2.14571
9.60705 10000000007957130 10000000007957129 10000000007957139 10000000007957128 5.22758097313 3.21269 -9.02711 -2.37337
9.64044 10000000007957129 10000000007957128 10000000007957139 10000000007957127 4.99593346816 4.3523 -8.44152 -0.840781
9.66514 10000000007957128 10000000007957127 10000000007957139 10000000007957126 4.93938066349 6.65892 -5.1024 -7.43491
9.69974 10000000007957127 10000000007957126 10000000007957139 10000000007957125 4.66451770247 5.77957 -7.03356 -2.92409
9.25648 10000000007957158 10000000007957157 10000000007957162 10000000007957156 6.49159774567 2.58985 -0.761713 -27.0419
9.34461 10000000007957157 10000000007957155 10000000007957162 10000000007957154 6.01075739884 9.01342 -4.00695 -4.58372
9.02855 10000000007957193 10000000007957192 10000000007957198 10000000007957191 9.38877127194 -10.4956 -2.1445 1.11432
9.20055 10000000007957192 10000000007957188 10000000007957198 10000000007957187 8.01217294887 -6.91342 -6.10478 0.696424
9.26365 10000000007957188 10000000007957186 10000000007957198 10000000007957185 7.23627606617 -9.20973 -2.73087 -2.54844
9.27072 10000000007957186 10000000007957185 10000000007957198 10000000007957184 7.00541704554 -2.90404 -2.86728 -3.66715
9.2742 10000000007957185 10000000007957184 10000000007957198 10000000007957183 6.85511726265 -3.67733 -3.03056 -6.36107
9.36763 10000000007957184 10000000007957183 10000000007957198 10000000007957182 6.49159774567 -1.32768 -9.17318 -7.46465
9.40518 10000000007957183 10000000007957182 10000000007957198 10000000007957181 6.14490120342 1.25123 -14.3302 -13.4857
9.43136 10000000007957182 10000000007957181 10000000007957198 10000000007957180 6.01075739884 -5.91082 -13.3392 -10.0153
9.12178 10000000007957210 10000000007957209 10000000007957225 10000000007957208 4.17683491473 1.04029 -2.03549 20.8038
9.12424 10000000007957209 10000000007957207 10000000007957225 10000000007957206 3.93726108473 3.09415 -3.06208 23.8435
9.15273 10000000007957377 10000000007957376 10000000007957377 10000000007957375 3.00813107163 -4.4033 1.46621 2.57529
9.17073 10000000007957376 10000000007957375 10000000007957377 10000000007957374 2.89578500573 -7.62088 2.33636 2.04592
9.17512 10000000007957375 10000000007957374 10000000007957377 10000000007956565 2.73314261732 -5.89608 -0.241575 4.23952
9.02855 10000000007957460 10000000007957459 10000000007957469 10000000007957458 8.01217294887 3.80917 0.827721 -6.89547
9.15956 10000000007957459 10000000007957458 10000000007957469 10000000007957457 7.59510714987 5.85243 0.315361 -5.64909
9.18162 10000000007957458 10000000007957457 10000000007957469 10000000007957456 7.23627606617 5.21085 2.24531 -2.76812
9.19223 10000000007957457 10000000007957456 10000000007957469 10000000007957455 7.00541704554 4.38917 3.63578 -0.891072
9.2026 10000000007957456 10000000007957455 10000000007957469 10000000007957454 6.85511726265 5.93102 1.98686 0.132289
9.25101 10000000007957455 10000000007957454 10000000007957469 10000000007957453 6.49159774567 4.50879 1.87538 -3.96876
9.2845 10000000007957454 10000000007957453 10000000007957469 10000000007957452 6.14490120342 4.1802 2.0974 -5.03274
9.28956 10000000007957453 10000000007957452 10000000007957469 10000000007957451 6.01075739884 4.86993 3.65695 1.01276
9.36056 10000000007957452 10000000007957450 10000000007957469 10000000007957449 5.52976580795 3.4545 1.64077 4.12645
9.41029 10000000007957450 10000000007957449 10000000007957469 10000000007957448 5.22758097313 0.0166578 1.62717 4.20888
9.45833 10000000007957449 10000000007957447 10000000007957469 10000000007957446 4.93938066349 3.05059 -1.09946 12.2473
9.52169 10000000007957447 10000000007957446 10000000007957469 10000000007957445 4.66451770247 6.02912 -3.82195 26.2255
9.00012 10000000007957495 10000000007957494 10000000007957503 10000000007957493 8.01217294887 -0.345016 -1.82318 1.27581
9.04358 10000000007957494 10000000007957493 10000000007957503 10000000007957492 7.59510714987 -0.415576 -2.89458 3.57285
9.06939 10000000007957493 10000000007957491 10000000007957503 10000000007957490 7.00541704554 -2.72142 -0.824158 7.22466
9.10415 10000000007957491 10000000007957490 10000000007957503 10000000007957489 6.85511726265 -3.95306 -1.31808 4.41233
9.12668 10000000007957490 10000000007957489 10000000007957503 10000000007957488 6.49159774567 -3.67208 -0.24199 8.28342
9.15502 10000000007957519 10000000007957518 10000000007957523 10000000007957517 4.66451770247 20.1104 -16.6652 34.7805
9.02855 10000000007957666 10000000007957665 10000000007957670 10000000007957664 9.38877127194 -6.33399 -9.73533 -3.44878
9.10671 10000000007957665 10000000007957664 10000000007957670 10000000007957663 9.00233985416 -7.8481 -12.6971 -0.381511
9.12424 10000000007957664 10000000007957663 10000000007957670 10000000007957662 8.9079991856 -8.25714 -10.8781 0.301692
9.38277 10000000007957663 10000000007957661 10000000007957670 10000000007957660 8.01217294887 -0.0504492 -11.8023 -1.63129
9.47615 10000000007957661 10000000007957660 10000000007957670 10000000007957659 7.59510714987 -2.86368 -15.3193 0.0942671
9.52948 10000000007957660 10000000007957659 10000000007957670 10000000007957658 7.23627606617 -1.41292 -10.6952 -0.0801306
9.60946 10000000007957659 10000000007957658 10000000007957670 10000000007957657 7.00541704554 -0.280037 -8.63177 -4.44562
9.62056 10000000007957658 10000000007957657 10000000007957670 10000000007957656 6.85511726265 -1.72005 -10.2496 -7.52766
9.71637 10000000007957657 10000000007957656 10000000007957670 10000000007957655 6.49159774567 -7.90777 -17.9845 -5.04172
9.78528 10000000007957656 10000000007957655 10000000007957670 10000000007957654 6.14490120342 -2.72202 -18.9002 -3.13652
9.8067 10000000007957655 10000000007957654 10000000007957670 10000000007957653 6.01075739884 -4.52264 -22.5727 -4.28767
9.84428 10000000007957654 10000000007957653 10000000007957670 10000000007957652 5.84661374788 -6.87769 -31.0088 -4.074
9.87409 10000000007957653 10000000007957652 10000000007957670 10000000007957651 5.52976580795 -2.65477 -34.6436 -2.88912
9.8933 10000000007957652 10000000007957650 10000000007957670 10000000007957649 4.99593346816 -1.4057 -34.4185 -4.61596
9.89538 10000000007957650 10000000007957649 10000000007957670 10000000007957648 4.93938066349 0.51779 -39.059 -2.26684
9.96048 10000000007957649 10000000007957648 10000000007957670 10000000007957647 4.66451770247 -6.3657 -34.1909 -12.9027
9.05235 10000000007957737 10000000007957736 10000000007957745 10000000007957735 9.00233985416 -10.9164 -8.96252 6.79785
9.08309 10000000007957736 10000000007957735 10000000007957745 10000000007957734 8.9079991856 -9.1198 -10.0883 7.04853
9.1193 10000000007957735 10000000007957734 10000000007957745 10000000007957733 8.44947629437 -6.48924 -10.924 3.01182
9.21671 10000000007957734 10000000007957733 10000000007957745 10000000007957732 8.01217294887 -12.7019 -21.7903 5.14067
9.35771 10000000007957733 10000000007957732 10000000007957745 10000000007957731 7.59510714987 -3.59256 -13.9884 -0.178879
9.48905 10000000007957732 10000000007957731 10000000007957745 10000000007957730 7.23627606617 -9.28191 -9.12496 1.16203
9.50771 10000000007957731 10000000007957730 10000000007957745 10000000007957729 7.00541704554 -4.60742 -5.58225 -1.07343
9.61663 10000000007957730 10000000007957729 10000000007957745 10000000007957728 6.85511726265 -2.5826 -1.94979 -4.87258
9.61663 10000000007957729 10000000007957728 10000000007957745 10000000007957727 6.49159774567 -4.67429 -0.725218 -4.0794
9.77389 10000000007957728 10000000007957727 10000000007957745 10000000007957726 6.14490120342 -7.48709 15.4146 -6.64106
9.77663 10000000007957727 10000000007957726 10000000007957745 10000000007957725 6.01075739884 -6.59594 14.3966 -9.47305
9.83339 10000000007957726 10000000007957725 10000000007957745 10000000007957724 5.84661374788 12.5726 15.0858 -13.5663
9.0066 10000000007957803 10000000007957802 10000000007957809 10000000007957801 5.84661374788 13.9175 7.44439 -4.07389
9.01298 10000000007957802 10000000007957801 10000000007957809 10000000007957800 5.52976580795 13.1154 4.03669 -2.76388
9.06378 10000000007957801 10000000007957800 10000000007957809 10000000007957799 5.22758097313 17.6244 6.66407 -2.2393
9.09637 10000000007957800 10000000007957799 10000000007957809 10000000007957798 4.99593346816 23.5827 5.39422 0.379173
9.10157 10000000007957799 10000000007957789 10000000007957809 10000000007957788 3.08482263583 9.56107 7.08095 -13.5839
9.18162 10000000007957891 10000000007957890 10000000007957906 10000000007957889 3.93726108473 -3.99379 -3.36976 -12.3802
9.41282 10000000007957890 10000000007957889 10000000007957906 10000000007957888 3.70877426464 7.75261 -11.6443 9.38911
9.02239 10000000007957922 10000000007957921 10000000007957935 10000000007957920 4.66451770247 -2.82669 4.08625 -2.57682
9.10415 10000000007957921 10000000007957919 10000000007957935 10000000007957918 4.17683491473 -3.49959 -0.31645 -4.65243
9.0066 10000000007957949 10000000007957948 10000000007957959 10000000007957947 4.42803373661 2.48528 3.97297 0.937025
9.04653 10000000007958145 10000000007958144 10000000007958150 10000000007958143 6.49159774567 1.73816 -4.25719 -6.18346
9.04653 10000000007958144 10000000007958142 10000000007958150 10000000007958141 6.01075739884 -1.15779 -3.84713 -5.03762
9.14344 10000000007958142 10000000007958141 10000000007958150 10000000007958140 5.84661374788 3.78843 -1.50038 -5.31493
9.21869 10000000007958141 10000000007958140 10000000007958150 10000000007958139 5.52976580795 3.74036 -4.12275 -6.01911
9.24733 10000000007958140 10000000007958139 10000000007958150 10000000007958138 5.22758097313 1.21413 -1.23475 -5.65026
9.38005 10000000007958139 10000000007958136 10000000007958150 10000000007958135 4.66451770247 8.5381 3.80641 -13.045
9.38547 10000000007958136 10000000007958135 10000000007958150 10000000007958134 4.42803373661 9.40004 -2.96455 -10.0536
9.42649 10000000007958135 10000000007958134 10000000007958150 10000000007958133 4.17683491473 11.7719 -2.16783 -13.9358
9.10671 10000000007958181 10000000007958180 10000000007958185 10000000007958179 7.23627606617 13.8623 -7.17839 -3.31622
9.21472 10000000007958180 10000000007958179 10000000007958185 10000000007958178 7.00541704554 11.9807 6.03477 -5.90693
9.24918 10000000007958179 10000000007958177 10000000007958185 10000000007958176 6.49159774567 2.98398 6.60267 -4.65989
9.27594 10000000007958177 10000000007958176 10000000007958185 10000000007958175 6.14490120342 -13.9873 2.5613 8.42136
9.32497 10000000007958176 10000000007958172 10000000007958185 10000000007958171 5.22758097313 -21.3778 10.3544 -1.30659
9.3634 10000000007958172 10000000007958171 10000000007958185 10000000007958170 4.99593346816 -14.2432 8.34646 -1.68592
9.04945 10000000007958212 10000000007958211 10000000007958228 10000000007958210 4.42803373661 -11.2218 -7.50337 -7.091
9.04653 10000000007958244 10000000007958243 10000000007958255 10000000007958242 4.17683491473 -3.23072 -2.10593 3.02323
9.19013 10000000007958243 10000000007958240 10000000007958255 10000000007958239 3.70877426464 21.5303 3.21069 -13.3123
9.29951 10000000007958240 10000000007958239 10000000007958255 10000000007958238 3.49086136926 23.1652 5.24721 -13.3685
9.02548 10000000007958274 10000000007958273 10000000007958280 10000000007958272 4.66451770247 9.5754 5.60584 -8.66662
9.10926 10000000007958273 10000000007958272 10000000007958280 10000000007958271 4.42803373661 9.69195 4.1707 -10.3991
9.11681 10000000007958272 10000000007958270 10000000007958280 10000000007958269 4.00794511147 10.9917 3.3394 -6.86652
9.12668 10000000007958310 10000000007958309 10000000007958318 10000000007958308 5.22758097313 -18.8792 13.3895 1.67302
9.16407 10000000007958471 10000000007958470 10000000007958478 10000000007958469 8.44947629437 -14.8923 -16.7274 13.2224
9.23037 10000000007958470 10000000007958469 10000000007958478 10000000007958468 8.01217294887 -15.3904 -12.4473 10.3524
9.34756 10000000007958469 10000000007958468 10000000007958478 10000000007958467 7.59510714987 -11.4247 -6.3886 13.6141
9.47396 10000000007958468 10000000007958467 10000000007958478 10000000007958466 7.23627606617 -12.4643 -8.91862 18.9838
9.48479 10000000007958467 10000000007958466 10000000007958478 10000000007958465 7.00541704554 -8.14289 -10.9216 14.2639
9.54372 10000000007958466 10000000007958464 10000000007958478 10000000007958463 6.49159774567 -1.43793 -10.4405 10.9377
9.5761 10000000007958464 10000000007958463 10000000007958478 10000000007958462 6.14490120342 2.30826 -11.6508 9.54588
9.59394 10000000007958463 10000000007958462 10000000007958478 10000000007958461 6.01075739884 6.09952 -13.848 7.20727
9.62831 10000000007958462 10000000007958461 10000000007958478 10000000007958460 5.84661374788 3.97175 -17.4973 7.75033
9.65586 10000000007958461 10000000007958460 10000000007958478 10000000007958459 5.52976580795 4.79207 -14.7491 -4.94488
9.68244 10000000007958460 10000000007958459 10000000007958478 10000000007958458 5.22758097313 4.09603 -16.6352 -6.07281
9.68582 10000000007958459 10000000007958457 10000000007958478 10000000007958456 4.93938066349 -1.95012 -13.7272 -5.92758
9.83002 10000000007958457 10000000007958456 10000000007958478 10000000007958455 4.66451770247 -8.71867 -34.2071 -8.84559
9.06378 10000000007958504 10000000007958503 10000000007958514 10000000007958502 5.84661374788 3.52133 -8.79478 9.61081
9.08578 10000000007958503 10000000007958502 10000000007958514 10000000007958501 5.52976580795 2.23038 -10.5342 4.49914
9.15042 10000000007958650 10000000007958649 10000000007958661 10000000007958648 3.70877426464 4.33859 -12.1398 -8.88466
9.01298 10000000007958704 10000000007958703 10000000007958712 10000000007958702 6.85511726265 4.52857 -1.91536 -3.13067
9.12424 10000000007958703 10000000007958702 10000000007958712 10000000007958701 6.49159774567 7.85698 -2.79296 -4.23698
9.1573 10000000007958702 10000000007958701 10000000007958712 10000000007958700 6.14490120342 7.42659 -2.22778 -0.579802
9.1663 10000000007958701 10000000007958700 10000000007958712 10000000007958699 6.01075739884 7.53468 -0.107265 -2.16144
9.23229 10000000007958700 10000000007958699 10000000007958712 10000000007958698 5.84661374788 8.31546 4.94327 -11.703
9.29457 10000000007958699 10000000007958698 10000000007958712 10000000007958697 5.52976580795 5.73929 7.1308 -8.96578
9.34461 10000000007958698 10000000007958697 10000000007958712 10000000007958696 5.22758097313 4.08507 4.91019 -9.12981
9.45376 10000000007958697 10000000007958696 10000000007958712 10000000007958695 4.99593346816 2.22581 3.77394 -5.09413
9.4606 10000000007958696 10000000007958695 10000000007958712 10000000007958694 4.93938066349 4.48481 6.4983 -6.54281
9.53332 10000000007958695 10000000007958694 10000000007958712 10000000007958693 4.66451770247 -5.3165 5.77085 -2.82041
9.55204 10000000007958694 10000000007958693 10000000007958712 10000000007958692 4.42803373661 -0.850975 8.51527 0.879444
9.12178 10000000007958752 10000000007958751 10000000007958767 10000000007958750 4.17683491473 -1.23087 9.7963 3.88051
9.21671 10000000007958751 10000000007958750 10000000007958767 10000000007958749 4.00794511147 -4.82846 6.90135 8.48665
9.30115 10000000007958750 10000000007958749 10000000007958767 10000000007958748 3.93726108473 -0.790941 11.7179 5.89478
9.32342 10000000007958749 10000000007958748 10000000007958767 10000000007958747 3.70877426464 1.05287 13.4497 5.20587
9.35338 10000000007958748 10000000007958747 10000000007958767 10000000007958746 3.49086136926 -4.07452 16.2929 5.53106
9.3634 10000000007958747 10000000007958746 10000000007958767 10000000007958745 3.28303305796 1.32018 11.2489 0.974395
9.0066 10000000007958897 10000000007958896 10000000007958903 10000000007958895 8.44947629437 2.21322 -2.72257 -4.71421
9.14811 10000000007958896 10000000007958895 10000000007958903 10000000007958894 8.01217294887 4.03709 -6.44135 -5.89421
9.29124 10000000007958895 10000000007958894 10000000007958903 10000000007958893 7.59510714987 2.70796 -2.6416 -3.18017
9.29951 10000000007958894 10000000007958893 10000000007958903 10000000007958892 7.23627606617 8.74153 -5.27273 -5.7177
9.40001 10000000007958893 10000000007958892 10000000007958903 10000000007958891 7.00541704554 9.17158 -8.68273 -3.68689
9.46621 10000000007958892 10000000007958891 10000000007958903 10000000007958890 6.85511726265 9.48695 -5.08111 -11.0931
9.56201 10000000007958891 10000000007958890 10000000007958903 10000000007958889 6.49159774567 14.9377 4.3345 -25.4704
9.58127 10000000007958890 10000000007958889 10000000007958903 10000000007958888 6.14490120342 12.1558 1.51988 -25.9012
9.5989 10000000007958889 10000000007958888 10000000007958903 10000000007958887 6.01075739884 11.7001 -1.83597 -19.4413
9.63894 10000000007958888 10000000007958886 10000000007958903 10000000007958885 5.52976580795 6.00487 -0.846065 -19.3965
9.66584 10000000007958886 10000000007958885 10000000007958903 10000000007958884 5.22758097313 7.18938 -1.44067 -17.1755
9.68985 10000000007958885 10000000007958884 10000000007958903 10000000007958883 4.99593346816 5.51687 -1.59407 -16.47
9.71574 10000000007958884 10000000007958883 10000000007958903 10000000007958882 4.93938066349 4.0335 -9.50499 -15.1887
9.74078 10000000007958883 10000000007958882 10000000007958903 10000000007958881 4.66451770247 5.95084 -9.37384 -13.0728
9.75248 10000000007958882 10000000007958880 10000000007958903 10000000007958879 4.17683491473 -8.78118 -9.98391 -12.718
9.76724 10000000007958880 10000000007958879 10000000007958903 10000000007958878 4.00794511147 -11.4853 -8.90905 -13.111
9.81778 10000000007958879 10000000007958878 10000000007958903 10000000007958877 3.93726108473 -4.5063 -6.56796 -15.5545
9.03463 10000000007958993 10000000007958992 10000000007958994 10000000007958991 10.9190331982 1.92667 -4.59552 -6.04008
9.22457 10000000007958992 10000000007958991 10000000007958994 10000000007958990 10.3674435724 0.637609 4.19513 -1.11373
9.22845 10000000007958991 10000000007958990 10000000007958994 10000000007958989 9.99659046619 3.46167 2.90805 -3.49761
9.33111 10000000007958990 10000000007958989 10000000007958994 10000000007958988 9.84138043947 -0.183861 5.95705 -2.75801
9.43377 10000000007958989 10000000007958988 10000000007958994 10000000007958987 9.38877127194 -1.83851 7.69447 3.00097
9.61504 10000000007958988 10000000007958987 10000000007958994 10000000007958986 9.00233985416 0.416089 0.27939 7.13987
9.61504 10000000007958987 10000000007958986 10000000007958994 10000000007958985 8.9079991856 3.91731 3.70436 6.11589
9.66866 10000000007958986 10000000007958985 10000000007958994 10000000007958984 8.44947629437 0.47563 4.07777 1.49523
9.7195 10000000007958985 10000000007958984 10000000007958994 10000000007958983 8.01217294887 -2.48181 1.17706 3.25397
9.7678 10000000007958984 10000000007958983 10000000007958994 10000000007958982 7.59510714987 -1.86544 1.74848 -3.50138
9.81227 10000000007958983 10000000007958982 10000000007958994 10000000007958981 7.23627606617 -4.60444 -0.108825 4.8057
9.82173 10000000007958982 10000000007958981 10000000007958994 10000000007958980 7.00541704554 -2.90633 8.46408 2.64097
9.84475 10000000007958981 10000000007958980 10000000007958994 10000000007958979 6.85511726265 -7.30389 15.418 -5.94161
9.94184 10000000007958980 10000000007958979 10000000007958994 10000000007958978 6.49159774567 -16.8988 25.6245 -5.8711
10.0143 10000000007958979 10000000007958978 10000000007958994 10000000007958977 6.14490120342 -23.9297 33.05 -11.1141
10.0483 10000000007958978 10000000007958977 10000000007958994 10000000007958976 6.01075739884 -26.8764 35.8319 -14.0174
10.0655 10000000007958977 10000000007958976 10000000007958994 10000000007958975 5.84661374788 -21.0539 32.7104 -4.94311
10.1656 10000000007958976 10000000007958975 10000000007958994 10000000007958974 5.52976580795 -24.3645 24.8085 -4.74446
10.3671 10000000007958975 10000000007958974 10000000007958994 10000000007958973 5.22758097313 -63.0777 -19.9257 18.0438
10.5184 10000000007958974 10000000007958973 10000000007958994 10000000007958972 4.99593346816 -71.4781 -49.2936 47.1994
10.5958 10000000007958973 10000000007958971 10000000007958994 10000000007958970 4.66451770247 -22.9902 -69.9917 79.0395
10.6455 10000000007958971 10000000007958970 10000000007958994 10000000007958969 4.42803373661 -27.5966 -50.664 87.1295
10.6629 10000000007958970 10000000007958969 10000000007958994 10000000007958968 4.17683491473 -39.4787 -58.0343 87.9935
10.6667 10000000007958969 10000000007958968 10000000007958994 10000000007958967 4.00794511147 -44.5001 -39.1296 85.5466
9.0666 10000000007959020 10000000007959019 10000000007959025 10000000007959018 9.99659046619 6.78062 4.43082 -4.78739
9.09637 10000000007959019 10000000007959018 10000000007959025 10000000007959017 9.84138043947 9.16082 1.4439 -3.69529
9.18162 10000000007959018 10000000007959017 10000000007959025 10000000007959016 9.38877127194 9.04775 5.27937 -1.85368
9.33566 10000000007959017 10000000007959016 10000000007959025 10000000007959015 9.00233985416 9.96531 0.365071 -1.59094
9.35048 10000000007959016 10000000007959013 10000000007959025 10000000007959012 8.01217294887 13.344 1.79911 -6.69046
9.40131 10000000007959013 10000000007959012 10000000007959025 10000000007959011 7.59510714987 8.90753 1.84072 -4.8568
9.43015 10000000007959012 10000000007959011 10000000007959025 10000000007959010 7.23627606617 6.35595 3.27478 -2.66606
9.18376 10000000007959037 10000000007959036 10000000007959043 10000000007959035 7.23627606617 -1.75765 1.02319 1.76511
9.25101 10000000007959036 10000000007959034 10000000007959043 10000000007959033 6.85511726265 -0.112818 0.633127 1.46391
9.42281 10000000007959034 10000000007959033 10000000007959043 10000000007959032 6.49159774567 12.401 -21.4321 -3.28991
9.53332 10000000007959033 10000000007959032 10000000007959043 10000000007959031 6.14490120342 9.35644 -15.8691 5.78741
9.62523 10000000007959032 10000000007959031 10000000007959043 10000000007959030 6.01075739884 12.1731 -21.7222 5.08966
9.67214 10000000007959031 10000000007959030 10000000007959043 10000000007958974 5.84661374788 28.5505 -22.0234 4.10349
9.21671 10000000007959091 10000000007959090 10000000007959091 10000000007959089 7.00541704554 12.298 10.6427 -0.65417
9.15273 10000000007959121 10000000007959120 10000000007959130 10000000007959119 6.14490120342 -6.85138 2.60299 -5.72927
9.18162 10000000007959208 10000000007959207 10000000007959211 10000000007959206 8.44947629437 11.0693 -6.86726 6.46379
9.3634 10000000007959207 10000000007959202 10000000007959211 10000000007959201 6.85511726265 12.5404 -3.65438 7.0175
9.42527 10000000007959202 10000000007959200 10000000007959211 10000000007959199 6.01075739884 3.01094 1.27034 8.49467
9.52365 10000000007959200 10000000007959199 10000000007959211 10000000007959198 5.84661374788 1.37186 -1.88939 -0.212038
9.55478 10000000007959199 10000000007959198 10000000007959211 10000000007959197 5.52976580795 -2.97275 4.77885 2.06081
9.57956 10000000007959198 10000000007959197 10000000007959211 10000000007959196 5.22758097313 -5.29444 2.25566 3.82508
9.07492 10000000007959261 10000000007959260 10000000007959268 10000000007959259 9.00233985416 5.75888 0.201443 1.19146
9.08845 10000000007959260 10000000007959259 10000000007959268 10000000007959258 8.9079991856 6.41688 -0.826712 0.981269
9.11681 10000000007959259 10000000007959258 10000000007959268 10000000007959257 8.44947629437 5.40841 -0.0143412 0.758989
9.14108 10000000007959258 10000000007959256 10000000007959268 10000000007959255 7.59510714987 0.419541 -5.61029 2.24574
9.17946 10000000007959256 10000000007959255 10000000007959268 10000000007959254 7.23627606617 1.84728 -7.49392 -0.588686
9.17946 10000000007959255 10000000007959251 10000000007959268 10000000007959250 6.14490120342 0.33283 -4.23398 4.36715
9.17946 10000000007959251 10000000007959249 10000000007959268 10000000007959248 5.84661374788 1.88614 -1.471 -0.0128658
9.36199 10000000007959249 10000000007959248 10000000007959268 10000000007959247 5.52976580795 9.61626 4.73701 -13.4524
9.04358 10000000007959289 10000000007959288 10000000007959300 10000000007959287 4.42803373661 8.30027 8.38904 -3.71049
9.09898 10000000007959288 10000000007959287 10000000007959300 10000000007959286 4.17683491473 7.73965 6.87065 -1.04148
9.09898 10000000007959287 10000000007959283 10000000007959300 10000000007959282 3.49086136926 5.69116 5.47403 -4.12586
9.04653 10000000007959348 10000000007959347 10000000007959354 10000000007959346 8.44947629437 0.221664 8.16937 3.36225
9.10157 10000000007959347 10000000007959346 10000000007959354 10000000007959345 8.01217294887 0.781581 8.62333 3.53771
9.1573 10000000007959346 10000000007959345 10000000007959354 10000000007959344 7.59510714987 -1.07623 4.97764 3.57949
9.27766 10000000007959345 10000000007959344 10000000007959354 10000000007959343 7.23627606617 -0.232919 1.77982 -7.46134
9.28956 10000000007959344 10000000007959343 10000000007959354 10000000007959342 7.00541704554 -0.836751 -0.268119 -4.47982
9.32031 10000000007959343 10000000007959341 10000000007959354 10000000007959340 6.49159774567 -1.23093 4.97851 -1.92319
9.35483 10000000007959341 10000000007959340 10000000007959354 10000000007959339 6.14490120342 -4.70045 2.93981 -1.90768
9.37319 10000000007959340 10000000007959339 10000000007959354 10000000007959338 6.01075739884 -1.14561 5.72618 -0.658784
9.51175 10000000007959339 10000000007959337 10000000007959354 10000000007959336 5.52976580795 4.45235 -14.6983 -1.5532
9.5256 10000000007959337 10000000007959336 10000000007959354 10000000007959335 5.22758097313 3.18534 8.89384 6.45326
9.55931 10000000007959336 10000000007959335 10000000007959354 10000000007959334 4.99593346816 1.28765 -2.35803 2.45999
9.58807 10000000007959335 10000000007959334 10000000007959354 10000000007959333 4.93938066349 2.30292 -0.966703 0.493185
9.70941 10000000007959334 10000000007959333 10000000007959354 10000000007959332 4.66451770247 6.44621 9.66856 -9.63918
9.71068 10000000007959333 10000000007959332 10000000007959354 10000000007959331 4.42803373661 2.49778 -6.02294 -5.87271
9.75248 10000000007959332 10000000007959330 10000000007959354 10000000007959329 4.00794511147 5.20712 6.59737 -2.38066
9.76163 10000000007959330 10000000007959328 10000000007959354 10000000007959327 3.70877426464 9.26746 13.0964 -7.38053
9.02855 10000000007959405 10000000007959404 10000000007959413 10000000007959403 5.84661374788 1.56899 -8.55017 -1.96446
9.04062 10000000007959404 10000000007959403 10000000007959413 10000000007959402 5.52976580795 2.39478 -6.84129 -2.25974
9.0666 10000000007959403 10000000007959402 10000000007959413 10000000007959401 5.22758097313 -2.62917 -8.87631 0.173821
9.03463 10000000007959444 10000000007959443 10000000007959450 10000000007959442 6.14490120342 -9.19288 -1.04407 -3.61922
9.06096 10000000007959443 10000000007959439 10000000007959450 10000000007959438 5.22758097313 -6.62888 -1.48458 -1.92558
9.06939 10000000007959439 10000000007959437 10000000007959450 10000000007959436 4.93938066349 -9.45803 0.072864 -3.39242
9.09375 10000000007959437 10000000007959436 10000000007959450 10000000007959435 4.66451770247 -7.87861 -0.128029 0.467053
9.09898 10000000007959436 10000000007959434 10000000007959450 10000000007959433 4.17683491473 -7.12168 0.535892 0.93827
9.10671 10000000007959434 10000000007959433 10000000007959450 10000000007959432 4.00794511147 -2.11161 4.78013 -4.94537
9.20464 10000000007959476 10000000007959475 10000000007959487 10000000007959474 4.99593346816 -1.10864 14.3479 -12.242
9.22651 10000000007959475 10000000007959474 10000000007959487 10000000007959473 4.93938066349 -0.722423 13.8653 -12.3765
9.42771 10000000007959588 10000000007959587 10000000007959593 10000000007959586 9.84138043947 -17.573 2.07172 -19.0186
9.50771 10000000007959587 10000000007959586 10000000007959593 10000000007959585 9.38877127194 -8.69239 -2.59997 -8.31579
9.83291 10000000007959586 10000000007959585 10000000007959593 10000000007959584 9.00233985416 11.4667 26.0967 -14.4053
9.83578 10000000007959585 10000000007959584 10000000007959593 10000000007959583 8.9079991856 6.23016 23.7735 -11.8907
9.94482 10000000007959584 10000000007959583 10000000007959593 10000000007959582 8.44947629437 -4.82744 23.8361 -17.839
10.0903 10000000007959583 10000000007959581 10000000007959593 10000000007959580 7.59510714987 -3.85317 -1.16039 -7.96324
10.2528 10000000007959581 10000000007959580 10000000007959593 10000000007959579 7.23627606617 25.2629 -3.72826 3.92254
10.3216 10000000007959580 10000000007959579 10000000007959593 10000000007959578 7.00541704554 28.614 -5.13957 11.1063
10.3662 10000000007959579 10000000007959578 10000000007959593 10000000007959577 6.85511726265 33.5346 -16.4087 18.6824
10.4423 10000000007959578 10000000007959577 10000000007959593 10000000007959576 6.49159774567 32.1948 15.4362 0.208783
10.5904 10000000007959577 10000000007959576 10000000007959593 10000000007959575 6.14490120342 43.937 -37.5781 27.2533
10.6171 10000000007959576 10000000007959575 10000000007959593 10000000007959574 6.01075739884 47.1459 -55.898 35.2567
10.6796 10000000007959575 10000000007959574 10000000007959593 10000000007959573 5.84661374788 25.3568 -80.1412 45.6011
10.7326 10000000007959574 10000000007959573 10000000007959593 10000000007959572 5.52976580795 55.2135 -68.885 30.4813
10.7404 10000000007959573 10000000007959572 10000000007959593 10000000007959571 5.22758097313 79.5875 -82.2577 25.2124
10.7761 10000000007959572 10000000007959571 10000000007959593 10000000007959570 4.99593346816 63.1531 -48.9224 5.19789
10.7821 10000000007959571 10000000007959570 10000000007959593 10000000007959569 4.93938066349 62.4944 -49.962 10.187
10.7992 10000000007959570 10000000007959569 10000000007959593 10000000007959568 4.66451770247 57.3585 -80.1285 25.0256
10.8031 10000000007959569 10000000007959568 10000000007959593 10000000007959567 4.42803373661 48.5196 -80.2283 28.8249
10.8212 10000000007959568 10000000007959567 10000000007959593 10000000007959566 4.17683491473 36.2208 -92.64 18.9517
10.8357 10000000007959567 10000000007959566 10000000007959593 10000000007959565 4.00794511147 30.0021 -79.9513 -0.931405
10.841 10000000007959566 10000000007959565 10000000007959593 10000000007959564 3.93726108473 35.3134 -91.4489 -2.09434
10.8608 10000000007959565 10000000007959564 10000000007959593 10000000007959563 3.70877426464 11.754 -90.4631 1.59397
10.8906 10000000007959564 10000000007959563 10000000007959593 10000000007959562 3.49086136926 -9.2991 -95.2591 4.93074
10.924 10000000007959563 10000000007959562 10000000007959593 10000000007959561 3.28303305796 -39.1336 -90.8914 -1.94315
10.9481 10000000007959562 10000000007959561 10000000007959593 10000000007959560 3.08482263583 -61.7738 -98.7781 -1.35913
9.10415 10000000007959597 10000000007959596 10000000007959601 10000000007959595 9.99659046619 5.69977 -3.05388 -0.530949
9.08578 10000000007959614 10000000007959613 10000000007959615 10000000007959612 9.99659046619 -8.96712 -9.81641 -8.40534
9.04062 10000000007959629 10000000007959628 10000000007959633 10000000007959627 10.3674435724 1.58729 5.63018 -0.354243
9.08038 10000000007959628 10000000007959626 10000000007959633 10000000007959625 9.84138043947 0.859667 11.4416 -4.93928
9.24733 10000000007959626 10000000007959625 10000000007959633 10000000007959624 9.38877127194 4.45756 7.80336 -1.90694
9.0098 10000000007959651 10000000007959650 10000000007959654 10000000007959649 9.38877127194 2.97554 5.68879 8.78056
9.01298 10000000007959650 10000000007959649 10000000007959654 10000000007959648 9.00233985416 5.19756 7.65693 9.51456
9.02548 10000000007959649 10000000007959648 10000000007959654 10000000007959647 8.9079991856 4.36797 6.5929 8.27377
9.11179 10000000007959648 10000000007959647 10000000007959654 10000000007959646 8.44947629437 3.45936 4.46848 7.15488
9.28788 10000000007959647 10000000007959646 10000000007959654 10000000007959645 8.01217294887 0.591446 0.997166 5.48183
9.13154 10000000007959661 10000000007959660 10000000007959665 10000000007959659 9.00233985416 -9.23614 2.34054 8.83809
9.13154 10000000007959660 10000000007959659 10000000007959665 10000000007959658 8.9079991856 -9.27131 1.75615 7.91463
9.19848 10000000007959659 10000000007959656 10000000007959665 10000000007959655 7.59510714987 -2.42883 -0.844695 0.870395
9.06939 10000000007959766 10000000007959765 10000000007959770 10000000007959764 9.00233985416 0.340734 -3.99728 -1.43195
9.09375 10000000007959765 10000000007959763 10000000007959770 10000000007959762 8.44947629437 -0.25527 -1.57066 -1.23936
9.48157 10000000007959763 10000000007959762 10000000007959770 10000000007959761 8.01217294887 9.56134 1.66104 22.0543
9.62908 10000000007959762 10000000007959761 10000000007959770 10000000007959760 7.59510714987 11.3781 -0.633414 14.8826
9.69051 10000000007959761 10000000007959760 10000000007959770 10000000007959759 7.23627606617 9.13426 -0.538533 3.12322
9.7372 10000000007959760 10000000007959759 10000000007959770 10000000007959758 7.00541704554 7.44626 5.29423 -9.80388
9.73959 10000000007959759 10000000007959757 10000000007959770 10000000007959756 6.49159774567 8.27851 8.03828 -7.77717
9.06378 10000000007959773 10000000007959772 10000000007959779 10000000007959771 8.44947629437 -0.102585 -1.04195 -3.74787
9.68447 10000000007959781 10000000007959780 10000000007959791 10000000007959757 6.85511726265 1.641 14.1401 -11.6574
9.03763 10000000007959816 10000000007959815 10000000007959824 10000000007959814 7.23627606617 -3.19963 7.16025 5.31984
9.08578 10000000007959815 10000000007959814 10000000007959824 10000000007959813 7.00541704554 -4.53317 7.66792 4.84974
9.08845 10000000007959814 10000000007959813 10000000007959824 10000000007959812 6.85511726265 -2.67112 7.31531 3.57614
9.39478 10000000007959813 10000000007959812 10000000007959824 10000000007959811 6.49159774567 -0.740163 3.04394 19.5563
9.0066 10000000007959839 10000000007959838 10000000007959847 10000000007959837 6.49159774567 -6.48072 10.3813 -1.38572
9.13871 10000000007959838 10000000007959837 10000000007959847 10000000007959836 6.14490120342 -2.59307 6.71533 -6.96729
9.14578 10000000007959837 10000000007959836 10000000007959847 10000000007959835 6.01075739884 -1.28991 8.23905 -5.83218
9.12178 10000000007959873 10000000007959872 10000000007959878 10000000007959871 6.49159774567 10.184 7.3526 -3.49322
9.21869 10000000007959872 10000000007959871 10000000007959878 10000000007959870 6.01075739884 9.18631 11.4278 5.12423
9.0066 10000000007960016 10000000007960015 10000000007960019 10000000007960014 9.00233985416 -3.36406 9.84652 1.70156
9.05524 10000000007960015 10000000007960013 10000000007960019 10000000007960012 8.44947629437 -5.93614 -6.65375 -2.46008
9.22651 10000000007960013 10000000007960012 10000000007960019 10000000007960011 8.01217294887 -5.4299 0.712724 0.733658
9.30923 10000000007960012 10000000007960011 10000000007960019 10000000007960010 7.59510714987 -1.96782 3.97159 -3.00063
9.38141 10000000007960011 10000000007960010 10000000007960019 10000000007960009 7.23627606617 -4.61031 0.691947 -1.39019
9.40131 10000000007960010 10000000007960009 10000000007960019 10000000007960008 7.00541704554 -4.77587 -0.834654 -5.55459
9.43015 10000000007960009 10000000007960008 10000000007960019 10000000007960007 6.85511726265 -4.08486 -0.669698 -5.62453
9.51675 10000000007960008 10000000007960007 10000000007960019 10000000007960006 6.49159774567 -5.54179 0.19385 -5.00985
9.69118 10000000007960007 10000000007960006 10000000007960019 10000000007960005 6.14490120342 -3.96492 11.0816 -10.9207
9.97004 10000000007960006 10000000007960005 10000000007960019 10000000007960004 6.01075739884 -4.75913 15.116 -18.5766
10.0385 10000000007960005 10000000007960004 10000000007960019 10000000007960003 5.84661374788 -22.343 10.5789 -22.0106
10.1218 10000000007960004 10000000007960003 10000000007960019 10000000007960002 5.52976580795 -32.9549 14.2932 -20.516
10.1687 10000000007960003 10000000007960002 10000000007960019 10000000007960001 5.22758097313 -29.5832 15.9483 -23.8856
10.2067 10000000007960002 10000000007960001 10000000007960019 10000000007960000 4.99593346816 -24.6165 20.3839 -18.748
10.2181 10000000007960001 10000000007960000 10000000007960019 10000000007959999 4.93938066349 -21.6193 15.0234 -14.6158
10.2845 10000000007960000 10000000007959999 10000000007960019 10000000007959998 4.66451770247 -19.1643 14.1143 -16.3212
10.3023 10000000007959999 10000000007959998 10000000007960019 10000000007959997 4.42803373661 -5.75834 9.13698 -18.4933
10.3776 10000000007959998 10000000007959997 10000000007960019 10000000007959996 4.17683491473 -11.0232 8.26003 -31.8677
10.5304 10000000007959997 10000000007959996 10000000007960019 10000000007959995 4.00794511147 -14.0592 8.56894 3.91249
10.5811 10000000007959996 10000000007959995 10000000007960019 10000000007959994 3.93726108473 -22.4377 8.40437 4.0328
10.6173 10000000007959995 10000000007959994 10000000007960019 10000000007959993 3.70877426464 -26.1174 11.5248 10.8328
10.6634 10000000007959994 10000000007959993 10000000007960019 10000000007959992 3.49086136926 -28.4187 10.9512 19.8361
10.713 10000000007959993 10000000007959992 10000000007960019 10000000007959991 3.28303305796 -56.5627 -5.48385 -6.47707
10.7298 10000000007959992 10000000007959991 10000000007960019 10000000007959990 3.08482263583 -65.3042 -1.26501 -2.30943
9.05235 10000000007960053 10000000007960052 10000000007960061 10000000007960051 7.59510714987 0.847973 0.164527 -0.21112
9.07492 10000000007960052 10000000007960051 10000000007960061 10000000007960050 7.23627606617 2.2164 -0.774435 1.94168
9.15273 10000000007960051 10000000007960049 10000000007960061 10000000007960048 6.85511726265 1.02777 0.133642 -0.631116
9.09898 10000000007960087 10000000007960086 10000000007960094 10000000007960085 8.01217294887 0.532926 -4.90034 0.739427
9.15956 10000000007960086 10000000007960085 10000000007960094 10000000007960084 7.59510714987 1.94661 -6.44254 0.00097503
9.16182 10000000007960085 10000000007960083 10000000007960094 10000000007960082 7.00541704554 -1.82289 -3.11827 -4.29722
9.19013 10000000007960083 10000000007960082 10000000007960094 10000000007960081 6.85511726265 -1.52458 -2.94588 -3.09857
9.13154 10000000007960107 10000000007960106 10000000007960115 10000000007960105 7.59510714987 -8.44975 -0.41535 -5.6127
9.24733 10000000007960106 10000000007960105 10000000007960115 10000000007960104 7.23627606617 -10.1651 -6.81615 4.05849
9.2862 10000000007960105 10000000007960104 10000000007960115 10000000007960103 7.00541704554 -11.0401 -4.9864 7.50192
9.31401 10000000007960104 10000000007960102 10000000007960115 10000000007960101 6.49159774567 -8.3866 -4.63338 3.72897
9.00337 10000000007960155 10000000007960154 10000000007960167 10000000007960153 6.85511726265 -3.45604 4.42015 -3.49701
9.05235 10000000007960189 10000000007960188 10000000007960196 10000000007960187 8.44947629437 7.10834 4.55146 -0.757648
9.40774 10000000007960188 10000000007960187 10000000007960196 10000000007960186 8.01217294887 8.53948 -0.564197 26.7771
9.46397 10000000007960187 10000000007960186 10000000007960196 10000000007960185 7.59510714987 -0.92946 -5.6324 -8.98724
9.55931 10000000007960186 10000000007960185 10000000007960196 10000000007960184 7.23627606617 4.38226 -1.82774 0.308064
9.73299 10000000007960185 10000000007960184 10000000007960196 10000000007960183 7.00541704554 0.301619 -9.81215 -7.50967
9.7378 10000000007960184 10000000007960183 10000000007960196 10000000007960182 6.85511726265 0.260503 -8.98336 -5.62166
9.80312 10000000007960183 10000000007960182 10000000007960196 10000000007960181 6.49159774567 4.04675 -9.45511 -4.91018
9.88994 10000000007960182 10000000007960181 10000000007960196 10000000007960180 6.14490120342 1.86439 -8.07581 -11.1449
9.92393 10000000007960181 10000000007960180 10000000007960196 10000000007960179 6.01075739884 -2.3309 -5.08402 -7.32116
9.9529 10000000007960180 10000000007960179 10000000007960196 10000000007960178 5.84661374788 -8.32406 -2.9991 -1.30563
10.0037 10000000007960179 10000000007960178 10000000007960196 10000000007960177 5.52976580795 -10.233 4.24078 -1.99315
10.0638 10000000007960178 10000000007960177 10000000007960196 10000000007960176 5.22758097313 -24.6732 11.6757 1.31591
9.0316 10000000007960216 10000000007960215 10000000007960219 10000000007960214 9.38877127194 11.0363 -6.7559 6.56184
9.04062 10000000007960215 10000000007960214 10000000007960219 10000000007960213 9.00233985416 7.60654 -5.92802 2.88036
9.07492 10000000007960214 10000000007960212 10000000007960219 10000000007960211 8.44947629437 9.77352 -3.08243 5.38962
9.07492 10000000007960296 10000000007960295 10000000007960304 10000000007960294 8.44947629437 -1.32763 2.67657 0.180765
9.1573 10000000007960295 10000000007960294 10000000007960304 10000000007960293 8.01217294887 -0.867064 -0.728285 2.1694
9.19433 10000000007960294 10000000007960293 10000000007960304 10000000007960292 7.59510714987 0.0547188 -0.71922 2.73263
9.25101 10000000007960293 10000000007960292 10000000007960304 10000000007960291 7.23627606617 0.944911 5.57071 0.123213
9.3156 10000000007960292 10000000007960291 10000000007960304 10000000007960290 7.00541704554 1.7121 -5.05414 3.15536
9.42404 10000000007960291 10000000007960289 10000000007960304 10000000007960288 6.49159774567 1.26418 -2.322 2.87595
9.47941 10000000007960289 10000000007960288 10000000007960304 10000000007960287 6.14490120342 -3.56114 -13.3814 0.343449
9.48265 10000000007960288 10000000007960287 10000000007960304 10000000007960286 6.01075739884 -3.90082 -14.1926 -2.57141
9.52754 10000000007960287 10000000007960286 10000000007960304 10000000007960285 5.84661374788 -3.97533 -19.9937 -2.19798
9.60946 10000000007960286 10000000007960285 10000000007960304 10000000007960284 5.52976580795 -5.88054 -18.5206 -6.65152
9.65297 10000000007960285 10000000007960284 10000000007960304 10000000007960283 5.22758097313 -5.71965 -16.2621 -5.65063
9.67835 10000000007960284 10000000007960283 10000000007960304 10000000007960282 4.99593346816 -4.53488 -14.82 -5.51045
9.69647 10000000007960283 10000000007960282 10000000007960304 10000000007960281 4.93938066349 -4.07239 -19.3822 -6.02045
9.74196 10000000007960282 10000000007960281 10000000007960304 10000000007960280 4.66451770247 -4.66806 -36.5469 -4.15695
9.04653 10000000007960404 10000000007960403 10000000007960408 10000000007960402 6.49159774567 -3.60424 -1.17142 -5.34532
9.07216 10000000007960403 10000000007960400 10000000007960408 10000000007960399 5.84661374788 -3.63087 -2.40491 -3.08825
9.14811 10000000007960400 10000000007960399 10000000007960408 10000000007960398 5.52976580795 -4.22154 -2.90581 -3.69258
9.21072 10000000007960399 10000000007960398 10000000007960408 10000000007960397 5.22758097313 -3.53449 -0.926109 -5.84508
9.23037 10000000007960398 10000000007960397 10000000007960408 10000000007960396 4.99593346816 -4.85391 1.93068 -6.26069
9.23037 10000000007960397 10000000007960396 10000000007960408 10000000007960395 4.93938066349 -3.97259 1.10137 -7.22622
9.31243 10000000007960396 10000000007960395 10000000007960408 10000000007960394 4.66451770247 -8.48885 2.64858 -9.09549
9.3156 10000000007960395 10000000007960394 10000000007960408 10000000007960393 4.42803373661 -7.20602 -0.851219 -8.00623
9.35483 10000000007960394 10000000007960393 10000000007960408 10000000007960392 4.17683491473 -7.08278 2.60598 -10.9868
9.38815 10000000007960393 10000000007960389 10000000007960408 10000000007960388 3.49086136926 -3.0933 1.39832 -9.36495
9.04945 10000000007960631 10000000007960630 10000000007960633 10000000007960629 14.0339921445 -0.933977 -0.101096 -4.25492
9.17073 10000000007960630 10000000007960629 10000000007960633 10000000007960628 13.3382482898 0.118051 1.89735 -3.60303
9.2742 10000000007960629 10000000007960628 10000000007960633 10000000007960627 12.6747021048 -0.684949 1.50763 -1.88374
9.38547 10000000007960628 10000000007960627 10000000007960633 10000000007960626 12.0418635439 -2.01093 1.20044 -4.13026
9.4606 10000000007960627 10000000007960626 10000000007960633 10000000007960625 11.4973879548 2.42791 1.51613 -0.550419
9.59059 10000000007960626 10000000007960625 10000000007960633 10000000007960624 10.9190331982 -0.48842 3.92462 -0.228305
9.67145 10000000007960625 10000000007960624 10000000007960633 10000000007960623 10.3674435724 -0.517742 1.9061 -2.44729
9.74255 10000000007960624 10000000007960623 10000000007960633 10000000007960622 9.99659046619 -1.81109 0.414067 -4.81687
9.76219 10000000007960623 10000000007960622 10000000007960633 10000000007960621 9.84138043947 -8.94806 -0.619219 -7.53773
9.85444 10000000007960622 10000000007960621 10000000007960633 10000000007960620 9.38877127194 1.72822 2.46766 -5.31267
9.90848 10000000007960621 10000000007960620 10000000007960633 10000000007960619 9.00233985416 -5.74033 -2.10094 -8.81645
9.93696 10000000007960620 10000000007960619 10000000007960633 10000000007960618 8.9079991856 -2.77508 -4.9917 -11.5177
10.0246 10000000007960619 10000000007960618 10000000007960633 10000000007960617 8.44947629437 -17.4883 -7.84107 -14.7746
10.057 10000000007960618 10000000007960617 10000000007960633 10000000007960616 8.01217294887 -15.8741 -4.9389 -6.59703
10.1439 10000000007960617 10000000007960616 10000000007960633 10000000007960615 7.59510714987 -33.562 -9.89969 -12.2269
10.1753 10000000007960616 10000000007960615 10000000007960633 10000000007960614 7.23627606617 -35.8196 -12.0283 -14.1271
10.1991 10000000007960615 10000000007960614 10000000007960633 10000000007960613 7.00541704554 -36.4182 -12.5039 -13.8355
10.2265 10000000007960614 10000000007960613 10000000007960633 10000000007960612 6.85511726265 -36.6858 -13.7467 -11.5355
10.3164 10000000007960613 10000000007960612 10000000007960633 10000000007960611 6.49159774567 -47.9662 -6.96245 2.23437
10.3773 10000000007960612 10000000007960611 10000000007960633 10000000007960610 6.14490120342 -57.3802 -12.0965 6.89959
10.4116 10000000007960611 10000000007960610 10000000007960633 10000000007960609 6.01075739884 -51.8906 -10.1709 6.73375
10.4631 10000000007960610 10000000007960609 10000000007960633 10000000007960608 5.84661374788 -57.1272 -13.3965 2.64111
10.5334 10000000007960609 10000000007960608 10000000007960633 10000000007960607 5.52976580795 -63.9993 -14.097 0.251352
10.6083 10000000007960608 10000000007960607 10000000007960633 10000000007960606 5.22758097313 -48.0043 -22.49 -2.0082
10.6732 10000000007960607 10000000007960606 10000000007960633 10000000007960605 4.99593346816 -33.1887 -33.8046 -4.63053
10.68 10000000007960606 10000000007960605 10000000007960633 10000000007960604 4.93938066349 -30.0845 -40.2028 -4.48178
10.7253 10000000007960605 10000000007960604 10000000007960633 10000000007960603 4.66451770247 -11.1463 -56.6798 -7.7363
10.802 10000000007960604 10000000007960603 10000000007960633 10000000007960602 4.42803373661 12.2851 -40.7924 -7.1343
10.8295 10000000007960603 10000000007960602 10000000007960633 10000000007960601 4.17683491473 28.4133 -1.30977 -7.29571
10.8573 10000000007960602 10000000007960601 10000000007960633 10000000007960600 4.00794511147 23.4584 29.2822 -18.2145
10.8759 10000000007960601 10000000007960600 10000000007960633 10000000007960599 3.93726108473 19.4209 49.5355 -20.4832
10.8867 10000000007960600 10000000007960599 10000000007960633 10000000007960598 3.70877426464 33.44 25.913 -19.5854
10.9145 10000000007960599 10000000007960598 10000000007960633 10000000007960597 3.49086136926 2.29112 -44.0037 -2.75814
10.9793 10000000007960598 10000000007960597 10000000007960633 10000000007960596 3.28303305796 -28.278 -35.1351 -19.9633
11.0353 10000000007960597 10000000007960596 10000000007960633 10000000007960595 3.08482263583 -28.2972 -24.9269 -30.2057
11.0596 10000000007960596 10000000007960595 10000000007960633 10000000007960594 3.00813107163 -19.9504 -71.6237 57.0412
11.1137 10000000007960595 10000000007960594 10000000007960633 10000000007960593 2.89578500573 -54.2356 -149.045 147.341
11.1289 10000000007960594 10000000007960592 10000000007960633 10000000007960591 2.5772902716 -73.6268 -209.181 151.353
9.0316 10000000007960685 10000000007960684 10000000007960690 10000000007960683 8.9079991856 -1.35139 -5.31031 0.915894
9.11681 10000000007960684 10000000007960683 10000000007960690 10000000007960682 8.44947629437 -4.844 -13.2963 4.28871
9.1663 10000000007960683 10000000007960681 10000000007960690 10000000007960680 7.59510714987 -0.694771 -3.43635 9.89483
9.42157 10000000007960681 10000000007960680 10000000007960690 10000000007960679 7.23627606617 -0.163245 -11.4853 -2.54756
9.43974 10000000007960680 10000000007960679 10000000007960690 10000000007960678 7.00541704554 -0.623386 -13.7747 -1.81009
9.04358 10000000007960723 10000000007960722 10000000007960729 10000000007960721 8.01217294887 -3.29733 -2.23198 0.762399
9.08309 10000000007960722 10000000007960721 10000000007960729 10000000007960720 7.59510714987 -2.95835 -1.13609 -1.99534
9.10415 10000000007960721 10000000007960720 10000000007960729 10000000007960719 7.23627606617 -4.80571 -0.307083 -4.48619
9.1193 10000000007960720 10000000007960719 10000000007960729 10000000007960718 7.00541704554 -2.48921 -1.29758 -2.12808
9.1573 10000000007960719 10000000007960718 10000000007960729 10000000007960717 6.85511726265 -2.4733 -1.25003 -5.88705
9.2342 10000000007960718 10000000007960717 10000000007960729 10000000007960716 6.49159774567 -0.807294 -0.674402 -5.64966
9.26543 10000000007960717 10000000007960716 10000000007960729 10000000007960715 6.14490120342 -2.12899 -2.71287 -11.7748
9.0666 10000000007960744 10000000007960743 10000000007960755 10000000007960742 6.14490120342 -2.26274 2.66875 6.2947
9.09898 10000000007960743 10000000007960742 10000000007960755 10000000007960741 6.01075739884 -1.54815 4.10239 9.29223
9.09898 10000000007960742 10000000007960741 10000000007960755 10000000007960740 5.84661374788 -1.50947 2.38681 8.71769
9.09637 10000000007960838 10000000007960837 10000000007960843 10000000007960836 7.23627606617 -2.20668 -4.85727 -2.28978
9.14578 10000000007960837 10000000007960836 10000000007960843 10000000007960835 7.00541704554 -2.46392 -4.37782 -1.77804
9.43136 10000000007960836 10000000007960834 10000000007960843 10000000007960833 6.49159774567 -2.07281 26.6771 -7.36564
9.47396 10000000007960834 10000000007960833 10000000007960843 10000000007960832 6.14490120342 -7.10733 24.9304 -4.8329
9.53044 10000000007960833 10000000007960832 10000000007960843 10000000007960831 6.01075739884 -13.1482 25.2774 5.84671
9.4606 10000000007960850 10000000007960849 10000000007960850 10000000007960829 5.52976580795 -13.3276 24.4236 6.28321
9.11681 10000000007960860 10000000007960859 10000000007960868 10000000007960858 4.93938066349 14.8557 -12.5044 11.5463
9.11431 10000000007960961 10000000007960960 10000000007960966 10000000007960959 6.49159774567 -1.03382 -7.09558 -5.4585
9.14108 10000000007960960 10000000007960959 10000000007960966 10000000007960958 6.14490120342 -0.254868 -6.35408 -1.64752
9.17946 10000000007960959 10000000007960957 10000000007960966 10000000007960956 5.84661374788 0.164556 -2.38853 -0.203605
9.23988 10000000007960957 10000000007960955 10000000007960966 10000000007960954 5.22758097313 3.26984 -10.0735 -3.19781
9.26008 10000000007960955 10000000007960954 10000000007960966 10000000007960953 4.99593346816 9.62267 -6.67288 0.371288
9.2672 10000000007960954 10000000007960953 10000000007960966 10000000007960952 4.93938066349 9.58908 -8.417 -0.624213
9.17729 10000000007960984 10000000007960983 10000000007960993 10000000007960982 4.99593346816 -18.4341 15.5484 4.59952
9.09898 10000000007961127 10000000007961126 10000000007961130 10000000007961125 9.00233985416 14.693 10.4888 4.7227
9.2811 10000000007961126 10000000007961124 10000000007961130 10000000007961123 8.44947629437 3.61358 -0.461717 -15.5343
9.5207 10000000007961124 10000000007961123 10000000007961130 10000000007961122 8.01217294887 10.7323 4.74709 -11.6001
9.65369 10000000007961123 10000000007961121 10000000007961130 10000000007961120 7.23627606617 3.07657 -0.240478 -11.8445
9.65369 10000000007961121 10000000007961120 10000000007961130 10000000007961119 7.00541704554 3.91771 -0.614435 -6.16884
9.6623 10000000007961120 10000000007961119 10000000007961130 10000000007961118 6.85511726265 3.07307 -0.772761 -9.59404
9.67214 10000000007961119 10000000007961118 10000000007961130 10000000007961117 6.49159774567 4.50842 -1.00573 -6.8387
9.79219 10000000007961118 10000000007961117 10000000007961130 10000000007961116 6.14490120342 9.77738 -7.64215 -14.0448
9.81827 10000000007961117 10000000007961116 10000000007961130 10000000007961115 6.01075739884 8.94567 -12.4536 -23.4655
9.85808 10000000007961116 10000000007961115 10000000007961130 10000000007961114 5.84661374788 6.38909 -15.758 -31.2693
9.90888 10000000007961115 10000000007961114 10000000007961130 10000000007961113 5.52976580795 6.69729 -11.6306 -27.8178
9.93621 10000000007961114 10000000007961113 10000000007961130 10000000007961112 5.22758097313 9.54338 -12.6436 -34.9373
9.93658 10000000007961113 10000000007961111 10000000007961130 10000000007961110 4.93938066349 7.64271 -16.8039 -34.5439
9.94815 10000000007961111 10000000007961110 10000000007961130 10000000007961109 4.66451770247 9.97955 -15.4849 -33.3996
10.0088 10000000007961110 10000000007961106 10000000007961130 10000000007961105 3.93726108473 -0.271075 -25.5747 -46.1182
10.0343 10000000007961106 10000000007961104 10000000007961130 10000000007961103 3.49086136926 4.43455 -32.9666 -40.5724
10.0804 10000000007961104 10000000007961103 10000000007961130 10000000007961102 3.28303305796 31.7975 -43.6209 -28.7119
10.1812 10000000007961103 10000000007961102 10000000007961130 10000000007961101 3.08482263583 42.469 -74.3609 7.30655
9.05524 10000000007961215 10000000007961214 10000000007961229 10000000007961213 3.93726108473 1.61959 -0.984967 2.70231
9.14344 10000000007961214 10000000007961213 10000000007961229 10000000007961212 3.70877426464 1.06045 -3.10614 4.47865
9.21472 10000000007961213 10000000007961212 10000000007961229 10000000007961211 3.49086136926 -3.44882 -5.11207 7.94146
9.26008 10000000007961212 10000000007961211 10000000007961229 10000000007961210 3.28303305796 -4.39843 -5.02149 8.27891
9.27072 10000000007961211 10000000007961210 10000000007961229 10000000007961209 3.08482263583 -7.80309 -6.04784 7.60477
9.0066 10000000007961371 10000000007961370 10000000007961389 10000000007961369 2.44422570455 -10.0215 -13.1218 9.29126
9.04062 10000000007961589 10000000007961588 10000000007961598 10000000007961587 6.01075739884 -17.2918 -11.9646 3.73374
9.29457 10000000007961588 10000000007961586 10000000007961598 10000000007961585 5.52976580795 -13.3206 -33.0814 -2.04243
9.36056 10000000007961586 10000000007961585 10000000007961598 10000000007961584 5.22758097313 -9.3845 -30.0332 6.26493
9.36902 10000000007961585 10000000007961582 10000000007961598 10000000007961581 4.66451770247 -3.02142 -27.4469 12.7417
9.07492 10000000007961634 10000000007961633 10000000007961646 10000000007961632 4.17683491473 -8.36035 0.901739 7.04757
9.07492 10000000007961633 10000000007961632 10000000007961646 10000000007961631 4.00794511147 -8.45454 1.76191 6.75313
9.1193 10000000007961632 10000000007961630 10000000007961646 10000000007961629 3.70877426464 -5.1385 0.52089 1.66614
9.14811 10000000007961630 10000000007961629 10000000007961646 10000000007961628 3.49086136926 -4.25625 1.17934 -1.26945
9.18802 10000000007961629 10000000007961627 10000000007961646 10000000007961626 3.08482263583 -1.91962 -3.08437 -1.44513
9.20055 10000000007961627 10000000007961626 10000000007961646 10000000007961625 3.00813107163 0.261807 -0.572165 0.0052177
9.20464 10000000007961626 10000000007961623 10000000007961646 10000000007961622 2.5772902716 -10.6769 -5.05683 3.30295
9.00012 10000000007961673 10000000007961672 10000000007961681 10000000007961671 3.00813107163 1.21111 -10.3037 -9.46644
9.01928 10000000007961672 10000000007961671 10000000007961681 10000000007961670 2.89578500573 -5.56177 -9.16341 -2.79714
9.07216 10000000007961671 10000000007961670 10000000007961681 10000000007961669 2.73314261732 -4.25049 -13.3189 -5.87654
9.08038 10000000007961670 10000000007961669 10000000007961681 10000000007961668 2.5772902716 -3.16958 -12.9716 -5.03594
9.11681 10000000007961669 10000000007961668 10000000007961681 10000000007961667 2.44422570455 -4.91187 -15.7622 -9.63258
9.13871 10000000007961668 10000000007961667 10000000007961681 10000000007961666 2.31611074396 -3.93121 -17.038 -11.723
9.00337 10000000007961723 10000000007961722 10000000007961737 10000000007961721 4.99593346816 -4.31734 -9.30543 -0.919238
9.01298 10000000007961722 10000000007961714 10000000007961737 10000000007961713 3.49086136926 -3.28063 -11.9615 -6.74994
9.22066 10000000007961714 10000000007961713 10000000007961737 10000000007961712 3.28303305796 1.78884 -15.6835 -6.23895
9.2845 10000000007961713 10000000007961711 10000000007961737 10000000007961710 3.00813107163 -2.20282 -19.0644 -15.065
9.31717 10000000007961711 10000000007961710 10000000007961737 10000000007961709 2.89578500573 1.60737 -19.4902 -15.0928
9.23799 10000000007961739 10000000007961738 10000000007961756 10000000007961711 3.08482263583 -0.0513896 -16.6519 -16.248
9.08578 10000000007961869 10000000007961868 10000000007961881 10000000007961867 4.66451770247 -8.15427 -1.8254 7.4453
9.14578 10000000007961868 10000000007961867 10000000007961881 10000000007961866 4.42803373661 -8.74818 -1.50493 6.31433
9.18376 10000000007961867 10000000007961866 10000000007961881 10000000007961865 4.17683491473 -7.42569 -2.74699 5.83236
9.20055 10000000007961866 10000000007961865 10000000007961881 10000000007961864 4.00794511147 -4.89783 -2.46843 4.42055
9.2087 10000000007961865 10000000007961864 10000000007961881 10000000007961863 3.93726108473 -4.41108 -2.60317 1.50236
9.24362 10000000007961864 10000000007961863 10000000007961881 10000000007961862 3.70877426464 -0.652494 -3.51692 1.94209
9.29951 10000000007961863 10000000007961862 10000000007961881 10000000007961861 3.49086136926 -7.63635 -13.5153 0.557785
9.33111 10000000007961862 10000000007961859 10000000007961881 10000000007961858 3.00813107163 -3.6399 -9.46809 -0.806164
9.41156 10000000007961859 10000000007961857 10000000007961881 10000000007961856 2.73314261732 14.4189 5.00081 -16.6712
9.01298 10000000007962035 10000000007962034 10000000007962044 10000000007962033 8.44947629437 -0.702399 -3.24651 -1.72579
9.07766 10000000007962034 10000000007962033 10000000007962044 10000000007962032 8.01217294887 -1.97507 -1.71598 -3.8535
9.15502 10000000007962033 10000000007962032 10000000007962044 10000000007962031 7.59510714987 -3.90868 -3.33101 -3.81615
9.20055 10000000007962032 10000000007962030 10000000007962044 10000000007962029 7.00541704554 -1.99531 -1.2443 -6.38014
9.21671 10000000007962030 10000000007962029 10000000007962044 10000000007962028 6.85511726265 -3.66364 -4.91626 -4.94198
9.25466 10000000007962029 10000000007962024 10000000007962044 10000000007962023 5.52976580795 -2.40952 -6.50815 -1.82761
9.2672 10000000007962024 10000000007962023 10000000007962044 10000000007962022 5.22758097313 -0.936408 -3.70691 -3.11363
9.27938 10000000007962023 10000000007962020 10000000007962044 10000000007962019 4.66451770247 -1.15101 -3.14854 -5.73957
9.2845 10000000007962020 10000000007962019 10000000007962044 10000000007962018 4.42803373661 -1.93181 -5.45622 -2.12691
9.32342 10000000007962019 10000000007962018 10000000007962044 10000000007962017 4.17683491473 0.722959 -7.55356 -8.11439
9.33566 10000000007962018 10000000007962017 10000000007962044 10000000007962016 4.00794511147 -0.579424 -8.00766 -12.5948
9.34609 10000000007962017 10000000007962016 10000000007962044 10000000007962015 3.93726108473 0.464727 -4.119 -9.85573
9.36763 10000000007962016 10000000007962015 10000000007962044 10000000007962014 3.70877426464 -0.614599 -2.87671 -10.0738
9.37732 10000000007962015 10000000007962014 10000000007962044 10000000007962013 3.49086136926 -0.163463 -0.855071 -7.20222
9.02855 10000000007962130 10000000007962129 10000000007962144 10000000007962128 3.00813107163 -9.56164 6.84634 -0.0989562
9.0316 10000000007962129 10000000007962128 10000000007962144 10000000007962127 2.89578500573 -8.12675 6.40621 -0.443791
9.04945 10000000007962128 10000000007962125 10000000007962144 10000000007962124 2.44422570455 -5.92444 1.51658 0.0781478
9.04653 10000000007962382 10000000007962381 10000000007962388 10000000007962380 9.38877127194 3.44003 0.0694352 5.88933
9.08038 10000000007962381 10000000007962378 10000000007962388 10000000007962377 8.44947629437 1.80624 2.89341 0.718757
9.18802 10000000007962378 10000000007962377 10000000007962388 10000000007962376 8.01217294887 12.8521 6.24811 4.07835
9.20668 10000000007962377 10000000007962375 10000000007962388 10000000007962374 7.23627606617 12.5925 9.21514 6.30734
9.23229 10000000007962375 10000000007962374 10000000007962388 10000000007962373 7.00541704554 15.0944 8.91128 5.10288
9.28788 10000000007962374 10000000007962371 10000000007962388 10000000007962370 6.14490120342 6.79637 7.16278 -2.37355
9.28956 10000000007962371 10000000007962370 10000000007962388 10000000007962369 6.01075739884 7.43732 7.40526 2.19419
9.33716 10000000007962370 10000000007962369 10000000007962388 10000000007962368 5.84661374788 11.1472 8.25903 -0.0583015
9.36056 10000000007962369 10000000007962368 10000000007962388 10000000007962367 5.52976580795 4.11308 10.5299 1.43306
9.39871 10000000007962368 10000000007962367 10000000007962388 10000000007962366 5.22758097313 4.86576 12.7934 -0.0693282
9.41909 10000000007962367 10000000007962366 10000000007962388 10000000007962365 4.99593346816 2.23343 9.13864 1.37893
9.43015 10000000007962366 10000000007962365 10000000007962388 10000000007962364 4.93938066349 0.437066 8.12196 0.821795
9.48372 10000000007962365 10000000007962364 10000000007962388 10000000007962363 4.66451770247 2.96659 8.73936 1.96213
9.50055 10000000007962364 10000000007962363 10000000007962388 10000000007962362 4.42803373661 -1.28582 10.1778 -0.475585
9.50669 10000000007962363 10000000007962361 10000000007962388 10000000007962360 4.00794511147 10.4165 12.433 3.84975
9.01928 10000000007962438 10000000007962437 10000000007962446 10000000007962436 4.42803373661 12.9512 -0.814502 -0.571425
9.05524 10000000007962437 10000000007962435 10000000007962446 10000000007962434 4.00794511147 11.7039 -2.28385 -4.87382
9.06378 10000000007962435 10000000007962431 10000000007962446 10000000007962430 3.28303305796 8.68937 -7.1835 -2.86822
9.08845 10000000007962431 10000000007962430 10000000007962446 10000000007962429 3.08482263583 11.114 -12.5685 -7.16774
9.11681 10000000007962430 10000000007962428 10000000007962446 10000000007962427 2.89578500573 9.25057 -12.9441 -9.42377
9.03763 10000000007962555 10000000007962554 10000000007962562 10000000007962553 6.49159774567 -3.50026 0.0446979 3.0187
9.18162 10000000007962554 10000000007962553 10000000007962562 10000000007962552 6.14490120342 -2.79521 -3.4961 0.453559
9.19641 10000000007962553 10000000007962551 10000000007962562 10000000007962550 5.84661374788 -1.82703 -1.18288 -0.309711
9.22651 10000000007962551 10000000007962550 10000000007962562 10000000007962549 5.52976580795 -0.740472 -0.362457 0.195663
9.2845 10000000007962550 10000000007962549 10000000007962562 10000000007962548 5.22758097313 0.294706 -1.67886 -4.66546
9.30763 10000000007962549 10000000007962548 10000000007962562 10000000007962547 4.99593346816 0.0236866 -0.621226 -4.59677
9.31401 10000000007962548 10000000007962543 10000000007962562 10000000007962542 4.00794511147 2.22779 -1.50649 1.35814
9.31401 10000000007962543 10000000007962542 10000000007962562 10000000007962541 3.93726108473 1.66376 -2.49662 0.684776
9.32651 10000000007962542 10000000007962541 10000000007962562 10000000007962540 3.70877426464 3.56096 -3.89426 -3.59401
9.10415 10000000007962713 10000000007962712 10000000007962716 10000000007962711 9.38877127194 3.24405 -5.99305 -0.360135
9.16852 10000000007962712 10000000007962711 10000000007962716 10000000007962710 9.00233985416 -0.173356 -3.29323 -2.8966
9.19223 10000000007962711 10000000007962710 10000000007962716 10000000007962709 8.9079991856 6.1291 -2.99517 -6.93485
9.26543 10000000007962710 10000000007962709 10000000007962716 10000000007962708 8.44947629437 2.17724 -6.39515 -5.80378
9.39214 10000000007962709 10000000007962708 10000000007962716 10000000007962707 8.01217294887 6.02525 0.28899 3.26907
9.43257 10000000007962708 10000000007962707 10000000007962716 10000000007962706 7.59510714987 3.39223 -9.08619 -3.33212
9.53996 10000000007962707 10000000007962706 10000000007962716 10000000007962705 7.23627606617 2.62413 0.421266 -3.98205
9.58127 10000000007962706 10000000007962705 10000000007962716 10000000007962704 7.00541704554 2.86384 -3.7947 -2.97397
9.60381 10000000007962705 10000000007962704 10000000007962716 10000000007962703 6.85511726265 0.336112 1.67545 -3.67356
9.67145 10000000007962704 10000000007962703 10000000007962716 10000000007962702 6.49159774567 -2.0258 7.35447 -0.969071
9.75017 10000000007962703 10000000007962702 10000000007962716 10000000007962701 6.14490120342 -1.66303 8.0835 -0.0061317
9.81528 10000000007962702 10000000007962701 10000000007962716 10000000007962700 6.01075739884 1.7723 23.9758 -10.8838
9.81728 10000000007962701 10000000007962700 10000000007962716 10000000007962699 5.84661374788 3.59965 25.4622 -4.07822
9.87757 10000000007962700 10000000007962699 10000000007962716 10000000007962698 5.52976580795 6.79268 34.897 -9.56086
10.0304 10000000007962699 10000000007962698 10000000007962716 10000000007962697 5.22758097313 -12.2859 53.5665 -19.6692
10.0777 10000000007962698 10000000007962697 10000000007962716 10000000007962696 4.99593346816 -3.39499 58.9695 -20.3378
10.0998 10000000007962697 10000000007962695 10000000007962716 10000000007962694 4.66451770247 18.4773 62.2931 -10.2231
10.1696 10000000007962695 10000000007962694 10000000007962716 10000000007962693 4.42803373661 17.8651 73.8197 -11.6161
10.2026 10000000007962694 10000000007962693 10000000007962716 10000000007962692 4.17683491473 17.7211 77.338 -14.2391
10.2232 10000000007962693 10000000007962692 10000000007962716 10000000007962691 4.00794511147 22.2659 82.4449 -11.4475
10.2436 10000000007962692 10000000007962691 10000000007962716 10000000007962690 3.93726108473 19.0413 85.8481 -16.2134
10.3089 10000000007962691 10000000007962690 10000000007962716 10000000007962689 3.70877426464 40.3774 88.279 -6.14289
10.3405 10000000007962690 10000000007962689 10000000007962716 10000000007962688 3.49086136926 48.5511 78.493 -8.79457
10.3717 10000000007962689 10000000007962688 10000000007962716 10000000007962687 3.28303305796 29.9304 104.694 -31.2046
10.4266 10000000007962688 10000000007962687 10000000007962716 10000000007962686 3.08482263583 24.1307 120.628 -19.3389
10.4747 10000000007962687 10000000007962685 10000000007962716 10000000007962684 2.89578500573 31.3526 130.756 8.41178
9.03463 10000000007962773 10000000007962772 10000000007962779 10000000007962771 9.00233985416 -2.80689 12.0403 -9.84869
9.07216 10000000007962772 10000000007962770 10000000007962779 10000000007962769 8.44947629437 -1.54477 8.12506 -6.81986
9.11179 10000000007962770 10000000007962769 10000000007962779 10000000007962768 8.01217294887 -1.32248 6.38499 -7.63096
9.14578 10000000007962769 10000000007962768 10000000007962779 10000000007962767 7.59510714987 0.810142 4.91713 -7.32433
9.17073 10000000007962768 10000000007962767 10000000007962779 10000000007962766 7.23627606617 1.03619 9.28454 -10.6609
9.18589 10000000007962767 10000000007962766 10000000007962779 10000000007962765 7.00541704554 2.87332 6.83809 -9.49901
9.04945 10000000007962831 10000000007962830 10000000007962834 10000000007962829 6.14490120342 -12.523 -3.60026 -6.87404
9.07492 10000000007962854 10000000007962853 10000000007962866 10000000007962852 4.66451770247 4.09456 -8.94799 -2.39042
9.07766 10000000007962853 10000000007962851 10000000007962866 10000000007962850 4.17683491473 -1.33827 -9.59225 -1.07561
9.10671 10000000007962851 10000000007962850 10000000007962866 10000000007962849 4.00794511147 -7.7182 -7.10676 -4.1658
9.15956 10000000007962850 10000000007962849 10000000007962866 10000000007962848 3.93726108473 -9.92863 -7.36274 -6.61118
9.17729 10000000007962849 10000000007962847 10000000007962866 10000000007962846 3.49086136926 -14.6059 -8.45245 -16.5779
9.14578 10000000007962961 10000000007962960 10000000007962968 10000000007962959 8.01217294887 10.9223 5.70831 -11.5734
9.33866 10000000007962960 10000000007962959 10000000007962968 10000000007962958 7.59510714987 -0.209934 -3.51025 4.99783
9.3634 10000000007962959 10000000007962958 10000000007962968 10000000007962957 7.23627606617 1.58021 -2.65138 10.2436
9.44093 10000000007962958 10000000007962957 10000000007962968 10000000007962956 7.00541704554 -5.12754 -7.99418 15.3416
9.56823 10000000007962957 10000000007962954 10000000007962968 10000000007962953 6.14490120342 -4.79584 -6.70689 17.0605
9.63214 10000000007962954 10000000007962953 10000000007962968 10000000007962952 6.01075739884 2.94429 -3.31578 14.0803
9.68784 10000000007962953 10000000007962952 10000000007962968 10000000007962951 5.84661374788 14.2227 8.59505 9.89954
9.72752 10000000007962952 10000000007962951 10000000007962968 10000000007962950 5.52976580795 14.764 7.20705 5.90097
9.77224 10000000007962951 10000000007962950 10000000007962968 10000000007962949 5.22758097313 12.2278 3.06265 6.94055
9.79795 10000000007962950 10000000007962949 10000000007962968 10000000007962948 4.99593346816 15.2363 8.21874 12.677
9.81127 10000000007962949 10000000007962948 10000000007962968 10000000007962947 4.93938066349 15.2615 5.83524 14.4094
9.83721 10000000007962948 10000000007962944 10000000007962968 10000000007962943 4.00794511147 7.73515 -1.0246 0.531615
9.87102 10000000007962944 10000000007962943 10000000007962968 10000000007962942 3.93726108473 2.0317 -2.08018 9.99677
9.92432 10000000007962943 10000000007962942 10000000007962968 10000000007962941 3.70877426464 1.60293 -6.35428 1.30668
9.98177 10000000007962942 10000000007962941 10000000007962968 10000000007962940 3.49086136926 -4.27779 -7.36666 -0.660617
10.0227 10000000007962941 10000000007962940 10000000007962968 10000000007962939 3.28303305796 -2.4256 0.252123 4.80554
9.48586 10000000007962971 10000000007962970 10000000007962977 10000000007962954 6.49159774567 -9.40915 -8.48214 15.9124
9.01928 10000000007962987 10000000007962986 10000000007962993 10000000007962985 7.59510714987 -2.94643 9.38262 -0.974965
9.07766 10000000007962986 10000000007962984 10000000007962993 10000000007962983 7.00541704554 -1.45749 13.6513 3.53713
9.09637 10000000007962984 10000000007962983 10000000007962993 10000000007962982 6.85511726265 -0.164101 15.1054 2.52462
9.02239 10000000007963003 10000000007963002 10000000007963020 10000000007963001 5.22758097313 6.18027 -6.83193 3.06828
9.10926 10000000007963002 10000000007963001 10000000007963020 10000000007963000 4.99593346816 7.4267 -6.94183 -0.383055
9.13634 10000000007963001 10000000007963000 10000000007963020 10000000007962999 4.93938066349 5.43139 -7.23007 -2.57683
9.13871 10000000007963000 10000000007962998 10000000007963020 10000000007962997 4.42803373661 3.46753 -7.82568 -0.952648
9.12668 10000000007963098 10000000007963097 10000000007963101 10000000007963096 6.85511726265 7.60767 -4.06072 -2.802
9.30602 10000000007963097 10000000007963096 10000000007963101 10000000007963095 6.49159774567 -0.334738 1.18354 0.667968
9.38141 10000000007963096 10000000007963093 10000000007963101 10000000007963092 5.84661374788 0.461393 -2.17363 -13.5612
9.57956 10000000007963093 10000000007963092 10000000007963101 10000000007963091 5.52976580795 -7.14236 -1.24966 -21.1957
9.72752 10000000007963092 10000000007963091 10000000007963101 10000000007963090 5.22758097313 -1.51041 -15.4074 -24.0114
9.76388 10000000007963091 10000000007963090 10000000007963101 10000000007963089 4.99593346816 -1.25273 -15.1821 -20.2717
9.81976 10000000007963090 10000000007963088 10000000007963101 10000000007963087 4.66451770247 -0.371141 -19.3077 -19.4873
9.84052 10000000007963088 10000000007963087 10000000007963101 10000000007963086 4.42803373661 -0.603857 -19.0606 -14.9703
9.87321 10000000007963087 10000000007963086 10000000007963101 10000000007963085 4.17683491473 -2.99096 -23.2925 -5.08601
9.87626 10000000007963086 10000000007963085 10000000007963101 10000000007963084 4.00794511147 -2.21914 -27.4589 -19.3763
9.8767 10000000007963085 10000000007963079 10000000007963101 10000000007963078 3.00813107163 -2.71893 -19.228 -11.69
9.92819 10000000007963079 10000000007963078 10000000007963101 10000000007963077 2.89578500573 6.20893 -30.7903 -15.4953
9.95436 10000000007963078 10000000007963072 10000000007963101 10000000007963071 2.1032696526 -6.55288 -27.2534 -13.2472
10.0004 10000000007963072 10000000007963070 10000000007963101 10000000007963069 1.90408954353 -13.5813 -24.5932 1.1052
9.08578 10000000007963113 10000000007963112 10000000007963119 10000000007963111 6.14490120342 -12.5254 -3.22732 2.6795
9.11681 10000000007963112 10000000007963111 10000000007963119 10000000007963110 6.01075739884 -12.4734 -2.41602 3.75603
9.00337 10000000007963238 10000000007963237 10000000007963264 10000000007963236 2.31611074396 -5.28589 0.106445 7.30957
9.01298 10000000007963237 10000000007963236 10000000007963264 10000000007963235 2.20792547238 -5.28462 -1.21582 5.31574
9.04358 10000000007963347 10000000007963346 10000000007963349 10000000007963345 8.9079991856 8.80534 -2.52499 -0.88061
9.31717 10000000007963346 10000000007963345 10000000007963349 10000000007963344 8.44947629437 6.00082 2.74126 -3.67057
9.35048 10000000007963345 10000000007963344 10000000007963349 10000000007963343 8.01217294887 6.53256 2.77896 -7.23985
9.626 10000000007963344 10000000007963343 10000000007963349 10000000007963342 7.59510714987 10.1241 9.88376 -4.37787
9.7342 10000000007963343 10000000007963342 10000000007963349 10000000007963341 7.23627606617 8.62412 1.43623 -14.4844
9.75822 10000000007963342 10000000007963341 10000000007963349 10000000007963340 7.00541704554 8.31404 0.0767341 -14.9952
9.81076 10000000007963341 10000000007963340 10000000007963349 10000000007963339 6.85511726265 10.1443 -0.109836 -9.63002
9.92002 10000000007963340 10000000007963339 10000000007963349 10000000007963338 6.49159774567 2.83203 -3.52726 -4.41314
9.96617 10000000007963339 10000000007963338 10000000007963349 10000000007963337 6.14490120342 0.821876 -1.52763 1.72367
9.98685 10000000007963338 10000000007963336 10000000007963349 10000000007963335 5.84661374788 2.40932 4.07202 0.102284
10.0127 10000000007963336 10000000007963335 10000000007963349 10000000007963334 5.52976580795 8.70153 8.51833 8.66945
10.0815 10000000007963335 10000000007963334 10000000007963349 10000000007963333 5.22758097313 -7.62424 9.08926 1.67657
10.1829 10000000007963334 10000000007963333 10000000007963349 10000000007963332 4.99593346816 -0.379087 14.0482 17.8932
10.1903 10000000007963333 10000000007963331 10000000007963349 10000000007963330 4.66451770247 -27.2095 -13.9761 -13.9765
10.2508 10000000007963331 10000000007963330 10000000007963349 10000000007963329 4.42803373661 -27.2577 -11.3033 -8.87337
10.3039 10000000007963330 10000000007963329 10000000007963349 10000000007963328 4.17683491473 -47.1559 12.362 -5.49382
10.4586 10000000007963329 10000000007963324 10000000007963349 10000000007963323 3.28303305796 -47.4354 -7.94522 -48.6812
10.4998 10000000007963324 10000000007963323 10000000007963349 10000000007963322 3.08482263583 -53.7474 -28.6265 -43.6208
10.5544 10000000007963323 10000000007963322 10000000007963349 10000000007963321 3.00813107163 -64.6685 -33.1399 -53.6591
10.5571 10000000007963322 10000000007963321 10000000007963349 10000000007963320 2.89578500573 -61.3859 -39.269 -62.2596
10.6148 10000000007963321 10000000007963320 10000000007963349 10000000007963319 2.73314261732 -76.406 -7.08028 -76.9656
10.6637 10000000007963320 10000000007963319 10000000007963349 10000000007963318 2.5772902716 -52.3097 55.3312 -64.7232
10.7025 10000000007963319 10000000007963318 10000000007963349 10000000007963317 2.44422570455 -22.6056 119.216 -66.9832
10.7607 10000000007963318 10000000007963317 10000000007963349 10000000007963316 2.31611074396 3.20252 84.1755 -34.0933
10.8005 10000000007963317 10000000007963316 10000000007963349 10000000007963315 2.20792547238 37.3255 82.6151 -1.23204
10.8586 10000000007963316 10000000007963315 10000000007963349 10000000007963314 2.1032696526 16.3433 104.558 -28.1508
10.3679 10000000007963399 10000000007963398 10000000007963423 10000000007963324 3.49086136926 -99.26 13.7818 -43.9783
9.08309 10000000007963452 10000000007963451 10000000007963463 10000000007963450 7.59510714987 1.37715 -2.03342 3.94321
9.19013 10000000007963451 10000000007963450 10000000007963463 10000000007963449 7.23627606617 10.3007 6.04377 -0.217904
9.2929 10000000007963450 10000000007963449 10000000007963463 10000000007963448 7.00541704554 7.33877 5.17831 3.7183
9.33415 10000000007963449 10000000007963447 10000000007963463 10000000007963446 6.49159774567 3.97469 2.48318 4.52497
9.37042 10000000007963447 10000000007963446 10000000007963463 10000000007963445 6.14490120342 1.64718 0.0117247 -2.18356
9.41408 10000000007963446 10000000007963445 10000000007963463 10000000007963444 6.01075739884 11.8801 -8.83517 10.7228
9.4503 10000000007963445 10000000007963443 10000000007963463 10000000007963442 5.52976580795 -6.29883 -0.389589 0.133183
9.14578 10000000007963469 10000000007963468 10000000007963477 10000000007963467 8.01217294887 -6.71601 -3.03225 5.70815
9.0666 10000000007963516 10000000007963515 10000000007963529 10000000007963514 6.14490120342 -1.35983 4.83262 1.07318
9.18376 10000000007963515 10000000007963513 10000000007963529 10000000007963512 5.84661374788 -10.5636 -0.929968 2.65733
9.21671 10000000007963513 10000000007963512 10000000007963529 10000000007963511 5.52976580795 -21.7003 -10.1531 -7.19088
9.2811 10000000007963512 10000000007963511 10000000007963529 10000000007963510 5.22758097313 -19.9023 -15.3786 -14.4279
9.06939 10000000007963574 10000000007963573 10000000007963582 10000000007963572 7.59510714987 -6.04163 3.94295 0.536976
9.11179 10000000007963573 10000000007963572 10000000007963582 10000000007963571 7.23627606617 -5.62958 1.83594 0.904565
9.15273 10000000007963572 10000000007963571 10000000007963582 10000000007963570 7.00541704554 -4.7039 2.00444 -1.78885
9.29457 10000000007963571 10000000007963570 10000000007963582 10000000007963569 6.85511726265 -0.121616 0.33861 -1.49578
9.41282 10000000007963570 10000000007963569 10000000007963582 10000000007963568 6.49159774567 -7.185 6.03065 -1.75555
9.5026 10000000007963569 10000000007963568 10000000007963582 10000000007963567 6.14490120342 -1.30756 9.9788 -6.58043
9.56911 10000000007963568 10000000007963566 10000000007963582 10000000007963565 5.84661374788 0.0814659 2.33268 -2.63353
9.67904 10000000007963566 10000000007963565 10000000007963582 10000000007963564 5.52976580795 1.78955 -8.00749 -0.855306
9.74784 10000000007963565 10000000007963564 10000000007963582 10000000007963563 5.22758097313 -0.731152 -19.2225 -1.31462
9.81428 10000000007963564 10000000007963563 10000000007963582 10000000007963562 4.99593346816 -3.52501 -24.1859 -9.30671
9.83911 10000000007963563 10000000007963562 10000000007963582 10000000007963561 4.93938066349 -8.05798 -27.8618 -10.6874
9.89246 10000000007963562 10000000007963561 10000000007963582 10000000007963560 4.66451770247 -9.04322 -30.1141 -15.2451
9.90116 10000000007963561 10000000007963560 10000000007963582 10000000007963559 4.42803373661 -7.46718 -27.0409 -15.4955
10.0239 10000000007963560 10000000007963558 10000000007963582 10000000007963557 4.00794511147 38.9732 -66.0048 -69.3145
9.05811 10000000007963587 10000000007963586 10000000007963596 10000000007963585 6.01075739884 4.77399 -1.44699 8.68775
9.02855 10000000007963624 10000000007963623 10000000007963634 10000000007963622 5.52976580795 -1.98192 -8.05278 2.07481
9.02855 10000000007963623 10000000007963621 10000000007963634 10000000007963620 4.99593346816 -4.72849 -7.58405 2.10914
9.02855 10000000007963621 10000000007963620 10000000007963634 10000000007963619 4.93938066349 -5.65774 -7.84696 1.97424
9.12178 10000000007963620 10000000007963618 10000000007963634 10000000007963617 4.42803373661 -8.22789 -13.2807 -0.352466
9.01928 10000000007963763 10000000007963762 10000000007963780 10000000007963761 3.93726108473 5.76889 1.719 -8.62704
9.05235 10000000007963762 10000000007963761 10000000007963780 10000000007963760 3.70877426464 4.32434 0.921962 -5.60379
9.10671 10000000007963761 10000000007963758 10000000007963780 10000000007963757 3.08482263583 7.10034 3.07751 -2.97977
9.15042 10000000007963758 10000000007963755 10000000007963780 10000000007963754 2.73314261732 3.79411 4.87132 -2.84165
9.16182 10000000007963755 10000000007963754 10000000007963780 10000000007963753 2.5772902716 1.34726 6.50073 -8.01317
9.1663 10000000007963754 10000000007963752 10000000007963780 10000000007963751 2.31611074396 4.51313 5.54324 -7.53522
9.26543 10000000007963752 10000000007963751 10000000007963780 10000000007963750 2.20792547238 5.53314 10.551 -5.7398
9.27938 10000000007963751 10000000007963750 10000000007963780 10000000007963749 2.1032696526 2.44745 6.70745 -4.62052
9.28956 10000000007963750 10000000007963749 10000000007963780 10000000007963748 2.00202813925 2.37144 3.92446 -4.76232
9.31717 10000000007963749 10000000007963748 10000000007963780 10000000007963747 1.90408954353 0.294899 3.29317 -3.00245
9.33866 10000000007963748 10000000007963746 10000000007963780 10000000007963745 1.74357057433 4.28294 1.70302 -4.05854
9.34165 10000000007963746 10000000007963745 10000000007963780 10000000007963744 1.66666955611 5.70837 0.0682804 -1.52824
9.35914 10000000007963745 10000000007963743 10000000007963780 10000000007963742 1.53123902916 3.58544 1.85802 3.8728
9.39214 10000000007963743 10000000007963739 10000000007963780 10000000007963738 1.30237845991 -11.2449 3.53357 9.56234
9.39346 10000000007963739 10000000007963738 10000000007963780 10000000007963737 1.24847261425 -11.6515 0.503022 10.914
