logMh | fpID | subhaloID | main leaf ID | descID |  z
9.03463 70000041300000107 70000041300000106 70000041300000112 70000041300000105 11.4973879548 3.44686 0.567395 -2.12891
9.08845 70000041300000106 70000041300000105 70000041300000112 70000041300000104 10.9190331982 2.81474 1.9977 -0.94011
9.23988 70000041300000105 70000041300000104 70000041300000112 70000041300000103 10.3674435724 4.09406 1.76581 -5.09089
9.31083 70000041300000104 70000041300000103 70000041300000112 70000041300000102 9.99659046619 2.01714 1.99952 -1.36453
9.39871 70000041300000103 70000041300000101 70000041300000112 70000041300000100 9.38877127194 11.7186 -0.151132 -1.49176
9.5989 70000041300000101 70000041300000100 70000041300000112 70000041300000099 9.00233985416 20.5853 -1.90853 0.401449
9.61504 70000041300000100 70000041300000099 70000041300000112 70000041300000098 8.9079991856 19.8131 -1.19306 0.323939
9.65005 70000041300000099 70000041300000098 70000041300000112 70000041300000097 8.44947629437 21.0438 -1.764 -1.12542
9.74255 70000041300000098 70000041300000097 70000041300000112 70000041300000096 8.01217294887 17.7966 -3.74929 5.91219
9.92742 70000041300000097 70000041300000096 70000041300000112 70000041300000095 7.59510714987 13.0713 3.47307 1.85573
9.94259 70000041300000096 70000041300000095 70000041300000112 70000041300000094 7.23627606617 8.18411 9.67963 2.41346
9.9882 70000041300000095 70000041300000094 70000041300000112 70000041300000093 7.00541704554 9.92713 8.29885 7.25473
10.0518 70000041300000094 70000041300000093 70000041300000112 70000041300000092 6.85511726265 9.85716 4.25559 14.2994
10.1225 70000041300000093 70000041300000092 70000041300000112 70000041300000091 6.49159774567 17.8815 -10.1889 20.3572
10.2505 70000041300000092 70000041300000091 70000041300000112 70000041300000090 6.14490120342 34.271 -9.73612 6.19442
10.314 70000041300000091 70000041300000090 70000041300000112 70000041300000089 6.01075739884 26.5611 3.14102 -16.8735
10.3486 70000041300000090 70000041300000089 70000041300000112 70000041300000088 5.84661374788 11.7521 14.0522 -38.4233
10.4691 70000041300000089 70000041300000088 70000041300000112 70000041300000087 5.52976580795 16.8756 9.9996 -51.238
10.5277 70000041300000088 70000041300000087 70000041300000112 70000041300000086 5.22758097313 11.4307 20.2373 -52.9643
10.5699 70000041300000087 70000041300000086 70000041300000112 70000041300000085 4.99593346816 11.4631 4.5511 -53.3743
10.5726 70000041300000086 70000041300000085 70000041300000112 70000041300000084 4.93938066349 6.99032 25.0079 -49.6612
10.6425 70000041300000085 70000041300000084 70000041300000112 70000041300000083 4.66451770247 21.8082 1.35044 -66.4295
10.699 70000041300000084 70000041300000083 70000041300000112 70000041300000082 4.42803373661 21.6089 -19.4148 -66.9147
10.8859 70000041300000083 70000041300000082 70000041300000112 70000041300000081 4.17683491473 -27.9815 -52.615 3.6825
10.9221 70000041300000082 70000041300000081 70000041300000112 70000041300000080 4.00794511147 -62.8793 4.83709 13.9252
10.9837 70000041300000081 70000041300000079 70000041300000112 70000041300000078 3.70877426464 65.7658 -4.84626 -76.3707
11.0807 70000041300000079 70000041300000078 70000041300000112 70000041300000077 3.49086136926 71.7718 -5.61482 -64.8729
11.1659 70000041300000078 70000041300000077 70000041300000112 70000041300000076 3.28303305796 132.182 -61.6855 -102.294
11.2646 70000041300000077 70000041300000076 70000041300000112 70000041300000075 3.08482263583 32.1475 -75.4187 -35.1969
11.2734 70000041300000076 70000041300000075 70000041300000112 70000041300000074 3.00813107163 23.5319 -77.2542 -43.6411
11.299 70000041300000075 70000041300000074 70000041300000112 70000041300000073 2.89578500573 75.6132 -72.4021 -115.316
11.3301 70000041300000074 70000041300000073 70000041300000112 70000041300000072 2.73314261732 154.152 -91.6257 -166.321
11.3487 70000041300000073 70000041300000072 70000041300000112 70000041300000071 2.5772902716 126.833 -55.716 -196.924
11.3958 70000041300000072 70000041300000071 70000041300000112 70000041300000070 2.44422570455 177.843 -190.974 -105.402
11.4448 70000041300000071 70000041300000068 70000041300000112 70000041300000067 2.1032696526 100.961 -289.848 45.0156
11.4594 70000041300000068 70000041300000067 70000041300000112 70000041300000066 2.00202813925 68.326 -314.69 144.57
11.4729 70000041300000067 70000041300000066 70000041300000112 70000041300000065 1.90408954353 12.9586 -250.727 161.157
11.4863 70000041300000066 70000041300000065 70000041300000112 70000041300000064 1.82268925262 36.1093 -234.842 176.54
11.5049 70000041300000065 70000041300000064 70000041300000112 70000041300000063 1.74357057433 65.0458 -208.639 207.512
11.5236 70000041300000064 70000041300000063 70000041300000112 70000041300000062 1.66666955611 95.739 -186.862 201.712
11.5455 70000041300000063 70000041300000062 70000041300000112 70000041300000061 1.60423452207 109.175 -140.884 195.433
11.5512 70000041300000062 70000041300000061 70000041300000112 70000041300000060 1.53123902916 135.722 -170.861 173.334
11.5678 70000041300000061 70000041300000060 70000041300000112 70000041300000059 1.47197484527 145.362 -173.228 188.442
11.5681 70000041300000060 70000041300000058 70000041300000112 70000041300000057 1.3575766674 98.5539 -153.075 119.978
11.5683 70000041300000058 70000041300000057 70000041300000112 70000041300000056 1.30237845991 96.0049 -199.5 94.6392
11.5757 70000041300000057 70000041300000056 70000041300000112 70000041300000055 1.24847261425 37.5327 -206.879 89.7252
11.5925 70000041300000056 70000041300000055 70000041300000112 70000041300000054 1.20625808078 5.39483 -212.846 72.3189
11.6158 70000041300000055 70000041300000054 70000041300000112 70000041300000053 1.15460271236 -61.277 -239.528 84.0284
11.6283 70000041300000054 70000041300000053 70000041300000112 70000041300000052 1.11415056377 -113.012 -315.747 101.742
11.6442 70000041300000053 70000041300000052 70000041300000112 70000041300000051 1.07445789455 -168.229 -248.168 98.6054
11.6694 70000041300000052 70000041300000051 70000041300000112 70000041300000050 1.03551044566 -338.633 -293.814 108.932
11.6956 70000041300000051 70000041300000050 70000041300000112 70000041300000049 0.997294225782 -507.855 -187.976 85.5455
11.706 70000041300000050 70000041300000049 70000041300000112 70000041300000048 0.987852810816 -489.86 -314.222 148.848
11.7571 70000041300000049 70000041300000048 70000041300000112 70000041300000047 0.950531351585 -673.302 -359.895 266.094
11.7882 70000041300000048 70000041300000047 70000041300000112 70000041300000046 0.923000816178 -701.517 -293.937 222.028
11.8222 70000041300000047 70000041300000046 70000041300000112 70000041300000045 0.886896937575 -721.489 -327.257 297.771
11.8511 70000041300000046 70000041300000045 70000041300000112 70000041300000044 0.851470900625 -724.791 -271.495 310.454
11.8632 70000041300000045 70000041300000044 70000041300000112 70000041300000043 0.816709979012 -717.793 -259.504 327.907
11.8768 70000041300000044 70000041300000043 70000041300000112 70000041300000042 0.791068248946 -699.257 -239.52 361.509
11.9043 70000041300000043 70000041300000042 70000041300000112 70000041300000041 0.757441372616 -705.34 -226.36 420.724
11.9236 70000041300000042 70000041300000041 70000041300000112 70000041300000040 0.732636182022 -691.433 -166.002 424.158
11.9404 70000041300000041 70000041300000040 70000041300000112 70000041300000039 0.700106353719 -760.255 -174.654 389.316
11.9496 70000041300000040 70000041300000039 70000041300000112 70000041300000038 0.676110411213 -810.953 -185.038 373.4
11.9594 70000041300000039 70000041300000038 70000041300000112 70000041300000037 0.644641840685 -800.594 -213.27 399.768
11.9666 70000041300000038 70000041300000037 70000041300000112 70000041300000036 0.621428745243 -792.366 -204.297 405.486
11.9735 70000041300000037 70000041300000036 70000041300000112 70000041300000035 0.598543288188 -792.612 -177.628 413.985
11.9786 70000041300000036 70000041300000035 70000041300000112 70000041300000034 0.575980845108 -824.352 -146.151 428.128
11.9815 70000041300000035 70000041300000034 70000041300000112 70000041300000033 0.546392183141 -856.938 -194.514 433.158
11.9835 70000041300000034 70000041300000033 70000041300000112 70000041300000032 0.524565820434 -873.149 -192.548 447.907
11.9843 70000041300000033 70000041300000022 70000041300000112 70000041300000021 0.310074120128 -801.59 -232.158 264.199
11.9851 70000041300000022 70000041300000021 70000041300000112 70000041300000020 0.291583239722 -795.531 -254.985 240.582
11.9911 70000041300000021 70000041300000020 70000041300000112 70000041300000019 0.273353346578 -809.776 -261.485 235.199
11.9935 70000041300000020 70000041300000019 70000041300000112 70000041300000018 0.261343256161 -800.856 -275.028 218.016
11.9979 70000041300000019 70000041300000018 70000041300000112 70000041300000017 0.243540181555 -779.789 -246.013 242.515
12.0017 70000041300000018 70000041300000017 70000041300000112 70000041300000016 0.22598838626 -845.655 -224.271 221.581
12.0084 70000041300000017 70000041300000016 70000041300000112 70000041300000015 0.214425035514 -904.198 -213.952 232.408
12.0144 70000041300000016 70000041300000015 70000041300000112 70000041300000014 0.197284182376 -948.588 -169.634 228.783
12.0145 70000041300000015 70000041300000014 70000041300000112 70000041300000013 0.180385261706 -867.168 -163.263 212.122
12.0183 70000041300000014 70000041300000013 70000041300000112 70000041300000012 0.169252033244 -894.334 -147.091 211.788
12.0243 70000041300000013 70000041300000012 70000041300000112 70000041300000011 0.152748768902 -996.293 -112.071 229.809
12.0254 70000041300000012 70000041300000011 70000041300000112 70000041300000010 0.14187620397 -935.016 -95.2998 229.717
12.0297 70000041300000011 70000041300000010 70000041300000112 70000041300000009 0.125759332411 -970.298 -61.6469 234.14
12.039 70000041300000010 70000041300000009 70000041300000112 70000041300000008 0.109869940459 -1066.71 -57.6861 229.998
12.0432 70000041300000009 70000041300000008 70000041300000112 70000041300000007 0.0994018026302 -852.116 -113.572 -13.8231
12.0471 70000041300000008 70000041300000007 70000041300000112 70000041300000006 0.0838844307975 -890.052 -113.835 -30.4215
12.0553 70000041300000007 70000041300000006 70000041300000112 70000041300000005 0.0736613846564 -929.92 -104.803 -81.5792
12.0593 70000041300000006 70000041300000004 70000041300000112 70000041300000003 0.0485236299818 -1036.56 43.1416 118.907
12.0614 70000041300000004 70000041300000003 70000041300000112 70000041300000002 0.0337243718735 -1001.04 59.0342 147.01
12.0614 70000041300000003 70000041300000002 70000041300000112 70000041300000001 0.0239744283828 -962.815 57.622 134.361
12.0734 70000041300000002 70000041300000000 70000041300000112 -1 2.22044604925e-16 -903.727 62.1388 1.15901
9.15273 70000041300000152 70000041300000151 70000041300000160 70000041300000150 8.01217294887 -3.67716 -9.29503 -3.97571
9.19223 70000041300000151 70000041300000150 70000041300000160 70000041300000149 7.59510714987 -1.90063 -9.37684 -4.0785
9.20668 70000041300000150 70000041300000149 70000041300000160 70000041300000148 7.23627606617 0.511152 -8.57042 -1.7598
9.23988 70000041300000149 70000041300000148 70000041300000160 70000041300000147 7.00541704554 -1.22738 -9.51977 -4.33843
9.04358 70000041300000201 70000041300000200 70000041300000202 70000041300000199 12.0418635439 5.85434 -2.84154 -1.4456
9.20055 70000041300000200 70000041300000198 70000041300000202 70000041300000197 10.9190331982 8.05948 -2.49203 1.51526
9.26365 70000041300000198 70000041300000197 70000041300000202 70000041300000196 10.3674435724 7.80319 -2.24991 0.641722
9.30278 70000041300000197 70000041300000196 70000041300000202 70000041300000195 9.99659046619 7.41818 -2.55172 6.05172
9.31401 70000041300000196 70000041300000195 70000041300000202 70000041300000194 9.84138043947 8.56993 1.5345 4.00417
9.3634 70000041300000195 70000041300000194 70000041300000202 70000041300000193 9.38877127194 10.556 1.05995 7.02954
9.45833 70000041300000194 70000041300000193 70000041300000202 70000041300000192 9.00233985416 5.56166 0.288318 9.20406
9.4651 70000041300000193 70000041300000192 70000041300000202 70000041300000191 8.9079991856 6.15885 0.569078 9.93157
9.50465 70000041300000192 70000041300000191 70000041300000202 70000041300000190 8.44947629437 6.38173 0.0486525 7.21015
9.55296 70000041300000191 70000041300000190 70000041300000202 70000041300000189 8.01217294887 8.5348 0.0640563 8.35966
9.58638 70000041300000190 70000041300000189 70000041300000202 70000041300000188 7.59510714987 6.63384 1.59739 6.80066
9.59394 70000041300000189 70000041300000188 70000041300000202 70000041300000187 7.23627606617 0.983677 5.258 8.30969
9.61504 70000041300000188 70000041300000187 70000041300000202 70000041300000186 7.00541704554 -0.875495 5.60777 7.82682
9.0316 70000041300000243 70000041300000242 70000041300000248 70000041300000241 9.38877127194 6.25902 -4.53496 -6.94627
9.12912 70000041300000242 70000041300000241 70000041300000248 70000041300000240 9.00233985416 4.6752 -6.06046 -5.25518
9.22262 70000041300000241 70000041300000239 70000041300000248 70000041300000238 8.44947629437 4.35175 -4.25162 -6.24366
9.24918 70000041300000239 70000041300000238 70000041300000248 70000041300000237 8.01217294887 6.57102 -6.0428 -8.19152
9.40646 70000041300000238 70000041300000237 70000041300000248 70000041300000236 7.59510714987 8.22692 -6.13466 -0.264645
9.47286 70000041300000237 70000041300000236 70000041300000248 70000041300000235 7.23627606617 10.8528 -5.51892 0.0366209
9.54278 70000041300000236 70000041300000234 70000041300000248 70000041300000233 6.85511726265 6.05615 -1.34923 2.58889
9.57697 70000041300000234 70000041300000233 70000041300000248 70000041300000232 6.49159774567 4.45829 2.02544 -0.178281
9.0066 70000041300000298 70000041300000297 70000041300000317 70000041300000296 4.93938066349 7.08032 -7.01783 -2.08009
9.01614 70000041300000336 70000041300000335 70000041300000351 70000041300000334 4.00794511147 -4.29321 1.02233 0.300379
9.03763 70000041300000335 70000041300000334 70000041300000351 70000041300000333 3.93726108473 -3.91034 4.01381 0.294738
9.07492 70000041300000357 70000041300000356 70000041300000368 70000041300000355 4.66451770247 2.87708 -8.39754 0.660572
9.06096 70000041300000449 70000041300000448 70000041300000452 70000041300000447 6.14490120342 -1.35717 -9.88288 3.05673
9.13634 70000041300000448 70000041300000443 70000041300000452 70000041300000442 4.99593346816 -3.06415 -9.75231 -5.63182
9.96511 70000041300000510 70000041300000509 70000041300000510 70000041300000508 4.17683491473 38.3367 -2.62648 -10.5619
10.1602 70000041300000509 70000041300000506 70000041300000510 70000041300000505 3.70877426464 64.7339 30.2918 -38.575
10.2427 70000041300000506 70000041300000505 70000041300000510 70000041300000504 3.49086136926 75.9969 22.0802 -21.0178
9.15042 70000041300000517 70000041300000516 70000041300000529 70000041300000515 5.52976580795 2.94411 15.077 -16.9844
9.06939 70000041300000551 70000041300000550 70000041300000557 70000041300000549 6.85511726265 4.74208 -9.25067 9.83017
9.10671 70000041300000550 70000041300000549 70000041300000557 70000041300000548 6.49159774567 6.57814 -12.3645 12.1587
9.1193 70000041300000549 70000041300000547 70000041300000557 70000041300000546 6.01075739884 9.49003 -12.3515 10.104
9.12424 70000041300000547 70000041300000546 70000041300000557 70000041300000545 5.84661374788 10.7427 -14.5313 11.5647
9.12912 70000041300000546 70000041300000545 70000041300000557 70000041300000544 5.52976580795 10.2494 -7.64328 10.1058
9.18162 70000041300000545 70000041300000544 70000041300000557 70000041300000543 5.22758097313 9.19897 -6.28988 14.5396
9.79899 70000041300000544 70000041300000541 70000041300000557 70000041300000540 4.66451770247 37.4723 -34.6119 20.4571
9.0098 70000041300000568 70000041300000567 70000041300000572 70000041300000566 6.01075739884 -2.07833 -5.39918 4.18485
9.04653 70000041300000567 70000041300000566 70000041300000572 70000041300000565 5.84661374788 -4.80225 -6.7702 1.94207
9.19641 70000041300000566 70000041300000565 70000041300000572 70000041300000564 5.52976580795 -4.21504 -8.99553 6.73549
9.38547 70000041300000565 70000041300000564 70000041300000572 70000041300000563 5.22758097313 -16.313 -11.5486 7.37717
9.34609 70000041300000615 70000041300000614 70000041300000628 70000041300000613 5.22758097313 -11.3195 11.9739 11.7929
9.04653 70000041300000648 70000041300000647 70000041300000653 70000041300000646 7.00541704554 -2.31749 3.06126 -13.5817
9.07766 70000041300000647 70000041300000645 70000041300000653 70000041300000644 6.49159774567 -5.2901 1.76053 -11.4997
9.09898 70000041300000645 70000041300000644 70000041300000653 70000041300000643 6.14490120342 -0.236919 2.6639 -8.93714
9.14811 70000041300000644 70000041300000643 70000041300000653 70000041300000642 6.01075739884 -1.88541 3.51529 -3.88628
9.19013 70000041300000643 70000041300000641 70000041300000653 70000041300000640 5.52976580795 -1.34622 0.763727 -13.1803
9.08578 70000041300000663 70000041300000662 70000041300000676 70000041300000661 4.99593346816 -1.97686 -13.3227 -16.5702
9.55751 70000041300000662 70000041300000661 70000041300000676 70000041300000660 4.93938066349 -15.2299 -19.1043 5.30673
9.02239 70000041300000756 70000041300000755 70000041300000759 70000041300000754 9.38877127194 -1.44268 1.71615 -0.574232
9.27938 70000041300000755 70000041300000754 70000041300000759 70000041300000753 9.00233985416 6.37239 4.16148 4.04465
9.28956 70000041300000754 70000041300000753 70000041300000759 70000041300000752 8.9079991856 6.46274 4.15484 4.18532
9.34165 70000041300000753 70000041300000752 70000041300000759 70000041300000751 8.44947629437 6.78122 5.5397 2.38028
9.41659 70000041300000752 70000041300000751 70000041300000759 70000041300000750 8.01217294887 3.31105 7.37275 2.49368
9.55113 70000041300000751 70000041300000750 70000041300000759 70000041300000749 7.59510714987 4.32132 5.49656 0.909277
9.57349 70000041300000750 70000041300000749 70000041300000759 70000041300000748 7.23627606617 3.83236 7.45895 -0.451656
9.60462 70000041300000749 70000041300000748 70000041300000759 70000041300000747 7.00541704554 3.96311 4.22166 0.525627
9.62445 70000041300000748 70000041300000747 70000041300000759 70000041300000746 6.85511726265 4.47544 5.25534 2.18237
9.66514 70000041300000747 70000041300000746 70000041300000759 70000041300000745 6.49159774567 7.62013 -1.82438 6.73303
9.75936 70000041300000746 70000041300000745 70000041300000759 70000041300000744 6.14490120342 14.6327 5.06863 13.7835
9.7799 70000041300000745 70000041300000744 70000041300000759 70000041300000743 6.01075739884 10.2732 4.8188 14.5629
9.81976 70000041300000744 70000041300000743 70000041300000759 70000041300000742 5.84661374788 8.25255 -4.06201 14.8452
9.84334 70000041300000743 70000041300000742 70000041300000759 70000041300000741 5.52976580795 12.8382 -14.4786 14.9689
9.90443 70000041300000742 70000041300000741 70000041300000759 70000041300000740 5.22758097313 16.5168 -15.9149 13.9755
9.90565 70000041300000741 70000041300000739 70000041300000759 70000041300000738 4.93938066349 16.7957 -16.7913 14.9291
9.94482 70000041300000739 70000041300000738 70000041300000759 70000041300000737 4.66451770247 14.0102 -24.571 19.2501
9.01614 70000041300000791 70000041300000790 70000041300000803 70000041300000789 6.01075739884 6.93935 4.81256 -5.80002
9.14344 70000041300000790 70000041300000789 70000041300000803 70000041300000788 5.84661374788 6.03018 3.49622 -2.02197
9.15042 70000041300000789 70000041300000788 70000041300000803 70000041300000787 5.52976580795 5.68637 2.27518 -5.56884
9.2845 70000041300000788 70000041300000787 70000041300000803 70000041300000786 5.22758097313 -9.38411 11.3123 -4.5746
9.30278 70000041300000787 70000041300000786 70000041300000803 70000041300000785 4.99593346816 1.31996 8.43324 -11.1726
9.01614 70000041300000841 70000041300000840 70000041300000848 70000041300000839 8.44947629437 3.62885 7.83224 -4.57432
9.06096 70000041300000840 70000041300000839 70000041300000848 70000041300000838 8.01217294887 3.51127 9.32111 -3.65415
9.08578 70000041300000839 70000041300000838 70000041300000848 70000041300000837 7.59510714987 1.00282 3.87548 -5.2504
9.16852 70000041300000838 70000041300000837 70000041300000848 70000041300000836 7.23627606617 5.85906 7.72492 -0.442559
9.22651 70000041300000837 70000041300000836 70000041300000848 70000041300000835 7.00541704554 4.54033 5.20812 -4.05656
9.24175 70000041300000836 70000041300000835 70000041300000848 70000041300000834 6.85511726265 5.66853 7.69423 -4.13318
9.31243 70000041300000835 70000041300000834 70000041300000848 70000041300000833 6.49159774567 11.6609 14.2951 4.1695
9.60136 70000041300000834 70000041300000833 70000041300000848 70000041300000832 6.14490120342 5.24246 39.1424 24.104
9.60705 70000041300000833 70000041300000832 70000041300000848 70000041300000831 6.01075739884 9.5587 38.0137 21.3174
9.68851 70000041300000832 70000041300000830 70000041300000848 70000041300000829 5.52976580795 7.62144 34.5199 18.0994
9.77003 70000041300000830 70000041300000829 70000041300000848 70000041300000828 5.22758097313 14.1943 13.1167 11.8994
9.98143 70000041300000829 70000041300000828 70000041300000848 70000041300000827 4.99593346816 25.4304 -22.2603 47.6376
9.00012 70000041300000882 70000041300000881 70000041300000888 70000041300000880 9.00233985416 -1.10667 -4.53758 8.66934
9.05235 70000041300000881 70000041300000876 70000041300000888 70000041300000875 7.23627606617 -2.24402 1.43834 4.6042
9.05524 70000041300000876 70000041300000875 70000041300000888 70000041300000874 7.00541704554 -5.02427 0.594302 4.29606
9.09375 70000041300000875 70000041300000874 70000041300000888 70000041300000873 6.85511726265 -7.20109 3.11039 7.1666
9.38277 70000041300000892 70000041300000891 70000041300000893 70000041300000890 2.89578500573 7.85424 7.2762 -1.33722
9.71448 70000041300000891 70000041300000890 70000041300000893 70000041300000889 2.73314261732 17.2217 26.1179 -8.99232
9.04358 70000041300000957 70000041300000956 70000041300000962 70000041300000955 8.44947629437 -24.4801 8.75422 -10.8837
9.08578 70000041300000956 70000041300000955 70000041300000962 70000041300000954 8.01217294887 -22.624 6.5815 -4.27099
9.21272 70000041300000955 70000041300000954 70000041300000962 70000041300000953 7.59510714987 -0.20643 -3.44456 -6.99253
9.2672 70000041300000954 70000041300000952 70000041300000962 70000041300000951 7.00541704554 -4.80872 -0.210028 -2.92236
9.26896 70000041300000952 70000041300000951 70000041300000962 70000041300000950 6.85511726265 -4.56024 -0.25914 -3.98315
9.36763 70000041300000951 70000041300000950 70000041300000962 70000041300000949 6.49159774567 -9.91992 -0.620362 -4.95978
9.42649 70000041300000950 70000041300000949 70000041300000962 70000041300000948 6.14490120342 -9.70275 -3.09819 -3.49515
9.43257 70000041300000949 70000041300000948 70000041300000962 70000041300000947 6.01075739884 -8.91684 -3.78728 -4.21551
9.44329 70000041300000948 70000041300000947 70000041300000962 70000041300000946 5.84661374788 -13.0177 -0.840021 -4.70652
9.46172 70000041300000947 70000041300000946 70000041300000962 70000041300000945 5.52976580795 -12.4341 -1.48305 -2.95623
9.50055 70000041300000946 70000041300000945 70000041300000962 70000041300000944 5.22758097313 -10.1625 1.32274 -2.67789
9.53428 70000041300000945 70000041300000944 70000041300000962 70000041300000943 4.99593346816 -11.1901 0.0132508 -2.01875
9.54372 70000041300000944 70000041300000942 70000041300000962 70000041300000941 4.66451770247 -12.1283 5.32023 -1.57252
9.56735 70000041300000942 70000041300000941 70000041300000962 70000041300000940 4.42803373661 -10.7392 0.504207 7.12886
9.58469 70000041300000941 70000041300000940 70000041300000962 70000041300000939 4.17683491473 -6.78609 0.389552 5.82659
9.06378 70000041300001121 70000041300001120 70000041300001126 70000041300001119 11.4973879548 -1.66653 0.167122 -2.89519
9.07766 70000041300001120 70000041300001119 70000041300001126 70000041300001118 10.9190331982 -0.399473 0.0729958 -2.75953
9.15273 70000041300001119 70000041300001118 70000041300001126 70000041300001117 10.3674435724 0.855899 1.28565 -5.34014
9.21472 70000041300001118 70000041300001117 70000041300001126 70000041300001116 9.99659046619 0.950476 1.59224 -2.47167
9.36763 70000041300001117 70000041300001116 70000041300001126 70000041300001115 9.84138043947 -0.225002 0.612171 -3.22414
9.48586 70000041300001116 70000041300001115 70000041300001126 70000041300001114 9.38877127194 -2.04319 -0.418683 -2.09419
9.58383 70000041300001115 70000041300001114 70000041300001126 70000041300001113 9.00233985416 0.687832 -6.15038 -4.15958
9.60705 70000041300001114 70000041300001113 70000041300001126 70000041300001112 8.9079991856 0.911061 -4.95495 -5.25861
9.63366 70000041300001113 70000041300001112 70000041300001126 70000041300001111 8.44947629437 -2.18259 -3.92918 -5.01208
9.70234 70000041300001112 70000041300001111 70000041300001126 70000041300001110 8.01217294887 -3.73306 -3.18252 -7.01923
9.75479 70000041300001111 70000041300001110 70000041300001126 70000041300001109 7.59510714987 -0.552588 -4.29698 -6.51848
9.80054 70000041300001110 70000041300001109 70000041300001126 70000041300001108 7.23627606617 -1.17923 -6.14362 -9.64327
9.81076 70000041300001109 70000041300001108 70000041300001126 70000041300001107 7.00541704554 -2.5955 -6.40427 -9.29065
9.86793 70000041300001108 70000041300001106 70000041300001126 70000041300001105 6.49159774567 -10.2194 4.45161 -12.051
9.92819 70000041300001106 70000041300001105 70000041300001126 70000041300001104 6.14490120342 -9.04765 3.20215 -9.585
9.95508 70000041300001105 70000041300001104 70000041300001126 70000041300001103 6.01075739884 -7.49187 1.33733 -9.62083
9.97629 70000041300001104 70000041300001103 70000041300001126 70000041300001102 5.84661374788 -10.134 2.64621 -10.778
10.0205 70000041300001103 70000041300001102 70000041300001126 70000041300001101 5.52976580795 -9.07074 5.143 -11.1755
10.0638 70000041300001102 70000041300001101 70000041300001126 70000041300001100 5.22758097313 -13.0707 -2.52499 -14.9635
10.1047 70000041300001101 70000041300001100 70000041300001126 70000041300001099 4.99593346816 -19.7129 3.36517 -15.1951
10.1441 70000041300001100 70000041300001098 70000041300001126 70000041300001097 4.66451770247 -22.1612 3.92914 -7.96291
10.1727 70000041300001098 70000041300001097 70000041300001126 70000041300001096 4.42803373661 -14.4304 -4.08835 -19.2218
10.2163 70000041300001097 70000041300001096 70000041300001126 70000041300001095 4.17683491473 -10.8049 -15.6345 -31.8092
10.2344 70000041300001096 70000041300001095 70000041300001126 70000041300001094 4.00794511147 -10.4154 -16.1992 -36.0244
9.18802 70000041300001197 70000041300001196 70000041300001201 70000041300001195 6.85511726265 -1.65987 3.94982 -23.3648
9.33866 70000041300001196 70000041300001195 70000041300001201 70000041300001194 6.49159774567 -4.63238 5.00103 -26.8479
9.3634 70000041300001195 70000041300001194 70000041300001201 70000041300001193 6.14490120342 -3.56183 3.11062 -26.6186
9.38412 70000041300001194 70000041300001193 70000041300001201 70000041300001192 6.01075739884 -3.25487 1.66661 -26.1293
9.41029 70000041300001193 70000041300001192 70000041300001201 70000041300001191 5.84661374788 -1.288 2.30565 -26.0097
9.49116 70000041300001192 70000041300001191 70000041300001201 70000041300001190 5.52976580795 -2.36372 2.47493 -22.4828
9.49536 70000041300001191 70000041300001188 70000041300001201 70000041300001187 4.93938066349 2.91762 3.29522 -25.7879
9.14811 70000041300001229 70000041300001228 70000041300001244 70000041300001227 4.66451770247 12.2303 9.41684 3.73052
9.17073 70000041300001228 70000041300001227 70000041300001244 70000041300001226 4.42803373661 12.2478 11.7647 1.36893
9.21671 70000041300001227 70000041300001226 70000041300001244 70000041300001225 4.17683491473 11.6113 11.7888 -0.331565
9.23229 70000041300001226 70000041300001225 70000041300001244 70000041300001224 4.00794511147 10.5316 11.9298 -2.35887
9.22457 70000041300001312 70000041300001311 70000041300001328 70000041300001310 4.42803373661 -5.51223 -7.92052 1.42013
9.24733 70000041300001311 70000041300001310 70000041300001328 70000041300001309 4.17683491473 -3.2683 -8.06278 -1.19631
9.24918 70000041300001310 70000041300001307 70000041300001328 70000041300001306 3.70877426464 -3.05181 -5.87901 0.272472
9.2811 70000041300001307 70000041300001306 70000041300001328 70000041300001305 3.49086136926 4.99825 -9.71109 3.16597
9.2929 70000041300001306 70000041300001304 70000041300001328 70000041300001303 3.08482263583 3.62363 -9.12372 5.61697
9.25284 70000041300001500 70000041300001499 70000041300001503 70000041300001498 8.44947629437 -6.12877 8.05333 2.83915
9.38948 70000041300001499 70000041300001498 70000041300001503 70000041300001497 8.01217294887 0.0650875 -3.59198 -15.426
9.42033 70000041300001498 70000041300001496 70000041300001503 70000041300001495 7.23627606617 8.86225 -6.30231 -10.8908
9.65151 70000041300001496 70000041300001495 70000041300001503 70000041300001494 7.00541704554 2.46392 -4.39581 13.5279
9.67214 70000041300001495 70000041300001493 70000041300001503 70000041300001492 6.49159774567 13.9492 -13.0283 8.03959
9.74314 70000041300001493 70000041300001492 70000041300001503 70000041300001491 6.14490120342 16.3703 -10.9852 7.99675
9.80054 70000041300001492 70000041300001489 70000041300001503 70000041300001488 5.52976580795 12.6393 -3.083 17.583
9.82663 70000041300001489 70000041300001488 70000041300001503 70000041300001487 5.22758097313 11.0565 -7.18518 13.0985
9.86571 70000041300001488 70000041300001487 70000041300001503 70000041300001486 4.99593346816 10.6923 -13.571 11.1535
9.87626 70000041300001487 70000041300001486 70000041300001503 70000041300001485 4.93938066349 8.26395 -15.4151 13.0344
9.94519 70000041300001486 70000041300001484 70000041300001503 70000041300001483 4.42803373661 -24.9743 -0.1029 30.1354
10.0798 70000041300001484 70000041300001483 70000041300001503 70000041300001482 4.17683491473 -33.6105 7.34697 52.3803
10.1335 70000041300001483 70000041300001482 70000041300001503 70000041300001481 4.00794511147 -57.7255 5.06872 41.8781
10.1958 70000041300001482 70000041300001481 70000041300001503 70000041300001480 3.93726108473 -58.2969 17.8023 39.1843
10.2644 70000041300001481 70000041300001480 70000041300001503 70000041300001479 3.70877426464 -46.5829 6.84276 35.2116
10.3676 70000041300001480 70000041300001479 70000041300001503 70000041300001478 3.49086136926 -22.7396 -17.5851 33.2564
10.4903 70000041300001479 70000041300001478 70000041300001503 70000041300001477 3.28303305796 37.4856 -43.3518 49.7988
10.5341 70000041300001478 70000041300001477 70000041300001503 70000041300001476 3.08482263583 53.5204 -59.9251 45.6
10.5408 70000041300001477 70000041300001476 70000041300001503 70000041300001475 3.00813107163 38.0767 -53.842 44.8
10.5779 70000041300001476 70000041300001475 70000041300001503 70000041300001474 2.89578500573 22.6027 -51.6208 45.0381
10.6035 70000041300001475 70000041300001474 70000041300001503 70000041300001473 2.73314261732 21.7942 -47.1647 57.7288
10.619 70000041300001474 70000041300001473 70000041300001503 70000041300001472 2.5772902716 31.7173 -47.9716 51.2347
9.02855 70000041300001551 70000041300001550 70000041300001558 70000041300001549 6.85511726265 7.54732 -8.06742 -0.485003
9.0666 70000041300001550 70000041300001547 70000041300001558 70000041300001546 6.01075739884 -2.09285 -7.7255 1.14368
9.1193 70000041300001547 70000041300001546 70000041300001558 70000041300001545 5.84661374788 -1.55686 -7.15545 -0.533199
9.25466 70000041300001575 70000041300001574 70000041300001583 70000041300001573 6.85511726265 -19.565 5.16006 8.80411
9.36056 70000041300001574 70000041300001573 70000041300001583 70000041300001572 6.49159774567 -16.7053 4.25809 0.491896
9.37181 70000041300001573 70000041300001572 70000041300001583 70000041300001571 6.14490120342 -22.1193 8.16061 4.93323
9.37732 70000041300001572 70000041300001571 70000041300001583 70000041300001570 6.01075739884 -20.1892 11.4134 3.83493
9.38681 70000041300001571 70000041300001570 70000041300001583 70000041300001569 5.84661374788 -17.071 7.77484 2.43895
9.54465 70000041300001570 70000041300001569 70000041300001583 70000041300001568 5.52976580795 -26.8939 -8.99051 19.6224
9.09111 70000041300001634 70000041300001633 70000041300001638 70000041300001632 8.01217294887 7.66903 -2.32193 -13.7502
9.12668 70000041300001633 70000041300001632 70000041300001638 70000041300001631 7.59510714987 0.386671 -3.16945 -11.0577
9.26365 70000041300001632 70000041300001631 70000041300001638 70000041300001630 7.23627606617 6.46577 -14.0095 4.9211
9.29622 70000041300001631 70000041300001630 70000041300001638 70000041300001629 7.00541704554 7.1922 -14.5498 5.7759
9.37042 70000041300001630 70000041300001629 70000041300001638 70000041300001628 6.85511726265 15.5371 1.95666 6.89955
9.50669 70000041300001629 70000041300001628 70000041300001638 70000041300001627 6.49159774567 11.8668 5.29815 16.5213
9.62212 70000041300001628 70000041300001627 70000041300001638 70000041300001626 6.14490120342 14.11 8.86602 13.38
9.63669 70000041300001627 70000041300001626 70000041300001638 70000041300001625 6.01075739884 16.2766 2.25667 14.4748
9.64712 70000041300001626 70000041300001625 70000041300001638 70000041300001624 5.84661374788 17.3641 1.91012 13.4362
9.73299 70000041300001625 70000041300001624 70000041300001638 70000041300001623 5.52976580795 22.7009 -0.113112 16.0879
9.84052 70000041300001624 70000041300001623 70000041300001638 70000041300001622 5.22758097313 14.9849 -3.32971 27.0354
9.86482 70000041300001623 70000041300001622 70000041300001638 70000041300001621 4.99593346816 17.9115 -7.58299 23.5425
9.91449 70000041300001622 70000041300001620 70000041300001638 70000041300001619 4.66451770247 24.3318 -17.5564 14.8227
9.95797 70000041300001620 70000041300001619 70000041300001638 70000041300001618 4.42803373661 26.3448 -23.8737 19.0242
9.97317 70000041300001619 70000041300001618 70000041300001638 70000041300001617 4.17683491473 34.6331 -21.9582 20.749
9.99717 70000041300001618 70000041300001617 70000041300001638 70000041300001616 4.00794511147 34.7208 -32.3225 16.2704
10.0124 70000041300001617 70000041300001616 70000041300001638 70000041300001615 3.93726108473 31.3353 -25.3386 17.2744
9.07216 70000041300001807 70000041300001806 70000041300001819 70000041300001805 3.08482263583 -5.35134 -30.2616 -8.60343
9.08309 70000041300001806 70000041300001805 70000041300001819 70000041300001804 3.00813107163 -5.04405 -27.1423 -6.46622
9.09637 70000041300001805 70000041300001803 70000041300001819 70000041300001802 2.73314261732 -7.15161 -21.1854 -13.5678
9.04062 70000041300002335 70000041300002334 70000041300002341 70000041300002333 9.38877127194 -4.34626 -3.75819 -0.310523
9.04945 70000041300002334 70000041300002332 70000041300002341 70000041300002331 8.9079991856 -5.91974 -2.23328 -1.5716
9.07766 70000041300002332 70000041300002331 70000041300002341 70000041300002330 8.44947629437 -6.20167 -2.94977 -0.960719
9.1663 70000041300002331 70000041300002330 70000041300002341 70000041300002329 8.01217294887 -8.14566 -2.66855 1.32375
9.21671 70000041300002330 70000041300002329 70000041300002341 70000041300002328 7.59510714987 -4.7502 0.1972 1.40132
9.26543 70000041300002329 70000041300002328 70000041300002341 70000041300002327 7.23627606617 -3.25879 -1.53831 -0.170259
9.27766 70000041300002328 70000041300002327 70000041300002341 70000041300002326 7.00541704554 -2.42497 -2.19105 -0.513287
9.35771 70000041300002327 70000041300002326 70000041300002341 70000041300002325 6.85511726265 -1.7147 2.4721 -0.341977
9.37869 70000041300002326 70000041300002325 70000041300002341 70000041300002324 6.49159774567 -1.17015 2.97283 -0.453937
9.4503 70000041300002325 70000041300002324 70000041300002341 70000041300002323 6.14490120342 -4.48279 5.41183 -3.49901
9.45833 70000041300002324 70000041300002323 70000041300002341 70000041300002322 6.01075739884 -3.93397 5.3886 -5.70191
9.47941 70000041300002323 70000041300002322 70000041300002341 70000041300002321 5.84661374788 -3.25578 3.91181 -4.0131
9.48157 70000041300002322 70000041300002321 70000041300002341 70000041300002320 5.52976580795 -6.06996 4.99398 -1.03555
9.49848 70000041300002321 70000041300002320 70000041300002341 70000041300002319 5.22758097313 -4.60182 3.87364 -1.15741
9.54928 70000041300002320 70000041300002319 70000041300002341 70000041300002318 4.99593346816 0.72759 0.983373 -1.00154
9.57956 70000041300002319 70000041300002317 70000041300002341 70000041300002316 4.66451770247 -2.64579 6.15292 0.338787
9.60381 70000041300002317 70000041300002316 70000041300002341 70000041300002315 4.42803373661 -2.39853 8.07633 2.45012
9.63744 70000041300002316 70000041300002315 70000041300002341 70000041300002314 4.17683491473 -1.95514 10.5564 1.39362
9.65514 70000041300002315 70000041300002311 70000041300002341 70000041300002310 3.49086136926 -17.6114 -16.6617 -23.0849
9.05235 70000041300002454 70000041300002453 70000041300002460 70000041300002452 9.38877127194 0.863872 0.0311768 -2.22457
9.16407 70000041300002453 70000041300002452 70000041300002460 70000041300002451 9.00233985416 3.72352 -2.73813 -3.40276
9.18376 70000041300002452 70000041300002451 70000041300002460 70000041300002450 8.9079991856 3.66287 -3.12193 -4.10632
9.32497 70000041300002451 70000041300002450 70000041300002460 70000041300002449 8.44947629437 -3.78127 -1.49522 -7.24196
9.37319 70000041300002450 70000041300002449 70000041300002460 70000041300002448 8.01217294887 -5.12887 -1.28171 -5.41547
9.42649 70000041300002449 70000041300002448 70000041300002460 70000041300002447 7.59510714987 -8.38511 -1.39756 -8.6677
9.4549 70000041300002448 70000041300002447 70000041300002460 70000041300002446 7.23627606617 -5.8292 0.204586 -4.93195
9.49326 70000041300002447 70000041300002446 70000041300002460 70000041300002445 7.00541704554 -4.09264 0.09723 -5.41585
9.52365 70000041300002446 70000041300002445 70000041300002460 70000041300002444 6.85511726265 -2.84333 -1.24266 -7.68809
9.62445 70000041300002445 70000041300002444 70000041300002460 70000041300002443 6.49159774567 0.221769 -1.31118 -4.42002
9.67075 70000041300002444 70000041300002443 70000041300002460 70000041300002442 6.14490120342 -1.96327 -1.65832 -3.83904
9.71322 70000041300002443 70000041300002442 70000041300002460 70000041300002441 6.01075739884 15.797 -10.0874 4.35348
9.7195 70000041300002442 70000041300002441 70000041300002460 70000041300002440 5.84661374788 12.7113 -8.79027 -0.349513
9.80517 70000041300002441 70000041300002440 70000041300002460 70000041300002439 5.52976580795 24.0536 -18.7606 -1.3724
9.91766 70000041300002440 70000041300002439 70000041300002460 70000041300002438 5.22758097313 30.5128 -23.2251 11.4005
10.018 70000041300002439 70000041300002438 70000041300002460 70000041300002437 4.99593346816 16.4683 -8.9894 12.1376
10.0738 70000041300002438 70000041300002437 70000041300002460 70000041300002436 4.93938066349 15.9106 -9.38032 14.2047
10.197 70000041300002437 70000041300002436 70000041300002460 70000041300002435 4.66451770247 16.03 2.44043 5.93226
10.2658 70000041300002436 70000041300002435 70000041300002460 70000041300002434 4.42803373661 18.0213 2.21718 27.6121
10.3329 70000041300002435 70000041300002434 70000041300002460 70000041300002433 4.17683491473 20.8418 -17.9011 18.7311
10.3584 70000041300002434 70000041300002433 70000041300002460 70000041300002432 4.00794511147 22.5501 -30.4885 17.7777
10.3708 70000041300002433 70000041300002432 70000041300002460 70000041300002431 3.93726108473 23.5408 -37.5481 11.0565
10.3781 70000041300002432 70000041300002430 70000041300002460 70000041300002429 3.49086136926 24.7794 -30.6985 19.4686
10.3826 70000041300002430 70000041300002429 70000041300002460 70000041300002428 3.28303305796 31.6109 -33.9945 3.28248
9.03463 70000041300002502 70000041300002501 70000041300002504 70000041300002500 8.01217294887 0.532689 -1.2406 -1.05349
9.22262 70000041300002501 70000041300002498 70000041300002504 70000041300002497 7.00541704554 4.50023 -0.235284 -1.36364
9.23229 70000041300002498 70000041300002497 70000041300002504 70000041300002496 6.85511726265 3.68331 0.57104 -1.67933
9.30602 70000041300002497 70000041300002496 70000041300002504 70000041300002495 6.49159774567 2.6054 1.09345 -4.76329
9.47066 70000041300002496 70000041300002495 70000041300002504 70000041300002494 6.14490120342 3.61799 14.7566 -5.30683
9.52657 70000041300002495 70000041300002494 70000041300002504 70000041300002493 6.01075739884 7.09165 19.6941 -7.98426
9.54744 70000041300002494 70000041300002493 70000041300002504 70000041300002492 5.84661374788 4.71392 19.9886 -9.05458
9.57349 70000041300002493 70000041300002492 70000041300002504 70000041300002491 5.52976580795 7.47754 17.3067 -10.2419
9.38412 70000041300002514 70000041300002513 70000041300002523 70000041300002512 5.22758097313 -2.50804 -70.9565 -71.3475
9.14578 70000041300002639 70000041300002638 70000041300002649 70000041300002637 2.20792547238 13.4541 16.2907 21.7948
9.21272 70000041300002638 70000041300002636 70000041300002649 70000041300002635 2.00202813925 1.2453 8.85017 26.9114
9.25466 70000041300002636 70000041300002635 70000041300002649 70000041300002634 1.90408954353 2.46684 -4.14165 32.3008
9.21869 70000041300002683 70000041300002682 70000041300002683 70000041300002681 1.74357057433 -4.36905 -45.9118 23.8267
9.35914 70000041300002772 70000041300002771 70000041300002783 70000041300002770 3.49086136926 -1.20519 9.898 24.6781
9.37042 70000041300002771 70000041300002770 70000041300002783 70000041300002769 3.28303305796 3.11605 5.05823 15.2661
9.38277 70000041300002770 70000041300002767 70000041300002783 70000041300002766 2.89578500573 7.90107 8.47523 15.3799
9.01928 70000041300002785 70000041300002784 70000041300002796 70000041300002771 3.70877426464 -1.41255 -13.4357 -3.31708
9.00012 70000041300003012 70000041300003011 70000041300003020 70000041300003010 3.49086136926 -6.47464 0.0710639 -2.95899
9.00012 70000041300003112 70000041300003111 70000041300003119 70000041300003110 4.66451770247 5.39045 3.00704 -10.3852
9.02239 70000041300003111 70000041300003109 70000041300003119 70000041300003108 4.17683491473 3.88488 6.17264 -13.7942
9.11431 70000041300003109 70000041300003108 70000041300003119 70000041300003107 4.00794511147 1.88005 -0.53119 -16.6558
9.14811 70000041300003108 70000041300003106 70000041300003119 70000041300003105 3.70877426464 7.54348 8.70414 -15.292
9.19848 70000041300003106 70000041300003105 70000041300003119 70000041300003104 3.49086136926 2.08173 12.8141 -14.1717
9.19848 70000041300003105 70000041300003104 70000041300003119 70000041300003103 3.28303305796 6.07588 9.92042 -18.4667
9.24733 70000041300003104 70000041300003103 70000041300003119 70000041300003102 3.08482263583 7.52543 3.23914 -16.2128
9.27246 70000041300003103 70000041300003102 70000041300003119 70000041300003101 3.00813107163 4.9851 5.36893 -11.4561
9.29787 70000041300003102 70000041300003100 70000041300003119 70000041300003099 2.73314261732 4.8009 3.18813 -8.64958
9.01298 70000041300003385 70000041300003384 70000041300003394 70000041300003383 3.28303305796 -5.39805 12.1259 -6.72993
9.06378 70000041300003384 70000041300003379 70000041300003394 70000041300003378 2.5772902716 -11.825 22.3616 -6.90337
9.13394 70000041300003379 70000041300003375 70000041300003394 70000041300003374 2.1032696526 -4.04278 2.57853 -5.57768
9.14344 70000041300003375 70000041300003367 70000041300003394 70000041300003366 1.47197484527 -12.6804 7.51133 0.288773
9.14811 70000041300003367 70000041300003366 70000041300003394 70000041300003365 1.41409822037 -10.3209 19.6001 8.62898
9.17293 70000041300003366 70000041300003364 70000041300003394 70000041300003363 1.30237845991 -10.6849 6.6516 3.62175
9.04945 70000041300003523 70000041300003522 70000041300003527 70000041300003521 9.99659046619 6.00169 0.493866 1.0363
9.25466 70000041300003522 70000041300003520 70000041300003527 70000041300003519 9.38877127194 14.8309 5.15103 1.8365
9.65369 70000041300003520 70000041300003517 70000041300003527 70000041300003516 8.44947629437 -45.7306 -44.0159 0.767256
9.78152 70000041300003517 70000041300003515 70000041300003527 70000041300003514 7.23627606617 -14.4796 0.579321 7.26277
9.84661 70000041300003515 70000041300003514 70000041300003527 70000041300003513 7.00541704554 -19.3864 7.43279 1.63429
9.96475 70000041300003514 70000041300003513 70000041300003527 70000041300003512 6.85511726265 0.270585 25.543 4.06444
10.1818 70000041300003513 70000041300003512 70000041300003527 70000041300003511 6.49159774567 -16.5707 21.7718 5.31737
10.2365 70000041300003512 70000041300003511 70000041300003527 70000041300003510 6.14490120342 -3.22284 24.1801 12.3043
10.2622 70000041300003511 70000041300003510 70000041300003527 70000041300003509 6.01075739884 -4.78028 27.6162 10.1603
10.315 70000041300003510 70000041300003509 70000041300003527 70000041300003508 5.84661374788 -6.74145 11.8794 14.9141
10.4085 70000041300003509 70000041300003508 70000041300003527 70000041300003507 5.52976580795 -14.3179 -4.77761 13.6481
10.4186 70000041300003508 70000041300003507 70000041300003527 70000041300003506 5.22758097313 -30.2892 -2.22926 9.67136
10.4723 70000041300003507 70000041300003506 70000041300003527 70000041300003505 4.99593346816 -27.2073 -1.00087 9.43654
10.4866 70000041300003506 70000041300003505 70000041300003527 70000041300003504 4.93938066349 -33.2534 0.507269 10.8083
10.5168 70000041300003505 70000041300003504 70000041300003527 70000041300003503 4.66451770247 -31.515 2.79803 11.8109
10.5386 70000041300003504 70000041300003503 70000041300003527 70000041300003502 4.42803373661 -29.5552 10.9912 9.21634
10.5613 70000041300003503 70000041300003502 70000041300003527 70000041300003501 4.17683491473 -17.1527 6.12377 15.797
10.5748 70000041300003502 70000041300003501 70000041300003527 70000041300003500 4.00794511147 -9.54462 10.7552 14.1694
10.5778 70000041300003501 70000041300003500 70000041300003527 70000041300003499 3.93726108473 -5.48153 14.8539 9.81278
10.6086 70000041300003500 70000041300003499 70000041300003527 70000041300003498 3.70877426464 15.472 13.0895 -1.34416
10.6357 70000041300003499 70000041300003498 70000041300003527 70000041300003497 3.49086136926 25.118 3.52657 -1.9905
10.651 70000041300003498 70000041300003497 70000041300003527 70000041300003496 3.28303305796 21.4182 13.6289 -2.29842
10.66 70000041300003497 70000041300003496 70000041300003527 70000041300003495 3.08482263583 25.4715 -0.254492 -0.60227
10.6797 70000041300003496 70000041300003494 70000041300003527 70000041300003493 2.89578500573 22.0674 -5.67989 -0.927677
10.7288 70000041300003494 70000041300003493 70000041300003527 70000041300003492 2.73314261732 45.7728 -16.5879 -7.97891
10.7639 70000041300003493 70000041300003492 70000041300003527 70000041300003491 2.5772902716 14.4575 -56.0186 2.53455
10.7998 70000041300003492 70000041300003491 70000041300003527 70000041300003490 2.44422570455 3.14342 -83.0889 -19.076
10.8293 70000041300003491 70000041300003490 70000041300003527 70000041300003489 2.31611074396 -17.4642 -70.3447 -5.11255
10.8576 70000041300003490 70000041300003489 70000041300003527 70000041300003488 2.20792547238 -37.9319 -89.3239 -24.2968
10.8812 70000041300003489 70000041300003488 70000041300003527 70000041300003487 2.1032696526 -55.4082 -87.2894 -32.6639
10.9044 70000041300003488 70000041300003487 70000041300003527 70000041300003486 2.00202813925 -24.6471 -79.4316 -59.2373
10.9311 70000041300003487 70000041300003486 70000041300003527 70000041300003485 1.90408954353 -30.6356 -72.0633 -45.0137
10.9589 70000041300003486 70000041300003485 70000041300003527 70000041300003484 1.82268925262 -35.7828 -90.7347 -48.1695
11.0147 70000041300003485 70000041300003484 70000041300003527 70000041300003483 1.74357057433 -33.3777 -110.312 -60.1016
11.0853 70000041300003484 70000041300003483 70000041300003527 70000041300003482 1.66666955611 -22.2116 -118.641 -67.3492
11.0967 70000041300003483 70000041300003482 70000041300003527 70000041300003481 1.60423452207 -42.4669 -122.788 -65.1338
11.1232 70000041300003482 70000041300003481 70000041300003527 70000041300003480 1.53123902916 -25.2297 -129.947 -84.0255
11.1447 70000041300003481 70000041300003480 70000041300003527 70000041300003479 1.47197484527 -34.9898 -112.669 -82.5095
9.78955 70000041300003538 70000041300003537 70000041300003544 70000041300003536 8.01217294887 -34.1066 -39.935 7.55908
9.17729 70000041300003572 70000041300003571 70000041300003576 70000041300003570 9.84138043947 27.1781 2.22415 10.9405
9.60054 70000041300003571 70000041300003565 70000041300003576 70000041300003564 7.59510714987 7.45155 5.44962 8.06091
9.42893 70000041300003614 70000041300003613 70000041300003622 70000041300003612 7.00541704554 -15.2538 -25.2101 7.65667
9.07766 70000041300003651 70000041300003650 70000041300003663 70000041300003649 5.22758097313 4.90096 2.54503 -11.0678
9.02239 70000041300003683 70000041300003682 70000041300003691 70000041300003681 6.14490120342 -1.42332 -3.98837 3.815
9.21072 70000041300003730 70000041300003729 70000041300003742 70000041300003728 3.70877426464 -23.6142 -37.3724 35.347
9.01928 70000041300003887 70000041300003886 70000041300003889 70000041300003885 5.52976580795 5.10633 -5.10457 8.47531
9.04062 70000041300003886 70000041300003885 70000041300003889 70000041300003884 5.22758097313 0.536066 -5.5141 6.75507
9.07216 70000041300003885 70000041300003884 70000041300003889 70000041300003883 4.99593346816 4.54908 -5.23762 8.02013
9.08578 70000041300003884 70000041300003883 70000041300003889 70000041300003882 4.93938066349 7.43905 -10.1584 10.0499
9.10415 70000041300003883 70000041300003881 70000041300003889 70000041300003880 4.42803373661 -1.63518 -7.54571 8.93921
9.16182 70000041300003881 70000041300003880 70000041300003889 70000041300003879 4.17683491473 -6.19803 -9.49143 9.33369
9.0066 70000041300003907 70000041300003906 70000041300003911 70000041300003905 3.70877426464 -5.89575 -14.2129 -2.30844
9.11179 70000041300003906 70000041300003904 70000041300003911 70000041300003903 3.28303305796 12.8638 -17.5996 16.3297
9.01298 70000041300003950 70000041300003949 70000041300003959 70000041300003948 3.08482263583 5.41558 -16.5273 -2.34168
9.06939 70000041300004078 70000041300004077 70000041300004093 70000041300004076 3.00813107163 1.03469 1.8757 8.26158
9.09375 70000041300004077 70000041300004075 70000041300004093 70000041300004074 2.73314261732 -4.78093 7.73313 3.74607
9.11681 70000041300004111 70000041300004110 70000041300004124 70000041300004109 2.5772902716 26.8757 -16.2033 -1.83643
9.19848 70000041300004110 70000041300004107 70000041300004124 70000041300004106 2.20792547238 25.2154 -17.7883 5.18494
9.2342 70000041300004107 70000041300004106 70000041300004124 70000041300004105 2.1032696526 24.0197 -12.2666 -1.74693
9.2929 70000041300004106 70000041300004105 70000041300004124 70000041300004104 2.00202813925 16.6332 -8.93094 2.05226
9.4651 70000041300004105 70000041300004103 70000041300004124 70000041300004102 1.74357057433 17.6782 -29.5038 10.7101
9.51774 70000041300004103 70000041300004101 70000041300004124 70000041300004100 1.60423452207 18.1284 -27.1785 17.1854
9.55478 70000041300004101 70000041300004100 70000041300004124 70000041300004099 1.53123902916 9.6116 -23.0185 9.42075
9.58127 70000041300004100 70000041300004099 70000041300004124 70000041300004098 1.47197484527 1.77978 -24.235 7.7269
9.02548 70000041300004131 70000041300004130 70000041300004147 70000041300004129 2.44422570455 1.51553 -3.58914 0.483657
9.09637 70000041300004130 70000041300004129 70000041300004147 70000041300004128 2.31611074396 11.0047 -11.6292 -3.37924
9.53428 70000041300004129 70000041300004125 70000041300004147 70000041300004103 1.90408954353 18.0055 -25.0852 16.788
9.00337 70000041300004233 70000041300004232 70000041300004240 70000041300004231 8.01217294887 1.86641 -1.14507 1.69645
9.02239 70000041300004232 70000041300004231 70000041300004240 70000041300004230 7.59510714987 1.13229 -1.0843 2.41672
9.06939 70000041300004231 70000041300004230 70000041300004240 70000041300004229 7.23627606617 1.29746 0.0514325 2.78672
9.09898 70000041300004230 70000041300004229 70000041300004240 70000041300004228 7.00541704554 0.438883 0.168143 2.26955
9.14108 70000041300004229 70000041300004228 70000041300004240 70000041300004227 6.85511726265 0.390956 -0.505396 3.75272
9.31874 70000041300004228 70000041300004227 70000041300004240 70000041300004226 6.49159774567 -4.367 0.19265 10.0563
9.38547 70000041300004227 70000041300004226 70000041300004240 70000041300004225 6.14490120342 0.869984 -1.1228 10.7361
9.42893 70000041300004226 70000041300004225 70000041300004240 70000041300004224 6.01075739884 -0.336554 -2.86714 10.3443
9.48479 70000041300004225 70000041300004224 70000041300004240 70000041300004223 5.84661374788 5.60267 -2.93759 9.85513
9.52169 70000041300004224 70000041300004223 70000041300004240 70000041300004222 5.52976580795 3.1015 -0.9031 10.7664
9.68515 70000041300004223 70000041300004222 70000041300004240 70000041300004221 5.22758097313 16.677 -3.02556 -15.7769
9.72752 70000041300004222 70000041300004220 70000041300004240 70000041300004219 4.93938066349 21.6421 16.5047 -21.1243
9.7384 70000041300004220 70000041300004219 70000041300004240 70000041300004218 4.66451770247 17.7076 5.41792 -8.07936
9.74432 70000041300004219 70000041300004217 70000041300004240 70000041300004216 4.17683491473 14.1572 0.672507 2.25283
9.74608 70000041300004217 70000041300004216 70000041300004240 70000041300004215 4.00794511147 11.1813 -2.74964 -0.802138
9.78955 70000041300004216 70000041300004215 70000041300004240 70000041300004214 3.93726108473 4.89733 -3.94648 6.12989
9.82906 70000041300004215 70000041300004212 70000041300004240 70000041300004211 3.28303305796 -2.66256 12.5834 2.79629
9.91089 70000041300004212 70000041300004211 70000041300004240 70000041300004210 3.08482263583 8.56445 10.8313 -19.8986
9.96546 70000041300004211 70000041300004210 70000041300004240 70000041300004209 3.00813107163 2.40229 21.1072 -27.0717
9.98618 70000041300004210 70000041300004209 70000041300004240 70000041300004208 2.89578500573 16.8162 15.4536 -20.4889
10.0319 70000041300004209 70000041300004208 70000041300004240 70000041300004207 2.73314261732 5.04621 19.8169 -15.8372
10.0771 70000041300004208 70000041300004207 70000041300004240 70000041300004206 2.5772902716 -37.0255 10.3068 -12.4364
10.0979 70000041300004207 70000041300004206 70000041300004240 70000041300004205 2.44422570455 -19.2458 4.89397 -15.3635
10.1262 70000041300004206 70000041300004205 70000041300004240 70000041300004204 2.31611074396 -10.4095 2.78073 -3.10661
10.1444 70000041300004205 70000041300004204 70000041300004240 70000041300004203 2.20792547238 -5.29138 -4.92002 8.16633
10.237 70000041300004204 70000041300004203 70000041300004240 70000041300004202 2.1032696526 34.3892 -8.20471 22.9745
10.257 70000041300004203 70000041300004202 70000041300004240 70000041300004201 2.00202813925 30.0484 -42.3343 25.0396
9.0066 70000041300004280 70000041300004279 70000041300004287 70000041300004278 4.99593346816 6.47268 2.82329 3.43471
9.02239 70000041300004279 70000041300004273 70000041300004287 70000041300004272 3.93726108473 6.92767 0.893255 7.15677
9.04653 70000041300004273 70000041300004272 70000041300004287 70000041300004271 3.70877426464 5.51909 -0.512656 4.07907
9.05524 70000041300004355 70000041300004354 70000041300004367 70000041300004353 6.14490120342 -3.11396 -4.897 4.69439
9.08578 70000041300004354 70000041300004353 70000041300004367 70000041300004352 6.01075739884 -3.61384 -4.19636 4.84697
9.16182 70000041300004353 70000041300004351 70000041300004367 70000041300004350 5.52976580795 -5.58884 -0.278247 2.06809
9.23037 70000041300004351 70000041300004350 70000041300004367 70000041300004349 5.22758097313 -7.14261 -0.514526 4.48494
9.23988 70000041300004350 70000041300004349 70000041300004367 70000041300004348 4.99593346816 -0.0603056 0.355395 5.48804
9.2828 70000041300004349 70000041300004348 70000041300004367 70000041300004347 4.93938066349 0.296345 2.10078 5.62605
9.2845 70000041300004348 70000041300004347 70000041300004367 70000041300004346 4.66451770247 2.28661 -1.70429 7.72868
9.33866 70000041300004347 70000041300004346 70000041300004367 70000041300004345 4.42803373661 4.40597 -2.92082 7.95232
9.37181 70000041300004346 70000041300004345 70000041300004367 70000041300004344 4.17683491473 8.57226 -2.524 8.06885
9.39346 70000041300004345 70000041300004344 70000041300004367 70000041300004343 4.00794511147 7.45982 0.715227 9.89946
9.40001 70000041300004344 70000041300004343 70000041300004367 70000041300004342 3.93726108473 7.3165 0.0543319 10.4622
9.44564 70000041300004343 70000041300004342 70000041300004367 70000041300004341 3.70877426464 9.55913 0.22917 4.77626
9.49116 70000041300004342 70000041300004341 70000041300004367 70000041300004340 3.49086136926 12.4945 1.2473 -1.37037
9.52948 70000041300004341 70000041300004340 70000041300004367 70000041300004339 3.28303305796 13.5721 0.716837 -2.03869
9.58383 70000041300004340 70000041300004339 70000041300004367 70000041300004338 3.08482263583 9.39189 -2.6088 -5.13491
9.626 70000041300004339 70000041300004338 70000041300004367 70000041300004337 3.00813107163 12.4986 -3.62014 2.09348
9.64119 70000041300004338 70000041300004337 70000041300004367 70000041300004336 2.89578500573 11.7008 -4.69786 -2.42685
9.65586 70000041300004337 70000041300004336 70000041300004367 70000041300004335 2.73314261732 12.1463 -2.7548 -1.55223
9.66795 70000041300004336 70000041300004335 70000041300004367 70000041300004334 2.5772902716 15.2956 -4.59222 -6.43011
9.67904 70000041300004335 70000041300004334 70000041300004367 70000041300004333 2.44422570455 15.882 -3.01578 -2.78038
9.69118 70000041300004334 70000041300004332 70000041300004367 70000041300004331 2.20792547238 15.7748 7.76969 1.05545
9.02548 70000041300004536 70000041300004535 70000041300004550 70000041300004534 3.08482263583 -19.3567 1.06474 -5.32414
9.13871 70000041300004535 70000041300004532 70000041300004550 70000041300004531 2.73314261732 -16.719 -0.897003 -7.85582
9.14578 70000041300004532 70000041300004530 70000041300004550 70000041300004529 2.44422570455 -13.6226 -3.50599 -4.15977
9.15042 70000041300004530 70000041300004529 70000041300004550 70000041300004528 2.31611074396 -17.9927 2.49609 -11.6146
9.17293 70000041300004529 70000041300004526 70000041300004550 70000041300004525 2.00202813925 -6.67757 14.3103 -17.7219
9.01928 70000041300004721 70000041300004720 70000041300004732 70000041300004719 4.99593346816 -0.882051 3.20795 5.62393
9.03763 70000041300004720 70000041300004714 70000041300004732 70000041300004713 3.93726108473 -2.02349 2.13277 5.88539
9.04945 70000041300004714 70000041300004710 70000041300004732 70000041300004709 3.08482263583 -5.08606 3.68637 2.24199
9.05235 70000041300004710 70000041300004705 70000041300004732 70000041300004704 2.44422570455 -6.84448 8.45794 1.34017
9.05811 70000041300004705 70000041300004703 70000041300004732 70000041300004702 2.20792547238 -5.71968 9.57839 0.628967
9.07766 70000041300004703 70000041300004702 70000041300004732 70000041300004701 2.1032696526 -8.19848 8.78706 0.626911
9.09111 70000041300004702 70000041300004700 70000041300004732 70000041300004699 1.90408954353 -4.62776 9.69693 -0.54656
9.09375 70000041300004700 70000041300004699 70000041300004732 70000041300004698 1.82268925262 -3.49466 8.88048 -0.915846
9.01928 70000041300004783 70000041300004782 70000041300004790 70000041300004781 3.70877426464 10.1344 5.98417 -0.696526
9.05811 70000041300004782 70000041300004781 70000041300004790 70000041300004780 3.49086136926 8.95907 4.71363 0.729696
9.09637 70000041300004781 70000041300004780 70000041300004790 70000041300004779 3.28303305796 11.6703 6.55479 0.560385
9.11681 70000041300004780 70000041300004771 70000041300004790 70000041300004770 2.1032696526 15.9923 7.34574 -0.0531301
9.00337 70000041300004952 70000041300004951 70000041300004967 70000041300004950 3.49086136926 -5.46723 8.7833 5.98055
9.03463 70000041300004951 70000041300004946 70000041300004967 70000041300004945 2.73314261732 14.6425 10.7082 4.29357
9.13871 70000041300004946 70000041300004943 70000041300004967 70000041300004942 2.31611074396 18.8411 4.73721 2.04072
9.15042 70000041300004943 70000041300004942 70000041300004967 70000041300004941 2.20792547238 22.8784 5.67382 0.968022
9.15273 70000041300004942 70000041300004941 70000041300004967 70000041300004940 2.1032696526 12.5417 7.32568 2.1796
9.01298 70000041300005021 70000041300005020 70000041300005031 70000041300005019 2.89578500573 -1.97201 1.20516 17.3477
9.01614 70000041300005185 70000041300005184 70000041300005217 70000041300005183 0.816709979012 -5.4914 -6.82791 9.79497
9.02239 70000041300005184 70000041300005183 70000041300005217 70000041300005182 0.791068248946 -7.48368 -6.80149 8.82834
9.02855 70000041300005183 70000041300005181 70000041300005217 70000041300005180 0.732636182022 -8.39235 -5.06 7.63188
9.03763 70000041300005181 70000041300005179 70000041300005217 70000041300005178 0.676110411213 -6.60893 -5.61466 7.07027
9.04653 70000041300005179 70000041300005175 70000041300005217 70000041300005174 0.575980845108 -5.49037 -6.00268 8.2956
9.04945 70000041300005175 70000041300005174 70000041300005217 70000041300005173 0.546392183141 -6.97056 -6.44168 7.31063
9.04945 70000041300005174 70000041300005173 70000041300005217 70000041300005172 0.524565820434 -6.92749 -6.61432 7.33866
9.07216 70000041300005173 70000041300005164 70000041300005217 70000041300005163 0.347853841858 -9.42479 -4.4339 5.11154
9.05811 70000041300005598 70000041300005597 70000041300005613 70000041300005596 3.08482263583 2.88948 13.4766 -0.435537
9.08309 70000041300005597 70000041300005594 70000041300005613 70000041300005593 2.73314261732 -1.01882 4.74179 12.3456
9.24175 70000041300005594 70000041300005593 70000041300005613 70000041300005592 2.5772902716 3.27969 8.83481 12.2825
9.25466 70000041300005593 70000041300005591 70000041300005613 70000041300005590 2.31611074396 3.1647 1.12027 8.20415
9.27938 70000041300005591 70000041300005590 70000041300005613 70000041300005589 2.20792547238 0.741281 2.18217 7.01059
9.33566 70000041300005590 70000041300005589 70000041300005613 70000041300005588 2.1032696526 5.4735 -13.5152 12.3167
9.36763 70000041300005589 70000041300005588 70000041300005613 70000041300005587 2.00202813925 12.5968 -8.86137 14.7615
9.39478 70000041300005588 70000041300005587 70000041300005613 70000041300005586 1.90408954353 9.83387 -10.7794 12.305
9.42649 70000041300005587 70000041300005584 70000041300005613 70000041300005583 1.66666955611 12.8196 -10.9218 11.2686
9.48586 70000041300005584 70000041300005583 70000041300005613 70000041300005582 1.60423452207 11.1932 -9.69949 -0.109009
9.50771 70000041300005583 70000041300005580 70000041300005613 70000041300005579 1.41409822037 8.87496 -6.80165 -2.19527
9.51575 70000041300005580 70000041300005579 70000041300005613 70000041300005578 1.3575766674 7.67492 -6.91913 -4.79836
9.5566 70000041300005579 70000041300005576 70000041300005613 70000041300005575 1.20625808078 8.89567 -37.0457 8.7828
9.56557 70000041300005576 70000041300005575 70000041300005613 70000041300005574 1.15460271236 7.01871 -36.8959 11.0427
9.0066 70000041300005744 70000041300005743 70000041300005753 70000041300005742 6.14490120342 -3.42638 1.36265 -0.732699
9.2742 70000041300005743 70000041300005739 70000041300005753 70000041300005738 5.22758097313 -0.803894 -2.58961 5.3054
9.36199 70000041300005739 70000041300005737 70000041300005753 70000041300005736 4.93938066349 1.07849 0.118264 2.83314
9.36481 70000041300005737 70000041300005735 70000041300005753 70000041300005734 4.42803373661 2.52855 -2.0478 6.80704
9.4549 70000041300005735 70000041300005734 70000041300005753 70000041300005733 4.17683491473 3.27927 4.09728 5.59802
9.4549 70000041300005734 70000041300005733 70000041300005753 70000041300005732 4.00794511147 5.93587 5.83692 5.09388
9.46955 70000041300005733 70000041300005732 70000041300005753 70000041300005731 3.93726108473 6.16954 5.94914 8.8976
9.48586 70000041300005732 70000041300005730 70000041300005753 70000041300005729 3.49086136926 2.64852 0.113324 9.86758
9.06939 70000041300005760 70000041300005759 70000041300005766 70000041300005758 6.14490120342 4.32829 4.63126 2.48588
9.11179 70000041300005759 70000041300005756 70000041300005766 70000041300005755 5.52976580795 -0.938026 -3.90875 5.40874
9.00337 70000041300005914 70000041300005913 70000041300005935 70000041300005912 2.44422570455 0.128059 -11.2971 4.64966
9.01614 70000041300005913 70000041300005912 70000041300005935 70000041300005911 2.31611074396 -0.114169 -9.12588 5.55976
9.04653 70000041300005912 70000041300005910 70000041300005935 70000041300005909 2.1032696526 -1.71518 -16.5028 3.81488
9.04945 70000041300005910 70000041300005909 70000041300005935 70000041300005908 2.00202813925 -9.9573 -14.1946 6.42615
9.06939 70000041300005909 70000041300005908 70000041300005935 70000041300005907 1.90408954353 -13.3408 -15.1984 3.12719
9.10157 70000041300005908 70000041300005907 70000041300005935 70000041300005906 1.82268925262 -13.8473 -11.4985 3.05128
9.13871 70000041300005907 70000041300005906 70000041300005935 70000041300005905 1.74357057433 -7.39397 -11.8137 2.02531
9.1573 70000041300005906 70000041300005901 70000041300005935 70000041300005900 1.41409822037 -6.36837 -9.88901 1.5131
9.17729 70000041300005901 70000041300005894 70000041300005935 70000041300005893 1.07445789455 -8.59114 -16.566 -3.09883
9.21272 70000041300006250 70000041300006249 70000041300006262 70000041300006248 4.66451770247 -4.17138 0.704701 -0.470948
9.50158 70000041300006249 70000041300006248 70000041300006262 70000041300006247 4.42803373661 -13.9509 1.79744 2.33664
9.56021 70000041300006248 70000041300006247 70000041300006262 70000041300006246 4.17683491473 -15.0535 2.93167 5.2961
9.67005 70000041300006247 70000041300006246 70000041300006262 70000041300006245 4.00794511147 -0.0688592 -1.09798 16.4362
9.72996 70000041300006246 70000041300006245 70000041300006262 70000041300006244 3.93726108473 -23.0429 1.30126 18.5347
9.82565 70000041300006245 70000041300006244 70000041300006262 70000041300006243 3.70877426464 -15.506 2.68053 13.2396
9.99815 70000041300006244 70000041300006243 70000041300006262 70000041300006242 3.49086136926 -42.4786 -3.95107 12.1945
10.1113 70000041300006243 70000041300006241 70000041300006262 70000041300006240 3.08482263583 -33.3101 -2.2904 13.0522
10.1453 70000041300006241 70000041300006240 70000041300006262 70000041300006239 3.00813107163 -18.2922 5.80324 9.05156
10.1555 70000041300006240 70000041300006239 70000041300006262 70000041300006238 2.89578500573 -11.8008 -0.105847 6.47387
10.2163 70000041300006239 70000041300006238 70000041300006262 70000041300006237 2.73314261732 -24.7237 -0.938819 -18.8565
10.2446 70000041300006238 70000041300006237 70000041300006262 70000041300006236 2.5772902716 11.1989 45.4013 -1.02618
10.3184 70000041300006237 70000041300006231 70000041300006262 70000041300006230 1.90408954353 -36.3948 -68.6113 6.16234
10.3905 70000041300006231 70000041300006230 70000041300006262 70000041300006229 1.82268925262 -53.6097 -81.8056 0.935956
10.4221 70000041300006230 70000041300006229 70000041300006262 70000041300006228 1.74357057433 -57.8539 -83.2048 -2.75247
10.4482 70000041300006229 70000041300006228 70000041300006262 70000041300006227 1.66666955611 -56.242 -74.9483 9.48759
10.4629 70000041300006228 70000041300006227 70000041300006262 70000041300006226 1.60423452207 -55.0442 -69.7807 5.06408
10.491 70000041300006227 70000041300006226 70000041300006262 70000041300006225 1.53123902916 -55.1409 -70.1781 5.07453
10.5165 70000041300006226 70000041300006225 70000041300006262 70000041300006224 1.47197484527 -50.1398 -67.3235 11.0938
10.5211 70000041300006225 70000041300006224 70000041300006262 70000041300006223 1.41409822037 -52.5203 -52.5346 11.0436
10.5248 70000041300006224 70000041300006213 70000041300006262 70000041300006212 0.950531351585 -39.5674 -9.17155 32.5897
9.02239 70000041300006265 70000041300006264 70000041300006272 70000041300006263 4.93938066349 -5.76876 5.03188 5.96548
9.02239 70000041300006299 70000041300006298 70000041300006310 70000041300006297 6.14490120342 0.541341 -1.36094 -1.57576
9.08038 70000041300006298 70000041300006297 70000041300006310 70000041300006296 6.01075739884 -1.53427 -0.824285 0.911297
9.10926 70000041300006297 70000041300006296 70000041300006310 70000041300006295 5.84661374788 -2.94357 0.956928 4.10913
9.17512 70000041300006296 70000041300006295 70000041300006310 70000041300006294 5.52976580795 -4.9216 -1.13616 0.45712
9.21472 70000041300006295 70000041300006294 70000041300006310 70000041300006293 5.22758097313 -7.60718 -1.8291 0.763412
9.24918 70000041300006294 70000041300006293 70000041300006310 70000041300006292 4.99593346816 -9.07266 -1.05774 -0.341507
9.26187 70000041300006293 70000041300006292 70000041300006310 70000041300006291 4.93938066349 -9.36733 -2.18589 -0.801244
9.3044 70000041300006292 70000041300006291 70000041300006310 70000041300006290 4.66451770247 -12.0931 -2.44219 0.2697
9.36622 70000041300006291 70000041300006290 70000041300006310 70000041300006289 4.42803373661 -17.2467 -2.07986 0.962538
9.38547 70000041300006290 70000041300006289 70000041300006310 70000041300006288 4.17683491473 -19.9214 0.689654 1.65839
9.01614 70000041300006320 70000041300006319 70000041300006321 70000041300006318 4.99593346816 -4.6351 0.20404 -3.79853
9.09111 70000041300006319 70000041300006317 70000041300006321 70000041300006316 4.66451770247 4.63298 5.57416 -9.2935
9.04358 70000041300006407 70000041300006406 70000041300006410 70000041300006405 7.00541704554 -2.11481 3.19665 0.607951
9.04653 70000041300006406 70000041300006405 70000041300006410 70000041300006404 6.85511726265 -1.08212 1.76822 1.65652
9.07216 70000041300006405 70000041300006404 70000041300006410 70000041300006403 6.49159774567 -2.07463 2.89542 4.11201
9.24362 70000041300006404 70000041300006403 70000041300006410 70000041300006402 6.14490120342 -8.14584 2.72916 3.7253
9.25828 70000041300006403 70000041300006402 70000041300006410 70000041300006401 6.01075739884 -10.0598 2.77089 4.17407
9.30923 70000041300006402 70000041300006401 70000041300006410 70000041300006400 5.84661374788 -7.71128 3.22585 5.33401
9.37181 70000041300006401 70000041300006400 70000041300006410 70000041300006399 5.52976580795 -3.80927 3.02091 4.91034
9.40774 70000041300006400 70000041300006399 70000041300006410 70000041300006398 5.22758097313 -0.870921 2.78608 2.64885
9.45145 70000041300006399 70000041300006398 70000041300006410 70000041300006397 4.99593346816 -5.74743 4.32705 3.38156
9.49744 70000041300006398 70000041300006397 70000041300006410 70000041300006396 4.93938066349 -8.35824 1.94354 8.01168
9.54372 70000041300006397 70000041300006396 70000041300006410 70000041300006395 4.66451770247 -4.44914 7.75668 5.55151
9.60946 70000041300006396 70000041300006395 70000041300006410 70000041300006394 4.42803373661 -5.72298 7.51655 6.56421
9.70234 70000041300006395 70000041300006394 70000041300006410 70000041300006393 4.17683491473 -9.31374 -7.05786 1.36633
9.71637 70000041300006394 70000041300006393 70000041300006410 70000041300006392 4.00794511147 -9.17664 -11.8448 -1.07875
9.72996 70000041300006393 70000041300006392 70000041300006410 70000041300006391 3.93726108473 -11.901 -8.65736 -2.61096
9.78955 70000041300006392 70000041300006391 70000041300006410 70000041300006390 3.70877426464 -33.194 -13.2451 -6.08688
9.8237 70000041300006391 70000041300006390 70000041300006410 70000041300006389 3.49086136926 -17.2427 -2.00761 2.27055
9.85627 70000041300006390 70000041300006389 70000041300006410 70000041300006388 3.28303305796 -13.5535 16.8169 -0.322091
9.86124 70000041300006389 70000041300006387 70000041300006410 70000041300006386 3.00813107163 -6.71827 7.00301 5.33414
9.87929 70000041300006387 70000041300006386 70000041300006410 70000041300006385 2.89578500573 -2.58419 10.6935 5.95682
9.93696 70000041300006386 70000041300006382 70000041300006410 70000041300006381 2.31611074396 4.79509 -6.36916 19.077
9.05235 70000041300006474 70000041300006473 70000041300006482 70000041300006472 5.22758097313 0.671189 5.83592 2.28691
9.06939 70000041300006473 70000041300006470 70000041300006482 70000041300006469 4.66451770247 -4.14686 0.711561 -12.2569
9.09111 70000041300006470 70000041300006469 70000041300006482 70000041300006468 4.42803373661 -5.07984 5.73284 -12.5489
9.0066 70000041300006531 70000041300006530 70000041300006537 70000041300006529 6.49159774567 4.65021 -0.422017 -2.77508
9.19223 70000041300006530 70000041300006526 70000041300006537 70000041300006525 5.52976580795 12.4711 -2.36483 10.5999
9.24548 70000041300006526 70000041300006525 70000041300006537 70000041300006524 5.22758097313 11.2649 -0.570637 8.56781
9.30115 70000041300006525 70000041300006524 70000041300006537 70000041300006523 4.99593346816 3.84667 -0.665709 5.91361
9.3044 70000041300006524 70000041300006522 70000041300006537 70000041300006521 4.66451770247 2.17899 1.06266 4.47418
9.37595 70000041300006522 70000041300006521 70000041300006537 70000041300006520 4.42803373661 -0.0866223 1.50422 7.49822
9.38141 70000041300006521 70000041300006517 70000041300006537 70000041300006516 3.70877426464 5.37937 2.95373 3.98794
9.11431 70000041300006660 70000041300006659 70000041300006661 70000041300000000 0.00952166696794 -17.1214 -4.83673 -22.3017
