logMh | fpID | subhaloID | main leaf ID | descID |  z
9.32958 80000207800000099 80000207800000098 80000207800000104 80000207800000097 8.44947629437 -18.2533 -9.83843 -12.5989
9.37595 80000207800000098 80000207800000096 80000207800000104 80000207800000095 7.59510714987 -33.5725 -3.47244 -10.4418
9.52169 80000207800000096 80000207800000094 80000207800000104 80000207800000093 7.00541704554 -20.2521 -13.1332 -16.2225
9.52754 80000207800000094 80000207800000093 80000207800000104 80000207800000092 6.85511726265 -20.3989 -15.5669 -17.7153
9.66866 80000207800000093 80000207800000092 80000207800000104 80000207800000091 6.49159774567 -22.5444 7.15068 -7.75394
9.72568 80000207800000092 80000207800000091 80000207800000104 80000207800000090 6.14490120342 -31.1228 11.3509 -5.52235
9.7354 80000207800000091 80000207800000090 80000207800000104 80000207800000089 6.01075739884 -27.5441 4.53146 -7.18132
9.7826 80000207800000090 80000207800000089 80000207800000104 80000207800000088 5.84661374788 -19.745 7.15912 -5.30646
9.86214 80000207800000089 80000207800000088 80000207800000104 80000207800000087 5.52976580795 -33.7171 16.0064 -4.19002
9.91845 80000207800000088 80000207800000087 80000207800000104 80000207800000086 5.22758097313 -37.4629 14.8177 -3.73121
10.0066 80000207800000087 80000207800000086 80000207800000104 80000207800000085 4.99593346816 -30.5962 31.6794 -1.38888
10.0249 80000207800000086 80000207800000085 80000207800000104 80000207800000084 4.93938066349 -31.9468 31.2229 -2.44544
10.0691 80000207800000085 80000207800000084 80000207800000104 80000207800000083 4.66451770247 -37.6912 36.7903 -6.11141
10.1168 80000207800000084 80000207800000083 80000207800000104 80000207800000082 4.42803373661 -44.3354 39.2471 -4.55382
10.2107 80000207800000083 80000207800000082 80000207800000104 80000207800000081 4.17683491473 -51.6384 9.4448 2.41946
10.2649 80000207800000082 80000207800000081 80000207800000104 80000207800000080 4.00794511147 -81.9869 10.087 2.04248
10.3044 80000207800000081 80000207800000080 80000207800000104 80000207800000079 3.93726108473 -112.002 -6.39149 5.93432
10.3715 80000207800000080 80000207800000079 80000207800000104 80000207800000078 3.70877426464 -118.905 -1.16382 11.8626
10.3994 80000207800000079 80000207800000078 80000207800000104 80000207800000077 3.49086136926 -133.648 2.60069 5.98637
10.4815 80000207800000078 80000207800000077 80000207800000104 80000207800000076 3.28303305796 -180.542 -29.2126 19.1355
10.5598 80000207800000077 80000207800000076 80000207800000104 80000207800000075 3.08482263583 -227.863 -42.2916 26.1503
10.5831 80000207800000076 80000207800000075 80000207800000104 80000207800000074 3.00813107163 -233.129 -72.47 47.2578
10.6088 80000207800000075 80000207800000074 80000207800000104 80000207800000073 2.89578500573 -243.692 -68.0759 49.9188
10.6669 80000207800000074 80000207800000073 80000207800000104 80000207800000072 2.73314261732 -265.226 -87.9487 78.2076
10.7412 80000207800000073 80000207800000072 80000207800000104 80000207800000071 2.5772902716 -245.08 -77.5005 83.6932
10.7726 80000207800000072 80000207800000071 80000207800000104 80000207800000070 2.44422570455 -166.45 -13.9977 82.8768
10.8401 80000207800000071 80000207800000070 80000207800000104 80000207800000069 2.31611074396 -152.662 18.4416 91.9614
10.9232 80000207800000070 80000207800000069 80000207800000104 80000207800000068 2.20792547238 -35.6951 157.173 55.9333
10.9982 80000207800000069 80000207800000068 80000207800000104 80000207800000067 2.1032696526 20.1193 236.79 -22.97
11.0056 80000207800000068 80000207800000066 80000207800000104 80000207800000065 1.90408954353 -10.9114 212.118 -115.099
11.0697 80000207800000066 80000207800000065 80000207800000104 80000207800000064 1.82268925262 45.4037 186.92 -162.736
11.0803 80000207800000065 80000207800000064 80000207800000104 80000207800000063 1.74357057433 76.3519 147.487 -80.6927
11.149 80000207800000064 80000207800000063 80000207800000104 80000207800000062 1.66666955611 235.198 66.5168 -113.398
11.2464 80000207800000063 80000207800000062 80000207800000104 80000207800000061 1.60423452207 374.068 -9.02056 -77.4239
11.3256 80000207800000062 80000207800000061 80000207800000104 80000207800000060 1.53123902916 466.075 -39.212 -106.385
11.3816 80000207800000061 80000207800000060 80000207800000104 80000207800000059 1.47197484527 502.817 -34.8217 -155.426
11.4229 80000207800000060 80000207800000059 80000207800000104 80000207800000058 1.41409822037 509.767 -50.3734 -136.822
11.4321 80000207800000059 80000207800000058 80000207800000104 80000207800000057 1.3575766674 484.008 -70.8313 -72.0437
11.4512 80000207800000058 80000207800000057 80000207800000104 80000207800000056 1.30237845991 461.648 -66.6551 -111.901
11.4727 80000207800000057 80000207800000056 80000207800000104 80000207800000055 1.24847261425 461.794 -60.823 -105.56
11.4985 80000207800000056 80000207800000055 80000207800000104 80000207800000054 1.20625808078 464.784 -56.6166 -109.663
11.5005 80000207800000055 80000207800000054 80000207800000104 80000207800000053 1.15460271236 470.202 -49.6967 -94.9797
11.5045 80000207800000054 80000207800000053 80000207800000104 80000207800000052 1.11415056377 453.64 -55.4461 -106.604
11.5085 80000207800000053 80000207800000039 80000207800000104 80000207800000038 0.676110411213 282.989 -6.96492 -48.0664
11.5169 80000207800000039 80000207800000038 80000207800000104 80000207800000037 0.644641840685 271.816 12.792 -99.6951
11.5241 80000207800000038 80000207800000037 80000207800000104 80000207800000036 0.621428745243 297.735 -4.17139 -112.064
11.5304 80000207800000037 80000207800000036 80000207800000104 80000207800000035 0.598543288188 311.671 -15.09 -103.689
11.5422 80000207800000036 80000207800000035 80000207800000104 80000207800000034 0.575980845108 324.65 -17.9331 -107.442
11.5463 80000207800000035 80000207800000034 80000207800000104 80000207800000033 0.546392183141 325.69 -7.07269 -115.262
11.5508 80000207800000034 80000207800000033 80000207800000104 80000207800000032 0.524565820434 345.538 -19.2475 -107.453
11.5557 80000207800000033 80000207800000032 80000207800000104 80000207800000031 0.503047523245 355.731 -19.6303 -96.1292
11.565 80000207800000032 80000207800000031 80000207800000104 80000207800000030 0.481832943421 329.425 -23.5086 -100.55
11.5689 80000207800000031 80000207800000030 80000207800000104 80000207800000029 0.460917794181 341.046 -12.6119 -88.0303
11.5708 80000207800000030 80000207800000029 80000207800000104 80000207800000028 0.440297849248 338.645 -11.4928 -90.443
11.5744 80000207800000029 80000207800000028 80000207800000104 80000207800000027 0.419968941997 304.8 25.2848 -95.0382
11.5806 80000207800000028 80000207800000027 80000207800000104 80000207800000026 0.399926964614 301.783 18.0356 -91.0713
11.5865 80000207800000027 80000207800000026 80000207800000104 80000207800000025 0.38016786726 294.783 14.3707 -89.3577
11.5942 80000207800000026 80000207800000025 80000207800000104 80000207800000024 0.360687657262 298.601 6.48289 -78.2215
11.5962 80000207800000025 80000207800000024 80000207800000104 80000207800000023 0.347853841858 297.911 16.1118 -64.9714
11.6008 80000207800000024 80000207800000019 80000207800000104 80000207800000018 0.261343256161 280.95 22.1037 -36.1851
11.6058 80000207800000019 80000207800000018 80000207800000104 80000207800000017 0.243540181555 298.351 -6.89239 -19.9044
11.6101 80000207800000018 80000207800000017 80000207800000104 80000207800000016 0.22598838626 276.217 -7.4275 -23.8419
11.6164 80000207800000017 80000207800000016 80000207800000104 80000207800000015 0.214425035514 283.734 -28.1687 -4.75598
11.6169 80000207800000016 80000207800000015 80000207800000104 80000207800000014 0.197284182376 278.113 -26.0844 -15.4542
11.6222 80000207800000015 80000207800000014 80000207800000104 80000207800000013 0.180385261706 277.126 -31.214 3.65426
11.6296 80000207800000014 80000207800000012 80000207800000104 80000207800000011 0.152748768902 272.97 -48.6913 2.81294
11.6313 80000207800000012 80000207800000011 80000207800000104 80000207800000010 0.14187620397 276.877 -27.3339 14.6273
11.6377 80000207800000011 80000207800000010 80000207800000104 80000207800000009 0.125759332411 280.989 -56.0566 33.8061
11.6444 80000207800000010 80000207800000009 80000207800000104 80000207800000008 0.109869940459 290.272 -51.6616 13.3852
11.6481 80000207800000009 80000207800000008 80000207800000104 80000207800000007 0.0994018026302 283.552 -46.9585 33.0956
11.6509 80000207800000008 80000207800000005 80000207800000104 80000207800000004 0.0585073227945 296.544 -57.2431 40.6436
11.6529 80000207800000005 80000207800000004 80000207800000104 80000207800000003 0.0485236299818 303.357 -36.495 45.5907
11.6529 80000207800000004 80000207800000003 80000207800000104 80000207800000002 0.0337243718735 293.526 -24.0563 46.3175
11.6574 80000207800000003 80000207800000001 80000207800000104 80000207800000000 0.00952166696794 306.257 -18.9662 54.7071
11.6602 80000207800000001 80000207800000000 80000207800000104 -1 2.22044604925e-16 317.631 -25.0512 58.4903
9.09637 80000207800000196 80000207800000195 80000207800000198 80000207800000194 7.00541704554 2.81532 2.52194 -2.34426
9.2026 80000207800000195 80000207800000194 80000207800000198 80000207800000193 6.85511726265 11.7761 8.54627 -6.65438
9.40518 80000207800000194 80000207800000189 80000207800000198 80000207800000188 5.22758097313 30.0048 11.4776 -5.37476
9.42893 80000207800000189 80000207800000188 80000207800000198 80000207800000187 4.99593346816 30.3176 8.33177 -9.49304
9.4606 80000207800000188 80000207800000187 80000207800000198 80000207800000186 4.93938066349 30.4633 7.77165 -10.0843
9.58127 80000207800000187 80000207800000185 80000207800000198 80000207800000184 4.42803373661 10.5603 0.862776 -18.6828
9.00012 80000207800000233 80000207800000232 80000207800000242 80000207800000231 5.52976580795 -1.66582 -3.11456 -5.22452
9.12912 80000207800000232 80000207800000231 80000207800000242 80000207800000230 5.22758097313 -5.88166 -7.60184 -10.7174
9.05524 80000207800000325 80000207800000324 80000207800000327 80000207800000323 6.49159774567 -4.40059 6.45916 -4.44401
9.17946 80000207800000324 80000207800000323 80000207800000327 80000207800000322 6.14490120342 -2.86621 1.85386 -3.64646
9.18162 80000207800000323 80000207800000321 80000207800000327 80000207800000320 5.84661374788 -2.28942 1.83313 -3.44684
9.19013 80000207800000321 80000207800000314 80000207800000327 80000207800000313 4.17683491473 6.61833 11.6216 8.39174
9.22651 80000207800000314 80000207800000313 80000207800000327 80000207800000312 4.00794511147 0.0738494 2.62873 2.59967
9.03463 80000207800000363 80000207800000362 80000207800000371 80000207800000361 7.23627606617 -3.49447 -7.04211 -3.01433
9.04358 80000207800000362 80000207800000361 80000207800000371 80000207800000360 7.00541704554 -5.40935 -1.973 2.77637
9.16852 80000207800000361 80000207800000360 80000207800000371 80000207800000359 6.85511726265 0.869248 -9.46702 -5.67232
9.41029 80000207800000360 80000207800000359 80000207800000371 80000207800000358 6.49159774567 -16.5613 -7.49258 2.27319
9.51675 80000207800000359 80000207800000358 80000207800000371 80000207800000357 6.14490120342 -29.6398 -2.76469 5.21807
9.54091 80000207800000358 80000207800000357 80000207800000371 80000207800000356 6.01075739884 -25.6349 -3.44191 2.81047
9.63744 80000207800000357 80000207800000355 80000207800000371 80000207800000354 5.52976580795 -26.6038 8.9335 -1.24763
9.68176 80000207800000355 80000207800000354 80000207800000371 80000207800000353 5.22758097313 -24.2585 17.0207 -1.19307
9.71825 80000207800000354 80000207800000353 80000207800000371 80000207800000352 4.99593346816 -27.4121 19.5547 3.85693
9.71825 80000207800000353 80000207800000352 80000207800000371 80000207800000351 4.93938066349 -25.6532 20.0131 4.49457
9.78795 80000207800000352 80000207800000351 80000207800000371 80000207800000350 4.66451770247 -31.9413 27.0209 -18.2455
9.82321 80000207800000351 80000207800000345 80000207800000371 80000207800000344 3.49086136926 2.37163 0.385474 -2.25488
9.00337 80000207800000492 80000207800000491 80000207800000499 80000207800000490 7.23627606617 3.09408 -3.71249 1.53756
9.15042 80000207800000491 80000207800000490 80000207800000499 80000207800000489 7.00541704554 -5.39586 -2.26792 7.57515
9.17073 80000207800000490 80000207800000489 80000207800000499 80000207800000488 6.85511726265 -5.86609 -2.15355 7.66812
9.29124 80000207800000489 80000207800000488 80000207800000499 80000207800000487 6.49159774567 -18.1764 1.79869 11.9714
9.30923 80000207800000488 80000207800000486 80000207800000499 80000207800000485 6.01075739884 -18.2121 2.20974 9.84455
9.34461 80000207800000486 80000207800000485 80000207800000499 80000207800000484 5.84661374788 -17.0515 1.47187 10.1976
9.39214 80000207800000485 80000207800000484 80000207800000499 80000207800000483 5.52976580795 -13.9855 2.53168 11.6612
9.41784 80000207800000484 80000207800000483 80000207800000499 80000207800000482 5.22758097313 -13.4525 3.34915 11.2611
9.4503 80000207800000483 80000207800000482 80000207800000499 80000207800000481 4.99593346816 -13.0434 4.0778 9.0652
9.46285 80000207800000482 80000207800000481 80000207800000499 80000207800000480 4.93938066349 -11.3786 2.7083 11.0145
9.48799 80000207800000481 80000207800000480 80000207800000499 80000207800000479 4.66451770247 -12.303 0.480919 11.3045
9.51074 80000207800000480 80000207800000479 80000207800000499 80000207800000478 4.42803373661 -11.8734 2.92588 6.52389
9.5566 80000207800000479 80000207800000478 80000207800000499 80000207800000477 4.17683491473 -5.78108 3.66887 -2.06947
9.57175 80000207800000478 80000207800000477 80000207800000499 80000207800000476 4.00794511147 -3.943 5.94577 -7.27555
9.00337 80000207800000568 80000207800000567 80000207800000576 80000207800000566 7.23627606617 -2.55478 -0.255399 0.96562
9.02855 80000207800000567 80000207800000566 80000207800000576 80000207800000565 7.00541704554 -4.06269 1.76124 -1.17065
9.09637 80000207800000566 80000207800000565 80000207800000576 80000207800000564 6.85511726265 -6.48298 4.34279 4.03004
9.15042 80000207800000565 80000207800000564 80000207800000576 80000207800000563 6.49159774567 -10.041 8.79408 4.06901
9.17512 80000207800000564 80000207800000563 80000207800000576 80000207800000562 6.14490120342 -8.4423 7.07873 5.92387
9.20668 80000207800000563 80000207800000562 80000207800000576 80000207800000561 6.01075739884 -8.23111 6.16394 5.80936
9.24733 80000207800000562 80000207800000561 80000207800000576 80000207800000560 5.84661374788 -7.0149 5.83573 4.72107
9.26365 80000207800000561 80000207800000560 80000207800000576 80000207800000559 5.52976580795 -9.75985 8.06771 8.61409
9.38412 80000207800000560 80000207800000559 80000207800000576 80000207800000558 5.22758097313 3.03801 5.62862 18.7677
9.44914 80000207800000559 80000207800000558 80000207800000576 80000207800000557 4.99593346816 1.889 6.51445 20.3591
9.47615 80000207800000558 80000207800000556 80000207800000576 80000207800000555 4.66451770247 -0.858453 6.54933 14.5923
9.49431 80000207800000556 80000207800000555 80000207800000576 80000207800000554 4.42803373661 -0.791716 6.79844 14.3185
9.51774 80000207800000555 80000207800000554 80000207800000576 80000207800000553 4.17683491473 4.07538 7.25157 21.6329
9.5314 80000207800000554 80000207800000553 80000207800000576 80000207800000552 4.00794511147 2.85141 7.95555 21.7717
9.54744 80000207800000553 80000207800000551 80000207800000576 80000207800000550 3.70877426464 2.11958 8.24636 22.5269
9.55204 80000207800000551 80000207800000550 80000207800000576 80000207800000549 3.49086136926 10.5362 5.3736 12.7491
9.05235 80000207800000617 80000207800000616 80000207800000622 80000207800000615 7.23627606617 3.4718 -7.26281 9.74525
9.16407 80000207800000616 80000207800000612 80000207800000622 80000207800000611 6.14490120342 3.19537 -6.18607 6.8559
9.18802 80000207800000612 80000207800000610 80000207800000622 80000207800000609 5.84661374788 -2.66516 -7.29303 6.06698
9.34461 80000207800000610 80000207800000608 80000207800000622 80000207800000607 5.22758097313 -1.32669 -7.3042 13.1781
9.35627 80000207800000608 80000207800000607 80000207800000622 80000207800000606 4.99593346816 -2.0016 -6.72102 12.6843
9.35914 80000207800000607 80000207800000606 80000207800000622 80000207800000605 4.93938066349 -2.18525 -5.31047 13.7599
9.43136 80000207800000606 80000207800000605 80000207800000622 80000207800000604 4.66451770247 -3.99316 -4.98308 11.9254
9.12178 80000207800000701 80000207800000700 80000207800000709 80000207800000699 8.44947629437 3.29053 -2.74942 -0.0937016
9.18376 80000207800000700 80000207800000699 80000207800000709 80000207800000698 8.01217294887 0.166679 -1.49065 0.721028
9.22457 80000207800000699 80000207800000698 80000207800000709 80000207800000697 7.59510714987 1.03111 -4.03791 2.58894
9.24362 80000207800000698 80000207800000697 80000207800000709 80000207800000696 7.23627606617 2.22338 -2.72205 3.21772
9.30763 80000207800000697 80000207800000696 80000207800000709 80000207800000695 7.00541704554 2.09363 -5.51036 0.281788
9.32031 80000207800000696 80000207800000695 80000207800000709 80000207800000694 6.85511726265 0.121422 -2.97837 -0.150563
9.34902 80000207800000695 80000207800000694 80000207800000709 80000207800000693 6.49159774567 -2.43891 -1.10826 1.03323
9.35048 80000207800000694 80000207800000693 80000207800000709 80000207800000692 6.14490120342 -1.20428 -0.0616823 0.711829
9.41784 80000207800000693 80000207800000692 80000207800000709 80000207800000691 6.01075739884 -3.00005 -6.67671 0.686703
9.93317 80000207800000692 80000207800000685 80000207800000709 80000207800000684 4.42803373661 -35.459 -27.1622 -53.9146
9.95327 80000207800000685 80000207800000684 80000207800000709 80000207800000683 4.00794511147 -37.7018 -34.3848 -30.5367
10.037 80000207800000684 80000207800000683 80000207800000709 80000207800000682 3.93726108473 -48.1558 -32.6251 -52.3153
10.1289 80000207800000683 80000207800000681 80000207800000709 80000207800000680 3.49086136926 -48.5976 -7.60102 -75.6143
10.1924 80000207800000681 80000207800000680 80000207800000709 80000207800000679 3.28303305796 -38.1005 -19.9519 -80.7253
10.2483 80000207800000680 80000207800000679 80000207800000709 80000207800000678 3.08482263583 -16.8459 -19.0698 -94.9881
10.3768 80000207800000679 80000207800000677 80000207800000709 80000207800000676 2.89578500573 7.45938 -26.1465 -97.6176
10.399 80000207800000677 80000207800000676 80000207800000709 80000207800000675 2.73314261732 18.5134 -32.2832 -75.2715
9.03763 80000207800000733 80000207800000732 80000207800000736 80000207800000731 6.85511726265 11.0285 3.50107 4.90596
9.0666 80000207800000732 80000207800000730 80000207800000736 80000207800000729 6.14490120342 7.48487 7.73313 15.162
9.17293 80000207800000730 80000207800000729 80000207800000736 80000207800000728 6.01075739884 8.26084 0.382648 4.46868
9.09637 80000207800000764 80000207800000763 80000207800000769 80000207800000762 8.44947629437 4.36077 3.76669 -15.092
9.24362 80000207800000763 80000207800000761 80000207800000769 80000207800000760 7.59510714987 6.36048 2.10382 -8.07652
9.31874 80000207800000761 80000207800000756 80000207800000769 80000207800000755 6.14490120342 17.7737 1.60436 -8.91371
9.43856 80000207800000756 80000207800000753 80000207800000769 80000207800000752 5.52976580795 -2.0337 -6.31327 -16.309
9.56201 80000207800000753 80000207800000752 80000207800000769 80000207800000751 5.22758097313 -15.6187 -27.3471 -9.28883
9.66655 80000207800000752 80000207800000751 80000207800000769 80000207800000750 4.99593346816 -11.3001 -34.0283 -2.19794
9.69051 80000207800000751 80000207800000750 80000207800000769 80000207800000749 4.93938066349 -12.4822 -34.4903 -3.59871
9.76049 80000207800000750 80000207800000749 80000207800000769 80000207800000748 4.66451770247 -20.5305 -17.8974 -22.59
10.0355 80000207800000749 80000207800000748 80000207800000769 80000207800000747 4.17683491473 -23.8323 -34.5474 -32.9185
9.12912 80000207800000801 80000207800000800 80000207800000811 80000207800000799 7.23627606617 0.816198 -2.2461 -2.75299
9.15042 80000207800000800 80000207800000798 80000207800000811 80000207800000797 6.85511726265 -4.73955 3.6357 2.79299
9.33716 80000207800000798 80000207800000797 80000207800000811 80000207800000796 6.49159774567 25.1702 -20.16 20.7729
9.34165 80000207800000797 80000207800000796 80000207800000811 80000207800000795 6.14490120342 11.2286 1.21356 -13.7226
9.52169 80000207800000796 80000207800000795 80000207800000811 80000207800000794 6.01075739884 0.0176783 4.32561 30.0712
9.61266 80000207800000795 80000207800000794 80000207800000811 80000207800000793 5.84661374788 -2.62832 2.11615 42.3228
9.64785 80000207800000794 80000207800000788 80000207800000811 80000207800000787 4.42803373661 -0.773906 8.6791 10.7641
9.67284 80000207800000788 80000207800000787 80000207800000811 80000207800000786 4.17683491473 1.23785 10.7316 5.86282
9.6865 80000207800000787 80000207800000786 80000207800000811 80000207800000785 4.00794511147 0.163805 10.8617 6.67154
9.68851 80000207800000786 80000207800000785 80000207800000811 80000207800000784 3.93726108473 -2.52523 12.6374 6.38394
9.74432 80000207800000785 80000207800000784 80000207800000811 80000207800000783 3.70877426464 1.38753 13.3374 5.60298
10.3233 80000207800000784 80000207800000780 80000207800000811 80000207800000677 3.00813107163 3.23492 -26.9137 -91.5265
9.09637 80000207800000829 80000207800000828 80000207800000846 80000207800000827 5.22758097313 2.10591 3.42893 4.05412
9.0316 80000207800000950 80000207800000949 80000207800000953 80000207800000948 5.52976580795 -8.90442 -6.88303 -3.18104
9.09898 80000207800000949 80000207800000948 80000207800000953 80000207800000947 5.22758097313 -9.68152 -7.80718 -2.49357
9.16407 80000207800000948 80000207800000947 80000207800000953 80000207800000946 4.99593346816 -9.69247 -10.7062 -2.09206
9.21472 80000207800000947 80000207800000945 80000207800000953 80000207800000944 4.66451770247 -4.76431 -10.0988 -1.33695
9.22845 80000207800000945 80000207800000943 80000207800000953 80000207800000942 4.17683491473 -4.16418 -4.72984 3.9184
9.08845 80000207800001119 80000207800001118 80000207800001122 80000207800001117 10.9190331982 -0.750377 -2.33468 -1.41603
9.10157 80000207800001118 80000207800001117 80000207800001122 80000207800001116 10.3674435724 -0.904626 -1.5662 -0.991113
9.12424 80000207800001117 80000207800001116 80000207800001122 80000207800001115 9.99659046619 -0.173779 -0.927771 -1.76011
9.18162 80000207800001116 80000207800001115 80000207800001122 80000207800001114 9.84138043947 -1.75026 -2.48635 0.140082
9.33866 80000207800001115 80000207800001114 80000207800001122 80000207800001113 9.38877127194 -0.45398 -3.55106 -2.09131
9.35048 80000207800001114 80000207800001113 80000207800001122 80000207800001112 9.00233985416 -0.013476 -5.43879 -0.809776
9.44564 80000207800001113 80000207800001111 80000207800001122 80000207800001110 8.44947629437 -2.3882 -5.33513 1.19741
9.58298 80000207800001111 80000207800001110 80000207800001122 80000207800001109 8.01217294887 -2.20508 -7.21717 -1.73217
9.63518 80000207800001110 80000207800001109 80000207800001122 80000207800001108 7.59510714987 -1.06657 -8.91337 -0.748336
9.6925 80000207800001109 80000207800001108 80000207800001122 80000207800001107 7.23627606617 -4.66874 -9.36989 -3.5751
9.7263 80000207800001108 80000207800001107 80000207800001122 80000207800001106 7.00541704554 -5.0022 -8.78547 -4.49722
9.7336 80000207800001107 80000207800001106 80000207800001122 80000207800001105 6.85511726265 -5.05666 -11.7305 -0.243185
9.81328 80000207800001106 80000207800001105 80000207800001122 80000207800001104 6.49159774567 -6.6401 -9.47017 0.260062
9.90605 80000207800001105 80000207800001104 80000207800001122 80000207800001103 6.14490120342 -23.7893 0.837034 4.07225
9.97835 80000207800001104 80000207800001103 80000207800001122 80000207800001102 6.01075739884 -26.5317 10.2029 0.406804
9.9975 80000207800001103 80000207800001102 80000207800001122 80000207800001101 5.84661374788 -25.0246 6.47117 0.457914
10.0474 80000207800001102 80000207800001101 80000207800001122 80000207800001100 5.52976580795 -26.2723 12.7099 -3.94766
10.1488 80000207800001101 80000207800001100 80000207800001122 80000207800001099 5.22758097313 -7.98853 1.38898 -12.1649
10.2962 80000207800001100 80000207800001099 80000207800001122 80000207800001098 4.99593346816 -6.16281 -26.2884 -14.3424
10.3013 80000207800001099 80000207800001098 80000207800001122 80000207800001097 4.93938066349 -8.1187 -19.1506 -8.83925
10.3708 80000207800001098 80000207800001097 80000207800001122 80000207800001096 4.66451770247 -1.53272 -11.0655 23.673
10.4357 80000207800001097 80000207800001096 80000207800001122 80000207800001095 4.42803373661 3.09473 -36.1413 9.6878
10.4568 80000207800001096 80000207800001095 80000207800001122 80000207800001094 4.17683491473 -19.7603 -1.69638 43.9064
10.5027 80000207800001095 80000207800001094 80000207800001122 80000207800001093 4.00794511147 -14.1439 -16.2664 35.9792
10.5251 80000207800001094 80000207800001093 80000207800001122 80000207800001092 3.93726108473 -24.7087 -4.81424 52.2651
10.613 80000207800001093 80000207800001092 80000207800001122 80000207800001091 3.70877426464 -57.6555 10.1221 49.4476
10.6661 80000207800001092 80000207800001091 80000207800001122 80000207800001090 3.49086136926 -99.6314 51.775 36.2668
10.7147 80000207800001091 80000207800001090 80000207800001122 80000207800001089 3.28303305796 -62.4465 40.2276 103.92
10.7626 80000207800001090 80000207800001089 80000207800001122 80000207800001088 3.08482263583 -45.048 25.7817 131.07
10.7866 80000207800001089 80000207800001088 80000207800001122 80000207800001087 3.00813107163 -53.3546 13.8173 137.067
10.807 80000207800001088 80000207800001087 80000207800001122 80000207800001086 2.89578500573 -42.5934 7.88165 150.731
10.8476 80000207800001087 80000207800001086 80000207800001122 80000207800001085 2.73314261732 -74.9521 20.646 134.156
10.8604 80000207800001086 80000207800001085 80000207800001122 80000207800001084 2.5772902716 -28.6207 0.739977 133.323
10.8696 80000207800001085 80000207800001084 80000207800001122 80000207800001083 2.44422570455 -39.9393 1.38101 142.253
10.8906 80000207800001084 80000207800001083 80000207800001122 80000207800001082 2.31611074396 -67.5322 -3.74894 125.95
10.8933 80000207800001083 80000207800001082 80000207800001122 80000207800001081 2.20792547238 -27.9643 -9.72422 96.2064
10.908 80000207800001082 80000207800001080 80000207800001122 80000207800001079 2.00202813925 -14.609 -25.6928 78.7898
10.9135 80000207800001080 80000207800001079 80000207800001122 80000207800001078 1.90408954353 -27.3569 -36.2115 47.0501
9.02239 80000207800001194 80000207800001193 80000207800001201 80000207800001192 6.14490120342 -0.856243 -6.32754 -6.17653
9.02855 80000207800001193 80000207800001192 80000207800001201 80000207800001191 6.01075739884 -0.813568 -6.57683 -5.84214
9.14344 80000207800001192 80000207800001191 80000207800001201 80000207800001190 5.84661374788 -3.16901 -0.765181 1.16573
9.00012 80000207800001226 80000207800001225 80000207800001235 80000207800001224 8.01217294887 -1.59579 1.20137 0.683477
9.07492 80000207800001225 80000207800001224 80000207800001235 80000207800001223 7.59510714987 1.0213 -0.752293 -3.32235
9.1663 80000207800001224 80000207800001223 80000207800001235 80000207800001222 7.23627606617 -1.52904 7.40764 -1.94073
9.18802 80000207800001223 80000207800001221 80000207800001235 80000207800001220 6.85511726265 2.54528 3.72146 -1.4142
9.26008 80000207800001221 80000207800001219 80000207800001235 80000207800001218 6.14490120342 1.55461 1.99059 6.38253
9.26365 80000207800001219 80000207800001218 80000207800001235 80000207800001217 6.01075739884 0.688238 0.798827 6.17938
9.31243 80000207800001218 80000207800001216 80000207800001235 80000207800001215 5.52976580795 1.35033 -2.37025 5.06144
9.32651 80000207800001216 80000207800001215 80000207800001235 80000207800001214 5.22758097313 -3.22953 -2.44297 4.61859
9.00337 80000207800001259 80000207800001258 80000207800001270 80000207800001257 4.66451770247 -14.9505 3.43463 -3.58799
9.00337 80000207800001258 80000207800001257 80000207800001270 80000207800001256 4.42803373661 -9.39433 3.92185 0.0738212
9.02239 80000207800001311 80000207800001310 80000207800001316 80000207800001309 6.14490120342 -1.43659 -4.75984 1.15683
9.0316 80000207800001310 80000207800001309 80000207800001316 80000207800001308 6.01075739884 -2.65604 -3.28108 1.01711
9.05811 80000207800001309 80000207800001308 80000207800001316 80000207800001307 5.84661374788 -4.80431 -5.30239 0.967717
9.10926 80000207800001308 80000207800001307 80000207800001316 80000207800001306 5.52976580795 -4.53802 -2.31581 1.26158
9.2026 80000207800001307 80000207800001306 80000207800001316 80000207800001305 5.22758097313 -3.88131 -1.68188 -2.47178
9.30115 80000207800001306 80000207800001305 80000207800001316 80000207800001304 4.99593346816 -2.21271 -3.21899 -4.39831
9.30602 80000207800001305 80000207800001304 80000207800001316 80000207800001303 4.93938066349 -0.536693 -5.23312 -3.83896
9.35914 80000207800001304 80000207800001303 80000207800001316 80000207800001302 4.66451770247 -2.23126 -4.87962 -6.50818
9.13634 80000207800001336 80000207800001335 80000207800001346 80000207800001334 6.49159774567 0.714848 3.47935 24.5745
9.13871 80000207800001335 80000207800001325 80000207800001346 80000207800001324 4.17683491473 -13.1235 4.07539 11.5229
9.21072 80000207800001412 80000207800001411 80000207800001415 80000207800001410 7.00541704554 -5.69532 2.13719 -3.06755
9.22457 80000207800001411 80000207800001410 80000207800001415 80000207800001409 6.85511726265 -3.44252 -0.169241 -4.45087
9.26365 80000207800001410 80000207800001408 80000207800001415 80000207800001407 6.14490120342 -6.67255 1.61178 -13.8196
9.32031 80000207800001408 80000207800001405 80000207800001415 80000207800001404 5.52976580795 0.690588 -6.4831 -4.19673
9.38815 80000207800001405 80000207800001403 80000207800001415 80000207800001402 4.99593346816 0.0872097 -6.23543 -9.957
9.54465 80000207800001403 80000207800001401 80000207800001415 80000207800001400 4.66451770247 5.48487 -5.94879 -9.25511
9.717 80000207800001401 80000207800001399 80000207800001415 80000207800001398 4.17683491473 -11.7125 8.44054 -5.59014
9.77663 80000207800001399 80000207800001398 80000207800001415 80000207800001397 4.00794511147 -0.50885 2.33583 0.0423952
9.80975 80000207800001398 80000207800001397 80000207800001415 80000207800001396 3.93726108473 -6.17333 -3.29086 -3.63259
9.91249 80000207800001397 80000207800001396 80000207800001415 80000207800001395 3.70877426464 -1.78506 -20.8577 -3.37649
9.0098 80000207800001429 80000207800001428 80000207800001436 80000207800001427 4.17683491473 -7.20932 2.50658 -18.0446
9.01614 80000207800001452 80000207800001451 80000207800001461 80000207800001450 4.00794511147 6.97679 -6.82052 9.14575
9.02239 80000207800001451 80000207800001450 80000207800001461 80000207800001449 3.93726108473 7.27087 -5.06212 11.5287
9.02548 80000207800001604 80000207800001603 80000207800001613 80000207800001602 3.49086136926 -7.98456 -20.3382 14.9956
9.07492 80000207800001603 80000207800001602 80000207800001613 80000207800001601 3.28303305796 -6.53679 -15.9456 9.62968
9.1663 80000207800001602 80000207800001601 80000207800001613 80000207800001600 3.08482263583 0.0662198 -12.7698 7.27988
9.18589 80000207800001601 80000207800001599 80000207800001613 80000207800001598 2.89578500573 1.48405 -6.93408 6.92951
9.22066 80000207800001599 80000207800001598 80000207800001613 80000207800001597 2.73314261732 5.76666 -4.84681 0.668977
9.22457 80000207800001598 80000207800001597 80000207800001613 80000207800001596 2.5772902716 11.8564 -17.4131 -3.4189
9.0066 80000207800001648 80000207800001647 80000207800001659 80000207800001646 2.89578500573 5.56782 11.3006 -10.0687
9.01614 80000207800001647 80000207800001646 80000207800001659 80000207800001645 2.73314261732 -0.253572 16.8138 -10.9374
9.04945 80000207800001646 80000207800001645 80000207800001659 80000207800001644 2.5772902716 2.25372 15.918 -8.87871
9.0666 80000207800001645 80000207800001644 80000207800001659 80000207800001643 2.44422570455 -1.63363 14.7466 -6.39383
9.05811 80000207800001743 80000207800001742 80000207800001749 80000207800001741 9.00233985416 -3.27573 -0.558452 1.83139
9.10671 80000207800001742 80000207800001740 80000207800001749 80000207800001739 8.44947629437 -6.06161 2.45043 2.63469
9.13154 80000207800001740 80000207800001739 80000207800001749 80000207800001738 8.01217294887 -1.9888 0.484295 7.81909
9.18589 80000207800001739 80000207800001738 80000207800001749 80000207800001737 7.59510714987 -1.97407 -0.878242 7.13097
9.47724 80000207800001738 80000207800001737 80000207800001749 80000207800001736 7.23627606617 -34.5249 -9.23993 22.314
9.55478 80000207800001737 80000207800001736 80000207800001749 80000207800001735 7.00541704554 -29.2031 -12.1978 15.2393
9.55478 80000207800001736 80000207800001735 80000207800001749 80000207800001734 6.85511726265 -20.4235 -2.90514 13.7498
9.66443 80000207800001735 80000207800001734 80000207800001749 80000207800001733 6.49159774567 -31.4085 -13.0129 6.10371
9.78582 80000207800001734 80000207800001733 80000207800001749 80000207800001732 6.14490120342 -16.0938 -8.76329 4.9171
9.79951 80000207800001733 80000207800001732 80000207800001749 80000207800001731 6.01075739884 -31.4142 -14.4456 9.41512
9.86259 80000207800001732 80000207800001731 80000207800001749 80000207800001730 5.84661374788 -29.1022 -12.802 -2.23453
9.92626 80000207800001731 80000207800001730 80000207800001749 80000207800001729 5.52976580795 -22.3649 -10.309 -8.34588
9.95472 80000207800001730 80000207800001729 80000207800001749 80000207800001728 5.22758097313 -20.8276 -9.17362 3.80055
10.004 80000207800001729 80000207800001728 80000207800001749 80000207800001727 4.99593346816 -17.9112 -5.87216 0.969511
10.0199 80000207800001728 80000207800001727 80000207800001749 80000207800001726 4.93938066349 -14.8973 -0.373051 3.48149
10.0273 80000207800001727 80000207800001726 80000207800001749 80000207800001725 4.66451770247 -25.9492 0.986321 9.91978
10.0486 80000207800001726 80000207800001722 80000207800001749 80000207800001721 3.93726108473 -17.8075 -10.4045 21.0999
10.1178 80000207800001722 80000207800001721 80000207800001749 80000207800001720 3.70877426464 -26.6558 1.85521 25.3698
10.1366 80000207800001721 80000207800001720 80000207800001749 80000207800001719 3.49086136926 -24.4717 10.5836 14.6636
10.1736 80000207800001720 80000207800001719 80000207800001749 80000207800001718 3.28303305796 -26.0514 16.2954 16.8691
10.2133 80000207800001719 80000207800001718 80000207800001749 80000207800001717 3.08482263583 -16.0622 6.53533 27.6045
10.2327 80000207800001718 80000207800001717 80000207800001749 80000207800001716 3.00813107163 -24.6274 5.04987 30.3171
10.2395 80000207800001717 80000207800001716 80000207800001749 80000207800001715 2.89578500573 -28.4566 5.65787 29.2551
10.2414 80000207800001716 80000207800001714 80000207800001749 80000207800001713 2.5772902716 -20.2221 -9.674 32.7407
10.2464 80000207800001714 80000207800001711 80000207800001749 80000207800001710 2.20792547238 -20.103 5.39873 23.7632
10.2577 80000207800001711 80000207800001710 80000207800001749 80000207800001709 2.1032696526 -18.8244 7.88473 16.5141
10.2785 80000207800001710 80000207800001709 80000207800001749 80000207800001708 2.00202813925 -24.0476 14.3103 6.0597
9.16407 80000207800001757 80000207800001756 80000207800001765 80000207800001755 7.59510714987 -14.2997 -7.09695 2.66484
9.00012 80000207800001773 80000207800001772 80000207800001778 80000207800001771 7.23627606617 4.03836 -7.7854 5.66986
9.02548 80000207800001772 80000207800001771 80000207800001778 80000207800001770 7.00541704554 4.43647 -6.41618 6.97752
9.14344 80000207800001771 80000207800001770 80000207800001778 80000207800001769 6.85511726265 4.44511 -8.53785 7.52904
9.33566 80000207800001963 80000207800001962 80000207800001973 80000207800001961 4.00794511147 -14.7659 -21.9762 -0.000628665
9.40902 80000207800001962 80000207800001957 80000207800001973 80000207800001956 3.08482263583 -1.99181 -3.62776 -12.6198
9.45719 80000207800001957 80000207800001955 80000207800001973 80000207800001954 2.89578500573 4.25068 -2.86011 -11.1002
9.49431 80000207800001955 80000207800001954 80000207800001973 80000207800001953 2.73314261732 -8.96964 0.0270592 -9.837
9.51275 80000207800001954 80000207800001952 80000207800001973 80000207800001951 2.44422570455 -4.51837 -0.28828 -10.7569
9.34902 80000207800001994 80000207800001993 80000207800001997 80000207800001955 3.00813107163 3.39774 -1.19311 -0.330359
9.04653 80000207800002042 80000207800002041 80000207800002050 80000207800002040 3.49086136926 -14.1955 -6.57464 -0.981504
9.06378 80000207800002041 80000207800002039 80000207800002050 80000207800002038 3.08482263583 -7.32724 -4.93992 -4.22681
9.08845 80000207800002039 80000207800002038 80000207800002050 80000207800002037 3.00813107163 -10.1506 -8.46809 -5.6352
9.09637 80000207800002038 80000207800002037 80000207800002050 80000207800002036 2.89578500573 -10.2317 -8.24833 -5.68691
9.11431 80000207800002037 80000207800002035 80000207800002050 80000207800002034 2.5772902716 -6.4888 -4.59834 -6.38469
9.08309 80000207800002238 80000207800002237 80000207800002251 80000207800002236 4.99593346816 -6.39842 -2.17862 -0.0398791
9.08845 80000207800002237 80000207800002236 80000207800002251 80000207800002235 4.93938066349 -5.63206 -2.94057 -2.33574
9.2929 80000207800002236 80000207800002234 80000207800002251 80000207800002233 4.42803373661 -22.7424 16.9203 12.9085
9.49221 80000207800002234 80000207800002233 80000207800002251 80000207800002232 4.17683491473 -25.9092 14.0492 19.5688
9.68582 80000207800002233 80000207800002232 80000207800002251 80000207800002231 4.00794511147 -20.0228 23.5053 26.8345
9.88826 80000207800002232 80000207800002225 80000207800002251 80000207800002224 2.73314261732 -10.1669 -5.05536 9.06046
9.94815 80000207800002225 80000207800002224 80000207800002251 80000207800002223 2.5772902716 -2.31566 -0.944952 8.41458
9.98381 80000207800002224 80000207800002223 80000207800002251 80000207800002222 2.44422570455 -6.19211 -0.177167 -1.23503
9.99684 80000207800002223 80000207800002222 80000207800002251 80000207800002221 2.31611074396 -4.45879 8.64723 -6.16055
10.0165 80000207800002222 80000207800002221 80000207800002251 80000207800002220 2.20792547238 1.84042 10.8681 0.261516
10.0221 80000207800002221 80000207800002219 80000207800002251 80000207800002218 2.00202813925 2.6617 0.0929183 -15.168
10.0486 80000207800002219 80000207800002218 80000207800002251 80000207800002217 1.90408954353 3.91969 8.21577 -18.8138
9.62985 80000207800002261 80000207800002260 80000207800002268 80000207800002259 3.28303305796 -3.06034 -11.9943 -3.91942
9.82124 80000207800002260 80000207800002259 80000207800002268 80000207800002258 3.08482263583 -8.48682 8.64189 7.34773
9.83816 80000207800002259 80000207800002258 80000207800002268 80000207800002257 3.00813107163 -8.3156 1.56413 5.70227
9.85718 80000207800002258 80000207800002257 80000207800002268 80000207800002225 2.89578500573 -11.8596 -5.59288 11.4796
9.17293 80000207800002284 80000207800002283 80000207800002293 80000207800002282 4.99593346816 11.01 7.17244 -4.11315
9.0098 80000207800002589 80000207800002588 80000207800002600 80000207800002587 3.70877426464 -3.72816 -1.56221 -7.67297
9.11431 80000207800002588 80000207800002587 80000207800002600 80000207800002586 3.49086136926 -5.13592 -6.6533 -7.24808
9.19013 80000207800002587 80000207800002586 80000207800002600 80000207800002585 3.28303305796 -6.01523 -0.972577 -10.4749
9.21272 80000207800002586 80000207800002579 80000207800002600 80000207800002578 2.31611074396 -1.67519 -1.98332 -9.00367
9.23037 80000207800002579 80000207800002575 80000207800002600 80000207800002574 1.90408954353 -1.09637 -1.82591 -2.36853
9.2342 80000207800002575 80000207800002572 80000207800002600 80000207800002571 1.66666955611 -1.64087 -8.50843 -3.86185
9.2342 80000207800002572 80000207800002571 80000207800002600 80000207800002570 1.60423452207 0.154454 -2.91243 -4.54741
9.27938 80000207800002571 80000207800002570 80000207800002600 80000207800002569 1.53123902916 -1.58995 -7.89094 -8.97447
9.3044 80000207800002570 80000207800002568 80000207800002600 80000207800002567 1.41409822037 -0.766644 -5.21058 -2.38675
9.30923 80000207800002568 80000207800002567 80000207800002600 80000207800002566 1.3575766674 -1.81045 -5.53947 -8.29046
9.31874 80000207800002567 80000207800002566 80000207800002600 80000207800002565 1.30237845991 0.587752 -0.889479 -9.986
9.33866 80000207800002566 80000207800002565 80000207800002600 80000207800002564 1.24847261425 -0.648247 -3.19017 -7.78742
9.33866 80000207800002565 80000207800002564 80000207800002600 80000207800002563 1.20625808078 -3.80358 0.489453 -5.47873
9.37732 80000207800002564 80000207800002562 80000207800002600 80000207800002561 1.11415056377 -5.16611 -2.84879 1.91478
9.38277 80000207800002562 80000207800002561 80000207800002600 80000207800002560 1.07445789455 -10.8253 -4.29894 -0.0720341
9.41784 80000207800002561 80000207800002560 80000207800002600 80000207800002559 1.03551044566 -19.2176 -10.2488 2.75999
9.42281 80000207800002560 80000207800002552 80000207800002600 80000207800002551 0.791068248946 -28.5133 -14.9838 4.22838
9.42649 80000207800002552 80000207800002551 80000207800002600 80000207800002550 0.757441372616 -26.0809 -18.7289 7.27225
9.43737 80000207800002551 80000207800002550 80000207800002600 80000207800002549 0.732636182022 -30.1257 -16.2834 6.07771
