logMh | fpID | subhaloID | main leaf ID | descID |  z
9.0066 90000329400000100 90000329400000099 90000329400000107 90000329400000098 8.9079991856 0.43023 -1.84807 1.83069
9.05235 90000329400000099 90000329400000098 90000329400000107 90000329400000097 8.44947629437 -0.128893 0.810453 0.909633
9.32031 90000329400000098 90000329400000097 90000329400000107 90000329400000096 8.01217294887 9.28161 14.5492 4.02215
9.49744 90000329400000097 90000329400000096 90000329400000107 90000329400000095 7.59510714987 -1.71818 9.1431 6.72812
9.63969 90000329400000096 90000329400000095 90000329400000107 90000329400000094 7.23627606617 6.68969 7.54371 12.8516
9.71825 90000329400000095 90000329400000094 90000329400000107 90000329400000093 7.00541704554 7.44598 6.44519 15.1758
9.79639 90000329400000094 90000329400000092 90000329400000107 90000329400000091 6.49159774567 10.2401 -2.89356 16.1012
9.99088 90000329400000092 90000329400000091 90000329400000107 90000329400000090 6.14490120342 17.5214 12.4446 -16.1802
10.0451 90000329400000091 90000329400000090 90000329400000107 90000329400000089 6.01075739884 12.9076 9.39236 -21.0159
10.1036 90000329400000090 90000329400000089 90000329400000107 90000329400000088 5.84661374788 26.4133 15.3615 -18.5988
10.1784 90000329400000089 90000329400000088 90000329400000107 90000329400000087 5.52976580795 28.7495 26.2403 1.16767
10.2061 90000329400000088 90000329400000087 90000329400000107 90000329400000086 5.22758097313 14.2286 18.0171 -14.5675
10.2538 90000329400000087 90000329400000086 90000329400000107 90000329400000085 4.99593346816 19.4765 3.17926 -8.49907
10.2594 90000329400000086 90000329400000085 90000329400000107 90000329400000084 4.93938066349 16.5269 5.38828 -9.21312
10.3514 90000329400000085 90000329400000084 90000329400000107 90000329400000083 4.66451770247 -20.7968 -10.2235 -8.58036
10.3703 90000329400000084 90000329400000083 90000329400000107 90000329400000082 4.42803373661 -13.4324 -10.2796 -4.94654
10.3802 90000329400000083 90000329400000082 90000329400000107 90000329400000081 4.17683491473 -20.8065 0.323226 -10.1442
10.5541 90000329400000082 90000329400000081 90000329400000107 90000329400000080 4.00794511147 -81.7831 49.9157 -13.1787
10.6467 90000329400000081 90000329400000076 90000329400000107 90000329400000075 3.08482263583 -79.7431 6.97267 12.8597
10.7096 90000329400000076 90000329400000075 90000329400000107 90000329400000074 3.00813107163 -118.597 -36.1367 8.03074
10.725 90000329400000075 90000329400000074 90000329400000107 90000329400000073 2.89578500573 -99.3987 -22.5434 21.6289
10.7927 90000329400000074 90000329400000073 90000329400000107 90000329400000072 2.73314261732 -118.04 -57.0868 13.0521
10.839 90000329400000073 90000329400000072 90000329400000107 90000329400000071 2.5772902716 -129.019 -87.0944 20.052
10.8831 90000329400000072 90000329400000071 90000329400000107 90000329400000070 2.44422570455 -143.467 -82.9098 22.3149
10.9017 90000329400000071 90000329400000070 90000329400000107 90000329400000069 2.31611074396 -130.372 -71.1966 32.6023
10.9029 90000329400000070 90000329400000069 90000329400000107 90000329400000068 2.20792547238 -122.052 -61.425 32.44
10.9052 90000329400000069 90000329400000068 90000329400000107 90000329400000067 2.1032696526 -134.148 -78.0561 23.9965
10.9082 90000329400000068 90000329400000067 90000329400000107 90000329400000066 2.00202813925 -130.383 -73.9244 19.3554
10.918 90000329400000067 90000329400000058 90000329400000107 90000329400000057 1.3575766674 -92.9903 -70.2409 28.9335
10.9246 90000329400000058 90000329400000057 90000329400000107 90000329400000056 1.30237845991 -93.2995 -60.6462 25.4802
10.935 90000329400000057 90000329400000056 90000329400000107 90000329400000055 1.24847261425 -95.8742 -54.9116 28.543
10.9391 90000329400000056 90000329400000055 90000329400000107 90000329400000054 1.20625808078 -101.412 -58.4001 27.7026
10.9508 90000329400000055 90000329400000054 90000329400000107 90000329400000053 1.15460271236 -104.583 -50.2547 22.3739
10.9555 90000329400000054 90000329400000053 90000329400000107 90000329400000052 1.11415056377 -126.656 -57.4024 21.2082
10.9649 90000329400000053 90000329400000052 90000329400000107 90000329400000051 1.07445789455 -115.427 -45.4118 18.6204
10.9704 90000329400000052 90000329400000050 90000329400000107 90000329400000049 0.997294225782 -132.076 -47.8083 9.50129
10.9724 90000329400000050 90000329400000049 90000329400000107 90000329400000048 0.987852810816 -130.506 -48.9541 18.5913
10.9892 90000329400000049 90000329400000048 90000329400000107 90000329400000047 0.950531351585 -158.137 -84.3174 14.6731
11.0188 90000329400000048 90000329400000047 90000329400000107 90000329400000046 0.923000816178 -164.138 -85.3236 1.97347
11.0418 90000329400000047 90000329400000045 90000329400000107 90000329400000044 0.851470900625 -158.478 -97.4286 -6.46566
11.0566 90000329400000045 90000329400000044 90000329400000107 90000329400000043 0.816709979012 -181.833 -53.741 -36.1453
11.0657 90000329400000044 90000329400000043 90000329400000107 90000329400000042 0.791068248946 -171.039 -50.1992 -22.7869
11.0965 90000329400000043 90000329400000042 90000329400000107 90000329400000041 0.757441372616 -180.806 -68.9382 -15.9693
11.1201 90000329400000042 90000329400000041 90000329400000107 90000329400000040 0.732636182022 -175.331 -63.1759 -22.8199
11.1236 90000329400000041 90000329400000040 90000329400000107 90000329400000039 0.700106353719 -176.0 -38.1568 -22.5763
11.1302 90000329400000040 90000329400000039 90000329400000107 90000329400000038 0.676110411213 -157.937 -56.5577 -16.7504
11.1451 90000329400000039 90000329400000038 90000329400000107 90000329400000037 0.644641840685 -171.36 -47.5161 -20.3833
11.157 90000329400000038 90000329400000037 90000329400000107 90000329400000036 0.621428745243 -176.924 -59.8946 -24.852
11.1648 90000329400000037 90000329400000036 90000329400000107 90000329400000035 0.598543288188 -180.488 -47.3221 -26.9467
11.1679 90000329400000036 90000329400000035 90000329400000107 90000329400000034 0.575980845108 -186.002 -44.5623 -35.5346
11.1713 90000329400000035 90000329400000033 90000329400000107 90000329400000032 0.524565820434 -188.732 -45.7402 -32.1828
11.1713 90000329400000033 90000329400000032 90000329400000107 90000329400000031 0.503047523245 -192.955 -38.3992 -33.1746
11.1775 90000329400000032 90000329400000029 90000329400000107 90000329400000028 0.440297849248 -227.958 -15.0312 -77.4999
11.1808 90000329400000029 90000329400000028 90000329400000107 90000329400000027 0.419968941997 -239.307 -22.8675 -73.6972
11.1852 90000329400000028 90000329400000026 90000329400000107 90000329400000025 0.38016786726 -247.456 -24.393 -77.1825
11.1948 90000329400000026 90000329400000025 90000329400000107 90000329400000024 0.360687657262 -269.168 -32.3942 -73.5806
11.1967 90000329400000025 90000329400000024 90000329400000107 90000329400000023 0.347853841858 -258.794 -17.1088 -82.6469
11.2011 90000329400000024 90000329400000023 90000329400000107 90000329400000022 0.328829724206 -276.458 -22.7067 -79.4283
11.2025 90000329400000023 90000329400000022 90000329400000107 90000329400000021 0.310074120128 -268.066 -41.5211 -79.2517
11.2042 90000329400000022 90000329400000021 90000329400000107 90000329400000020 0.291583239722 -270.328 4.75949 -93.731
11.2083 90000329400000021 90000329400000020 90000329400000107 90000329400000019 0.273353346578 -282.881 -30.5592 -89.0675
11.2144 90000329400000020 90000329400000017 90000329400000107 90000329400000016 0.22598838626 -325.406 -20.2843 -93.7637
11.2166 90000329400000017 90000329400000016 90000329400000107 90000329400000015 0.214425035514 -310.403 -54.3166 -85.2617
11.2223 90000329400000016 90000329400000015 90000329400000107 90000329400000014 0.197284182376 -305.089 -44.6886 -95.0508
11.2268 90000329400000015 90000329400000014 90000329400000107 90000329400000013 0.180385261706 -321.728 -79.0643 -95.3998
11.2333 90000329400000014 90000329400000013 90000329400000107 90000329400000012 0.169252033244 -328.144 -87.9797 -89.5244
11.2393 90000329400000013 90000329400000011 90000329400000107 90000329400000010 0.14187620397 -326.935 -101.155 -91.2855
11.2424 90000329400000011 90000329400000010 90000329400000107 90000329400000009 0.125759332411 -329.938 -89.1918 -92.3418
11.2525 90000329400000010 90000329400000009 90000329400000107 90000329400000008 0.109869940459 -355.377 -115.944 -101.24
11.2604 90000329400000009 90000329400000008 90000329400000107 90000329400000007 0.0994018026302 -352.632 -123.272 -100.554
11.268 90000329400000008 90000329400000007 90000329400000107 90000329400000006 0.0838844307975 -353.335 -130.686 -103.343
11.2708 90000329400000007 90000329400000006 90000329400000107 90000329400000005 0.0736613846564 -359.001 -164.173 -91.2047
11.2772 90000329400000006 90000329400000005 90000329400000107 90000329400000004 0.0585073227945 -358.93 -173.26 -87.5014
11.2784 90000329400000005 90000329400000002 90000329400000107 90000329400000001 0.0239744283828 -329.958 -124.794 -97.3306
11.2802 90000329400000002 90000329400000001 90000329400000107 90000329400000000 0.00952166696794 -328.366 -132.012 -90.5804
11.2854 90000329400000001 90000329400000000 90000329400000107 -1 2.22044604925e-16 -316.271 -129.692 -102.162
9.00012 90000329400000121 90000329400000120 90000329400000128 90000329400000119 8.01217294887 -5.1957 3.28711 2.58388
9.05811 90000329400000151 90000329400000150 90000329400000156 90000329400000149 7.59510714987 -8.34278 -1.21758 12.4483
9.18162 90000329400000150 90000329400000149 90000329400000156 90000329400000148 7.23627606617 -4.98019 -8.62826 13.5148
9.19848 90000329400000149 90000329400000147 90000329400000156 90000329400000146 6.85511726265 -5.90669 -7.795 10.9016
9.23799 90000329400000147 90000329400000146 90000329400000156 90000329400000145 6.49159774567 -6.5693 -8.70928 8.84352
9.01298 90000329400000176 90000329400000175 90000329400000179 90000329400000174 9.00233985416 -4.05179 2.13031 -6.04457
9.03763 90000329400000175 90000329400000173 90000329400000179 90000329400000172 8.44947629437 3.88534 -2.08895 -6.27532
9.11179 90000329400000173 90000329400000172 90000329400000179 90000329400000171 8.01217294887 0.427084 -1.53258 -11.6599
9.19013 90000329400000172 90000329400000171 90000329400000179 90000329400000170 7.59510714987 -1.2188 -0.286532 -10.7145
9.13154 90000329400000211 90000329400000210 90000329400000220 90000329400000209 4.93938066349 -18.3087 -6.48183 30.765
9.05811 90000329400000291 90000329400000290 90000329400000303 90000329400000289 5.52976580795 -1.87507 1.15946 5.69797
9.09898 90000329400000290 90000329400000289 90000329400000303 90000329400000288 5.22758097313 -0.747542 -5.21509 7.50449
9.11179 90000329400000289 90000329400000288 90000329400000303 90000329400000287 4.99593346816 -8.55635 13.7255 -1.04718
9.15956 90000329400000288 90000329400000281 90000329400000303 90000329400000280 3.70877426464 7.01901 -4.89747 5.80574
9.25101 90000329400000400 90000329400000399 90000329400000408 90000329400000398 7.59510714987 0.865226 0.0382416 8.31536
9.30602 90000329400000399 90000329400000398 90000329400000408 90000329400000397 7.23627606617 -0.434303 -3.65583 4.0272
9.3634 90000329400000398 90000329400000397 90000329400000408 90000329400000396 7.00541704554 -7.80662 -2.20058 7.03521
9.37042 90000329400000397 90000329400000396 90000329400000408 90000329400000395 6.85511726265 -3.85536 -1.84386 5.96749
9.55931 90000329400000396 90000329400000395 90000329400000408 90000329400000394 6.49159774567 -15.2059 -2.93015 11.3423
9.61026 90000329400000395 90000329400000394 90000329400000408 90000329400000393 6.14490120342 -15.4162 -4.57847 10.0561
9.68312 90000329400000394 90000329400000393 90000329400000408 90000329400000392 6.01075739884 -26.1485 -0.0351956 13.1014
9.6865 90000329400000393 90000329400000389 90000329400000408 90000329400000388 4.99593346816 -25.8147 -16.5333 14.934
9.71825 90000329400000389 90000329400000388 90000329400000408 90000329400000387 4.93938066349 -24.963 -15.3428 17.4354
9.81378 90000329400000388 90000329400000386 90000329400000408 90000329400000385 4.42803373661 -14.5462 -10.528 20.4826
9.87583 90000329400000386 90000329400000384 90000329400000408 90000329400000383 3.93726108473 -7.62416 -21.6693 29.4764
9.96012 90000329400000384 90000329400000383 90000329400000408 90000329400000382 3.70877426464 -8.18487 -13.1473 35.2797
10.1453 90000329400000383 90000329400000382 90000329400000408 90000329400000381 3.49086136926 -38.4409 -41.2933 10.2542
10.1627 90000329400000382 90000329400000381 90000329400000408 90000329400000380 3.28303305796 -30.0691 -23.5567 7.50995
9.0098 90000329400000423 90000329400000422 90000329400000429 90000329400000421 8.01217294887 11.6658 -10.6842 -4.76016
9.0666 90000329400000422 90000329400000421 90000329400000429 90000329400000420 7.59510714987 10.5606 -6.24871 -3.84375
9.64193 90000329400000421 90000329400000414 90000329400000429 90000329400000413 5.84661374788 -14.2174 -0.752024 13.9075
9.6804 90000329400000414 90000329400000413 90000329400000429 90000329400000412 5.52976580795 -18.9022 -6.54719 11.1445
9.68447 90000329400000413 90000329400000412 90000329400000429 90000329400000389 5.22758097313 -24.7321 -9.86978 13.7472
9.02239 90000329400000514 90000329400000513 90000329400000525 90000329400000512 4.66451770247 6.30815 -4.3939 -2.98569
9.01928 90000329400000648 90000329400000647 90000329400000655 90000329400000646 5.84661374788 -1.22223 -1.15668 -9.75501
9.23988 90000329400000647 90000329400000646 90000329400000655 90000329400000645 5.52976580795 1.85062 -3.72173 -19.6693
9.2672 90000329400000646 90000329400000645 90000329400000655 90000329400000644 5.22758097313 1.59284 -4.53983 -17.7738
9.3156 90000329400000645 90000329400000644 90000329400000655 90000329400000643 4.99593346816 2.35135 -5.8562 -15.3469
9.31874 90000329400000644 90000329400000643 90000329400000655 90000329400000642 4.93938066349 2.65431 -5.50462 -13.8033
9.33866 90000329400000643 90000329400000642 90000329400000655 90000329400000641 4.66451770247 1.56625 -5.34238 -14.2409
9.33866 90000329400000642 90000329400000641 90000329400000655 90000329400000640 4.42803373661 -2.05405 -9.23181 -13.687
9.42893 90000329400000641 90000329400000640 90000329400000655 90000329400000639 4.17683491473 -1.37125 -7.38247 -10.0279
9.46397 90000329400000640 90000329400000638 90000329400000655 90000329400000637 3.93726108473 -6.93677 -11.3719 -2.81763
9.50363 90000329400000638 90000329400000636 90000329400000655 90000329400000635 3.49086136926 -4.41591 -26.0517 -31.1478
9.1573 90000329400000658 90000329400000657 90000329400000663 90000329400000656 6.01075739884 1.14117 -4.96028 -17.8877
9.09637 90000329400000946 90000329400000945 90000329400000952 90000329400000944 7.23627606617 -0.932858 -0.45128 1.97788
9.12178 90000329400000945 90000329400000944 90000329400000952 90000329400000943 7.00541704554 0.695345 1.66477 3.86179
9.13154 90000329400000944 90000329400000943 90000329400000952 90000329400000942 6.85511726265 0.269294 2.98591 4.88144
9.20055 90000329400000943 90000329400000942 90000329400000952 90000329400000941 6.49159774567 2.58889 0.621031 7.02734
9.2828 90000329400000942 90000329400000941 90000329400000952 90000329400000940 6.14490120342 -1.63366 3.35842 -0.294458
9.3156 90000329400000941 90000329400000940 90000329400000952 90000329400000939 6.01075739884 -2.47368 2.84538 1.8006
9.32805 90000329400000940 90000329400000939 90000329400000952 90000329400000938 5.84661374788 -7.24606 3.02216 -3.64172
9.41659 90000329400000939 90000329400000938 90000329400000952 90000329400000937 5.52976580795 -4.92606 9.34866 -3.12893
9.5956 90000329400000938 90000329400000937 90000329400000952 90000329400000936 5.22758097313 -3.91414 41.9529 5.21358
9.61899 90000329400000937 90000329400000934 90000329400000952 90000329400000933 4.66451770247 -5.58208 9.41767 1.59329
9.68312 90000329400000934 90000329400000933 90000329400000952 90000329400000932 4.42803373661 -8.30617 19.9332 6.42553
9.76219 90000329400000933 90000329400000932 90000329400000952 90000329400000931 4.17683491473 -8.18272 27.1411 10.0078
9.78368 90000329400000932 90000329400000931 90000329400000952 90000329400000930 4.00794511147 -10.6463 26.5509 7.78259
9.79061 90000329400000931 90000329400000930 90000329400000952 90000329400000929 3.93726108473 -10.5844 33.6203 7.04363
9.82075 90000329400000930 90000329400000928 90000329400000952 90000329400000927 3.49086136926 -15.9805 26.2436 -2.91835
9.84708 90000329400000928 90000329400000927 90000329400000952 90000329400000926 3.28303305796 -18.3327 23.0649 1.03412
9.85808 90000329400000927 90000329400000926 90000329400000952 90000329400000925 3.08482263583 -11.1928 28.3262 13.1558
9.86304 90000329400000926 90000329400000925 90000329400000952 90000329400000924 3.00813107163 -20.2227 21.9729 8.93087
9.87713 90000329400000925 90000329400000924 90000329400000952 90000329400000923 2.89578500573 -23.4877 25.7511 11.6614
9.91687 90000329400000924 90000329400000923 90000329400000952 90000329400000922 2.73314261732 -33.7017 17.203 5.51196
9.95545 90000329400000923 90000329400000916 90000329400000952 90000329400000915 1.90408954353 -37.7651 6.63417 17.2242
9.97973 90000329400000916 90000329400000915 90000329400000952 90000329400000914 1.82268925262 -34.1774 0.363095 22.5323
10.018 90000329400000915 90000329400000913 90000329400000952 90000329400000912 1.66666955611 -34.5335 -2.38171 23.9107
10.0635 90000329400000913 90000329400000912 90000329400000952 90000329400000911 1.60423452207 -21.8372 -35.4451 46.2251
10.0752 90000329400000912 90000329400000907 90000329400000952 90000329400000906 1.30237845991 -30.6651 -17.3152 29.623
10.0898 90000329400000907 90000329400000906 90000329400000952 90000329400000905 1.24847261425 -41.5494 2.67991 12.1329
10.1034 90000329400000906 90000329400000905 90000329400000952 90000329400000904 1.20625808078 -39.1178 6.39039 11.8131
10.1233 90000329400000905 90000329400000904 90000329400000952 90000329400000903 1.15460271236 -45.1641 7.40973 9.29308
10.1411 90000329400000904 90000329400000902 90000329400000952 90000329400000901 1.07445789455 -41.4249 11.9294 12.8172
10.1511 90000329400000902 90000329400000900 90000329400000952 90000329400000899 0.997294225782 -39.5518 10.4658 18.4002
10.1523 90000329400000900 90000329400000899 90000329400000952 90000329400000898 0.987852810816 -44.6073 4.20625 13.374
