logMh | fpID | subhaloID | main leaf ID | descID |  z
9.0098 90000164700000095 90000164700000094 90000164700000106 90000164700000093 7.00541704554 -4.2586 2.74411 -5.22229
9.10415 90000164700000094 90000164700000093 90000164700000106 90000164700000092 6.85511726265 -5.72401 -0.54935 -3.70094
9.36199 90000164700000093 90000164700000092 90000164700000106 90000164700000091 6.49159774567 -11.0822 -4.7646 -7.38621
9.40001 90000164700000092 90000164700000091 90000164700000106 90000164700000090 6.14490120342 -9.23366 -4.925 -8.77702
9.41659 90000164700000091 90000164700000090 90000164700000106 90000164700000089 6.01075739884 -6.2107 -5.1865 -5.46261
9.46397 90000164700000090 90000164700000088 90000164700000106 90000164700000087 5.52976580795 -10.7368 0.102708 -5.29094
9.53713 90000164700000088 90000164700000087 90000164700000106 90000164700000086 5.22758097313 -6.89162 -1.10226 -4.12158
9.61742 90000164700000087 90000164700000086 90000164700000106 90000164700000085 4.99593346816 -14.5745 -4.21772 -8.59838
9.61742 90000164700000086 90000164700000085 90000164700000106 90000164700000084 4.93938066349 -12.9069 -6.28179 -6.71806
9.67214 90000164700000085 90000164700000084 90000164700000106 90000164700000083 4.66451770247 -16.4089 -8.51512 -9.91932
9.7226 90000164700000084 90000164700000083 90000164700000106 90000164700000082 4.42803373661 -26.0351 -17.4161 -12.2471
9.74018 90000164700000083 90000164700000082 90000164700000106 90000164700000081 4.17683491473 -26.7605 -15.7266 -14.6184
9.93469 90000164700000082 90000164700000081 90000164700000106 90000164700000080 4.00794511147 -12.7891 58.8192 -65.6186
10.0072 90000164700000081 90000164700000079 90000164700000106 90000164700000078 3.70877426464 -38.1816 -1.52985 -23.7466
10.1264 90000164700000079 90000164700000078 90000164700000106 90000164700000077 3.49086136926 -27.8516 24.1328 -17.5151
10.364 90000164700000078 90000164700000075 90000164700000106 90000164700000074 3.00813107163 -56.0752 44.0266 6.8027
10.4004 90000164700000075 90000164700000074 90000164700000106 90000164700000073 2.89578500573 -69.1345 11.6546 16.0526
10.4441 90000164700000074 90000164700000073 90000164700000106 90000164700000072 2.73314261732 -52.2541 -2.61157 43.3762
10.5189 90000164700000073 90000164700000072 90000164700000106 90000164700000071 2.5772902716 -53.9809 -1.29314 65.4225
10.5613 90000164700000072 90000164700000071 90000164700000106 90000164700000070 2.44422570455 -62.973 -9.43482 68.5534
10.5763 90000164700000071 90000164700000070 90000164700000106 90000164700000069 2.31611074396 -95.3344 -37.9132 104.136
10.5764 90000164700000070 90000164700000069 90000164700000106 90000164700000068 2.20792547238 -85.4267 -16.7498 88.2229
10.6002 90000164700000069 90000164700000068 90000164700000106 90000164700000067 2.1032696526 -74.8126 -28.9278 103.733
10.6038 90000164700000068 90000164700000062 90000164700000106 90000164700000061 1.60423452207 -68.7438 -54.2221 85.1217
10.616 90000164700000062 90000164700000061 90000164700000106 90000164700000060 1.53123902916 -63.2166 -65.1708 99.8158
10.6301 90000164700000061 90000164700000060 90000164700000106 90000164700000059 1.47197484527 -84.7018 -64.477 96.5542
10.6431 90000164700000060 90000164700000059 90000164700000106 90000164700000058 1.41409822037 -72.9568 -68.1145 104.76
10.6508 90000164700000059 90000164700000057 90000164700000106 90000164700000056 1.30237845991 -51.2267 -70.1487 96.6072
10.6918 90000164700000057 90000164700000056 90000164700000106 90000164700000055 1.24847261425 -53.463 -87.1705 107.962
10.7432 90000164700000056 90000164700000055 90000164700000106 90000164700000054 1.20625808078 23.8067 -75.3503 82.4741
10.7907 90000164700000055 90000164700000054 90000164700000106 90000164700000053 1.15460271236 62.666 -106.634 51.0735
10.8297 90000164700000054 90000164700000053 90000164700000106 90000164700000052 1.11415056377 36.8466 -127.193 73.6356
10.8833 90000164700000053 90000164700000052 90000164700000106 90000164700000051 1.07445789455 44.1274 -178.051 74.6621
10.9145 90000164700000052 90000164700000051 90000164700000106 90000164700000050 1.03551044566 58.4264 -159.354 65.5401
10.9744 90000164700000051 90000164700000050 90000164700000106 90000164700000049 0.997294225782 62.355 -184.217 60.6724
11.0026 90000164700000050 90000164700000048 90000164700000106 90000164700000047 0.950531351585 87.2517 -192.949 42.0246
11.0446 90000164700000048 90000164700000047 90000164700000106 90000164700000046 0.923000816178 85.1549 -211.775 52.6532
11.0859 90000164700000047 90000164700000046 90000164700000106 90000164700000045 0.886896937575 67.3162 -182.997 50.8729
11.11 90000164700000046 90000164700000045 90000164700000106 90000164700000044 0.851470900625 109.149 -175.028 41.671
11.1515 90000164700000045 90000164700000044 90000164700000106 90000164700000043 0.816709979012 191.561 -154.12 17.8048
11.1885 90000164700000044 90000164700000043 90000164700000106 90000164700000042 0.791068248946 274.773 -141.923 -1.06221
11.2238 90000164700000043 90000164700000042 90000164700000106 90000164700000041 0.757441372616 287.668 -140.366 -5.51265
11.229 90000164700000042 90000164700000040 90000164700000106 90000164700000039 0.700106353719 280.904 -149.439 1.77734
11.2338 90000164700000040 90000164700000039 90000164700000106 90000164700000038 0.676110411213 280.547 -147.428 3.05781
11.2478 90000164700000039 90000164700000038 90000164700000106 90000164700000037 0.644641840685 310.741 -150.943 -2.37297
11.2572 90000164700000038 90000164700000037 90000164700000106 90000164700000036 0.621428745243 333.189 -191.005 -8.70448
11.2708 90000164700000037 90000164700000036 90000164700000106 90000164700000035 0.598543288188 343.855 -212.566 -16.6548
11.2728 90000164700000036 90000164700000035 90000164700000106 90000164700000034 0.575980845108 358.796 -229.401 -23.0919
11.2761 90000164700000035 90000164700000001 90000164700000106 90000164700000000 0.00952166696794 285.694 -199.272 28.5979
11.2782 90000164700000001 90000164700000000 90000164700000106 -1 2.22044604925e-16 283.081 -198.313 18.6255
9.12912 90000164700000138 90000164700000137 90000164700000150 90000164700000136 4.42803373661 -22.6144 -1.83627 -9.33548
9.18589 90000164700000137 90000164700000136 90000164700000150 90000164700000135 4.17683491473 -13.9958 -5.415 -13.3931
9.40131 90000164700000136 90000164700000135 90000164700000150 90000164700000134 4.00794511147 -29.0591 28.8916 -30.5248
10.162 90000164700000135 90000164700000131 90000164700000150 90000164700000130 3.28303305796 -43.8671 50.6471 -37.8278
10.2601 90000164700000131 90000164700000130 90000164700000150 90000164700000075 3.08482263583 -53.6655 38.7249 -18.2503
9.03763 90000164700000210 90000164700000209 90000164700000218 90000164700000208 5.52976580795 -4.0822 -4.46049 -0.62095
9.04653 90000164700000209 90000164700000208 90000164700000218 90000164700000207 5.22758097313 -3.62369 -4.09539 -0.213748
9.09637 90000164700000208 90000164700000207 90000164700000218 90000164700000206 4.99593346816 -3.51637 -6.12682 -2.37483
9.09637 90000164700000207 90000164700000206 90000164700000218 90000164700000205 4.93938066349 -3.16916 -6.95453 -0.560924
9.1573 90000164700000206 90000164700000205 90000164700000218 90000164700000204 4.66451770247 -16.8553 1.72979 -5.20398
9.19848 90000164700000205 90000164700000204 90000164700000218 90000164700000203 4.42803373661 -15.2668 -1.09536 -7.88809
9.2026 90000164700000204 90000164700000203 90000164700000218 90000164700000202 4.17683491473 -10.124 1.48188 -7.37762
9.15956 90000164700000266 90000164700000265 90000164700000275 90000164700000264 5.22758097313 -15.9142 -5.24156 -13.0643
9.19641 90000164700000265 90000164700000263 90000164700000275 90000164700000262 4.93938066349 -9.37075 -9.55076 -5.70528
9.25648 90000164700000263 90000164700000262 90000164700000275 90000164700000261 4.66451770247 -14.9179 -8.95999 -1.58418
9.29124 90000164700000262 90000164700000261 90000164700000275 90000164700000260 4.42803373661 -21.7487 -3.26357 -1.86835
9.01928 90000164700000297 90000164700000296 90000164700000306 90000164700000295 4.00794511147 1.33307 2.78029 -3.58954
9.05811 90000164700000296 90000164700000295 90000164700000306 90000164700000294 3.93726108473 -0.321222 2.6021 -3.78792
9.06096 90000164700000295 90000164700000294 90000164700000306 90000164700000293 3.70877426464 0.883842 0.302547 -3.33309
9.2342 90000164700000294 90000164700000293 90000164700000306 90000164700000292 3.49086136926 -15.4209 -12.0735 8.82831
9.01614 90000164700000348 90000164700000347 90000164700000354 90000164700000346 6.01075739884 1.2556 2.54012 -1.81377
9.05811 90000164700000347 90000164700000345 90000164700000354 90000164700000344 5.52976580795 -3.40306 0.0679197 -1.43136
9.20055 90000164700000345 90000164700000344 90000164700000354 90000164700000343 5.22758097313 8.39736 -10.5372 18.2085
9.26365 90000164700000344 90000164700000343 90000164700000354 90000164700000342 4.99593346816 10.2385 -15.8557 30.5624
9.37595 90000164700000343 90000164700000342 90000164700000354 90000164700000341 4.93938066349 2.08778 -21.9531 42.1332
9.52267 90000164700000342 90000164700000339 90000164700000354 90000164700000338 4.17683491473 -3.28602 -22.8957 27.8364
9.54185 90000164700000339 90000164700000337 90000164700000354 90000164700000336 3.93726108473 -1.81205 -19.9214 24.6631
9.55113 90000164700000337 90000164700000336 90000164700000354 90000164700000335 3.70877426464 -0.214245 -20.2718 26.1545
9.01298 90000164700000392 90000164700000391 90000164700000398 90000164700000390 3.93726108473 7.99023 3.74045 -12.8408
9.1663 90000164700000391 90000164700000390 90000164700000398 90000164700000389 3.70877426464 7.75098 -5.09724 11.8187
9.19013 90000164700000390 90000164700000389 90000164700000398 90000164700000388 3.49086136926 11.0399 -6.50104 12.7504
9.25101 90000164700000389 90000164700000387 90000164700000398 90000164700000386 3.08482263583 5.72913 -4.33589 11.8231
9.2672 90000164700000387 90000164700000386 90000164700000398 90000164700000385 3.00813107163 4.04262 -3.27733 4.02451
9.01298 90000164700000435 90000164700000434 90000164700000452 90000164700000433 4.17683491473 -1.48059 -5.34429 -2.07309
9.02239 90000164700000434 90000164700000432 90000164700000452 90000164700000431 3.93726108473 -4.21233 -5.33121 -0.662302
9.04358 90000164700000432 90000164700000431 90000164700000452 90000164700000430 3.70877426464 -5.7511 -3.79305 -2.31501
9.10415 90000164700000431 90000164700000430 90000164700000452 90000164700000429 3.49086136926 -1.69769 -4.1326 -1.76442
9.10415 90000164700000430 90000164700000427 90000164700000452 90000164700000426 3.00813107163 -2.58634 -6.70398 0.451698
9.11179 90000164700000427 90000164700000423 90000164700000452 90000164700000422 2.44422570455 -3.33782 -6.73558 -2.40494
9.19848 90000164700000484 90000164700000483 90000164700000508 90000164700000482 2.73314261732 19.3463 -2.29344 4.31163
9.28788 90000164700000483 90000164700000482 90000164700000508 90000164700000481 2.5772902716 28.8698 -1.84282 20.6414
9.35627 90000164700000482 90000164700000481 90000164700000508 90000164700000480 2.44422570455 18.8621 0.831099 19.6005
9.0316 90000164700000635 90000164700000634 90000164700000648 90000164700000633 4.17683491473 2.43933 3.83428 -2.88351
9.09375 90000164700000634 90000164700000633 90000164700000648 90000164700000632 4.00794511147 2.04744 4.51457 -6.70682
9.14811 90000164700000633 90000164700000631 90000164700000648 90000164700000630 3.70877426464 0.728849 6.8064 -5.18924
9.15273 90000164700000631 90000164700000630 90000164700000648 90000164700000629 3.49086136926 10.3338 -0.691053 0.411556
9.3156 90000164700000750 90000164700000749 90000164700000767 90000164700000748 5.22758097313 -8.21241 -9.14871 7.85349
9.36056 90000164700000749 90000164700000748 90000164700000767 90000164700000747 4.99593346816 -7.9891 -9.27863 9.43709
9.90767 90000164700000748 90000164700000745 90000164700000767 90000164700000744 4.42803373661 -34.7383 32.9931 -0.0048313
9.99946 90000164700000745 90000164700000744 90000164700000767 90000164700000743 4.17683491473 -19.4266 6.96318 16.7368
10.1131 90000164700000744 90000164700000743 90000164700000767 90000164700000742 4.00794511147 7.42015 -11.7181 7.98581
10.1411 90000164700000743 90000164700000742 90000164700000767 90000164700000741 3.93726108473 -9.30096 8.35306 10.1967
10.2257 90000164700000742 90000164700000741 90000164700000767 90000164700000740 3.49086136926 -40.186 19.7582 21.4833
10.2567 90000164700000741 90000164700000740 90000164700000767 90000164700000739 3.28303305796 -5.33775 2.77763 11.37
10.2975 90000164700000740 90000164700000739 90000164700000767 90000164700000738 3.08482263583 -25.8753 13.8785 20.4337
10.3126 90000164700000739 90000164700000738 90000164700000767 90000164700000737 3.00813107163 -23.4197 11.32 16.5987
10.315 90000164700000738 90000164700000733 90000164700000767 90000164700000732 2.31611074396 -21.4848 3.84338 4.78508
10.3576 90000164700000733 90000164700000732 90000164700000767 90000164700000731 2.20792547238 -16.5038 2.20864 7.5368
10.3937 90000164700000732 90000164700000731 90000164700000767 90000164700000730 2.1032696526 -13.1126 5.31721 14.7243
10.4213 90000164700000731 90000164700000730 90000164700000767 90000164700000729 2.00202813925 -19.1448 4.83238 29.5853
10.4486 90000164700000730 90000164700000728 90000164700000767 90000164700000727 1.82268925262 -18.1262 -7.39043 31.0289
10.466 90000164700000728 90000164700000727 90000164700000767 90000164700000726 1.74357057433 -21.9331 -4.49264 36.2301
10.4773 90000164700000727 90000164700000726 90000164700000767 90000164700000725 1.66666955611 -25.993 -7.84549 36.132
10.4838 90000164700000726 90000164700000725 90000164700000767 90000164700000724 1.60423452207 -9.23592 -7.17775 30.379
10.4863 90000164700000725 90000164700000724 90000164700000767 90000164700000723 1.53123902916 -15.4822 0.268977 31.6054
10.5097 90000164700000724 90000164700000723 90000164700000767 90000164700000722 1.47197484527 -22.5913 -9.15809 34.2861
10.5166 90000164700000723 90000164700000722 90000164700000767 90000164700000721 1.41409822037 -18.274 -0.841483 31.8447
10.5379 90000164700000722 90000164700000720 90000164700000767 90000164700000719 1.30237845991 -36.6668 -6.83923 32.6352
10.5436 90000164700000720 90000164700000718 90000164700000767 90000164700000717 1.20625808078 -45.5722 -20.6764 37.9518
9.09637 90000164700000769 90000164700000768 90000164700000777 90000164700000749 5.52976580795 -6.98054 -9.37974 7.73535
9.0098 90000164700000800 90000164700000799 90000164700000805 90000164700000798 7.00541704554 -8.42095 3.17685 -1.81694
9.04062 90000164700000799 90000164700000798 90000164700000805 90000164700000797 6.85511726265 -8.01794 3.63835 -2.05154
9.12178 90000164700000798 90000164700000797 90000164700000805 90000164700000796 6.49159774567 -9.51452 -0.246488 -3.15525
9.2026 90000164700000797 90000164700000796 90000164700000805 90000164700000795 6.14490120342 -7.55518 0.467404 1.4426
9.21869 90000164700000796 90000164700000794 90000164700000805 90000164700000793 5.84661374788 -9.91154 -2.33548 4.87145
9.39346 90000164700000794 90000164700000793 90000164700000805 90000164700000792 5.52976580795 -14.6214 1.32288 1.05513
9.48905 90000164700000793 90000164700000792 90000164700000805 90000164700000791 5.22758097313 -7.89521 5.49827 -0.939458
9.5207 90000164700000792 90000164700000791 90000164700000805 90000164700000790 4.99593346816 -7.39098 7.96597 -2.90014
9.54744 90000164700000791 90000164700000790 90000164700000805 90000164700000789 4.93938066349 -5.75041 9.88028 -1.1643
9.63969 90000164700000790 90000164700000789 90000164700000805 90000164700000788 4.66451770247 -8.57468 -6.61235 -1.76629
9.00337 90000164700000836 90000164700000835 90000164700000839 90000164700000834 6.85511726265 0.699617 -5.92729 1.02389
9.05235 90000164700000835 90000164700000834 90000164700000839 90000164700000833 6.49159774567 0.603427 -5.33106 1.15256
9.20055 90000164700000834 90000164700000833 90000164700000839 90000164700000832 6.14490120342 1.55255 3.45658 3.74879
9.26187 90000164700000833 90000164700000832 90000164700000839 90000164700000831 6.01075739884 5.24976 10.6006 0.725639
9.34165 90000164700000832 90000164700000831 90000164700000839 90000164700000830 5.84661374788 -13.6513 -0.284478 5.11634
9.40774 90000164700000831 90000164700000830 90000164700000839 90000164700000829 5.52976580795 -15.4462 4.35544 4.45453
9.43257 90000164700000830 90000164700000829 90000164700000839 90000164700000828 5.22758097313 -14.9238 2.58149 5.2783
9.46844 90000164700000829 90000164700000828 90000164700000839 90000164700000827 4.99593346816 -13.2869 -0.136273 7.32836
9.49431 90000164700000828 90000164700000827 90000164700000839 90000164700000826 4.93938066349 -18.8786 -11.8613 0.856588
9.02239 90000164700001037 90000164700001036 90000164700001041 90000164700001035 7.59510714987 -6.93294 2.14475 4.52076
9.16182 90000164700001036 90000164700001035 90000164700001041 90000164700001034 7.23627606617 6.40297 16.2679 7.55897
9.17946 90000164700001035 90000164700001034 90000164700001041 90000164700001033 7.00541704554 7.85086 16.7891 8.61731
9.26008 90000164700001034 90000164700001033 90000164700001041 90000164700001032 6.85511726265 -0.116301 3.90458 7.56536
9.26365 90000164700001033 90000164700001031 90000164700001041 90000164700001030 6.14490120342 -2.23892 3.93564 6.99984
9.27766 90000164700001031 90000164700001030 90000164700001041 90000164700001029 6.01075739884 -1.87221 6.35769 7.837
9.29622 90000164700001030 90000164700001029 90000164700001041 90000164700001028 5.84661374788 -4.29334 2.92881 7.6925
9.34313 90000164700001029 90000164700001028 90000164700001041 90000164700001027 5.52976580795 -3.21475 -0.831988 7.08124
9.37869 90000164700001028 90000164700001027 90000164700001041 90000164700001026 5.22758097313 -5.62468 1.96401 2.90178
9.45605 90000164700001027 90000164700001026 90000164700001041 90000164700001025 4.99593346816 -7.60346 -4.16732 1.23588
9.45833 90000164700001026 90000164700001025 90000164700001041 90000164700001024 4.93938066349 -8.4714 0.152228 0.719697
9.50771 90000164700001025 90000164700001024 90000164700001041 90000164700001023 4.66451770247 -6.53033 -4.89819 0.971831
9.59725 90000164700001024 90000164700001023 90000164700001041 90000164700001022 4.42803373661 -7.91433 0.901061 -3.20905
9.69051 90000164700001023 90000164700001022 90000164700001041 90000164700001021 4.17683491473 -4.11171 1.22029 -8.47834
9.76275 90000164700001022 90000164700001021 90000164700001041 90000164700001020 4.00794511147 3.88957 2.69741 -7.85307
9.84147 90000164700001021 90000164700001020 90000164700001041 90000164700001019 3.93726108473 -12.2199 -9.94842 -14.0697
9.95689 90000164700001020 90000164700001018 90000164700001041 90000164700001017 3.49086136926 0.0742915 -15.2285 -9.47
10.1052 90000164700001018 90000164700001017 90000164700001041 90000164700001016 3.28303305796 -8.38451 10.7316 -51.6449
10.2711 90000164700001017 90000164700001013 90000164700001041 90000164700001012 2.73314261732 40.3501 12.0647 -1.71236
10.3708 90000164700001013 90000164700001011 90000164700001041 90000164700001010 2.44422570455 45.9259 9.29809 3.1417
10.4435 90000164700001011 90000164700001010 90000164700001041 90000164700001009 2.31611074396 34.1158 14.5811 19.9732
10.4636 90000164700001010 90000164700001009 90000164700001041 90000164700001008 2.20792547238 62.9277 31.4341 30.3517
10.5132 90000164700001009 90000164700001008 90000164700001041 90000164700001007 2.1032696526 91.9599 34.6468 46.9446
10.5199 90000164700001008 90000164700001006 90000164700001041 90000164700001005 1.90408954353 90.878 11.1315 40.6135
10.5394 90000164700001006 90000164700001005 90000164700001041 90000164700001004 1.82268925262 91.4923 6.51721 37.5719
10.5415 90000164700001005 90000164700001003 90000164700001041 90000164700001002 1.66666955611 60.744 -16.6358 40.5364
9.08578 90000164700001081 90000164700001080 90000164700001087 90000164700001079 5.84661374788 -0.840897 2.33695 -3.95624
9.24918 90000164700001080 90000164700001079 90000164700001087 90000164700001078 5.52976580795 1.97683 4.81047 -0.593029
9.35338 90000164700001079 90000164700001078 90000164700001087 90000164700001077 5.22758097313 5.07359 -2.68744 -6.03883
9.43737 90000164700001078 90000164700001077 90000164700001087 90000164700001076 4.99593346816 1.40786 -1.17389 -10.3526
9.45833 90000164700001077 90000164700001076 90000164700001087 90000164700001075 4.93938066349 -0.20875 -0.876955 -8.91364
9.51074 90000164700001076 90000164700001075 90000164700001087 90000164700001074 4.66451770247 12.075 -7.04937 -9.16674
9.52169 90000164700001075 90000164700001073 90000164700001087 90000164700001072 4.17683491473 5.33324 2.11614 -11.7397
9.60866 90000164700001073 90000164700001071 90000164700001087 90000164700001070 3.93726108473 11.034 -28.5154 -25.6077
9.66088 90000164700001071 90000164700001070 90000164700001087 90000164700001069 3.70877426464 6.80229 -35.4606 -24.8427
9.96828 90000164700001070 90000164700001066 90000164700001087 90000164700001065 3.00813107163 0.387293 26.045 -48.2466
10.1138 90000164700001066 90000164700001065 90000164700001087 90000164700001064 2.89578500573 1.0671 18.406 -37.2513
10.2944 90000164700001065 90000164700001064 90000164700001087 90000164700001011 2.5772902716 42.583 3.66632 -0.533811
9.01928 90000164700001117 90000164700001116 90000164700001123 90000164700001115 6.01075739884 0.728655 0.920442 -11.9748
9.04653 90000164700001116 90000164700001115 90000164700001123 90000164700001114 5.84661374788 -0.75429 -2.67369 -11.9515
9.08309 90000164700001115 90000164700001114 90000164700001123 90000164700001113 5.52976580795 0.903275 -1.18239 -11.6511
9.10926 90000164700001114 90000164700001112 90000164700001123 90000164700001111 4.99593346816 5.69682 -0.129393 -12.0745
9.12912 90000164700001135 90000164700001134 90000164700001150 90000164700001133 4.42803373661 -4.07685 -5.34136 -3.91794
9.05524 90000164700001252 90000164700001251 90000164700001261 90000164700001250 4.17683491473 -3.36966 1.97192 -13.0361
9.07766 90000164700001251 90000164700001249 90000164700001261 90000164700001248 3.93726108473 -3.53964 0.956275 -11.6718
9.38277 90000164700001249 90000164700001247 90000164700001261 90000164700001246 3.49086136926 -9.66621 35.0515 -12.2302
9.55751 90000164700001247 90000164700001246 90000164700001261 90000164700001245 3.28303305796 -10.228 29.8852 -21.4768
9.59972 90000164700001246 90000164700001245 90000164700001261 90000164700001244 3.08482263583 -20.2467 32.1273 -45.008
9.64044 90000164700001245 90000164700001244 90000164700001261 90000164700001243 3.00813107163 -17.5601 27.4479 -43.0647
9.41784 90000164700001263 90000164700001262 90000164700001265 90000164700001247 3.70877426464 -7.9013 29.3367 -21.9737
9.04653 90000164700001313 90000164700001312 90000164700001317 90000164700001311 5.52976580795 -8.60545 6.25564 16.624
9.07492 90000164700001312 90000164700001311 90000164700001317 90000164700001310 5.22758097313 -8.57108 3.14672 11.1121
9.09637 90000164700001311 90000164700001310 90000164700001317 90000164700001309 4.99593346816 -10.6355 1.7738 12.392
9.13394 90000164700001310 90000164700001306 90000164700001317 90000164700001305 4.17683491473 -9.71067 1.31672 4.75146
9.15502 90000164700001306 90000164700001303 90000164700001317 90000164700001302 3.70877426464 -4.10344 -1.0596 3.92622
9.1663 90000164700001303 90000164700001301 90000164700001317 90000164700001300 3.28303305796 -4.58539 2.87446 -2.70119
9.15273 90000164700001409 90000164700001408 90000164700001417 90000164700001407 3.49086136926 1.06474 3.38494 -14.837
9.19433 90000164700001408 90000164700001407 90000164700001417 90000164700001406 3.28303305796 1.54307 4.84474 -15.7791
9.24548 90000164700001407 90000164700001406 90000164700001417 90000164700001405 3.08482263583 -2.85513 0.145147 -15.1595
9.26543 90000164700001406 90000164700001405 90000164700001417 90000164700001404 3.00813107163 -6.15253 2.20932 -14.138
9.36481 90000164700001405 90000164700001404 90000164700001417 90000164700001403 2.89578500573 0.0324992 -12.4025 -7.26379
9.50363 90000164700001404 90000164700001403 90000164700001417 90000164700001402 2.73314261732 21.1857 -34.9051 6.42463
9.62212 90000164700001403 90000164700001402 90000164700001417 90000164700001401 2.5772902716 49.749 -49.9157 11.3459
9.72074 90000164700001402 90000164700001400 90000164700001417 90000164700001399 2.31611074396 48.662 -55.8543 6.18006
9.63061 90000164700001433 90000164700001432 90000164700001451 90000164700001397 2.1032696526 25.9263 -28.8615 -13.0911
