logMh | fpID | subhaloID | main leaf ID | descID |  z
9.01298 80000145400000103 80000145400000102 80000145400000107 80000145400000101 9.99659046619 6.40306 -1.53543 0.620659
9.15042 80000145400000102 80000145400000101 80000145400000107 80000145400000100 9.84138043947 16.6456 0.274875 -1.76071
9.23229 80000145400000101 80000145400000100 80000145400000107 80000145400000099 9.38877127194 12.1566 3.18763 -3.52677
9.34016 80000145400000100 80000145400000099 80000145400000107 80000145400000098 9.00233985416 16.1418 -2.80895 -5.11647
9.48799 80000145400000099 80000145400000097 80000145400000107 80000145400000096 8.44947629437 6.5628 -0.674394 -3.32352
9.52948 80000145400000097 80000145400000096 80000145400000107 80000145400000095 8.01217294887 9.64496 -0.0242691 -2.56134
9.58298 80000145400000096 80000145400000095 80000145400000107 80000145400000094 7.59510714987 5.32016 3.26862 -4.97355
9.6329 80000145400000095 80000145400000094 80000145400000107 80000145400000093 7.23627606617 4.76523 4.89708 -3.36565
9.64932 80000145400000094 80000145400000093 80000145400000107 80000145400000092 7.00541704554 6.78563 5.88347 -3.99154
9.6925 80000145400000093 80000145400000092 80000145400000107 80000145400000091 6.85511726265 7.66403 8.99443 -2.07661
9.75421 80000145400000092 80000145400000091 80000145400000107 80000145400000090 6.49159774567 9.67714 17.9133 -7.20257
9.78528 80000145400000091 80000145400000090 80000145400000107 80000145400000089 6.14490120342 8.72336 18.216 -7.05213
9.82663 80000145400000090 80000145400000089 80000145400000107 80000145400000088 6.01075739884 11.6333 16.137 -9.05761
9.84847 80000145400000089 80000145400000088 80000145400000107 80000145400000087 5.84661374788 4.33747 17.6343 -5.12908
9.90767 80000145400000088 80000145400000087 80000145400000107 80000145400000086 5.52976580795 12.5889 16.8899 -8.03119
9.95689 80000145400000087 80000145400000086 80000145400000107 80000145400000085 5.22758097313 8.5833 17.5565 -5.87008
9.99187 80000145400000086 80000145400000085 80000145400000107 80000145400000084 4.99593346816 10.9885 18.879 -2.91943
10.0024 80000145400000085 80000145400000084 80000145400000107 80000145400000083 4.93938066349 14.6103 19.6883 -3.47675
10.0158 80000145400000084 80000145400000083 80000145400000107 80000145400000082 4.66451770247 14.7216 22.9988 -0.490784
10.0418 80000145400000083 80000145400000082 80000145400000107 80000145400000081 4.42803373661 13.0446 22.5097 -5.32993
10.0966 80000145400000082 80000145400000081 80000145400000107 80000145400000080 4.17683491473 10.849 16.6121 -8.196
10.1573 80000145400000081 80000145400000080 80000145400000107 80000145400000079 4.00794511147 19.3559 25.1358 1.61858
10.1908 80000145400000080 80000145400000079 80000145400000107 80000145400000078 3.93726108473 21.5274 36.2562 -1.03996
10.3078 80000145400000079 80000145400000078 80000145400000107 80000145400000077 3.70877426464 -12.1544 54.8323 44.6388
10.4036 80000145400000078 80000145400000077 80000145400000107 80000145400000076 3.49086136926 -4.93963 97.5101 69.9514
10.4524 80000145400000077 80000145400000076 80000145400000107 80000145400000075 3.28303305796 0.492656 69.9175 41.5042
10.5298 80000145400000076 80000145400000075 80000145400000107 80000145400000074 3.08482263583 -5.33297 54.9044 30.7819
10.5619 80000145400000075 80000145400000074 80000145400000107 80000145400000073 3.00813107163 -1.82936 55.5043 40.0568
10.6135 80000145400000074 80000145400000073 80000145400000107 80000145400000072 2.89578500573 -5.51205 56.6839 58.1882
10.6519 80000145400000073 80000145400000072 80000145400000107 80000145400000071 2.73314261732 -16.8389 26.4976 56.0298
10.6995 80000145400000072 80000145400000071 80000145400000107 80000145400000070 2.5772902716 7.05079 23.7973 48.939
10.7393 80000145400000071 80000145400000070 80000145400000107 80000145400000069 2.44422570455 23.831 -2.23828 70.5157
10.7613 80000145400000070 80000145400000069 80000145400000107 80000145400000068 2.31611074396 38.7418 7.70066 75.1028
10.7892 80000145400000069 80000145400000066 80000145400000107 80000145400000065 2.00202813925 37.8121 -21.056 45.7593
10.8177 80000145400000066 80000145400000065 80000145400000107 80000145400000064 1.90408954353 26.1819 -8.20798 54.341
10.8332 80000145400000065 80000145400000064 80000145400000107 80000145400000063 1.82268925262 12.7824 -36.9296 54.0062
10.8694 80000145400000064 80000145400000063 80000145400000107 80000145400000062 1.74357057433 41.0869 -71.092 22.9071
10.9008 80000145400000063 80000145400000062 80000145400000107 80000145400000061 1.66666955611 36.8283 -112.066 -3.49403
10.9491 80000145400000062 80000145400000061 80000145400000107 80000145400000060 1.60423452207 56.5087 -136.239 -36.9491
11.0454 80000145400000061 80000145400000060 80000145400000107 80000145400000059 1.53123902916 106.361 -195.588 -61.8028
11.1543 80000145400000060 80000145400000058 80000145400000107 80000145400000057 1.3575766674 135.855 -299.838 -58.2342
11.1832 80000145400000058 80000145400000056 80000145400000107 80000145400000055 1.24847261425 183.22 -345.144 -79.9226
11.2048 80000145400000056 80000145400000055 80000145400000107 80000145400000054 1.20625808078 189.743 -356.706 -87.4465
11.2312 80000145400000055 80000145400000054 80000145400000107 80000145400000053 1.15460271236 209.258 -338.595 -92.2066
11.2406 80000145400000054 80000145400000053 80000145400000107 80000145400000052 1.11415056377 226.709 -327.934 -107.933
11.2424 80000145400000053 80000145400000045 80000145400000107 80000145400000044 0.851470900625 298.346 -239.755 -133.177
11.2424 80000145400000045 80000145400000038 80000145400000107 80000145400000037 0.644641840685 235.178 -290.313 -69.9444
11.2506 80000145400000038 80000145400000037 80000145400000107 80000145400000036 0.621428745243 241.441 -261.437 -62.9879
11.258 80000145400000037 80000145400000036 80000145400000107 80000145400000035 0.598543288188 252.096 -279.658 -63.4533
11.264 80000145400000036 80000145400000035 80000145400000107 80000145400000034 0.575980845108 246.777 -277.061 -80.9024
11.2679 80000145400000035 80000145400000034 80000145400000107 80000145400000033 0.546392183141 273.578 -291.834 -79.8341
11.272 80000145400000034 80000145400000033 80000145400000107 80000145400000032 0.524565820434 277.085 -285.273 -83.8148
11.2796 80000145400000033 80000145400000032 80000145400000107 80000145400000031 0.503047523245 293.854 -295.393 -103.505
11.2822 80000145400000032 80000145400000031 80000145400000107 80000145400000030 0.481832943421 308.433 -299.615 -99.4059
11.2858 80000145400000031 80000145400000030 80000145400000107 80000145400000029 0.460917794181 329.259 -302.853 -87.5227
11.2925 80000145400000030 80000145400000029 80000145400000107 80000145400000028 0.440297849248 327.516 -315.608 -91.6882
11.2988 80000145400000029 80000145400000028 80000145400000107 80000145400000027 0.419968941997 361.028 -326.262 -94.4736
11.3028 80000145400000028 80000145400000027 80000145400000107 80000145400000026 0.399926964614 356.387 -325.178 -111.309
11.304 80000145400000027 80000145400000026 80000145400000107 80000145400000025 0.38016786726 343.796 -302.419 -99.1529
11.3123 80000145400000026 80000145400000025 80000145400000107 80000145400000024 0.360687657262 363.547 -301.975 -103.432
11.3189 80000145400000025 80000145400000023 80000145400000107 80000145400000022 0.328829724206 374.77 -299.669 -105.291
11.3237 80000145400000023 80000145400000022 80000145400000107 80000145400000021 0.310074120128 382.254 -308.831 -106.811
11.3285 80000145400000022 80000145400000021 80000145400000107 80000145400000020 0.291583239722 404.181 -312.652 -106.68
11.3358 80000145400000021 80000145400000020 80000145400000107 80000145400000019 0.273353346578 435.767 -292.814 -105.203
11.3401 80000145400000020 80000145400000019 80000145400000107 80000145400000018 0.261343256161 426.519 -298.194 -120.098
11.3462 80000145400000019 80000145400000018 80000145400000107 80000145400000017 0.243540181555 447.78 -293.229 -104.753
11.35 80000145400000018 80000145400000017 80000145400000107 80000145400000016 0.22598838626 443.507 -286.188 -112.785
11.3527 80000145400000017 80000145400000016 80000145400000107 80000145400000015 0.214425035514 442.736 -291.252 -113.91
11.3589 80000145400000016 80000145400000015 80000145400000107 80000145400000014 0.197284182376 473.144 -291.237 -146.17
11.361 80000145400000015 80000145400000014 80000145400000107 80000145400000013 0.180385261706 469.999 -272.957 -115.593
11.3635 80000145400000014 80000145400000013 80000145400000107 80000145400000012 0.169252033244 482.188 -278.088 -110.57
11.3684 80000145400000013 80000145400000012 80000145400000107 80000145400000011 0.152748768902 486.882 -286.64 -104.216
11.371 80000145400000012 80000145400000011 80000145400000107 80000145400000010 0.14187620397 499.407 -297.718 -102.606
11.3714 80000145400000011 80000145400000009 80000145400000107 80000145400000008 0.109869940459 495.395 -286.753 -105.639
11.3731 80000145400000009 80000145400000007 80000145400000107 80000145400000006 0.0838844307975 476.527 -288.311 -100.354
11.3758 80000145400000007 80000145400000006 80000145400000107 80000145400000005 0.0736613846564 500.091 -292.713 -113.435
11.3816 80000145400000006 80000145400000004 80000145400000107 80000145400000003 0.0485236299818 519.475 -269.43 -98.232
11.3851 80000145400000004 80000145400000003 80000145400000107 80000145400000002 0.0337243718735 526.309 -264.922 -80.6165
11.3861 80000145400000003 80000145400000002 80000145400000107 80000145400000001 0.0239744283828 513.267 -287.147 -91.7557
11.3884 80000145400000002 80000145400000000 80000145400000107 -1 2.22044604925e-16 520.061 -280.933 -80.1148
9.00012 80000145400000172 80000145400000171 80000145400000180 80000145400000170 3.49086136926 9.45921 -2.76577 -6.53615
9.03763 80000145400000207 80000145400000206 80000145400000211 80000145400000205 4.42803373661 10.8435 -12.9268 -13.4734
9.16852 80000145400000206 80000145400000203 80000145400000211 80000145400000202 3.93726108473 0.879877 -6.46362 -13.5107
9.2742 80000145400000203 80000145400000201 80000145400000211 80000145400000200 3.49086136926 3.38425 -18.0316 1.84269
9.27766 80000145400000201 80000145400000200 80000145400000211 80000145400000199 3.28303305796 4.20499 -16.5452 -4.12766
9.01928 80000145400000267 80000145400000266 80000145400000276 80000145400000265 6.14490120342 -4.16368 3.14152 2.4466
9.05811 80000145400000266 80000145400000265 80000145400000276 80000145400000264 6.01075739884 -4.47364 3.71099 2.07115
9.09637 80000145400000265 80000145400000264 80000145400000276 80000145400000263 5.84661374788 -4.84245 3.87349 4.31659
9.10926 80000145400000264 80000145400000263 80000145400000276 80000145400000262 5.52976580795 -4.48282 3.29822 3.75656
9.17729 80000145400000263 80000145400000262 80000145400000276 80000145400000261 5.22758097313 -5.90158 3.99078 1.83774
9.19848 80000145400000262 80000145400000261 80000145400000276 80000145400000260 4.99593346816 -5.91582 4.25886 2.21655
9.37319 80000145400000261 80000145400000259 80000145400000276 80000145400000258 4.66451770247 -4.5826 3.49945 3.93776
9.42033 80000145400000259 80000145400000258 80000145400000276 80000145400000257 4.42803373661 -2.71607 1.47956 4.50602
9.04062 80000145400000353 80000145400000352 80000145400000366 80000145400000351 4.00794511147 10.4476 -5.52944 -1.08201
9.01928 80000145400000403 80000145400000402 80000145400000416 80000145400000401 4.42803373661 8.67974 -1.35976 1.1289
9.05524 80000145400000402 80000145400000400 80000145400000416 80000145400000399 4.00794511147 6.79866 -1.90164 -0.500345
9.07492 80000145400000400 80000145400000399 80000145400000416 80000145400000398 3.93726108473 7.8306 -0.103389 -0.842239
9.08578 80000145400000399 80000145400000397 80000145400000416 80000145400000396 3.49086136926 5.5377 -1.46827 0.130037
11.1016 80000145400000478 80000145400000477 80000145400000479 80000145400000476 1.47197484527 139.93 -262.96 -59.2617
11.1504 80000145400000477 80000145400000476 80000145400000479 80000145400000058 1.41409822037 165.8 -330.458 -56.5153
9.11431 80000145400000626 80000145400000625 80000145400000634 80000145400000624 5.22758097313 10.936 -0.780423 -9.68761
9.21671 80000145400000625 80000145400000624 80000145400000634 80000145400000623 4.99593346816 6.06428 -0.0962559 -10.4723
9.30278 80000145400000624 80000145400000623 80000145400000634 80000145400000622 4.93938066349 13.5058 -2.78437 -9.75482
9.32342 80000145400000623 80000145400000622 80000145400000634 80000145400000621 4.66451770247 10.3455 -1.10672 -10.2549
9.33866 80000145400000622 80000145400000621 80000145400000634 80000145400000620 4.42803373661 8.05428 0.274489 -9.07449
9.41408 80000145400000621 80000145400000620 80000145400000634 80000145400000619 4.17683491473 9.22028 -0.4928 -7.14084
9.44914 80000145400000620 80000145400000619 80000145400000634 80000145400000618 4.00794511147 4.95771 1.73648 -7.17062
9.44914 80000145400000619 80000145400000618 80000145400000634 80000145400000617 3.93726108473 1.13132 2.04496 -7.69085
9.46172 80000145400000618 80000145400000617 80000145400000634 80000145400000616 3.70877426464 -0.282449 3.20258 -7.31424
9.47286 80000145400000617 80000145400000615 80000145400000634 80000145400000614 3.28303305796 4.81784 2.04295 -8.09028
9.48479 80000145400000615 80000145400000613 80000145400000634 80000145400000612 3.00813107163 3.97546 -1.00256 -9.19013
9.51575 80000145400000613 80000145400000611 80000145400000634 80000145400000610 2.73314261732 4.53093 5.02607 -8.68868
9.57436 80000145400000611 80000145400000610 80000145400000634 80000145400000609 2.5772902716 5.12754 10.3213 2.83358
9.60381 80000145400000610 80000145400000609 80000145400000634 80000145400000608 2.44422570455 15.3911 18.4975 11.4395
9.62056 80000145400000609 80000145400000608 80000145400000634 80000145400000607 2.31611074396 10.7443 17.7792 26.0743
9.66866 80000145400000608 80000145400000607 80000145400000634 80000145400000606 2.20792547238 8.58959 14.8643 28.6726
9.01298 80000145400000679 80000145400000678 80000145400000691 80000145400000677 4.66451770247 -8.30635 -3.21062 1.07311
9.09637 80000145400000678 80000145400000677 80000145400000691 80000145400000676 4.42803373661 -4.36168 -5.68625 -0.022011
9.1193 80000145400000677 80000145400000676 80000145400000691 80000145400000675 4.17683491473 -8.0045 -6.07129 0.586402
9.13871 80000145400000676 80000145400000675 80000145400000691 80000145400000674 4.00794511147 -8.14437 -4.86677 1.7006
9.15273 80000145400000675 80000145400000674 80000145400000691 80000145400000673 3.93726108473 -8.43899 -5.72999 2.80415
9.19013 80000145400000674 80000145400000673 80000145400000691 80000145400000672 3.70877426464 -13.3289 -4.35136 -3.41093
9.19641 80000145400000673 80000145400000672 80000145400000691 80000145400000671 3.49086136926 -12.1247 -3.72775 -0.971469
9.20055 80000145400000672 80000145400000670 80000145400000691 80000145400000669 3.08482263583 -12.5243 -6.18647 -1.76293
9.07216 80000145400000792 80000145400000791 80000145400000805 80000145400000790 3.49086136926 16.4742 3.46433 -10.383
9.07492 80000145400000852 80000145400000851 80000145400000865 80000145400000850 6.49159774567 -12.7868 -0.680066 -2.19461
9.33866 80000145400000851 80000145400000850 80000145400000865 80000145400000849 6.14490120342 2.33253 10.3278 -4.8195
9.35194 80000145400000850 80000145400000849 80000145400000865 80000145400000848 6.01075739884 0.517565 9.65417 -7.03928
9.35338 80000145400000849 80000145400000848 80000145400000865 80000145400000847 5.84661374788 1.1463 12.5851 -7.33461
9.38005 80000145400000848 80000145400000847 80000145400000865 80000145400000846 5.52976580795 -0.649552 11.9527 -5.92004
9.50771 80000145400000847 80000145400000846 80000145400000865 80000145400000845 5.22758097313 -3.98005 8.52173 -12.1408
9.53044 80000145400000846 80000145400000845 80000145400000865 80000145400000844 4.99593346816 -7.63474 1.64142 -7.75155
9.54185 80000145400000845 80000145400000844 80000145400000865 80000145400000843 4.93938066349 -5.72161 1.09176 -12.7234
9.66017 80000145400000844 80000145400000843 80000145400000865 80000145400000842 4.66451770247 -5.90834 5.91309 -14.4699
9.83483 80000145400000843 80000145400000842 80000145400000865 80000145400000841 4.42803373661 -2.3835 6.15118 -25.3881
9.93772 80000145400000842 80000145400000841 80000145400000865 80000145400000840 4.17683491473 0.433198 -6.53764 -29.3586
9.99979 80000145400000841 80000145400000840 80000145400000865 80000145400000839 4.00794511147 17.4888 -46.5859 -8.8715
10.0264 80000145400000840 80000145400000839 80000145400000865 80000145400000838 3.93726108473 26.1038 -55.2133 -8.76077
10.0658 80000145400000839 80000145400000838 80000145400000865 80000145400000837 3.70877426464 20.2881 -40.8114 -13.4856
10.2139 80000145400000838 80000145400000837 80000145400000865 80000145400000836 3.49086136926 25.9688 -71.6134 -30.531
10.2672 80000145400000837 80000145400000836 80000145400000865 80000145400000835 3.28303305796 4.91645 -25.2226 -30.9047
10.379 80000145400000836 80000145400000835 80000145400000865 80000145400000834 3.08482263583 -15.6285 31.441 -66.5655
10.4211 80000145400000835 80000145400000834 80000145400000865 80000145400000833 3.00813107163 -34.952 49.7223 -46.583
10.4621 80000145400000834 80000145400000833 80000145400000865 80000145400000832 2.89578500573 -36.8372 52.0142 -65.9
10.5472 80000145400000833 80000145400000832 80000145400000865 80000145400000831 2.73314261732 -40.1297 54.3793 -60.4022
10.6002 80000145400000832 80000145400000831 80000145400000865 80000145400000830 2.5772902716 -45.0607 39.7723 -51.8887
10.6302 80000145400000831 80000145400000830 80000145400000865 80000145400000829 2.44422570455 -58.7183 39.1866 -50.9736
10.6445 80000145400000830 80000145400000829 80000145400000865 80000145400000828 2.31611074396 -59.9846 38.7283 -58.1592
9.10157 80000145400000956 80000145400000955 80000145400000965 80000145400000954 6.14490120342 8.91727 -14.9944 -9.80136
9.1193 80000145400000955 80000145400000954 80000145400000965 80000145400000953 6.01075739884 6.55888 -15.7538 -11.3473
9.15042 80000145400000954 80000145400000953 80000145400000965 80000145400000952 5.84661374788 8.53241 -28.2917 -25.7452
9.2742 80000145400000953 80000145400000949 80000145400000965 80000145400000948 4.93938066349 7.70359 -13.6062 -5.54596
9.0316 80000145400001030 80000145400001029 80000145400001035 80000145400001028 8.01217294887 -4.69462 -6.72326 -0.0590289
9.19433 80000145400001029 80000145400001028 80000145400001035 80000145400001027 7.59510714987 -6.6581 -1.47517 -3.96657
9.23229 80000145400001028 80000145400001027 80000145400001035 80000145400001026 7.23627606617 -6.50042 -5.02971 -1.5773
9.27766 80000145400001027 80000145400001026 80000145400001035 80000145400001025 7.00541704554 -7.58682 -3.56465 -3.08008
9.30763 80000145400001026 80000145400001025 80000145400001035 80000145400001024 6.85511726265 -4.61686 -0.168365 -0.195163
9.44564 80000145400001025 80000145400001024 80000145400001035 80000145400001023 6.49159774567 -11.3346 -7.24186 15.0888
9.46955 80000145400001024 80000145400001021 80000145400001035 80000145400001020 5.84661374788 -8.40985 -10.7315 13.1217
9.54185 80000145400001021 80000145400001020 80000145400001035 80000145400001019 5.52976580795 -7.20424 -11.07 3.81428
9.5761 80000145400001020 80000145400001019 80000145400001035 80000145400001018 5.22758097313 -4.11308 -12.3503 7.14502
9.70234 80000145400001019 80000145400001018 80000145400001035 80000145400001017 4.99593346816 -20.8551 -16.6809 10.7963
9.75306 80000145400001018 80000145400001016 80000145400001035 80000145400001015 4.66451770247 -31.9234 -8.10076 3.80675
9.75479 80000145400001016 80000145400001014 80000145400001035 80000145400001013 4.17683491473 -22.847 -7.40482 -1.97994
9.0316 80000145400001096 80000145400001095 80000145400001102 80000145400001094 7.59510714987 5.28433 -0.108927 -5.80618
9.13154 80000145400001095 80000145400001094 80000145400001102 80000145400001093 7.23627606617 2.50756 3.91358 -4.13104
9.17073 80000145400001094 80000145400001093 80000145400001102 80000145400001092 7.00541704554 2.06309 2.26599 -4.35115
9.17729 80000145400001093 80000145400001091 80000145400001102 80000145400001090 6.49159774567 0.298895 0.792419 -5.35322
9.21072 80000145400001091 80000145400001090 80000145400001102 80000145400001089 6.14490120342 0.563481 -0.0905053 -3.71946
9.25828 80000145400001090 80000145400001089 80000145400001102 80000145400001088 6.01075739884 0.155695 0.99627 -4.21896
9.32031 80000145400001089 80000145400001088 80000145400001102 80000145400001087 5.84661374788 1.45651 -0.272684 -8.6919
9.41282 80000145400001088 80000145400001087 80000145400001102 80000145400001086 5.52976580795 5.54595 -3.93436 -6.03731
9.45946 80000145400001087 80000145400001086 80000145400001102 80000145400001085 5.22758097313 8.82919 -7.28643 -5.3323
9.47396 80000145400001086 80000145400001085 80000145400001102 80000145400001084 4.99593346816 11.2817 -12.6191 -4.73815
9.47615 80000145400001085 80000145400001084 80000145400001102 80000145400001083 4.93938066349 14.25 -10.7125 -4.65675
9.54372 80000145400001084 80000145400001082 80000145400001102 80000145400001081 4.42803373661 13.6967 -11.5684 0.966295
9.55931 80000145400001082 80000145400001080 80000145400001102 80000145400001079 4.00794511147 15.9488 -6.50584 -2.92828
9.57262 80000145400001080 80000145400001078 80000145400001102 80000145400001077 3.70877426464 5.68726 -9.74726 -7.8284
9.04945 80000145400001211 80000145400001210 80000145400001214 80000145400001209 7.00541704554 3.27359 2.67211 -3.83918
9.11179 80000145400001210 80000145400001209 80000145400001214 80000145400001208 6.85511726265 2.52213 7.11457 -3.36897
9.18589 80000145400001209 80000145400001208 80000145400001214 80000145400001207 6.49159774567 3.91584 5.50125 -1.2177
9.25828 80000145400001208 80000145400001207 80000145400001214 80000145400001206 6.14490120342 -7.09227 4.18002 5.06091
9.37319 80000145400001207 80000145400001203 80000145400001214 80000145400001202 5.22758097313 -10.0274 1.27809 -0.0119076
9.38412 80000145400001203 80000145400001202 80000145400001214 80000145400001201 4.99593346816 -9.44533 1.4811 1.43256
9.40001 80000145400001202 80000145400001201 80000145400001214 80000145400001200 4.93938066349 -10.092 -0.108903 -0.7143
9.40389 80000145400001201 80000145400001200 80000145400001214 80000145400001199 4.66451770247 -9.40588 -1.89926 -1.62191
9.42157 80000145400001200 80000145400001199 80000145400001214 80000145400001198 4.42803373661 -7.19105 -5.0752 -4.84729
9.42893 80000145400001199 80000145400001198 80000145400001214 80000145400001197 4.17683491473 -5.97852 -8.43366 -0.44943
9.43497 80000145400001198 80000145400001195 80000145400001214 80000145400001194 3.70877426464 -3.82267 -5.50829 2.95987
9.4503 80000145400001195 80000145400001194 80000145400001214 80000145400001193 3.49086136926 -7.62006 -3.013 3.89285
9.4964 80000145400001194 80000145400001193 80000145400001214 80000145400001192 3.28303305796 -8.20612 -1.161 0.114606
9.0066 80000145400001238 80000145400001237 80000145400001254 80000145400001236 2.31611074396 -4.40841 -8.45402 -2.66019
9.05524 80000145400001237 80000145400001235 80000145400001254 80000145400001234 2.1032696526 -8.88873 -2.47068 4.58833
9.05811 80000145400001235 80000145400001233 80000145400001254 80000145400001232 1.90408954353 -3.85162 10.7859 7.67134
9.0098 80000145400001347 80000145400001346 80000145400001357 80000145400001345 4.00794511147 5.20631 6.04988 -0.812206
9.01298 80000145400001346 80000145400001345 80000145400001357 80000145400001344 3.93726108473 5.6507 5.8316 -0.30345
9.08309 80000145400001345 80000145400001344 80000145400001357 80000145400001343 3.70877426464 -0.946146 5.4906 7.66521
9.13871 80000145400001344 80000145400001343 80000145400001357 80000145400001342 3.49086136926 -1.72082 5.8654 2.57211
9.15273 80000145400001343 80000145400001341 80000145400001357 80000145400001340 3.08482263583 -0.385115 5.25614 -0.678344
9.15502 80000145400001341 80000145400001340 80000145400001357 80000145400001339 3.00813107163 0.208962 6.83448 -0.755993
9.16182 80000145400001340 80000145400001338 80000145400001357 80000145400001337 2.73314261732 -1.10482 -1.09264 -0.0402401
9.16407 80000145400001338 80000145400001337 80000145400001357 80000145400001336 2.5772902716 2.62422 -6.79099 2.66527
9.02855 80000145400001400 80000145400001399 80000145400001408 80000145400001398 5.22758097313 10.4847 -2.36801 -7.395
9.13394 80000145400001399 80000145400001398 80000145400001408 80000145400001397 4.99593346816 9.63393 6.73435 -8.62369
9.15042 80000145400001398 80000145400001397 80000145400001408 80000145400001396 4.93938066349 10.1014 5.43823 -5.65589
9.27594 80000145400001397 80000145400001393 80000145400001408 80000145400001392 4.00794511147 8.39449 29.0166 33.5566
9.29124 80000145400001393 80000145400001392 80000145400001408 80000145400001391 3.93726108473 8.35118 23.9483 31.9879
9.33566 80000145400001392 80000145400001391 80000145400001408 80000145400001390 3.70877426464 1.16921 17.4441 18.1865
9.33716 80000145400001391 80000145400001390 80000145400001408 80000145400001389 3.49086136926 2.44903 10.3911 21.4171
9.38277 80000145400001390 80000145400001388 80000145400001408 80000145400001387 3.08482263583 7.7419 8.93611 20.0292
9.40001 80000145400001388 80000145400001387 80000145400001408 80000145400001386 3.00813107163 6.65376 8.17584 26.6075
9.41534 80000145400001387 80000145400001386 80000145400001408 80000145400001385 2.89578500573 9.08299 7.00639 25.6344
9.42649 80000145400001386 80000145400001385 80000145400001408 80000145400001384 2.73314261732 10.9022 3.196 23.7985
9.43737 80000145400001385 80000145400001384 80000145400001408 80000145400001383 2.5772902716 11.6323 -1.81818 17.8167
9.45833 80000145400001384 80000145400001382 80000145400001408 80000145400001381 2.31611074396 11.8605 -0.593064 15.6365
9.47066 80000145400001382 80000145400001381 80000145400001408 80000145400001380 2.20792547238 9.84114 -1.74973 21.8698
9.00012 80000145400001499 80000145400001498 80000145400001507 80000145400001497 2.89578500573 -4.78935 -3.51635 -10.4931
9.32187 80000145400001498 80000145400001496 80000145400001507 80000145400001495 2.5772902716 -9.50786 11.5293 6.63229
